<?xml version="1.0" encoding="utf-8"?>
<COLLADA xmlns="http://www.collada.org/2005/11/COLLADASchema" version="1.4.1">
  <asset>
    <contributor>
      <author>Blender User</author>
      <authoring_tool>Blender 2.71.0 commit date:2014-06-25, commit time:18:36, hash:9337574</authoring_tool>
    </contributor>
    <created>2014-10-23T23:22:00</created>
    <modified>2014-10-23T23:22:00</modified>
    <unit name="meter" meter="1"/>
    <up_axis>Z_UP</up_axis>
  </asset>
  <library_cameras>
    <camera id="Camera-camera" name="Camera">
      <optics>
        <technique_common>
          <perspective>
            <xfov sid="xfov">49.13434</xfov>
            <aspect_ratio>1.777778</aspect_ratio>
            <znear sid="znear">0.1</znear>
            <zfar sid="zfar">100</zfar>
          </perspective>
        </technique_common>
      </optics>
      <extra>
        <technique profile="blender">
          <YF_dofdist>0</YF_dofdist>
          <shiftx>0</shiftx>
          <shifty>0</shifty>
        </technique>
      </extra>
    </camera>
  </library_cameras>
  <library_lights>
    <light id="Lamp-light" name="Lamp">
      <technique_common>
        <directional>
          <color sid="color">1 1 1</color>
        </directional>
      </technique_common>
      <extra>
        <technique profile="blender">
          <adapt_thresh>0.000999987</adapt_thresh>
          <area_shape>0</area_shape>
          <area_size>1</area_size>
          <area_sizey>1</area_sizey>
          <area_sizez>1</area_sizez>
          <atm_distance_factor>1</atm_distance_factor>
          <atm_extinction_factor>1</atm_extinction_factor>
          <atm_turbidity>2</atm_turbidity>
          <att1>0</att1>
          <att2>1</att2>
          <backscattered_light>1</backscattered_light>
          <bias>1</bias>
          <blue>1</blue>
          <buffers>1</buffers>
          <bufflag>0</bufflag>
          <bufsize>2880</bufsize>
          <buftype>2</buftype>
          <clipend>30.002</clipend>
          <clipsta>1.000799</clipsta>
          <compressthresh>0.04999995</compressthresh>
          <dist sid="blender_dist">29.99998</dist>
          <energy sid="blender_energy">1</energy>
          <falloff_type>2</falloff_type>
          <filtertype>0</filtertype>
          <flag>0</flag>
          <gamma sid="blender_gamma">1</gamma>
          <green>1</green>
          <halo_intensity sid="blnder_halo_intensity">1</halo_intensity>
          <horizon_brightness>1</horizon_brightness>
          <mode>8192</mode>
          <ray_samp>1</ray_samp>
          <ray_samp_method>1</ray_samp_method>
          <ray_samp_type>0</ray_samp_type>
          <ray_sampy>1</ray_sampy>
          <ray_sampz>1</ray_sampz>
          <red>1</red>
          <samp>3</samp>
          <shadhalostep>0</shadhalostep>
          <shadow_b sid="blender_shadow_b">0</shadow_b>
          <shadow_g sid="blender_shadow_g">0</shadow_g>
          <shadow_r sid="blender_shadow_r">0</shadow_r>
          <sky_colorspace>0</sky_colorspace>
          <sky_exposure>1</sky_exposure>
          <skyblendfac>1</skyblendfac>
          <skyblendtype>1</skyblendtype>
          <soft>3</soft>
          <spotblend>0.15</spotblend>
          <spotsize>75</spotsize>
          <spread>1</spread>
          <sun_brightness>1</sun_brightness>
          <sun_effect_type>0</sun_effect_type>
          <sun_intensity>1</sun_intensity>
          <sun_size>1</sun_size>
          <type>1</type>
        </technique>
      </extra>
    </light>
  </library_lights>
  <library_images>
    <image id="Wood_floor_2_png" name="Wood_floor_2_png">
      <init_from>Wood%20floor%202.png</init_from>
    </image>
  </library_images>
  <library_effects>
    <effect id="Wood-effect">
      <profile_COMMON>
        <newparam sid="Wood_floor_2_png-surface">
          <surface type="2D">
            <init_from>Wood_floor_2_png</init_from>
          </surface>
        </newparam>
        <newparam sid="Wood_floor_2_png-sampler">
          <sampler2D>
            <source>Wood_floor_2_png-surface</source>
          </sampler2D>
        </newparam>
        <technique sid="common">
          <phong>
            <emission>
              <color sid="emission">0 0 0 1</color>
            </emission>
            <ambient>
              <color sid="ambient">0 0 0 1</color>
            </ambient>
            <diffuse>
              <texture texture="Wood_floor_2_png-sampler"/>
            </diffuse>
            <specular>
              <color sid="specular">0.08 0.08 0.08 1</color>
            </specular>
            <shininess>
              <float sid="shininess">50</float>
            </shininess>
            <index_of_refraction>
              <float sid="index_of_refraction">1</float>
            </index_of_refraction>
          </phong>
          <extra>
            <technique profile="FCOLLADA">
              <bump>
                <texture texture="Wood_floor_2_png-sampler"/>
              </bump>
            </technique>
          </extra>
        </technique>
        <extra>
          <technique profile="GOOGLEEARTH">
            <double_sided>1</double_sided>
          </technique>
        </extra>
      </profile_COMMON>
      <extra><technique profile="MAX3D"><double_sided>1</double_sided></technique></extra>
    </effect>
  </library_effects>
  <library_materials>
    <material id="Wood-material" name="Wood">
      <instance_effect url="#Wood-effect"/>
    </material>
  </library_materials>
  <library_geometries>
    <geometry id="Cube_008-mesh" name="Cube.008">
      <mesh>
        <source id="Cube_008-mesh-positions">
          <float_array id="Cube_008-mesh-positions-array" count="264">-0.7634837 0.2101964 -0.2312816 -0.7634837 0.2101964 -0.2610543 0.7634837 0.2101964 -0.2610543 0.7634837 0.2101964 -0.2312816 -0.7634837 0.3488584 -0.2312816 -0.7634837 0.3488584 -0.2610543 0.7634837 0.3488584 -0.2610543 0.7634837 0.3488584 -0.2312816 -0.7634837 0.3821853 -0.2312816 -0.7634837 0.3821853 -0.2610543 0.7634837 0.3821853 -0.2610543 0.7634837 0.3821853 -0.2312816 -0.7634837 0.5208472 -0.2312816 -0.7634837 0.5208472 -0.2610543 0.7634837 0.5208472 -0.2610543 0.7634837 0.5208472 -0.2312816 -0.715385 -0.5566706 -0.2617112 -0.715385 -0.5566706 -0.3308992 -0.646197 -0.5566706 -0.3308992 -0.646197 -0.5566706 -0.2617112 -0.715385 0.5543752 -0.2617113 -0.715385 0.5543752 -0.3308993 -0.646197 0.5543752 -0.3308993 -0.646197 0.5543752 -0.2617113 -0.7104363 0.1399121 0.2613801 -0.7104363 0.1399121 -0.2613801 -0.6531794 0.1399121 -0.2613801 -0.6531794 0.1399121 0.2613801 -0.7104363 0.197169 0.2613801 -0.7104363 0.197169 -0.2613801 -0.6531794 0.197169 -0.2613801 -0.6531794 0.197169 0.2613801 -0.715385 -0.5566706 0.3302921 -0.715385 -0.5566706 0.2611041 -0.646197 -0.5566706 0.2611041 -0.646197 -0.5566706 0.3302921 -0.715385 0.2052449 0.3302921 -0.715385 0.2052449 0.2611041 -0.646197 0.2052449 0.2611041 -0.646197 0.2052449 0.3302921 -0.7104363 -0.07260185 0.2613801 -0.7104363 -0.07260191 -0.2613801 -0.6531794 -0.07260191 -0.2613801 -0.6531794 -0.07260185 0.2613801 -0.7104363 -0.01534491 0.2613801 -0.7104363 -0.01534497 -0.2613801 -0.6531794 -0.01534497 -0.2613801 -0.6531794 -0.01534491 0.2613801 0.6622878 -0.5566706 -0.2617112 0.6622878 -0.5566706 -0.3308992 0.7314758 -0.5566706 -0.3308992 0.7314758 -0.5566706 -0.2617112 0.6622878 0.5543752 -0.2617113 0.6622878 0.5543752 -0.3308993 0.7314758 0.5543752 -0.3308993 0.7314758 0.5543752 -0.2617113 0.6672365 0.1399121 0.2613801 0.6672365 0.1399121 -0.2613801 0.7244935 0.1399121 -0.2613801 0.7244935 0.1399121 0.2613801 0.6672365 0.197169 0.2613801 0.6672365 0.197169 -0.2613801 0.7244935 0.197169 -0.2613801 0.7244935 0.197169 0.2613801 0.6622878 -0.5566706 0.3302921 0.6622878 -0.5566706 0.2611041 0.7314758 -0.5566706 0.2611041 0.7314758 -0.5566706 0.3302921 0.6622878 0.2052449 0.3302921 0.6622878 0.2052449 0.2611041 0.7314758 0.2052449 0.2611041 0.7314758 0.2052449 0.3302921 0.6672365 -0.07260185 0.2613801 0.6672365 -0.07260191 -0.2613801 0.7244935 -0.07260191 -0.2613801 0.7244935 -0.07260185 0.2613801 0.6672365 -0.01534491 0.2613801 0.6672365 -0.01534497 -0.2613801 0.7244935 -0.01534497 -0.2613801 0.7244935 -0.01534491 0.2613801 0.7499997 -0.01499998 -0.2499998 0.7499997 -0.01499992 0.2499998 -0.7499997 -0.01499992 0.2499998 -0.7499994 -0.01499998 -0.25 0.75 0.01499992 -0.2499997 0.7499992 0.01499998 0.25 -0.7499999 0.01499998 0.2499998 -0.7499996 0.01499992 -0.2499998</float_array>
          <technique_common>
            <accessor source="#Cube_008-mesh-positions-array" count="88" stride="3">
              <param name="X" type="float"/>
              <param name="Y" type="float"/>
              <param name="Z" type="float"/>
            </accessor>
          </technique_common>
        </source>
        <source id="Cube_008-mesh-normals">
          <float_array id="Cube_008-mesh-normals-array" count="348">-1 0 0 0 -2.14928e-7 -1 1 0 0 0 0 1 0 -1 0 0 1 0 -1 0 0 0 0 -1 1 0 0 0 0 1 0 -1 0 0 1 0 -1 0 0 0 0 -1 1 0 0 0 0 1 0 -1 0 0 1 0 -1 0 0 1 0 0 0 -1 0 0 1 0 -1 0 0 0 0 -1 1 0 0 0 0 1 0 -1 0 0 1 0 -1 0 0 1 0 0 0 -1 0 0 1 0 -1 0 0 0 0 -1 1 0 0 0 0 1 0 -1 0 0 1 0 -1 0 0 1 0 0 0 -1 0 0 1 0 -1 0 0 0 0 -1 1 0 0 0 0 1 0 -1 0 0 1 0 -1 0 0 1 0 0 0 -1 0 0 1 0 0 -1 0 0 1 0 1 1.58946e-5 1.66893e-6 -1.58946e-7 9.93411e-7 1 -1 -5.96047e-6 -5.96047e-7 0 2.98024e-6 -1 -1 0 0 0 -2.14928e-7 -1 1 0 0 0 0 1 0 -1 0 0 1 0 -1 0 0 0 0 -1 1 0 0 0 0 1 0 -1 0 0 1 0 -1 0 0 0 0 -1 1 0 0 0 0 1 0 -1 0 0 1 0 -1 0 0 1 0 0 0 -1 0 0 1 0 -1 0 0 0 0 -1 1 0 0 0 0 1 0 -1 0 0 1 0 -1 0 0 1 0 0 0 -1 0 0 1 0 -1 0 0 0 0 -1 1 0 0 0 0 1 0 -1 0 0 1 0 -1 0 0 1 0 0 0 -1 0 0 1 0 -1 0 0 0 0 -1 1 0 0 0 0 1 0 -1 0 0 1 0 -1 0 0 1 0 0 0 -1 0 0 1 0 0 -1 0 0 1 0 1 -1.19209e-5 0 0 -4.96706e-6 1 -1 -5.96047e-6 -5.96046e-7 0 3.97365e-6 -1</float_array>
          <technique_common>
            <accessor source="#Cube_008-mesh-normals-array" count="116" stride="3">
              <param name="X" type="float"/>
              <param name="Y" type="float"/>
              <param name="Z" type="float"/>
            </accessor>
          </technique_common>
        </source>
        <source id="Cube_008-mesh-map-0">
          <float_array id="Cube_008-mesh-map-0-array" count="696">0.04009371 0.2633939 0.04014986 0.2816667 -0.04495334 0.2819278 0.8924216 0.5396007 -0.04474824 0.5424757 -0.04500937 0.4573726 0.2104682 0.2816668 0.1253651 0.2819278 0.125309 0.263655 0.9127668 0.668269 -0.02440321 0.671144 -0.02466428 0.5860409 0.8922165 0.2848029 0.8921603 0.3030757 -0.04500931 0.3002007 -0.04500931 0.3636443 -0.04495328 0.3453714 0.8922165 0.3482465 0.125253 0.2633938 0.125309 0.2816667 0.04020589 0.2819278 0.9636291 0.6596084 0.02645915 0.6624834 0.02619826 0.5773802 0.2955714 0.2633939 0.2956274 0.2816668 0.2105243 0.2819278 0.8924215 0.4312775 -0.04474836 0.4341525 -0.04500931 0.3490493 0.8922165 0.3270987 0.8921603 0.3453715 -0.04500931 0.3424964 -0.04500931 0.3213486 -0.04495328 0.3030757 0.8922165 0.3059508 1.082216 0.6942638 1.082431 0.7642559 -0.04152595 0.7677038 1.092603 0.8067559 1.092388 0.8767479 -0.03156828 0.8732997 1.092388 0.6869452 1.092603 0.7569372 -0.03135341 0.7603851 -0.03135365 0.9807056 -0.03156828 0.9107136 1.092388 0.9072655 0.5725228 0.2433369 0.5727375 0.313329 0.5027456 0.3135436 0.6380728 0.3379741 0.637858 0.2679821 0.7078501 0.2677674 0.02964448 0.3068413 0.0294668 0.2489189 0.5583021 0.2472965 1.026457 0.3958964 0.4976222 0.3975187 0.4974445 0.3395964 0.4974445 0.3958963 -0.03139054 0.3975187 -0.03156828 0.3395963 -0.03156822 0.1609621 0.4972669 0.1593397 0.4974446 0.217262 0.7392012 0.4698752 0.7394159 0.5398673 -0.03135341 0.5422318 0.7292433 0.5852865 0.7290286 0.6552786 -0.04174077 0.6529138 0.7290285 0.4738126 0.7292432 0.5438047 -0.04152607 0.5461691 0.009336531 0.646255 0.009121775 0.576263 0.7798912 0.5738984 0.4976593 0.2677673 0.5676513 0.267982 0.5674366 0.337974 0.5676513 0.267982 0.6376433 0.2677674 0.637858 0.3377594 -0.03139054 0.09979492 -0.03156822 0.04187262 0.497267 0.04025024 0.6500325 0.1861295 0.1211974 0.1877518 0.1210196 0.1298295 0.4974445 0.3363515 -0.03139054 0.3379739 -0.03156822 0.2800516 -0.03156828 0.2205068 0.4972669 0.2188844 0.4974446 0.2768067 1.082216 0.6942638 1.082431 0.7642559 -0.04152595 0.7677038 1.092603 0.8067559 1.092388 0.8767479 -0.03156828 0.8732997 1.092388 0.6869452 1.092603 0.7569372 -0.03135341 0.7603851 -0.03135365 0.9807056 -0.03156828 0.9107136 1.092388 0.9072655 0.5725228 0.2433369 0.5727375 0.313329 0.5027456 0.3135436 0.6380728 0.3379741 0.637858 0.2679821 0.7078501 0.2677674 0.02964448 0.3068413 0.0294668 0.2489189 0.5583021 0.2472965 1.026457 0.3958964 0.4976222 0.3975187 0.4974445 0.3395964 0.4974445 0.3958963 -0.03139054 0.3975187 -0.03156828 0.3395963 -0.03156822 0.1609621 0.4972669 0.1593397 0.4974446 0.217262 0.7392012 0.4698752 0.7394159 0.5398673 -0.03135341 0.5422318 0.7292433 0.5852865 0.7290286 0.6552786 -0.04174077 0.6529138 0.7290285 0.4738126 0.7292432 0.5438047 -0.04152607 0.5461691 0.009336531 0.646255 0.009121775 0.576263 0.7798912 0.5738984 0.4976593 0.2677673 0.5676513 0.267982 0.5674366 0.337974 0.5676513 0.267982 0.6376433 0.2677674 0.637858 0.3377594 -0.03139054 0.09979492 -0.03156822 0.04187262 0.497267 0.04025024 0.6500325 0.1861295 0.1211974 0.1877518 0.1210196 0.1298295 0.4974445 0.3363515 -0.03139054 0.3379739 -0.03156822 0.2800516 -0.03156828 0.2205068 0.4972669 0.2188844 0.4974446 0.2768067 -0.1544293 0.5672724 1.11816 0.5633684 1.119461 0.9875651 1.119461 0.1391718 1.11816 0.5633684 -0.1544293 0.5594643 0.4493651 0.02273571 0.4506664 0.4469321 0.4252146 0.4470101 -0.1568922 0.1580557 1.115697 0.1541519 1.115775 0.1796036 0.05959022 -0.1081894 0.08504199 -0.1082674 0.08634334 0.3159289 1.081333 0.2711562 -0.1912564 0.2750599 -0.1913345 0.2496081 -0.04500937 0.263655 0.04009371 0.2633939 -0.04495334 0.2819278 0.8921604 0.4544976 0.8924216 0.5396007 -0.04500937 0.4573726 0.2104122 0.2633939 0.2104682 0.2816668 0.125309 0.263655 0.9125055 0.5831659 0.9127668 0.668269 -0.02466428 0.5860409 -0.04495328 0.2819278 0.8922165 0.2848029 -0.04500931 0.3002007 0.8921603 0.3665194 -0.04500931 0.3636443 0.8922165 0.3482465 0.04014986 0.263655 0.125253 0.2633938 0.04020589 0.2819278 0.9633679 0.5745052 0.9636291 0.6596084 0.02619826 0.5773802 0.2104682 0.263655 0.2955714 0.2633939 0.2105243 0.2819278 0.8921603 0.3461744 0.8924215 0.4312775 -0.04500931 0.3490493 -0.04495328 0.3242236 0.8922165 0.3270987 -0.04500931 0.3424964 0.8921603 0.3242236 -0.04500931 0.3213486 0.8922165 0.3059508 -0.04174077 0.6977118 1.082216 0.6942638 -0.04152595 0.7677038 -0.03135335 0.8033077 1.092603 0.8067559 -0.03156828 0.8732997 -0.03156822 0.690393 1.092388 0.6869452 -0.03135341 0.7603851 1.092603 0.9772574 -0.03135365 0.9807056 1.092388 0.9072655 0.5025308 0.2435517 0.5725228 0.2433369 0.5027456 0.3135436 0.7080648 0.3377594 0.6380728 0.3379741 0.7078501 0.2677674 0.5584798 0.3052188 0.02964448 0.3068413 0.5583021 0.2472965 1.02628 0.3379741 1.026457 0.3958964 0.4974445 0.3395964 0.4972668 0.3379739 0.4974445 0.3958963 -0.03156828 0.3395963 -0.03139054 0.2188844 -0.03156822 0.1609621 0.4974446 0.217262 -0.03156828 0.4722397 0.7392012 0.4698752 -0.03135341 0.5422318 -0.04152595 0.5829219 0.7292433 0.5852865 -0.04174077 0.6529138 -0.04174071 0.476177 0.7290285 0.4738126 -0.04152607 0.5461691 0.7801061 0.6438904 0.009336531 0.646255 0.7798912 0.5738984 0.4974445 0.3377593 0.4976593 0.2677673 0.5674366 0.337974 0.567866 0.337974 0.5676513 0.267982 0.637858 0.3377594 0.4974446 0.09817254 -0.03139054 0.09979492 0.497267 0.04025024 0.6498549 0.1282072 0.6500325 0.1861295 0.1210196 0.1298295 0.4972669 0.2784292 0.4974445 0.3363515 -0.03156822 0.2800516 -0.0313906 0.2784292 -0.03156828 0.2205068 0.4974446 0.2768067 -0.04174077 0.6977118 1.082216 0.6942638 -0.04152595 0.7677038 -0.03135335 0.8033077 1.092603 0.8067559 -0.03156828 0.8732997 -0.03156822 0.690393 1.092388 0.6869452 -0.03135341 0.7603851 1.092603 0.9772574 -0.03135365 0.9807056 1.092388 0.9072655 0.5025308 0.2435517 0.5725228 0.2433369 0.5027456 0.3135436 0.7080648 0.3377594 0.6380728 0.3379741 0.7078501 0.2677674 0.5584798 0.3052188 0.02964448 0.3068413 0.5583021 0.2472965 1.02628 0.3379741 1.026457 0.3958964 0.4974445 0.3395964 0.4972668 0.3379739 0.4974445 0.3958963 -0.03156828 0.3395963 -0.03139054 0.2188844 -0.03156822 0.1609621 0.4974446 0.217262 -0.03156828 0.4722397 0.7392012 0.4698752 -0.03135341 0.5422318 -0.04152595 0.5829219 0.7292433 0.5852865 -0.04174077 0.6529138 -0.04174071 0.476177 0.7290285 0.4738126 -0.04152607 0.5461691 0.7801061 0.6438904 0.009336531 0.646255 0.7798912 0.5738984 0.4974445 0.3377593 0.4976593 0.2677673 0.5674366 0.337974 0.567866 0.337974 0.5676513 0.267982 0.637858 0.3377594 0.4974446 0.09817254 -0.03139054 0.09979492 0.497267 0.04025024 0.6498549 0.1282072 0.6500325 0.1861295 0.1210196 0.1298295 0.4972669 0.2784292 0.4974445 0.3363515 -0.03156822 0.2800516 -0.0313906 0.2784292 -0.03156828 0.2205068 0.4974446 0.2768067 -0.153128 0.9914689 -0.1544293 0.5672724 1.119461 0.9875651 -0.1531286 0.1352679 1.119461 0.1391718 -0.1544293 0.5594643 0.4239134 0.02281367 0.4493651 0.02273571 0.4252146 0.4470101 -0.1568145 0.1835073 -0.1568922 0.1580557 1.115775 0.1796036 0.0608915 0.316007 0.05959022 -0.1081894 0.08634334 0.3159289 1.081255 0.2457044 1.081333 0.2711562 -0.1913345 0.2496081</float_array>
          <technique_common>
            <accessor source="#Cube_008-mesh-map-0-array" count="348" stride="2">
              <param name="S" type="float"/>
              <param name="T" type="float"/>
            </accessor>
          </technique_common>
        </source>
        <vertices id="Cube_008-mesh-vertices">
          <input semantic="POSITION" source="#Cube_008-mesh-positions"/>
        </vertices>
        <polylist material="Wood-material" count="116">
          <input semantic="VERTEX" source="#Cube_008-mesh-vertices" offset="0"/>
          <input semantic="NORMAL" source="#Cube_008-mesh-normals" offset="1"/>
          <input semantic="TEXCOORD" source="#Cube_008-mesh-map-0" offset="2" set="0"/>
          <vcount>3 3 3 3 3 3 3 3 3 3 3 3 3 3 3 3 3 3 3 3 3 3 3 3 3 3 3 3 3 3 3 3 3 3 3 3 3 3 3 3 3 3 3 3 3 3 3 3 3 3 3 3 3 3 3 3 3 3 3 3 3 3 3 3 3 3 3 3 3 3 3 3 3 3 3 3 3 3 3 3 3 3 3 3 3 3 3 3 3 3 3 3 3 3 3 3 3 3 3 3 3 3 3 3 3 3 3 3 3 3 3 3 3 3 3 3 </vcount>
          <p>4 0 0 5 0 1 1 0 2 5 1 3 6 1 4 2 1 5 7 2 6 3 2 7 2 2 8 7 3 9 4 3 10 0 3 11 0 4 12 1 4 13 2 4 14 7 5 15 6 5 16 5 5 17 12 6 18 13 6 19 9 6 20 13 7 21 14 7 22 10 7 23 14 8 24 15 8 25 11 8 26 15 9 27 12 9 28 8 9 29 8 10 30 9 10 31 10 10 32 15 11 33 14 11 34 13 11 35 20 12 36 21 12 37 17 12 38 21 13 39 22 13 40 18 13 41 22 14 42 23 14 43 19 14 44 23 15 45 20 15 46 16 15 47 16 16 48 17 16 49 18 16 50 23 17 51 22 17 52 21 17 53 29 18 54 25 18 55 24 18 56 30 19 57 31 19 58 27 19 59 24 20 60 25 20 61 26 20 62 31 21 63 30 21 64 29 21 65 36 22 66 37 22 67 33 22 68 37 23 69 38 23 70 34 23 71 38 24 72 39 24 73 35 24 74 39 25 75 36 25 76 32 25 77 32 26 78 33 26 79 34 26 80 39 27 81 38 27 82 37 27 83 45 28 84 41 28 85 40 28 86 46 29 87 47 29 88 43 29 89 40 30 90 41 30 91 42 30 92 47 31 93 46 31 94 45 31 95 52 32 96 53 32 97 49 32 98 53 33 99 54 33 100 50 33 101 54 34 102 55 34 103 51 34 104 55 35 105 52 35 106 48 35 107 48 36 108 49 36 109 50 36 110 55 37 111 54 37 112 53 37 113 61 38 114 57 38 115 56 38 116 62 39 117 63 39 118 59 39 119 56 40 120 57 40 121 58 40 122 63 41 123 62 41 124 61 41 125 68 42 126 69 42 127 65 42 128 69 43 129 70 43 130 66 43 131 70 44 132 71 44 133 67 44 134 71 45 135 68 45 136 64 45 137 64 46 138 65 46 139 66 46 140 71 47 141 70 47 142 69 47 143 77 48 144 73 48 145 72 48 146 78 49 147 79 49 148 75 49 149 72 50 150 73 50 151 74 50 152 79 51 153 78 51 154 77 51 155 81 52 156 82 52 157 83 52 158 87 53 159 86 53 160 85 53 161 84 54 162 85 54 163 81 54 164 85 55 165 86 55 166 82 55 167 82 56 168 86 56 169 87 56 170 80 57 171 83 57 172 87 57 173 0 58 174 4 58 175 1 58 176 1 59 177 5 59 178 2 59 179 6 60 180 7 60 181 2 60 182 3 61 183 7 61 184 0 61 185 3 62 186 0 62 187 2 62 188 4 63 189 7 63 190 5 63 191 8 64 192 12 64 193 9 64 194 9 65 195 13 65 196 10 65 197 10 66 198 14 66 199 11 66 200 11 67 201 15 67 202 8 67 203 11 68 204 8 68 205 10 68 206 12 69 207 15 69 208 13 69 209 16 70 210 20 70 211 17 70 212 17 71 213 21 71 214 18 71 215 18 72 216 22 72 217 19 72 218 19 73 219 23 73 220 16 73 221 19 74 222 16 74 223 18 74 224 20 75 225 23 75 226 21 75 227 28 76 228 29 76 229 24 76 230 26 77 231 30 77 232 27 77 233 27 78 234 24 78 235 26 78 236 28 79 237 31 79 238 29 79 239 32 80 240 36 80 241 33 80 242 33 81 243 37 81 244 34 81 245 34 82 246 38 82 247 35 82 248 35 83 249 39 83 250 32 83 251 35 84 252 32 84 253 34 84 254 36 85 255 39 85 256 37 85 257 44 86 258 45 86 259 40 86 260 42 87 261 46 87 262 43 87 263 43 88 264 40 88 265 42 88 266 44 89 267 47 89 268 45 89 269 48 90 270 52 90 271 49 90 272 49 91 273 53 91 274 50 91 275 50 92 276 54 92 277 51 92 278 51 93 279 55 93 280 48 93 281 51 94 282 48 94 283 50 94 284 52 95 285 55 95 286 53 95 287 60 96 288 61 96 289 56 96 290 58 97 291 62 97 292 59 97 293 59 98 294 56 98 295 58 98 296 60 99 297 63 99 298 61 99 299 64 100 300 68 100 301 65 100 302 65 101 303 69 101 304 66 101 305 66 102 306 70 102 307 67 102 308 67 103 309 71 103 310 64 103 311 67 104 312 64 104 313 66 104 314 68 105 315 71 105 316 69 105 317 76 106 318 77 106 319 72 106 320 74 107 321 78 107 322 75 107 323 75 108 324 72 108 325 74 108 326 76 109 327 79 109 328 77 109 329 80 110 330 81 110 331 83 110 332 84 111 333 87 111 334 85 111 335 80 112 336 84 112 337 81 112 338 81 113 339 85 113 340 82 113 341 83 114 342 82 114 343 87 114 344 84 115 345 80 115 346 87 115 347</p>
        </polylist>
      </mesh>
    </geometry>
  </library_geometries>
  <library_controllers/>
  <library_visual_scenes>
    <visual_scene id="Scene" name="Scene">
      <node id="Bench" name="Bench" type="NODE">
        <matrix sid="transform">1 0 0 0 0 7.54979e-8 -1 1.388449 0 1 7.54979e-8 0.5350584 0 0 0 1</matrix>
        <instance_geometry url="#Cube_008-mesh">
          <bind_material>
            <technique_common>
              <instance_material symbol="Wood-material" target="#Wood-material"/>
            </technique_common>
          </bind_material>
        </instance_geometry>
      </node>
      <node id="Camera" name="Camera" type="NODE">
        <matrix sid="transform">0.6858805 -0.3173701 0.6548619 8.789702 0.7276338 0.3124686 -0.6106656 -8.404783 -0.01081678 0.8953432 0.4452454 7.616721 0 0 0 1</matrix>
        <instance_camera url="#Camera-camera"/>
      </node>
      <node id="Lamp" name="Lamp" type="NODE">
        <matrix sid="transform">-0.2908646 -0.7711008 0.5663932 4.076245 0.9551712 -0.1998834 0.2183912 1.005454 -0.05518906 0.6045247 0.7946723 5.903862 0 0 0 1</matrix>
        <instance_light url="#Lamp-light"/>
      </node>
    </visual_scene>
  </library_visual_scenes>
  <scene>
    <instance_visual_scene url="#Scene"/>
  </scene>
</COLLADA>