<?xml version="1.0" encoding="utf-8"?>
<COLLADA xmlns="http://www.collada.org/2005/11/COLLADASchema" version="1.4.0">
  <asset>
    <contributor>
      <author></author>
      <authoring_tool>FBX COLLADA exporter</authoring_tool>
      <comments></comments>
    </contributor>
    <created>2009-03-23T02:17:26Z</created>
    <modified>2009-03-23T02:17:26Z</modified>
    <revision></revision>
    <title></title>
    <subject></subject>
    <keywords></keywords>
    <unit meter="1.000000"/>
    <up_axis>Z_UP</up_axis>
  </asset>
  <library_images>
    <image id="Map__0-image" name="Map__0">
      <init_from>file://C:\Projects\ForestKitNew\art\shapes\props\crates\crate_diffuse_transparency.png</init_from>
    </image>
  </library_images>
  <library_materials>
    <material id="pallet_wood" name="pallet_wood">
      <instance_effect url="#pallet_wood-fx"/>
    </material>
  </library_materials>
  <library_effects>
    <effect id="pallet_wood-fx" name="pallet_wood">
      <profile_COMMON>
        <technique sid="standard">
          <phong>
            <emission>
              <color sid="emission">0.000000  0.000000 0.000000 1.000000</color>
            </emission>
            <ambient>
              <color sid="ambient">0.588235  0.588235 0.588235 1.000000</color>
            </ambient>
            <diffuse>
              <texture texture="Map__0-image" texcoord="CHANNEL0">
                <extra>
                  <technique profile="MAYA">
                    <wrapU sid="wrapU0">TRUE</wrapU>
                    <wrapV sid="wrapV0">TRUE</wrapV>
                    <blend_mode>ADD</blend_mode>
                  </technique>
                </extra>
              </texture>
            </diffuse>
            <specular>
              <color sid="specular">0.000000  0.000000 0.000000 1.000000</color>
            </specular>
            <shininess>
              <float sid="shininess">2.000000</float>
            </shininess>
            <reflective>
              <color sid="reflective">0.000000  0.000000 0.000000 1.000000</color>
            </reflective>
            <reflectivity>
              <float sid="reflectivity">1.000000</float>
            </reflectivity>
            <transparent>
              <color sid="transparent">1.000000  1.000000 1.000000 1.000000</color>
            </transparent>
            <transparency>
              <float sid="transparency">0.000000</float>
            </transparency>
          </phong>
        </technique>
      </profile_COMMON>
    </effect>
  </library_effects>
  <library_geometries>
    <geometry id="craterectunbroken400-lib" name="craterectunbroken400Mesh">
      <mesh>
        <source id="craterectunbroken400-lib-Position">
          <float_array id="craterectunbroken400-lib-Position-array" count="360">
0.544129 0.421688 0.034592
0.668290 0.421688 0.034592
0.544129 -0.392217 0.034593
0.668290 -0.392217 0.034592
0.544129 0.421688 -0.003697
0.668290 0.421688 -0.003697
0.544129 -0.392217 -0.003696
0.668290 -0.392217 -0.003696
-0.778706 -0.357019 0.033065
0.787351 -0.357018 0.033065
-0.778706 0.383724 0.033065
0.787351 0.383725 0.033065
-0.778706 -0.357018 0.783962
0.787351 -0.357018 0.783962
-0.778706 0.383725 0.783962
0.787351 0.383725 0.783962
0.787351 -0.357018 0.745364
-0.778706 -0.357018 0.745364
0.787351 0.383725 0.745364
-0.778706 0.383725 0.745364
0.787351 -0.357018 0.067242
0.787351 0.383725 0.067241
-0.778706 0.383724 0.067241
-0.778706 -0.357019 0.067242
0.787351 -0.000823 0.033065
-0.778706 -0.000824 0.033065
-0.778706 -0.000824 0.783962
0.787351 -0.000823 0.783962
0.787351 -0.000823 0.067242
-0.778706 -0.000824 0.067241
0.787351 -0.000823 0.745364
-0.778706 -0.000824 0.745364
0.544129 0.419407 0.033928
0.668290 0.419407 0.033928
0.544129 0.419408 0.785158
0.668290 0.419408 0.785158
0.544129 0.381118 0.033928
0.668290 0.381118 0.033928
0.544129 0.381119 0.785158
0.668290 0.381119 0.785158
0.544129 0.421688 0.822272
0.668290 0.421688 0.822272
0.544129 -0.392216 0.822272
0.668290 -0.392216 0.822272
0.544129 0.421688 0.783983
0.668290 0.421688 0.783983
0.544129 -0.392216 0.783984
0.668290 -0.392216 0.783984
0.825731 0.388466 0.033928
0.825731 0.264305 0.033928
0.825732 0.388466 0.785158
0.825732 0.264305 0.785158
0.787443 0.388466 0.033928
0.787443 0.264305 0.033928
0.787443 0.388466 0.785158
0.787443 0.264305 0.785158
0.825731 -0.232786 0.033928
0.825732 -0.356947 0.033928
0.825732 -0.232786 0.785158
0.825732 -0.356947 0.785158
0.787443 -0.232786 0.033928
0.787443 -0.356947 0.033928
0.787443 -0.232786 0.785158
0.787443 -0.356947 0.785158
-0.674318 0.421688 0.822272
-0.550157 0.421688 0.822272
-0.674318 -0.392217 0.822272
-0.550157 -0.392217 0.822272
-0.674318 0.421688 0.783983
-0.550157 0.421688 0.783983
-0.674318 -0.392217 0.783984
-0.550157 -0.392217 0.783984
-0.779050 -0.232786 0.033928
-0.779050 -0.356947 0.033928
-0.779050 -0.232786 0.785158
-0.779050 -0.356947 0.785158
-0.817338 -0.232786 0.033928
-0.817338 -0.356948 0.033928
-0.817338 -0.232786 0.785158
-0.817338 -0.356947 0.785158
0.544129 -0.354795 0.033928
0.668290 -0.354795 0.033928
0.544129 -0.354794 0.785158
0.668290 -0.354794 0.785158
0.544129 -0.393083 0.033928
0.668290 -0.393083 0.033928
0.544129 -0.393083 0.785158
0.668290 -0.393083 0.785158
-0.674318 -0.354795 0.033928
-0.550157 -0.354795 0.033928
-0.674318 -0.354795 0.785158
-0.550157 -0.354795 0.785158
-0.674318 -0.393084 0.033928
-0.550157 -0.393084 0.033928
-0.674318 -0.393083 0.785158
-0.550157 -0.393083 0.785158
-0.674318 0.421688 0.034592
-0.550157 0.421688 0.034592
-0.674318 -0.392217 0.034593
-0.550157 -0.392217 0.034592
-0.674318 0.421688 -0.003697
-0.550157 0.421688 -0.003697
-0.674318 -0.392217 -0.003696
-0.550157 -0.392217 -0.003696
-0.674318 0.419407 0.033928
-0.550157 0.419407 0.033928
-0.674318 0.419407 0.785158
-0.550157 0.419407 0.785158
-0.674318 0.381118 0.033928
-0.550157 0.381118 0.033928
-0.674318 0.381118 0.785158
-0.550157 0.381118 0.785158
-0.779050 0.388466 0.033928
-0.779050 0.264304 0.033928
-0.779050 0.388466 0.785158
-0.779050 0.264305 0.785158
-0.817339 0.388466 0.033928
-0.817339 0.264304 0.033928
-0.817339 0.388466 0.785158
-0.817339 0.264305 0.785158
</float_array>
          <technique_common>
            <accessor source="#craterectunbroken400-lib-Position-array" count="120" stride="3">
              <param name="X" type="float"/>
              <param name="Y" type="float"/>
              <param name="Z" type="float"/>
            </accessor>
          </technique_common>
        </source>
        <source id="craterectunbroken400-lib-Normal0">
          <float_array id="craterectunbroken400-lib-Normal0-array" count="1692">
0.000000 0.000000 1.000000
0.000000 0.000000 1.000000
0.000000 0.000000 1.000000
0.000000 0.000000 1.000000
0.000000 0.000000 1.000000
0.000000 0.000000 1.000000
-0.000000 -0.000000 -1.000000
-0.000000 -0.000000 -1.000000
-0.000000 -0.000000 -1.000000
-0.000000 -0.000000 -1.000000
-0.000000 -0.000000 -1.000000
-0.000000 -0.000000 -1.000000
-0.000000 1.000000 -0.000001
-0.000000 1.000000 -0.000001
-0.000000 1.000000 -0.000001
-0.000000 1.000000 -0.000001
-0.000000 1.000000 -0.000001
-0.000000 1.000000 -0.000001
1.000000 0.000000 -0.000000
1.000000 0.000000 -0.000002
1.000000 0.000000 -0.000002
1.000000 0.000000 -0.000002
1.000000 0.000000 -0.000000
1.000000 0.000000 -0.000000
0.000000 -1.000000 0.000001
0.000000 -1.000000 0.000001
0.000000 -1.000000 0.000001
0.000000 -1.000000 0.000001
0.000000 -1.000000 0.000001
0.000000 -1.000000 0.000001
-1.000000 -0.000000 0.000000
-1.000000 -0.000000 0.000000
-1.000000 -0.000000 0.000000
-1.000000 -0.000000 0.000000
-1.000000 -0.000000 0.000000
-1.000000 -0.000000 0.000000
0.000000 -0.000000 -1.000000
0.000000 -0.000000 -1.000000
0.000000 -0.000000 -1.000000
0.000000 -0.000000 -1.000000
0.000000 -0.000000 -1.000000
0.000000 -0.000000 -1.000000
0.000000 0.000000 1.000000
-0.000000 0.000000 1.000000
0.000000 0.000000 1.000000
0.000000 0.000000 1.000000
0.000000 0.000000 1.000000
0.000000 0.000000 1.000000
0.000000 -1.000000 0.000000
0.000000 -1.000000 0.000000
0.000000 -1.000000 0.000000
0.000000 -1.000000 0.000000
0.000000 -1.000000 0.000000
0.000000 -1.000000 0.000000
1.000000 0.000000 -0.000000
1.000000 0.000000 -0.000000
1.000000 0.000000 -0.000000
1.000000 0.000000 -0.000000
1.000000 0.000000 0.000000
1.000000 0.000000 -0.000000
-0.000000 1.000000 -0.000000
-0.000000 1.000000 0.000000
-0.000000 1.000000 0.000000
-0.000000 1.000000 0.000000
-0.000000 1.000000 -0.000000
-0.000000 1.000000 -0.000000
-1.000000 -0.000000 0.000000
-1.000000 -0.000000 -0.000000
-1.000000 -0.000000 0.000000
-1.000000 -0.000000 0.000000
-1.000000 0.000000 0.000000
-1.000000 -0.000000 0.000000
0.000000 -1.000000 0.000001
0.000000 -1.000000 0.000001
0.000000 -1.000000 0.000001
0.000000 -1.000000 0.000001
0.000000 -1.000000 0.000001
0.000000 -1.000000 0.000001
1.000000 0.000000 -0.000000
1.000000 0.000000 -0.000000
1.000000 0.000000 -0.000000
1.000000 0.000000 -0.000000
1.000000 0.000000 -0.000000
1.000000 0.000000 -0.000000
-0.000000 1.000000 -0.000001
-0.000000 1.000000 -0.000001
-0.000000 1.000000 -0.000001
-0.000000 1.000000 -0.000001
-0.000000 1.000000 -0.000001
-0.000000 1.000000 -0.000001
-1.000000 -0.000000 0.000000
-1.000000 -0.000000 0.000000
-1.000000 -0.000000 0.000000
-1.000000 -0.000000 0.000000
-1.000000 -0.000000 0.000000
-1.000000 -0.000000 0.000000
0.000000 -1.000000 0.000000
0.000000 -1.000000 0.000000
0.000000 -1.000000 0.000001
0.000000 -1.000000 0.000001
0.000000 -1.000000 0.000001
0.000000 -1.000000 0.000000
1.000000 0.000000 -0.000000
1.000000 0.000000 -0.000000
1.000000 0.000000 -0.000000
1.000000 0.000000 -0.000000
1.000000 0.000000 -0.000000
1.000000 0.000000 -0.000000
-0.000000 1.000000 -0.000000
-0.000000 1.000000 -0.000000
-0.000000 1.000000 -0.000001
-0.000000 1.000000 -0.000001
-0.000000 1.000000 -0.000001
-0.000000 1.000000 -0.000000
-1.000000 -0.000000 0.000000
-1.000000 -0.000000 -0.000000
-1.000000 -0.000000 0.000000
-1.000000 -0.000000 0.000000
-1.000000 -0.000000 0.000000
-1.000000 -0.000000 0.000000
0.000000 -0.000000 -1.000000
0.000000 -0.000000 -1.000000
0.000000 -0.000000 -1.000000
0.000000 -0.000000 -1.000000
0.000000 -0.000000 -1.000000
0.000000 -0.000000 -1.000000
-0.000000 0.000000 1.000000
-0.000000 0.000000 1.000000
0.000000 0.000000 1.000000
0.000000 0.000000 1.000000
-0.000000 0.000000 1.000000
-0.000000 0.000000 1.000000
1.000000 0.000000 -0.000000
1.000000 0.000000 0.000000
1.000000 0.000000 -0.000000
1.000000 0.000000 -0.000000
1.000000 0.000000 -0.000000
1.000000 0.000000 -0.000000
-1.000000 -0.000000 -0.000000
-1.000000 -0.000000 0.000000
-1.000000 -0.000000 0.000000
-1.000000 -0.000000 0.000000
-1.000000 -0.000000 -0.000000
-1.000000 -0.000000 -0.000000
1.000000 0.000000 -0.000000
1.000000 0.000000 -0.000000
1.000000 0.000000 -0.000000
1.000000 0.000000 -0.000000
1.000000 0.000000 -0.000000
1.000000 0.000000 -0.000000
-1.000000 -0.000001 0.000000
-1.000000 -0.000001 -0.000000
-1.000000 -0.000000 0.000000
-1.000000 -0.000000 0.000000
-1.000000 -0.000000 0.000000
-1.000000 -0.000001 0.000000
1.000000 0.000000 -0.000000
1.000000 0.000000 -0.000000
1.000000 0.000000 -0.000000
1.000000 0.000000 -0.000000
1.000000 0.000000 -0.000000
1.000000 0.000000 -0.000000
-1.000000 -0.000001 -0.000000
-1.000000 -0.000000 -0.000000
-1.000000 -0.000000 -0.000000
-1.000000 -0.000000 -0.000000
-1.000000 -0.000000 0.000000
-1.000000 -0.000001 -0.000000
-0.000000 1.000000 -0.000000
0.000000 1.000000 -0.000000
-0.000000 1.000000 -0.000000
-0.000000 1.000000 -0.000000
-0.000000 1.000000 -0.000000
-0.000000 1.000000 -0.000000
0.000000 -1.000000 0.000000
0.000000 -1.000000 0.000000
0.000000 -1.000000 0.000000
0.000000 -1.000000 0.000000
0.000000 -1.000000 0.000000
0.000000 -1.000000 0.000000
0.000000 -0.000000 -1.000000
0.000000 -0.000000 -1.000000
0.000000 -0.000000 -1.000000
0.000000 -0.000000 -1.000000
0.000000 -0.000000 -1.000000
0.000000 -0.000000 -1.000000
1.000000 0.000000 -0.000000
1.000000 0.000002 -0.000000
1.000000 0.000002 -0.000000
1.000000 0.000002 -0.000000
1.000000 -0.000000 -0.000000
1.000000 0.000000 -0.000000
0.000000 0.000002 1.000000
0.000000 0.000002 1.000000
0.000000 0.000002 1.000000
0.000000 0.000002 1.000000
0.000000 0.000002 1.000000
0.000000 0.000002 1.000000
-1.000000 -0.000002 0.000000
-1.000000 0.000000 0.000000
-1.000000 -0.000000 0.000000
-1.000000 -0.000000 0.000000
-1.000000 -0.000002 0.000000
-1.000000 -0.000002 0.000000
0.000001 0.000000 1.000000
0.000001 0.000000 1.000000
0.000001 0.000000 1.000000
0.000001 0.000000 1.000000
0.000001 0.000000 1.000000
0.000001 0.000000 1.000000
0.000000 -0.000000 -1.000000
0.000000 -0.000000 -1.000000
0.000000 -0.000000 -1.000000
0.000000 -0.000000 -1.000000
0.000000 -0.000000 -1.000000
0.000000 -0.000000 -1.000000
-0.000000 1.000000 0.000000
-0.000000 1.000000 0.000000
-0.000000 1.000000 0.000000
-0.000000 1.000000 0.000000
-0.000000 1.000000 0.000000
-0.000000 1.000000 0.000000
1.000000 0.000000 0.000000
1.000000 0.000000 0.000000
1.000000 0.000000 0.000000
1.000000 0.000000 0.000000
1.000000 0.000000 0.000000
1.000000 0.000000 0.000000
0.000000 -1.000000 0.000000
0.000000 -1.000000 0.000000
0.000000 -1.000000 0.000000
0.000000 -1.000000 0.000000
0.000000 -1.000000 0.000000
0.000000 -1.000000 0.000000
-1.000000 -0.000000 0.000000
-1.000000 -0.000000 0.000000
-1.000000 -0.000000 0.000000
-1.000000 -0.000000 0.000000
-1.000000 -0.000000 0.000000
-1.000000 -0.000000 0.000000
1.000000 0.000001 -0.000000
1.000000 -0.000000 -0.000000
1.000000 0.000000 -0.000000
1.000000 0.000000 -0.000000
1.000000 0.000001 -0.000000
1.000000 0.000001 -0.000000
-1.000000 -0.000000 0.000000
-1.000000 -0.000000 0.000000
-1.000000 -0.000000 0.000000
-1.000000 -0.000000 0.000000
-1.000000 -0.000000 0.000000
-1.000000 -0.000000 0.000000
0.000000 -0.000000 -1.000000
0.000000 -0.000000 -1.000000
0.000000 -0.000000 -1.000000
0.000000 -0.000000 -1.000000
0.000000 -0.000000 -1.000000
0.000000 -0.000000 -1.000000
0.000001 -1.000000 0.000000
0.000001 -1.000000 0.000000
0.000001 -1.000000 0.000000
0.000001 -1.000000 0.000000
0.000001 -1.000000 0.000000
0.000001 -1.000000 0.000000
-0.000000 0.000000 1.000000
0.000000 0.000000 1.000000
-0.000000 0.000000 1.000000
-0.000000 0.000000 1.000000
-0.000000 0.000000 1.000000
-0.000000 0.000000 1.000000
0.000000 1.000000 -0.000000
0.000000 1.000000 -0.000000
0.000000 1.000000 -0.000000
0.000000 1.000000 -0.000000
0.000000 1.000000 -0.000000
0.000000 1.000000 -0.000000
1.000000 0.000001 -0.000000
1.000000 0.000000 -0.000000
1.000000 0.000000 -0.000000
1.000000 0.000000 -0.000000
1.000000 0.000001 -0.000000
1.000000 0.000001 -0.000000
-1.000000 -0.000000 0.000000
-1.000000 0.000000 0.000000
-1.000000 -0.000000 0.000000
-1.000000 -0.000000 0.000000
-1.000000 -0.000000 0.000000
-1.000000 -0.000000 0.000000
0.000000 -0.000000 -1.000000
0.000000 -0.000000 -1.000000
0.000000 -0.000000 -1.000000
0.000000 -0.000000 -1.000000
0.000000 -0.000000 -1.000000
0.000000 -0.000000 -1.000000
0.000001 -1.000000 0.000000
0.000001 -1.000000 0.000000
0.000001 -1.000000 0.000000
0.000001 -1.000000 0.000000
0.000001 -1.000000 0.000000
0.000001 -1.000000 0.000000
0.000000 -0.000000 1.000000
0.000000 -0.000000 1.000000
0.000000 -0.000000 1.000000
0.000000 -0.000000 1.000000
0.000000 -0.000000 1.000000
0.000000 -0.000000 1.000000
-0.000001 1.000000 -0.000000
-0.000000 1.000000 -0.000000
-0.000000 1.000000 -0.000000
-0.000000 1.000000 -0.000000
-0.000001 1.000000 -0.000000
-0.000001 1.000000 -0.000000
0.000001 0.000000 1.000000
0.000001 0.000000 1.000000
0.000001 0.000000 1.000000
0.000001 0.000000 1.000000
0.000001 0.000000 1.000000
0.000001 0.000000 1.000000
-0.000000 -0.000000 -1.000000
0.000000 -0.000000 -1.000000
-0.000000 -0.000000 -1.000000
-0.000000 -0.000000 -1.000000
-0.000000 -0.000000 -1.000000
-0.000000 -0.000000 -1.000000
-0.000000 1.000000 0.000000
-0.000000 1.000000 0.000000
-0.000000 1.000000 0.000000
-0.000000 1.000000 0.000000
-0.000000 1.000000 0.000000
-0.000000 1.000000 0.000000
1.000000 0.000000 0.000000
1.000000 0.000000 0.000000
1.000000 0.000000 0.000000
1.000000 0.000000 0.000000
1.000000 0.000000 0.000000
1.000000 0.000000 0.000000
0.000000 -1.000000 0.000000
0.000000 -1.000000 0.000000
0.000000 -1.000000 0.000000
0.000000 -1.000000 0.000000
0.000000 -1.000000 0.000000
0.000000 -1.000000 0.000000
-1.000000 -0.000000 0.000000
-1.000000 -0.000000 0.000000
-1.000000 -0.000000 0.000000
-1.000000 -0.000000 0.000000
-1.000000 -0.000000 0.000000
-1.000000 -0.000000 0.000000
1.000000 0.000000 -0.000000
1.000000 0.000001 -0.000000
1.000000 0.000001 -0.000000
1.000000 0.000001 -0.000000
1.000000 -0.000000 -0.000000
1.000000 0.000000 -0.000000
-1.000000 -0.000001 0.000000
-1.000000 -0.000001 0.000000
-1.000000 -0.000000 0.000000
-1.000000 -0.000000 0.000000
-1.000000 0.000000 0.000000
-1.000000 -0.000001 0.000000
0.000000 -0.000000 -1.000000
0.000000 -0.000000 -1.000000
0.000000 -0.000000 -1.000000
0.000000 -0.000000 -1.000000
0.000000 -0.000000 -1.000000
0.000000 -0.000000 -1.000000
0.000001 -1.000000 0.000000
0.000001 -1.000000 0.000000
0.000001 -1.000000 0.000000
0.000001 -1.000000 0.000000
0.000001 -1.000000 0.000000
0.000001 -1.000000 0.000000
0.000001 0.000000 1.000000
0.000000 0.000000 1.000000
0.000000 0.000000 1.000000
0.000000 0.000000 1.000000
0.000002 0.000000 1.000000
0.000001 0.000000 1.000000
-0.000001 1.000000 -0.000000
-0.000001 1.000000 -0.000000
-0.000001 1.000000 -0.000000
-0.000001 1.000000 -0.000000
-0.000001 1.000000 -0.000000
-0.000001 1.000000 -0.000000
-0.000000 1.000000 -0.000000
-0.000000 1.000000 -0.000000
-0.000000 1.000000 -0.000000
-0.000000 1.000000 -0.000000
0.000000 1.000000 -0.000000
-0.000000 1.000000 -0.000000
0.000000 -1.000000 0.000000
0.000000 -1.000000 0.000000
0.000000 -1.000000 0.000000
0.000000 -1.000000 0.000000
0.000000 -1.000000 0.000000
0.000000 -1.000000 0.000000
0.000000 -0.000000 -1.000000
0.000000 -0.000000 -1.000000
0.000000 -0.000000 -1.000000
0.000000 -0.000000 -1.000000
0.000000 -0.000000 -1.000000
0.000000 -0.000000 -1.000000
1.000000 0.000000 -0.000000
1.000000 0.000002 -0.000000
1.000000 0.000002 -0.000000
1.000000 0.000002 -0.000000
1.000000 -0.000000 -0.000000
1.000000 0.000000 -0.000000
0.000000 0.000001 1.000000
0.000000 0.000000 1.000000
0.000000 0.000000 1.000000
0.000000 0.000000 1.000000
-0.000000 0.000002 1.000000
0.000000 0.000001 1.000000
-1.000000 -0.000002 0.000000
-1.000000 0.000000 0.000000
-1.000000 -0.000000 0.000000
-1.000000 -0.000000 0.000000
-1.000000 -0.000002 0.000000
-1.000000 -0.000002 0.000000
-0.000000 1.000000 -0.000000
-0.000000 1.000000 -0.000000
-0.000000 1.000000 -0.000000
-0.000000 1.000000 -0.000000
-0.000000 1.000000 -0.000000
-0.000000 1.000000 -0.000000
0.000000 -1.000000 0.000000
0.000000 -1.000000 0.000000
0.000000 -1.000000 0.000000
0.000000 -1.000000 0.000000
0.000000 -1.000000 0.000000
0.000000 -1.000000 0.000000
0.000000 -0.000000 -1.000000
0.000000 -0.000000 -1.000000
0.000000 -0.000000 -1.000000
0.000000 -0.000000 -1.000000
0.000000 -0.000000 -1.000000
0.000000 -0.000000 -1.000000
1.000000 -0.000000 -0.000000
1.000000 0.000000 -0.000000
1.000000 -0.000000 -0.000000
1.000000 -0.000000 -0.000000
1.000000 -0.000000 -0.000000
1.000000 -0.000000 -0.000000
0.000000 0.000000 1.000000
-0.000000 0.000002 1.000000
0.000000 0.000001 1.000000
0.000000 0.000001 1.000000
0.000000 0.000000 1.000000
0.000000 0.000000 1.000000
-1.000000 0.000000 0.000000
-1.000000 0.000000 0.000000
-1.000000 0.000000 0.000000
-1.000000 0.000000 0.000000
-1.000000 0.000000 0.000000
-1.000000 0.000000 0.000000
0.000000 0.000000 1.000000
0.000000 0.000000 1.000000
0.000000 0.000000 1.000000
0.000000 0.000000 1.000000
0.000000 0.000000 1.000000
0.000000 0.000000 1.000000
-0.000000 -0.000000 -1.000000
-0.000000 -0.000000 -1.000000
-0.000000 -0.000000 -1.000000
-0.000000 -0.000000 -1.000000
-0.000000 -0.000000 -1.000000
-0.000000 -0.000000 -1.000000
-0.000000 1.000000 -0.000001
-0.000000 1.000000 -0.000001
-0.000000 1.000000 -0.000001
-0.000000 1.000000 -0.000001
-0.000000 1.000000 -0.000001
-0.000000 1.000000 -0.000001
1.000000 0.000000 0.000000
1.000000 0.000000 0.000000
1.000000 0.000000 0.000000
1.000000 0.000000 0.000000
1.000000 0.000000 0.000000
1.000000 0.000000 0.000000
0.000000 -1.000000 0.000001
0.000000 -1.000000 0.000001
0.000000 -1.000000 0.000001
0.000000 -1.000000 0.000001
0.000000 -1.000000 0.000001
0.000000 -1.000000 0.000001
-1.000000 0.000000 0.000000
-1.000000 0.000000 0.000000
-1.000000 0.000000 0.000000
-1.000000 0.000000 0.000000
-1.000000 0.000000 0.000000
-1.000000 0.000000 0.000000
-0.000000 1.000000 -0.000000
-0.000000 1.000000 -0.000000
-0.000000 1.000000 -0.000000
-0.000000 1.000000 -0.000000
-0.000000 1.000000 -0.000000
-0.000000 1.000000 -0.000000
0.000000 -1.000000 0.000000
0.000000 -1.000000 0.000000
0.000000 -1.000000 0.000000
0.000000 -1.000000 0.000000
0.000000 -1.000000 0.000000
0.000000 -1.000000 0.000000
0.000000 -0.000000 -1.000000
0.000000 -0.000000 -1.000000
0.000000 -0.000000 -1.000000
0.000000 -0.000000 -1.000000
0.000000 -0.000000 -1.000000
0.000000 -0.000000 -1.000000
1.000000 0.000000 0.000000
1.000000 0.000000 0.000000
1.000000 0.000000 0.000000
1.000000 0.000000 0.000000
1.000000 0.000000 0.000000
1.000000 0.000000 0.000000
0.000000 0.000000 1.000000
0.000000 0.000000 1.000000
0.000000 0.000000 1.000000
0.000000 0.000000 1.000000
0.000000 0.000000 1.000000
0.000000 0.000000 1.000000
-1.000000 -0.000003 0.000000
-1.000000 0.000000 0.000000
-1.000000 -0.000000 0.000000
-1.000000 -0.000000 0.000000
-1.000000 -0.000003 0.000000
-1.000000 -0.000003 0.000000
1.000000 0.000000 0.000000
1.000000 0.000000 0.000000
1.000000 0.000000 0.000000
1.000000 0.000000 0.000000
1.000000 0.000000 0.000000
1.000000 0.000000 0.000000
-1.000000 0.000000 0.000000
-1.000000 0.000000 0.000000
-1.000000 0.000000 0.000000
-1.000000 0.000000 0.000000
-1.000000 0.000000 0.000000
-1.000000 0.000000 0.000000
-0.000000 -0.000000 -1.000000
-0.000000 -0.000000 -1.000000
-0.000000 -0.000000 -1.000000
-0.000000 -0.000000 -1.000000
-0.000000 -0.000000 -1.000000
-0.000000 -0.000000 -1.000000
0.000000 -1.000000 0.000000
0.000000 -1.000000 0.000000
0.000000 -1.000000 0.000000
0.000000 -1.000000 0.000000
0.000000 -1.000000 0.000000
0.000000 -1.000000 0.000000
0.000000 0.000000 1.000000
0.000000 0.000000 1.000000
0.000000 0.000000 1.000000
0.000000 0.000000 1.000000
0.000000 0.000000 1.000000
0.000000 0.000000 1.000000
-0.000000 1.000000 -0.000000
-0.000000 1.000000 -0.000000
-0.000000 1.000000 -0.000000
-0.000000 1.000000 -0.000000
0.000000 1.000000 -0.000000
-0.000000 1.000000 -0.000000
</float_array>
          <technique_common>
            <accessor source="#craterectunbroken400-lib-Normal0-array" count="564" stride="3">
              <param name="X" type="float"/>
              <param name="Y" type="float"/>
              <param name="Z" type="float"/>
            </accessor>
          </technique_common>
        </source>
        <source id="craterectunbroken400-lib-UV0">
          <float_array id="craterectunbroken400-lib-UV0-array" count="1008">
0.677509 0.858258
0.332395 0.858258
0.332395 0.858258
0.998801 0.226236
0.677512 0.898187
0.332397 0.898187
0.332397 0.898187
0.984063 0.226236
0.683424 0.912921
0.326482 0.912921
0.326482 0.828845
0.326482 0.828845
0.683424 0.828845
0.683424 0.912921
0.683424 0.828845
0.683424 0.912921
0.326482 0.912921
0.326482 0.912921
0.326482 0.828845
0.683424 0.828845
0.998801 0.226236
0.998801 0.338251
0.984063 0.338252
0.984063 0.338252
0.984063 0.226236
0.998801 0.226236
0.332395 0.858258
0.677509 0.858258
0.677512 0.898187
0.677512 0.898187
0.998801 0.226236
0.998801 0.338251
0.984063 0.338252
0.984063 0.338252
0.332395 0.858258
0.677512 0.898187
0.988866 0.222899
0.988855 0.001459
0.999572 0.222797
0.999561 0.001364
0.004139 -0.076146
1.003473 -0.076146
0.003566 -0.606061
1.002899 -0.606061
0.001043 0.672827
1.000000 0.672827
0.001043 1.000000
1.000000 1.000000
1.000000 0.999155
0.325106 0.909741
0.000667 0.999155
0.686117 0.909741
0.686117 0.909741
0.000667 0.999155
1.000000 0.999155
0.325106 0.909741
1.000000 0.510251
0.325106 0.432696
0.686117 0.432696
0.000667 0.510251
1.000000 0.510251
0.325106 0.432696
0.000667 0.510251
0.686117 0.432696
1.002899 -0.631131
0.003566 -0.631131
0.003566 -0.631131
1.002899 -0.631131
1.003473 -0.053948
0.004139 -0.053948
1.003473 -0.053948
0.004139 -0.053948
0.988896 0.222797
0.988891 0.001577
0.988885 0.001364
0.988902 0.223014
0.999548 0.222899
0.999537 0.001459
0.999622 0.223072
0.999536 0.001640
0.001043 0.830152
0.988855 0.223441
1.000000 0.830152
0.988854 0.224132
0.001043 0.830152
0.999533 0.223573
1.000000 0.830152
0.999561 0.223346
0.999537 0.223441
0.498703 0.432696
0.999536 0.224132
0.512521 0.432696
0.988885 0.223346
0.498702 0.909741
0.988891 0.223573
0.512521 0.909741
0.999619 0.223014
0.999533 0.001577
0.988865 0.223072
0.988854 0.001640
0.988866 0.000407
0.988865 0.000648
0.999619 0.000591
0.999572 0.000304
0.999548 0.000407
0.999622 0.000648
0.988896 0.000304
0.988902 0.000591
0.677509 0.858258
0.332395 0.858258
0.332395 0.858258
0.998801 0.226236
0.677512 0.898187
0.332397 0.898187
0.332397 0.898187
0.984063 0.226236
0.683424 0.912921
0.326482 0.912921
0.326482 0.828845
0.326482 0.828845
0.683424 0.828845
0.683424 0.912921
0.683424 0.828845
0.683424 0.912921
0.326482 0.912921
0.326482 0.912921
0.326482 0.828845
0.683424 0.828845
0.998801 0.226236
0.998801 0.338251
0.984063 0.338252
0.984063 0.338252
0.984063 0.226236
0.998801 0.226236
0.332395 0.858258
0.677509 0.858258
0.677512 0.898187
0.677512 0.898187
0.998801 0.226236
0.998801 0.338251
0.984063 0.338252
0.984063 0.338252
0.332395 0.858258
0.677512 0.898187
0.677509 0.858258
0.332395 0.858258
0.332395 0.858258
0.998801 0.226236
0.677512 0.898187
0.332397 0.898187
0.332397 0.898187
0.984063 0.226236
0.683424 0.912921
0.326482 0.912921
0.326482 0.828845
0.326482 0.828845
0.683424 0.828845
0.683424 0.912921
0.683424 0.828845
0.683424 0.912921
0.326482 0.912921
0.326482 0.912921
0.326482 0.828845
0.683424 0.828845
0.998801 0.226236
0.998801 0.338251
0.984063 0.338252
0.984063 0.338252
0.984063 0.226236
0.998801 0.226236
0.332395 0.858258
0.677509 0.858258
0.677512 0.898187
0.677512 0.898187
0.998801 0.226236
0.998801 0.338251
0.984063 0.338252
0.984063 0.338252
0.332395 0.858258
0.677512 0.898187
0.677615 0.944591
0.338674 0.944591
0.338674 0.944591
0.998801 0.226236
0.677617 0.984521
0.338677 0.984521
0.338677 0.984521
0.984063 0.226236
0.683424 0.999254
0.332868 0.999254
0.332868 0.915178
0.332868 0.915178
0.683424 0.915178
0.683424 0.999254
0.683424 0.915178
0.683424 0.999254
0.332868 0.999254
0.332868 0.999254
0.332868 0.915179
0.683424 0.915178
0.998801 0.226236
0.998801 0.338251
0.984063 0.338252
0.984063 0.338252
0.984063 0.226236
0.998801 0.226236
0.338674 0.944591
0.677615 0.944591
0.677617 0.984521
0.677617 0.984521
0.998801 0.226236
0.998801 0.338251
0.984063 0.338252
0.984063 0.338252
0.338674 0.944591
0.677617 0.984521
0.677509 0.858258
0.332395 0.858258
0.332395 0.858258
0.998801 0.226236
0.677512 0.898187
0.332397 0.898187
0.332397 0.898187
0.984063 0.226236
0.683424 0.912921
0.326482 0.912921
0.326482 0.828845
0.326482 0.828845
0.683424 0.828845
0.683424 0.912921
0.683424 0.828845
0.683424 0.912921
0.326482 0.912921
0.326482 0.912921
0.326482 0.828845
0.683424 0.828845
0.998801 0.226236
0.998801 0.338251
0.984063 0.338252
0.984063 0.338252
0.984063 0.226236
0.998801 0.226236
0.332395 0.858258
0.677509 0.858258
0.677512 0.898187
0.677512 0.898187
0.998801 0.226236
0.998801 0.338251
0.984063 0.338252
0.984063 0.338252
0.332395 0.858258
0.677512 0.898187
0.677615 0.944591
0.338674 0.944591
0.338674 0.944591
0.998801 0.226236
0.677617 0.984521
0.338677 0.984521
0.338677 0.984521
0.984063 0.226236
0.683424 0.999254
0.332868 0.999254
0.332868 0.915178
0.332868 0.915178
0.683424 0.915178
0.683424 0.999254
0.683424 0.915178
0.683424 0.999254
0.332868 0.999254
0.332868 0.999254
0.332868 0.915179
0.683424 0.915178
0.998801 0.226236
0.998801 0.338251
0.984063 0.338252
0.984063 0.338252
0.984063 0.226236
0.998801 0.226236
0.338674 0.944591
0.677615 0.944591
0.677617 0.984521
0.677617 0.984521
0.998801 0.226236
0.998801 0.338251
0.984063 0.338252
0.984063 0.338252
0.338674 0.944591
0.677617 0.984521
0.677509 0.858258
0.332395 0.858258
0.332395 0.858258
0.998801 0.226236
0.677512 0.898187
0.332397 0.898187
0.332397 0.898187
0.984063 0.226236
0.683424 0.912921
0.326482 0.912921
0.326482 0.828845
0.326482 0.828845
0.683424 0.828845
0.683424 0.912921
0.683424 0.828845
0.683424 0.912921
0.326482 0.912921
0.326482 0.912921
0.326482 0.828845
0.683424 0.828845
0.998801 0.226236
0.998801 0.338251
0.984063 0.338252
0.984063 0.338252
0.984063 0.226236
0.998801 0.226236
0.332395 0.858258
0.677509 0.858258
0.677512 0.898187
0.677512 0.898187
0.998801 0.226236
0.998801 0.338251
0.984063 0.338252
0.984063 0.338252
0.332395 0.858258
0.677512 0.898187
0.677509 0.858258
0.332395 0.858258
0.332395 0.858258
0.998801 0.226236
0.677512 0.898187
0.332397 0.898187
0.332397 0.898187
0.984063 0.226236
0.683424 0.912921
0.326482 0.912921
0.326482 0.828845
0.326482 0.828845
0.683424 0.828845
0.683424 0.912921
0.683424 0.828845
0.683424 0.912921
0.326482 0.912921
0.326482 0.912921
0.326482 0.828845
0.683424 0.828845
0.998801 0.226236
0.998801 0.338251
0.984063 0.338252
0.984063 0.338252
0.984063 0.226236
0.998801 0.226236
0.332395 0.858258
0.677509 0.858258
0.677512 0.898187
0.677512 0.898187
0.998801 0.226236
0.998801 0.338251
0.984063 0.338252
0.984063 0.338252
0.332395 0.858258
0.677512 0.898187
0.677615 0.944591
0.338674 0.944591
0.338674 0.944591
0.998801 0.226236
0.677617 0.984521
0.338677 0.984521
0.338677 0.984521
0.984063 0.226236
0.683424 0.999254
0.332868 0.999254
0.332868 0.915178
0.332868 0.915178
0.683424 0.915178
0.683424 0.999254
0.683424 0.915178
0.683424 0.999254
0.332868 0.999254
0.332868 0.999254
0.332868 0.915179
0.683424 0.915178
0.998801 0.226236
0.998801 0.338251
0.984063 0.338252
0.984063 0.338252
0.984063 0.226236
0.998801 0.226236
0.338674 0.944591
0.677615 0.944591
0.677617 0.984521
0.677617 0.984521
0.998801 0.226236
0.998801 0.338251
0.984063 0.338252
0.984063 0.338252
0.338674 0.944591
0.677617 0.984521
0.677615 0.944591
0.338674 0.944591
0.338674 0.944591
0.998801 0.226236
0.677617 0.984521
0.338677 0.984521
0.338677 0.984521
0.984063 0.226236
0.683424 0.999254
0.332868 0.999254
0.332868 0.915178
0.332868 0.915178
0.683424 0.915178
0.683424 0.999254
0.683424 0.915178
0.683424 0.999254
0.332868 0.999254
0.332868 0.999254
0.332868 0.915179
0.683424 0.915178
0.998801 0.226236
0.998801 0.338251
0.984063 0.338252
0.984063 0.338252
0.984063 0.226236
0.998801 0.226236
0.338674 0.944591
0.677615 0.944591
0.677617 0.984521
0.677617 0.984521
0.998801 0.226236
0.998801 0.338251
0.984063 0.338252
0.984063 0.338252
0.338674 0.944591
0.677617 0.984521
0.677615 0.944591
0.338674 0.944591
0.338674 0.944591
0.998801 0.226236
0.677617 0.984521
0.338677 0.984521
0.338677 0.984521
0.984063 0.226236
0.683424 0.999254
0.332868 0.999254
0.332868 0.915178
0.332868 0.915178
0.683424 0.915178
0.683424 0.999254
0.683424 0.915178
0.683424 0.999254
0.332868 0.999254
0.332868 0.999254
0.332868 0.915179
0.683424 0.915178
0.998801 0.226236
0.998801 0.338251
0.984063 0.338252
0.984063 0.338252
0.984063 0.226236
0.998801 0.226236
0.338674 0.944591
0.677615 0.944591
0.677617 0.984521
0.677617 0.984521
0.998801 0.226236
0.998801 0.338251
0.984063 0.338252
0.984063 0.338252
0.338674 0.944591
0.677617 0.984521
0.677615 0.944591
0.338674 0.944591
0.338674 0.944591
0.998801 0.226236
0.677617 0.984521
0.338677 0.984521
0.338677 0.984521
0.984063 0.226236
0.683424 0.999254
0.332868 0.999254
0.332868 0.915178
0.332868 0.915178
0.683424 0.915178
0.683424 0.999254
0.683424 0.915178
0.683424 0.999254
0.332868 0.999254
0.332868 0.999254
0.332868 0.915179
0.683424 0.915178
0.998801 0.226236
0.998801 0.338251
0.984063 0.338252
0.984063 0.338252
0.984063 0.226236
0.998801 0.226236
0.338674 0.944591
0.677615 0.944591
0.677617 0.984521
0.677617 0.984521
0.998801 0.226236
0.998801 0.338251
0.984063 0.338252
0.984063 0.338252
0.338674 0.944591
0.677617 0.984521
</float_array>
          <technique_common>
            <accessor source="#craterectunbroken400-lib-UV0-array" count="504" stride="2">
              <param name="S" type="float"/>
              <param name="T" type="float"/>
            </accessor>
          </technique_common>
        </source>
        <vertices id="craterectunbroken400-lib-Vertex">
          <input semantic="POSITION" source="#craterectunbroken400-lib-Position"/>
        </vertices>
        <polygons material="pallet_wood" count="188">
          <input semantic="VERTEX" offset="0" source="#craterectunbroken400-lib-Vertex"/>
          <input semantic="NORMAL" offset="1" source="#craterectunbroken400-lib-Normal0"/>
          <input semantic="TEXCOORD" offset="2" set="0" source="#craterectunbroken400-lib-UV0"/>
          <p>0 0 8 2 1 9 3 2 10</p>
          <p>3 3 11 1 4 12 0 5 13</p>
          <p>4 6 14 5 7 15 7 8 16</p>
          <p>7 9 17 6 10 18 4 11 19</p>
          <p>0 12 20 1 13 21 5 14 22</p>
          <p>5 15 23 4 16 24 0 17 25</p>
          <p>1 18 26 3 19 27 7 20 28</p>
          <p>7 21 29 5 22 5 1 23 1</p>
          <p>3 24 30 2 25 31 6 26 32</p>
          <p>6 27 33 7 28 7 3 29 3</p>
          <p>2 30 34 0 31 0 4 32 35</p>
          <p>4 33 4 6 34 6 2 35 2</p>
          <p>24 36 80 25 37 82 10 38 47</p>
          <p>10 39 47 11 40 46 24 41 80</p>
          <p>14 42 46 26 43 84 27 44 86</p>
          <p>27 45 86 15 46 47 14 47 46</p>
          <p>23 48 71 8 49 40 9 50 41</p>
          <p>9 51 41 20 52 68 23 53 71</p>
          <p>21 54 77 28 55 88 24 56 81</p>
          <p>24 57 81 11 58 37 21 59 77</p>
          <p>21 60 69 11 61 40 10 62 41</p>
          <p>10 63 41 22 64 70 21 65 69</p>
          <p>23 66 79 29 67 90 25 68 83</p>
          <p>25 69 83 8 70 99 23 71 79</p>
          <p>17 72 65 16 73 64 13 74 43</p>
          <p>13 75 43 12 76 42 17 77 65</p>
          <p>27 78 87 30 79 92 18 80 74</p>
          <p>18 81 74 15 82 39 27 83 87</p>
          <p>18 84 66 19 85 67 14 86 43</p>
          <p>14 87 43 15 88 42 18 89 66</p>
          <p>26 90 85 31 91 94 17 92 73</p>
          <p>17 93 73 12 94 97 26 95 85</p>
          <p>23 96 62 20 97 56 16 98 48</p>
          <p>16 99 48 17 100 50 23 101 62</p>
          <p>30 102 93 28 103 89 21 104 58</p>
          <p>21 105 58 18 106 52 30 107 93</p>
          <p>21 108 59 22 109 60 19 110 54</p>
          <p>19 111 54 18 112 53 21 113 59</p>
          <p>31 114 95 29 115 91 23 116 63</p>
          <p>23 117 63 17 118 51 31 119 95</p>
          <p>9 120 44 8 121 45 25 122 82</p>
          <p>25 123 82 24 124 80 9 125 44</p>
          <p>12 126 44 13 127 45 27 128 86</p>
          <p>27 129 86 26 130 84 12 131 44</p>
          <p>20 132 76 9 133 36 24 134 100</p>
          <p>24 135 100 28 136 104 20 137 76</p>
          <p>22 138 78 10 139 98 25 140 101</p>
          <p>25 141 101 29 142 105 22 143 78</p>
          <p>13 144 38 16 145 72 30 146 106</p>
          <p>30 147 106 27 148 103 13 149 38</p>
          <p>14 150 96 19 151 75 31 152 107</p>
          <p>31 153 107 26 154 102 14 155 96</p>
          <p>16 156 49 20 157 57 28 158 89</p>
          <p>28 159 89 30 160 93 16 161 49</p>
          <p>19 162 55 22 163 61 29 164 91</p>
          <p>29 165 91 31 166 95 19 167 55</p>
          <p>32 168 116 34 169 117 35 170 118</p>
          <p>35 171 119 33 172 120 32 173 121</p>
          <p>36 174 122 37 175 123 39 176 124</p>
          <p>39 177 125 38 178 126 36 179 127</p>
          <p>32 180 128 33 181 129 37 182 130</p>
          <p>37 183 131 36 184 132 32 185 133</p>
          <p>33 186 134 35 187 135 39 188 136</p>
          <p>39 189 137 37 190 113 33 191 109</p>
          <p>35 192 138 34 193 139 38 194 140</p>
          <p>38 195 141 39 196 115 35 197 111</p>
          <p>34 198 142 32 199 108 36 200 143</p>
          <p>36 201 112 38 202 114 34 203 110</p>
          <p>40 204 152 42 205 153 43 206 154</p>
          <p>43 207 155 41 208 156 40 209 157</p>
          <p>44 210 158 45 211 159 47 212 160</p>
          <p>47 213 161 46 214 162 44 215 163</p>
          <p>40 216 164 41 217 165 45 218 166</p>
          <p>45 219 167 44 220 168 40 221 169</p>
          <p>41 222 170 43 223 171 47 224 172</p>
          <p>47 225 173 45 226 149 41 227 145</p>
          <p>43 228 174 42 229 175 46 230 176</p>
          <p>46 231 177 47 232 151 43 233 147</p>
          <p>42 234 178 40 235 144 44 236 179</p>
          <p>44 237 148 46 238 150 42 239 146</p>
          <p>48 240 188 50 241 189 51 242 190</p>
          <p>51 243 191 49 244 192 48 245 193</p>
          <p>52 246 194 53 247 195 55 248 196</p>
          <p>55 249 197 54 250 198 52 251 199</p>
          <p>48 252 200 49 253 201 53 254 202</p>
          <p>53 255 203 52 256 204 48 257 205</p>
          <p>49 258 206 51 259 207 55 260 208</p>
          <p>55 261 209 53 262 185 49 263 181</p>
          <p>51 264 210 50 265 211 54 266 212</p>
          <p>54 267 213 55 268 187 51 269 183</p>
          <p>50 270 214 48 271 180 52 272 215</p>
          <p>52 273 184 54 274 186 50 275 182</p>
          <p>56 276 224 58 277 225 59 278 226</p>
          <p>59 279 227 57 280 228 56 281 229</p>
          <p>60 282 230 61 283 231 63 284 232</p>
          <p>63 285 233 62 286 234 60 287 235</p>
          <p>56 288 236 57 289 237 61 290 238</p>
          <p>61 291 239 60 292 240 56 293 241</p>
          <p>57 294 242 59 295 243 63 296 244</p>
          <p>63 297 245 61 298 221 57 299 217</p>
          <p>59 300 246 58 301 247 62 302 248</p>
          <p>62 303 249 63 304 223 59 305 219</p>
          <p>58 306 250 56 307 216 60 308 251</p>
          <p>60 309 220 62 310 222 58 311 218</p>
          <p>64 312 260 66 313 261 67 314 262</p>
          <p>67 315 263 65 316 264 64 317 265</p>
          <p>68 318 266 69 319 267 71 320 268</p>
          <p>71 321 269 70 322 270 68 323 271</p>
          <p>64 324 272 65 325 273 69 326 274</p>
          <p>69 327 275 68 328 276 64 329 277</p>
          <p>65 330 278 67 331 279 71 332 280</p>
          <p>71 333 281 69 334 257 65 335 253</p>
          <p>67 336 282 66 337 283 70 338 284</p>
          <p>70 339 285 71 340 259 67 341 255</p>
          <p>66 342 286 64 343 252 68 344 287</p>
          <p>68 345 256 70 346 258 66 347 254</p>
          <p>72 348 296 74 349 297 75 350 298</p>
          <p>75 351 299 73 352 300 72 353 301</p>
          <p>76 354 302 77 355 303 79 356 304</p>
          <p>79 357 305 78 358 306 76 359 307</p>
          <p>72 360 308 73 361 309 77 362 310</p>
          <p>77 363 311 76 364 312 72 365 313</p>
          <p>73 366 314 75 367 315 79 368 316</p>
          <p>79 369 317 77 370 293 73 371 289</p>
          <p>75 372 318 74 373 319 78 374 320</p>
          <p>78 375 321 79 376 295 75 377 291</p>
          <p>74 378 322 72 379 288 76 380 323</p>
          <p>76 381 292 78 382 294 74 383 290</p>
          <p>80 384 332 82 385 333 83 386 334</p>
          <p>83 387 335 81 388 336 80 389 337</p>
          <p>84 390 338 85 391 339 87 392 340</p>
          <p>87 393 341 86 394 342 84 395 343</p>
          <p>80 396 344 81 397 345 85 398 346</p>
          <p>85 399 347 84 400 348 80 401 349</p>
          <p>81 402 350 83 403 351 87 404 352</p>
          <p>87 405 353 85 406 329 81 407 325</p>
          <p>83 408 354 82 409 355 86 410 356</p>
          <p>86 411 357 87 412 331 83 413 327</p>
          <p>82 414 358 80 415 324 84 416 359</p>
          <p>84 417 328 86 418 330 82 419 326</p>
          <p>88 420 368 90 421 369 91 422 370</p>
          <p>91 423 371 89 424 372 88 425 373</p>
          <p>92 426 374 93 427 375 95 428 376</p>
          <p>95 429 377 94 430 378 92 431 379</p>
          <p>88 432 380 89 433 381 93 434 382</p>
          <p>93 435 383 92 436 384 88 437 385</p>
          <p>89 438 386 91 439 387 95 440 388</p>
          <p>95 441 389 93 442 365 89 443 361</p>
          <p>91 444 390 90 445 391 94 446 392</p>
          <p>94 447 393 95 448 367 91 449 363</p>
          <p>90 450 394 88 451 360 92 452 395</p>
          <p>92 453 364 94 454 366 90 455 362</p>
          <p>96 456 404 98 457 405 99 458 406</p>
          <p>99 459 407 97 460 408 96 461 409</p>
          <p>100 462 410 101 463 411 103 464 412</p>
          <p>103 465 413 102 466 414 100 467 415</p>
          <p>96 468 416 97 469 417 101 470 418</p>
          <p>101 471 419 100 472 420 96 473 421</p>
          <p>97 474 422 99 475 423 103 476 424</p>
          <p>103 477 425 101 478 401 97 479 397</p>
          <p>99 480 426 98 481 427 102 482 428</p>
          <p>102 483 429 103 484 403 99 485 399</p>
          <p>98 486 430 96 487 396 100 488 431</p>
          <p>100 489 400 102 490 402 98 491 398</p>
          <p>104 492 440 106 493 441 107 494 442</p>
          <p>107 495 443 105 496 444 104 497 445</p>
          <p>108 498 446 109 499 447 111 500 448</p>
          <p>111 501 449 110 502 450 108 503 451</p>
          <p>104 504 452 105 505 453 109 506 454</p>
          <p>109 507 455 108 508 456 104 509 457</p>
          <p>105 510 458 107 511 459 111 512 460</p>
          <p>111 513 461 109 514 437 105 515 433</p>
          <p>107 516 462 106 517 463 110 518 464</p>
          <p>110 519 465 111 520 439 107 521 435</p>
          <p>106 522 466 104 523 432 108 524 467</p>
          <p>108 525 436 110 526 438 106 527 434</p>
          <p>112 528 476 114 529 477 115 530 478</p>
          <p>115 531 479 113 532 480 112 533 481</p>
          <p>116 534 482 117 535 483 119 536 484</p>
          <p>119 537 485 118 538 486 116 539 487</p>
          <p>112 540 488 113 541 489 117 542 490</p>
          <p>117 543 491 116 544 492 112 545 493</p>
          <p>113 546 494 115 547 495 119 548 496</p>
          <p>119 549 497 117 550 473 113 551 469</p>
          <p>115 552 498 114 553 499 118 554 500</p>
          <p>118 555 501 119 556 475 115 557 471</p>
          <p>114 558 502 112 559 468 116 560 503</p>
          <p>116 561 472 118 562 474 114 563 470</p>
        </polygons>
      </mesh>
    </geometry>
    <geometry id="craterectbrokena400-lib" name="craterectbrokena400Mesh">
      <mesh>
        <source id="craterectbrokena400-lib-Position">
          <float_array id="craterectbrokena400-lib-Position-array" count="180">
0.786324 0.343725 0.311127
0.787538 0.342124 0.082046
0.787538 0.385996 0.309139
0.787538 0.385996 0.082046
-0.637409 0.343725 0.312331
-0.679461 0.385996 0.310490
-0.636557 0.385996 0.310440
-0.637409 0.343725 0.545331
-0.679461 0.385996 0.545306
-0.639818 0.388386 0.543833
-0.637409 -0.313928 0.085014
0.787538 -0.313873 0.082046
-0.637409 0.343725 0.085014
0.787538 0.223068 0.082046
-0.637409 0.223725 0.085014
-0.637409 0.223725 0.549357
-0.637409 -0.313928 0.553259
-0.119499 -0.313928 0.547145
0.029522 -0.313928 0.447654
-0.008602 -0.313928 0.422525
0.023621 -0.313928 0.395967
0.019222 -0.313928 0.373206
0.207738 -0.313928 0.294429
0.786324 -0.313928 0.306019
-0.679461 -0.356199 0.034663
0.787538 -0.356199 0.034663
-0.679461 0.385996 0.034663
0.787538 0.385996 0.034663
0.787538 -0.356199 0.082046
-0.679461 0.385996 0.082046
-0.679461 -0.356199 0.082046
0.787538 0.223068 0.034663
-0.679461 0.223068 0.034663
-0.679461 0.223068 0.082046
-0.679461 0.223068 0.549644
-0.679461 -0.356199 0.553848
-0.121464 -0.356199 0.547261
0.039091 -0.356199 0.472754
-0.001984 -0.356199 0.445680
0.032733 -0.356199 0.417067
0.027994 -0.356199 0.392544
0.231101 -0.356199 0.307670
0.787538 -0.356199 0.304298
-0.636531 0.385996 0.082046
-0.673772 0.429334 0.034592
-0.549611 0.429334 0.034592
-0.673772 -0.384571 0.034592
-0.549611 -0.384571 0.034592
-0.673772 0.429334 -0.003696
-0.549611 0.429334 -0.003696
-0.673772 -0.384571 -0.003696
-0.549611 -0.384571 -0.003696
0.544675 0.432760 0.034592
0.668836 0.432760 0.034592
0.544675 -0.381144 0.034592
0.668836 -0.381144 0.034592
0.544675 0.432760 -0.003696
0.668836 0.432760 -0.003696
0.544675 -0.381144 -0.003696
0.668836 -0.381144 -0.003696
</float_array>
          <technique_common>
            <accessor source="#craterectbrokena400-lib-Position-array" count="60" stride="3">
              <param name="X" type="float"/>
              <param name="Y" type="float"/>
              <param name="Z" type="float"/>
            </accessor>
          </technique_common>
        </source>
        <source id="craterectbrokena400-lib-Normal0">
          <float_array id="craterectbrokena400-lib-Normal0-array" count="981">
0.691664 0.016522 0.722031
0.999986 0.000000 0.005302
0.999983 -0.003338 0.004686
0.999983 -0.003338 0.004686
0.724308 0.011581 0.689379
0.691664 0.016522 0.722031
0.998960 0.045571 0.001604
0.998548 0.053863 0.000000
0.999863 -0.010855 0.012499
0.999863 -0.010855 0.012499
0.999709 -0.019519 0.014169
0.998960 0.045571 0.001604
-0.053472 0.998522 -0.009768
-0.060599 0.998101 -0.011070
-0.002155 0.999998 -0.000394
-0.002155 0.999998 -0.000394
0.000000 1.000000 0.000000
-0.053472 0.998522 -0.009768
0.724308 0.011581 0.689379
0.000913 0.044657 0.999002
0.000912 0.044701 0.999000
0.000912 0.044701 0.999000
0.691664 0.016522 0.722031
0.724308 0.011581 0.689379
0.002083 -0.000000 0.999998
0.002083 -0.000000 0.999998
0.002083 -0.000000 0.999998
0.002083 -0.000000 0.999998
0.002083 -0.000000 0.999998
0.002083 -0.000000 0.999998
0.002083 -0.000000 0.999998
0.002083 -0.000000 0.999998
0.002083 -0.000000 0.999998
0.002083 -0.000000 0.999998
0.002083 -0.000000 0.999998
0.002083 -0.000000 0.999998
1.000000 0.000000 0.000001
1.000000 -0.000000 0.000001
1.000000 0.000002 0.000000
1.000000 0.000000 0.000001
1.000000 0.000002 0.000000
1.000000 0.000000 0.000000
1.000000 0.000000 0.000001
1.000000 0.000000 0.000000
1.000000 0.000000 0.000001
1.000000 0.000000 0.000001
1.000000 0.000000 0.000001
1.000000 0.000000 0.000001
1.000000 0.000000 0.000001
1.000000 0.000000 0.000001
1.000000 0.000000 0.000001
-0.000028 1.000000 0.000135
-0.000005 1.000000 0.000244
-0.000012 1.000000 0.000224
-0.000028 1.000000 0.000135
-0.000012 1.000000 0.000224
-0.000006 1.000000 0.000024
-0.000006 1.000000 0.000024
0.000000 1.000000 0.000000
0.000000 1.000000 0.000000
0.000000 1.000000 0.000000
0.000000 1.000000 0.000000
0.000000 1.000000 0.000000
0.000000 1.000000 0.000000
0.000000 1.000000 0.000000
0.000000 1.000000 0.000000
0.000000 1.000000 0.000000
0.000000 1.000000 0.000000
0.000000 1.000000 0.000000
-0.000006 1.000000 0.000024
0.000000 1.000000 0.000000
0.000000 1.000000 0.000000
-0.000006 1.000000 0.000024
0.000000 1.000000 0.000000
-0.000028 1.000000 0.000135
-0.001009 -0.999999 0.000710
-0.001124 -0.999999 -0.000000
-0.000108 -0.999980 0.006282
-0.000108 -0.999980 0.006282
0.000006 -0.999976 0.006989
-0.001009 -0.999999 0.000710
0.000000 0.000000 -1.000000
0.000000 0.000000 -1.000000
0.000000 0.000000 -1.000000
0.000000 0.000000 -1.000000
0.000000 0.000000 -1.000000
0.000000 0.000000 -1.000000
0.000000 -1.000000 0.000000
0.000000 -1.000000 0.000000
0.000000 -1.000000 0.000000
0.000000 -1.000000 0.000000
0.000000 -1.000000 0.000000
0.000000 -1.000000 0.000000
1.000000 0.000000 0.000000
1.000000 0.000000 0.000000
1.000000 0.000000 0.000000
1.000000 0.000000 0.000000
1.000000 0.000000 0.000000
1.000000 0.000000 0.000000
0.000000 1.000000 0.000000
0.000000 1.000000 0.000000
0.000000 1.000000 0.000000
-1.000000 0.000000 0.000000
-1.000000 0.000000 0.000000
-1.000000 0.000000 0.000000
-1.000000 0.000000 0.000000
-1.000000 0.000000 0.000000
-1.000000 0.000000 0.000000
0.000000 0.000000 -1.000000
0.000000 0.000000 -1.000000
0.000000 0.000000 -1.000000
0.000000 0.000000 -1.000000
0.000000 0.000000 -1.000000
0.000000 0.000000 -1.000000
1.000000 0.000000 0.000000
1.000000 0.000000 0.000000
1.000000 0.000000 0.000000
-1.000000 0.000000 0.000000
-1.000000 0.000000 0.000000
-1.000000 0.000000 0.000000
-1.000000 0.000000 0.000000
-1.000000 0.000000 0.000000
-1.000000 0.000000 0.000000
-1.000000 0.000000 0.000000
-1.000000 0.000000 0.000000
-1.000000 0.000000 0.000000
-1.000000 0.000000 0.000000
-1.000000 0.000000 0.000000
-1.000000 0.000000 0.000000
-1.000000 0.000000 0.000000
-1.000000 0.000000 0.000000
-1.000000 0.000000 0.000000
-1.000000 0.000000 0.000000
-1.000000 0.000000 0.000000
-1.000000 0.000000 0.000000
-1.000000 0.000000 0.000000
-1.000000 0.000000 0.000000
-1.000000 0.000000 0.000000
0.000000 -1.000000 0.000000
0.000000 -1.000000 0.000000
0.000000 -1.000000 0.000000
0.000000 -1.000000 0.000000
0.000000 -1.000000 0.000000
0.000000 -1.000000 0.000000
0.000000 -1.000000 0.000000
0.000000 -1.000000 0.000000
0.000000 -1.000000 0.000000
0.000000 -1.000000 0.000000
0.000000 -1.000000 0.000000
0.000000 -1.000000 0.000000
0.000000 -1.000000 0.000000
0.000000 -1.000000 0.000000
0.000000 -1.000000 0.000000
0.000000 -1.000000 0.000000
0.000000 -1.000000 0.000000
0.000000 -1.000000 0.000000
0.000000 -1.000000 0.000000
0.000000 -1.000000 0.000000
0.000000 -1.000000 0.000000
0.000000 -1.000000 0.000000
0.000000 -1.000000 0.000000
0.000000 -1.000000 0.000000
-0.002155 0.999998 -0.000394
0.000000 1.000000 0.000000
0.000000 1.000000 0.000000
0.000000 1.000000 0.000000
0.000000 1.000000 0.000000
-0.002155 0.999998 -0.000394
1.000000 0.000000 0.000000
1.000000 0.000000 0.000000
1.000000 0.000000 0.000000
1.000000 0.000000 0.000000
1.000000 0.000000 0.000000
1.000000 0.000000 0.000000
1.000000 0.000000 0.000000
1.000000 0.000000 0.000000
1.000000 0.000000 0.000000
0.000000 1.000000 0.000000
-0.002155 0.999998 -0.000394
0.000000 1.000000 0.000000
0.000000 1.000000 0.000000
0.000000 1.000000 0.000000
0.000000 1.000000 0.000000
0.000000 1.000000 0.000000
0.000000 1.000000 0.000000
0.000000 1.000000 0.000000
0.000000 1.000000 0.000000
0.000000 1.000000 0.000000
0.000000 1.000000 0.000000
0.693003 -0.000075 0.720935
0.217469 0.399187 0.890706
0.120585 0.349280 0.929227
0.120585 0.349280 0.929227
0.724661 -0.007230 0.689067
0.693003 -0.000075 0.720935
0.000000 0.000000 0.000000
-1.000000 0.000000 0.000000
0.999985 0.000000 0.005422
0.999983 0.003412 0.004779
0.999985 0.000000 0.005422
0.693003 -0.000075 0.720935
0.724661 -0.007230 0.689067
0.999983 0.003412 0.004779
0.693003 -0.000075 0.720935
0.217469 0.399187 0.890706
0.768355 0.391180 0.506566
0.885254 0.332486 0.325237
0.885254 0.332486 0.325237
0.120585 0.349280 0.929227
0.217469 0.399187 0.890706
0.951365 0.033521 -0.306236
0.940820 0.244435 0.234754
0.948649 -0.024245 -0.315399
0.948649 -0.024245 -0.315399
0.955808 0.241490 0.167674
0.951365 0.033521 -0.306236
0.885254 0.332486 0.325237
0.768355 0.391180 0.506566
0.933333 0.299788 0.197527
0.933333 0.299788 0.197527
0.835712 0.378675 0.397731
0.885254 0.332486 0.325237
0.835712 0.378675 0.397731
0.933333 0.299788 0.197527
0.955808 0.241490 0.167674
0.955808 0.241490 0.167674
0.948649 -0.024245 -0.315399
0.835712 0.378675 0.397731
0.238290 0.041494 0.970307
0.009256 0.004728 0.999946
0.009267 0.004717 0.999946
0.009267 0.004717 0.999946
0.215297 -0.007336 0.976521
0.238290 0.041494 0.970307
0.940820 0.244435 0.234754
0.951365 0.033521 -0.306236
0.238290 0.041494 0.970307
0.238290 0.041494 0.970307
0.215297 -0.007336 0.976521
0.940820 0.244435 0.234754
0.026084 0.029428 0.999227
0.034971 0.035372 0.998762
0.030742 0.031165 0.999041
0.026084 0.029428 0.999227
0.030742 0.031165 0.999041
0.008625 0.019525 0.999772
0.006501 0.020527 0.999768
0.026084 0.029428 0.999227
0.008625 0.019525 0.999772
0.008625 0.019525 0.999772
0.009267 0.004717 0.999946
0.009256 0.004728 0.999946
0.009256 0.004728 0.999946
0.006501 0.020527 0.999768
0.008625 0.019525 0.999772
0.000000 0.000000 1.000000
0.000000 0.000000 1.000000
0.000000 0.000000 1.000000
0.000000 0.000000 1.000000
0.000000 0.000000 1.000000
0.000000 0.000000 1.000000
-0.000000 -0.000000 -1.000000
-0.000000 -0.000000 -1.000000
-0.000000 -0.000000 -1.000000
-0.000000 -0.000000 -1.000000
-0.000000 -0.000000 -1.000000
-0.000000 -0.000000 -1.000000
0.000000 1.000000 0.000000
0.000000 1.000000 0.000000
0.000000 1.000000 0.000000
0.000000 1.000000 0.000000
0.000000 1.000000 0.000000
0.000000 1.000000 0.000000
1.000000 -0.000000 0.000000
1.000000 -0.000000 0.000000
1.000000 -0.000000 0.000000
1.000000 -0.000000 0.000000
1.000000 -0.000000 0.000000
1.000000 -0.000000 0.000000
0.000000 -1.000000 0.000000
0.000000 -1.000000 0.000000
0.000000 -1.000000 0.000000
0.000000 -1.000000 0.000000
0.000000 -1.000000 0.000000
0.000000 -1.000000 0.000000
-1.000000 0.000000 0.000000
-1.000000 0.000000 0.000000
-1.000000 0.000000 0.000000
-1.000000 0.000000 0.000000
-1.000000 0.000000 0.000000
-1.000000 0.000000 0.000000
0.000000 0.000000 1.000000
0.000000 0.000000 1.000000
0.000000 0.000000 1.000000
0.000000 0.000000 1.000000
0.000000 0.000000 1.000000
0.000000 0.000000 1.000000
-0.000000 -0.000000 -1.000000
-0.000000 -0.000000 -1.000000
-0.000000 -0.000000 -1.000000
-0.000000 -0.000000 -1.000000
-0.000000 -0.000000 -1.000000
-0.000000 -0.000000 -1.000000
0.000000 1.000000 0.000000
0.000000 1.000000 0.000000
0.000000 1.000000 0.000000
0.000000 1.000000 0.000000
0.000000 1.000000 0.000000
0.000000 1.000000 0.000000
1.000000 -0.000000 0.000000
1.000000 -0.000000 0.000000
1.000000 -0.000000 0.000000
1.000000 -0.000000 0.000000
1.000000 -0.000000 0.000000
1.000000 -0.000000 0.000000
0.000000 -1.000000 0.000000
0.000000 -1.000000 0.000000
0.000000 -1.000000 0.000000
0.000000 -1.000000 0.000000
0.000000 -1.000000 0.000000
0.000000 -1.000000 0.000000
-1.000000 0.000000 0.000000
-1.000000 0.000000 0.000000
-1.000000 0.000000 0.000000
-1.000000 0.000000 0.000000
-1.000000 0.000000 0.000000
-1.000000 0.000000 0.000000
</float_array>
          <technique_common>
            <accessor source="#craterectbrokena400-lib-Normal0-array" count="327" stride="3">
              <param name="X" type="float"/>
              <param name="Y" type="float"/>
              <param name="Z" type="float"/>
            </accessor>
          </technique_common>
        </source>
        <source id="craterectbrokena400-lib-UV0">
          <float_array id="craterectbrokena400-lib-UV0-array" count="404">
0.988229 -0.658760
0.988234 -0.772764
0.999288 -0.772594
0.999227 -0.658689
0.662879 -0.008540
0.643269 -0.007509
0.643269 -0.219831
0.661806 -0.221146
0.999146 0.338981
0.988275 0.337913
0.987403 0.114531
0.999146 0.114571
1.000675 0.972990
0.001430 0.972990
0.000675 0.935537
0.999599 0.935537
0.332445 0.510088
0.003737 0.745409
0.003740 0.692674
0.999983 0.691986
0.550659 0.670233
0.329956 0.510251
0.681934 0.510251
0.590629 -0.326343
0.668440 0.668929
0.643269 -0.326351
0.332445 0.751237
0.999981 0.745139
0.590629 -0.004712
0.354780 -0.326309
0.354780 -0.001975
0.668718 0.513157
0.421387 -0.331545
0.342999 0.515221
0.342999 0.840883
0.461384 0.836630
0.495448 0.767435
0.486734 0.749958
0.494099 0.731487
0.493094 0.715657
0.683192 0.513157
0.329956 0.590107
0.681934 0.590810
0.421387 -0.011071
0.999631 -0.658359
0.998960 -0.970092
0.320596 -0.076146
0.686652 -0.076146
0.332445 0.510088
0.683563 0.510088
0.332445 1.000000
0.683563 1.000000
0.683192 0.667732
0.329956 0.510251
0.681934 0.510251
0.353427 -0.014044
0.550348 0.670077
0.353427 -0.174978
0.686652 -0.053948
0.320596 -0.053948
0.686652 -0.053948
0.320596 -0.053948
0.999597 -1.007724
0.998960 -0.893965
0.987858 -0.658359
0.999524 -1.007592
0.332445 0.751237
0.987584 -0.893965
0.683563 0.751237
0.987911 -0.658491
0.987584 -0.998144
0.999524 -0.658491
0.353427 -0.331545
0.987881 -0.650799
0.987858 -1.007720
0.999597 -0.650799
0.999631 -1.007720
0.987881 -1.007724
0.987911 -1.007592
0.663012 -0.331545
0.663012 -0.008190
0.501858 0.729106
0.502989 0.746162
0.494701 0.766062
0.504507 0.784892
0.466176 0.836711
0.332959 0.841292
0.332959 0.513157
0.329956 0.667754
0.681934 0.669140
0.998960 -0.998144
0.999597 -0.981644
0.669034 0.669089
0.673229 -0.053948
0.669026 0.510251
0.683563 1.000000
0.686652 -0.076146
0.962249 0.935864
1.000095 0.938000
0.998070 0.973151
0.491700 0.973151
0.492257 0.935864
0.000829 0.973151
0.036649 0.935864
0.981600 0.887627
0.469923 0.887627
0.428377 0.848943
0.979658 0.848943
0.984940 0.578990
0.645607 0.578990
0.232410 0.117325
0.341573 0.091639
0.328737 0.139922
0.211125 0.167597
0.365898 0.112335
0.354944 0.162219
0.361715 0.145786
0.372182 0.097082
0.348487 0.098265
0.336186 0.147060
0.466505 0.101147
0.450768 0.142159
0.988257 -0.886995
0.999332 -0.886487
0.999349 -0.772822
0.988318 -0.773036
0.675524 0.541034
0.986449 0.541034
0.003724 0.983240
0.999968 0.983285
0.677615 0.944591
0.338674 0.944591
0.338674 0.944591
0.998801 0.226236
0.677617 0.984521
0.338677 0.984521
0.338677 0.984521
0.984063 0.226236
0.683424 0.999254
0.332868 0.999254
0.332868 0.915178
0.332868 0.915178
0.683424 0.915178
0.683424 0.999254
0.683424 0.915178
0.683424 0.999254
0.332868 0.999254
0.332868 0.999254
0.332868 0.915179
0.683424 0.915178
0.998801 0.226236
0.998801 0.338251
0.984063 0.338252
0.984063 0.338252
0.984063 0.226236
0.998801 0.226236
0.338674 0.944591
0.677615 0.944591
0.677617 0.984521
0.677617 0.984521
0.998801 0.226236
0.998801 0.338251
0.984063 0.338252
0.984063 0.338252
0.338674 0.944591
0.677617 0.984521
0.677509 0.858258
0.332395 0.858258
0.332395 0.858258
0.998801 0.226236
0.677512 0.898187
0.332397 0.898187
0.332397 0.898187
0.984063 0.226236
0.683424 0.912921
0.326482 0.912921
0.326482 0.828845
0.326482 0.828845
0.683424 0.828845
0.683424 0.912921
0.683424 0.828845
0.683424 0.912921
0.326482 0.912921
0.326482 0.912921
0.326482 0.828845
0.683424 0.828845
0.998801 0.226236
0.998801 0.338251
0.984063 0.338252
0.984063 0.338252
0.984063 0.226236
0.998801 0.226236
0.332395 0.858258
0.677509 0.858258
0.677512 0.898187
0.677512 0.898187
0.998801 0.226236
0.998801 0.338251
0.984063 0.338252
0.984063 0.338252
0.332395 0.858258
0.677512 0.898187
</float_array>
          <technique_common>
            <accessor source="#craterectbrokena400-lib-UV0-array" count="202" stride="2">
              <param name="S" type="float"/>
              <param name="T" type="float"/>
            </accessor>
          </technique_common>
        </source>
        <vertices id="craterectbrokena400-lib-Vertex">
          <input semantic="POSITION" source="#craterectbrokena400-lib-Position"/>
        </vertices>
        <polygons material="pallet_wood" count="109">
          <input semantic="VERTEX" offset="0" source="#craterectbrokena400-lib-Vertex"/>
          <input semantic="NORMAL" offset="1" source="#craterectbrokena400-lib-Normal0"/>
          <input semantic="TEXCOORD" offset="2" set="0" source="#craterectbrokena400-lib-UV0"/>
          <p>0 0 0 1 1 1 3 2 2</p>
          <p>3 3 2 2 4 3 0 5 0</p>
          <p>9 6 4 7 7 5 4 8 6</p>
          <p>4 9 6 6 10 7 9 11 4</p>
          <p>8 12 8 9 13 9 6 14 10</p>
          <p>6 15 10 5 16 11 8 17 8</p>
          <p>2 18 12 6 19 13 4 20 14</p>
          <p>4 21 14 0 22 15 2 23 12</p>
          <p>13 24 17 1 25 18 12 26 19</p>
          <p>12 27 19 14 28 27 13 29 17</p>
          <p>11 30 128 13 31 17 14 32 27</p>
          <p>14 33 27 10 34 129 11 35 128</p>
          <p>14 36 23 12 37 25 4 38 6</p>
          <p>14 39 23 4 40 6 7 41 5</p>
          <p>14 42 23 7 43 5 15 44 28</p>
          <p>10 45 29 14 46 23 15 47 28</p>
          <p>15 48 28 16 49 30 10 50 29</p>
          <p>22 51 20 23 52 24 11 53 31</p>
          <p>22 54 20 11 55 31 10 56 33</p>
          <p>10 57 33 16 58 34 17 59 35</p>
          <p>17 60 35 18 61 36 19 62 37</p>
          <p>19 63 37 20 64 38 21 65 39</p>
          <p>17 66 35 19 67 37 21 68 39</p>
          <p>10 69 33 17 70 35 21 71 39</p>
          <p>10 72 33 21 73 39 22 74 20</p>
          <p>4 75 42 12 76 22 1 77 21</p>
          <p>1 78 21 0 79 41 4 80 42</p>
          <p>26 81 95 27 82 50 31 83 66</p>
          <p>31 84 66 32 85 68 26 86 51</p>
          <p>25 87 47 28 88 58 30 89 61</p>
          <p>30 90 61 24 91 46 25 92 47</p>
          <p>1 93 45 13 94 63 31 95 67</p>
          <p>31 96 67 27 97 70 1 98 45</p>
          <p>26 99 47 29 100 60 43 101 93</p>
          <p>32 102 69 24 103 78 30 104 65</p>
          <p>30 105 65 33 106 71 32 107 69</p>
          <p>32 108 68 31 109 66 25 110 48</p>
          <p>25 111 48 24 112 49 32 113 68</p>
          <p>11 114 91 28 115 62 25 116 77</p>
          <p>32 117 74 33 118 76 29 119 44</p>
          <p>29 120 44 26 121 64 32 122 74</p>
          <p>33 123 32 34 124 43 8 125 55</p>
          <p>33 126 32 8 127 55 5 128 57</p>
          <p>33 129 32 5 130 57 29 131 72</p>
          <p>34 132 43 33 133 32 30 134 79</p>
          <p>30 135 79 35 136 80 34 137 43</p>
          <p>28 138 40 42 139 52 41 140 56</p>
          <p>40 141 81 39 142 82 38 143 83</p>
          <p>38 144 83 37 145 84 36 146 85</p>
          <p>40 147 81 38 148 83 36 149 85</p>
          <p>36 150 85 35 151 86 30 152 87</p>
          <p>40 153 81 36 154 85 30 155 87</p>
          <p>41 156 56 40 157 81 30 158 87</p>
          <p>28 159 40 41 160 56 30 161 87</p>
          <p>6 162 92 43 163 94 29 164 54</p>
          <p>29 165 54 5 166 89 6 167 92</p>
          <p>27 168 70 3 169 90 1 170 45</p>
          <p>11 171 91 25 172 77 31 173 73</p>
          <p>31 174 73 13 175 75 11 176 91</p>
          <p>43 177 94 6 178 92 2 179 88</p>
          <p>2 180 88 3 181 53 43 182 94</p>
          <p>27 183 46 26 184 96 43 185 93</p>
          <p>43 186 93 3 187 59 27 188 46</p>
          <p>23 189 108 22 190 109 41 191 126</p>
          <p>41 192 126 42 193 127 23 194 108</p>
          <p>1 195 21 13 196 26 11 197 16</p>
          <p>28 198 122 11 199 123 23 200 124</p>
          <p>42 201 125 28 202 122 23 203 124</p>
          <p>22 204 110 21 205 111 40 206 112</p>
          <p>40 207 112 41 208 113 22 209 110</p>
          <p>18 210 114 37 211 115 38 212 116</p>
          <p>38 213 116 19 214 117 18 215 114</p>
          <p>40 216 112 21 217 111 20 218 118</p>
          <p>20 219 118 39 220 119 40 221 112</p>
          <p>39 222 119 20 223 118 19 224 117</p>
          <p>19 225 117 38 226 116 39 227 119</p>
          <p>17 228 104 16 229 105 35 230 106</p>
          <p>35 231 106 36 232 107 17 233 104</p>
          <p>37 234 115 18 235 114 17 236 120</p>
          <p>17 237 120 36 238 121 37 239 115</p>
          <p>7 240 97 9 241 98 8 242 99</p>
          <p>7 243 97 8 244 99 34 245 100</p>
          <p>15 246 101 7 247 97 34 248 100</p>
          <p>34 249 100 35 250 102 16 251 103</p>
          <p>16 252 103 15 253 101 34 254 100</p>
          <p>44 255 138 46 256 139 47 257 140</p>
          <p>47 258 141 45 259 142 44 260 143</p>
          <p>48 261 144 49 262 145 51 263 146</p>
          <p>51 264 147 50 265 148 48 266 149</p>
          <p>44 267 150 45 268 151 49 269 152</p>
          <p>49 270 153 48 271 154 44 272 155</p>
          <p>45 273 156 47 274 157 51 275 158</p>
          <p>51 276 159 49 277 135 45 278 131</p>
          <p>47 279 160 46 280 161 50 281 162</p>
          <p>50 282 163 51 283 137 47 284 133</p>
          <p>46 285 164 44 286 130 48 287 165</p>
          <p>48 288 134 50 289 136 46 290 132</p>
          <p>52 291 174 54 292 175 55 293 176</p>
          <p>55 294 177 53 295 178 52 296 179</p>
          <p>56 297 180 57 298 181 59 299 182</p>
          <p>59 300 183 58 301 184 56 302 185</p>
          <p>52 303 186 53 304 187 57 305 188</p>
          <p>57 306 189 56 307 190 52 308 191</p>
          <p>53 309 192 55 310 193 59 311 194</p>
          <p>59 312 195 57 313 171 53 314 167</p>
          <p>55 315 196 54 316 197 58 317 198</p>
          <p>58 318 199 59 319 173 55 320 169</p>
          <p>54 321 200 52 322 166 56 323 201</p>
          <p>56 324 170 58 325 172 54 326 168</p>
        </polygons>
      </mesh>
    </geometry>
    <geometry id="craterectbrokenb400-lib" name="craterectbrokenb400Mesh">
      <mesh>
        <source id="craterectbrokenb400-lib-Position">
          <float_array id="craterectbrokenb400-lib-Position-array" count="84">
-0.673772 0.428865 0.822272
-0.549611 0.428865 0.822272
-0.673772 -0.385040 0.822272
-0.549611 -0.385040 0.822272
-0.673772 0.428865 0.783983
-0.549611 0.428865 0.783983
-0.673772 -0.385040 0.783984
-0.549611 -0.385040 0.783984
-0.770341 -0.344101 0.780850
0.773943 -0.344100 0.780849
-0.770342 0.385377 0.780849
0.773942 0.385377 0.780849
0.773943 -0.344100 0.727337
-0.770341 -0.344101 0.727337
0.773942 0.385377 0.727337
-0.770342 0.385377 0.727337
-0.770341 0.014970 0.780849
0.773943 0.014970 0.780849
0.773943 0.014970 0.727337
-0.770341 0.014970 0.727337
0.544675 0.428865 0.822272
0.668836 0.428865 0.822272
0.544675 -0.385039 0.822272
0.668836 -0.385039 0.822272
0.544675 0.428865 0.783983
0.668836 0.428865 0.783983
0.544675 -0.385040 0.783984
0.668836 -0.385039 0.783984
</float_array>
          <technique_common>
            <accessor source="#craterectbrokenb400-lib-Position-array" count="28" stride="3">
              <param name="X" type="float"/>
              <param name="Y" type="float"/>
              <param name="Z" type="float"/>
            </accessor>
          </technique_common>
        </source>
        <source id="craterectbrokenb400-lib-Normal0">
          <float_array id="craterectbrokenb400-lib-Normal0-array" count="396">
0.000000 0.000000 1.000000
0.000000 0.000000 1.000000
0.000000 0.000000 1.000000
0.000000 0.000000 1.000000
0.000000 0.000000 1.000000
0.000000 0.000000 1.000000
-0.000000 -0.000000 -1.000000
-0.000000 -0.000000 -1.000000
-0.000000 -0.000000 -1.000000
-0.000000 -0.000000 -1.000000
0.000000 -0.000000 -1.000000
-0.000000 -0.000000 -1.000000
-0.000000 1.000000 -0.000001
0.000000 1.000000 -0.000001
-0.000000 1.000000 -0.000001
-0.000000 1.000000 -0.000001
-0.000000 1.000000 -0.000001
-0.000000 1.000000 -0.000001
1.000000 0.000000 -0.000000
1.000000 0.000000 -0.000002
1.000000 0.000000 -0.000002
1.000000 0.000000 -0.000002
1.000000 0.000000 -0.000000
1.000000 0.000000 -0.000000
0.000000 -1.000000 0.000001
0.000000 -1.000000 0.000001
0.000000 -1.000000 0.000001
0.000000 -1.000000 0.000001
0.000000 -1.000000 0.000001
0.000000 -1.000000 0.000001
-1.000000 -0.000000 0.000000
-1.000000 -0.000000 0.000000
-1.000000 -0.000000 0.000000
-1.000000 -0.000000 0.000000
-1.000000 -0.000000 0.000000
-1.000000 -0.000000 0.000000
0.000000 0.000001 1.000000
0.000000 0.000000 1.000000
0.000000 0.000001 1.000000
0.000000 0.000001 1.000000
0.000000 0.000000 1.000000
0.000000 0.000001 1.000000
0.000000 -1.000000 0.000001
0.000000 -1.000000 0.000001
0.000000 -1.000000 0.000001
0.000000 -1.000000 0.000001
0.000000 -1.000000 0.000001
0.000000 -1.000000 0.000001
1.000000 0.000001 -0.000000
1.000000 0.000001 0.000000
1.000000 0.000001 -0.000000
1.000000 0.000001 -0.000000
1.000000 0.000001 -0.000000
1.000000 0.000001 -0.000000
-0.000000 1.000000 0.000000
-0.000000 1.000000 0.000000
-0.000000 1.000000 0.000000
-0.000000 1.000000 0.000000
-0.000000 1.000000 0.000000
-0.000000 1.000000 0.000000
-1.000000 -0.000001 0.000000
-1.000000 -0.000001 0.000000
-1.000000 -0.000001 0.000000
-1.000000 -0.000001 0.000000
-1.000000 -0.000001 0.000000
-1.000000 -0.000001 0.000000
0.000000 0.000001 1.000000
0.000000 0.000000 1.000000
0.000000 0.000000 1.000000
0.000000 0.000000 1.000000
0.000000 0.000001 1.000000
0.000000 0.000001 1.000000
1.000000 0.000001 -0.000000
1.000000 0.000001 -0.000000
1.000000 0.000001 -0.000000
1.000000 0.000001 -0.000000
1.000000 0.000001 -0.000000
1.000000 0.000001 -0.000000
-1.000000 -0.000001 0.000000
-1.000000 -0.000001 0.000000
-1.000000 -0.000001 0.000000
-1.000000 -0.000001 0.000000
-1.000000 -0.000001 0.000000
-1.000000 -0.000001 0.000000
-0.000000 -0.000000 -1.000000
-0.000000 -0.000001 -1.000000
-0.000000 -0.000000 -1.000000
-0.000000 -0.000000 -1.000000
-0.000000 -0.000000 -1.000000
-0.000000 -0.000000 -1.000000
-0.000000 -0.000000 -1.000000
-0.000000 -0.000000 -1.000000
-0.000000 -0.000000 -1.000000
-0.000000 -0.000000 -1.000000
-0.000000 -0.000000 -1.000000
-0.000000 -0.000000 -1.000000
0.000000 0.000000 1.000000
-0.000000 0.000000 1.000000
0.000000 0.000000 1.000000
0.000000 0.000000 1.000000
0.000000 0.000000 1.000000
0.000000 0.000000 1.000000
0.000000 -0.000000 -1.000000
0.000000 -0.000000 -1.000000
0.000000 -0.000000 -1.000000
0.000000 -0.000000 -1.000000
0.000000 -0.000000 -1.000000
0.000000 -0.000000 -1.000000
-0.000000 1.000000 -0.000001
-0.000000 1.000000 -0.000001
-0.000000 1.000000 -0.000001
-0.000000 1.000000 -0.000001
-0.000000 1.000000 -0.000001
-0.000000 1.000000 -0.000001
1.000000 0.000000 0.000000
1.000000 0.000000 0.000000
1.000000 0.000000 0.000000
1.000000 0.000000 0.000000
1.000000 0.000000 0.000000
1.000000 0.000000 0.000000
0.000000 -1.000000 0.000001
0.000000 -1.000000 0.000001
0.000000 -1.000000 0.000001
0.000000 -1.000000 0.000001
0.000000 -1.000000 0.000001
0.000000 -1.000000 0.000001
-1.000000 0.000000 0.000000
-1.000000 0.000000 0.000000
-1.000000 0.000000 0.000000
-1.000000 0.000000 0.000000
-1.000000 0.000000 0.000000
-1.000000 0.000000 0.000000
</float_array>
          <technique_common>
            <accessor source="#craterectbrokenb400-lib-Normal0-array" count="132" stride="3">
              <param name="X" type="float"/>
              <param name="Y" type="float"/>
              <param name="Z" type="float"/>
            </accessor>
          </technique_common>
        </source>
        <source id="craterectbrokenb400-lib-UV0">
          <float_array id="craterectbrokenb400-lib-UV0-array" count="212">
0.677615 0.944591
0.338674 0.944591
0.338674 0.944591
0.998801 0.226236
0.677617 0.984521
0.338677 0.984521
0.338677 0.984521
0.984063 0.226236
0.683424 0.999254
0.332868 0.999254
0.332868 0.915178
0.332868 0.915178
0.683424 0.915178
0.683424 0.999254
0.683424 0.915178
0.683424 0.999254
0.332868 0.999254
0.332868 0.999254
0.332868 0.915179
0.683424 0.915178
0.998801 0.226236
0.998801 0.338251
0.984063 0.338252
0.984063 0.338252
0.984063 0.226236
0.998801 0.226236
0.338674 0.944591
0.677615 0.944591
0.677617 0.984521
0.677617 0.984521
0.998801 0.226236
0.998801 0.338251
0.984063 0.338252
0.984063 0.338252
0.338674 0.944591
0.677617 0.984521
0.999748 0.833600
0.999748 0.998569
0.000642 0.998569
0.000642 0.833600
0.000642 0.673679
0.999748 0.673679
0.000642 0.833600
0.000642 0.998569
0.999748 0.998569
0.000642 0.673679
0.999748 0.833600
0.999748 0.673679
0.999920 -0.661196
0.999035 -0.999706
0.320386 -0.606061
0.686442 -0.606061
0.686442 -0.631131
0.320386 -0.631131
0.320386 -0.631131
0.686442 -0.631131
0.988328 -0.998920
0.987757 -0.999706
0.988576 -0.894788
0.988537 -0.661196
0.999035 -0.773032
1.000220 -0.661713
0.988576 -0.661713
0.987757 -0.773032
0.988537 -0.894706
0.999869 -0.773170
0.988328 -0.773170
0.999920 -0.894706
0.999869 -0.998920
1.000220 -0.894788
0.677509 0.858258
0.332395 0.858258
0.332395 0.858258
0.998801 0.226236
0.677512 0.898187
0.332397 0.898187
0.332397 0.898187
0.984063 0.226236
0.683424 0.912921
0.326482 0.912921
0.326482 0.828845
0.326482 0.828845
0.683424 0.828845
0.683424 0.912921
0.683424 0.828845
0.683424 0.912921
0.326482 0.912921
0.326482 0.912921
0.326482 0.828845
0.683424 0.828845
0.998801 0.226236
0.998801 0.338251
0.984063 0.338252
0.984063 0.338252
0.984063 0.226236
0.998801 0.226236
0.332395 0.858258
0.677509 0.858258
0.677512 0.898187
0.677512 0.898187
0.998801 0.226236
0.998801 0.338251
0.984063 0.338252
0.984063 0.338252
0.332395 0.858258
0.677512 0.898187
</float_array>
          <technique_common>
            <accessor source="#craterectbrokenb400-lib-UV0-array" count="106" stride="2">
              <param name="S" type="float"/>
              <param name="T" type="float"/>
            </accessor>
          </technique_common>
        </source>
        <vertices id="craterectbrokenb400-lib-Vertex">
          <input semantic="POSITION" source="#craterectbrokenb400-lib-Position"/>
        </vertices>
        <polygons material="pallet_wood" count="44">
          <input semantic="VERTEX" offset="0" source="#craterectbrokenb400-lib-Vertex"/>
          <input semantic="NORMAL" offset="1" source="#craterectbrokenb400-lib-Normal0"/>
          <input semantic="TEXCOORD" offset="2" set="0" source="#craterectbrokenb400-lib-UV0"/>
          <p>0 0 8 2 1 9 3 2 10</p>
          <p>3 3 11 1 4 12 0 5 13</p>
          <p>4 6 14 5 7 15 7 8 16</p>
          <p>7 9 17 6 10 18 4 11 19</p>
          <p>0 12 20 1 13 21 5 14 22</p>
          <p>5 15 23 4 16 24 0 17 25</p>
          <p>1 18 26 3 19 27 7 20 28</p>
          <p>7 21 29 5 22 5 1 23 1</p>
          <p>3 24 30 2 25 31 6 26 32</p>
          <p>6 27 33 7 28 7 3 29 3</p>
          <p>2 30 34 0 31 0 4 32 35</p>
          <p>4 33 4 6 34 6 2 35 2</p>
          <p>17 36 36 11 37 37 10 38 38</p>
          <p>10 39 38 16 40 39 17 41 36</p>
          <p>9 42 51 8 43 50 13 44 53</p>
          <p>13 45 53 12 46 52 9 47 51</p>
          <p>14 48 58 11 49 69 17 50 61</p>
          <p>17 51 61 18 52 62 14 53 58</p>
          <p>10 54 51 11 55 50 14 56 54</p>
          <p>14 57 54 15 58 55 10 59 51</p>
          <p>13 60 57 8 61 49 16 62 60</p>
          <p>16 63 60 19 64 63 13 65 57</p>
          <p>17 66 36 16 67 39 8 68 40</p>
          <p>8 69 40 9 70 41 17 71 36</p>
          <p>18 72 66 17 73 65 9 74 68</p>
          <p>9 75 68 12 76 56 18 77 66</p>
          <p>19 78 64 16 79 67 10 80 48</p>
          <p>10 81 48 15 82 59 19 83 64</p>
          <p>19 84 42 15 85 43 14 86 44</p>
          <p>13 87 45 19 88 42 14 89 44</p>
          <p>13 90 45 14 91 44 18 92 46</p>
          <p>13 93 45 18 94 46 12 95 47</p>
          <p>20 96 78 22 97 79 23 98 80</p>
          <p>23 99 81 21 100 82 20 101 83</p>
          <p>24 102 84 25 103 85 27 104 86</p>
          <p>27 105 87 26 106 88 24 107 89</p>
          <p>20 108 90 21 109 91 25 110 92</p>
          <p>25 111 93 24 112 94 20 113 95</p>
          <p>21 114 96 23 115 97 27 116 98</p>
          <p>27 117 99 25 118 75 21 119 71</p>
          <p>23 120 100 22 121 101 26 122 102</p>
          <p>26 123 103 27 124 77 23 125 73</p>
          <p>22 126 104 20 127 70 24 128 105</p>
          <p>24 129 74 26 130 76 22 131 72</p>
        </polygons>
      </mesh>
    </geometry>
    <geometry id="craterectbrokenc400-lib" name="craterectbrokenc400Mesh">
      <mesh>
        <source id="craterectbrokenc400-lib-Position">
          <float_array id="craterectbrokenc400-lib-Position-array" count="24">
0.544675 0.524394 0.033928
0.668836 0.524394 0.033928
0.544675 0.524395 0.785158
0.668836 0.524395 0.785158
0.544675 0.486106 0.033928
0.668836 0.486106 0.033928
0.544675 0.486106 0.785158
0.668836 0.486106 0.785158
</float_array>
          <technique_common>
            <accessor source="#craterectbrokenc400-lib-Position-array" count="8" stride="3">
              <param name="X" type="float"/>
              <param name="Y" type="float"/>
              <param name="Z" type="float"/>
            </accessor>
          </technique_common>
        </source>
        <source id="craterectbrokenc400-lib-Normal0">
          <float_array id="craterectbrokenc400-lib-Normal0-array" count="108">
0.000000 1.000000 -0.000000
0.000000 1.000000 -0.000000
0.000000 1.000000 -0.000000
0.000000 1.000000 -0.000000
0.000000 1.000000 -0.000000
0.000000 1.000000 -0.000000
0.000000 -1.000000 0.000000
0.000000 -1.000000 0.000000
0.000000 -1.000000 0.000000
0.000000 -1.000000 0.000000
0.000000 -1.000000 0.000000
0.000000 -1.000000 0.000000
0.000000 0.000000 -1.000000
0.000000 0.000000 -1.000000
0.000000 0.000000 -1.000000
0.000000 0.000000 -1.000000
0.000000 0.000000 -1.000000
0.000000 0.000000 -1.000000
1.000000 0.000000 -0.000000
1.000000 0.000002 -0.000000
1.000000 0.000002 -0.000000
1.000000 0.000002 -0.000000
1.000000 0.000000 -0.000000
1.000000 0.000000 -0.000000
0.000000 0.000000 1.000000
0.000000 0.000000 1.000000
0.000000 0.000000 1.000000
0.000000 0.000000 1.000000
0.000000 0.000000 1.000000
0.000000 0.000000 1.000000
-1.000000 0.000000 0.000000
-1.000000 0.000000 0.000000
-1.000000 0.000000 0.000000
-1.000000 0.000000 0.000000
-1.000000 0.000000 0.000000
-1.000000 0.000000 0.000000
</float_array>
          <technique_common>
            <accessor source="#craterectbrokenc400-lib-Normal0-array" count="36" stride="3">
              <param name="X" type="float"/>
              <param name="Y" type="float"/>
              <param name="Z" type="float"/>
            </accessor>
          </technique_common>
        </source>
        <source id="craterectbrokenc400-lib-UV0">
          <float_array id="craterectbrokenc400-lib-UV0-array" count="72">
0.677509 0.858258
0.332395 0.858258
0.332395 0.858258
0.998801 0.226236
0.677512 0.898187
0.332397 0.898187
0.332397 0.898187
0.984063 0.226236
0.683424 0.912921
0.326482 0.912921
0.326482 0.828845
0.326482 0.828845
0.683424 0.828845
0.683424 0.912921
0.683424 0.828845
0.683424 0.912921
0.326482 0.912921
0.326482 0.912921
0.326482 0.828845
0.683424 0.828845
0.998801 0.226236
0.998801 0.338251
0.984063 0.338252
0.984063 0.338252
0.984063 0.226236
0.998801 0.226236
0.332395 0.858258
0.677509 0.858258
0.677512 0.898187
0.677512 0.898187
0.998801 0.226236
0.998801 0.338251
0.984063 0.338252
0.984063 0.338252
0.332395 0.858258
0.677512 0.898187
</float_array>
          <technique_common>
            <accessor source="#craterectbrokenc400-lib-UV0-array" count="36" stride="2">
              <param name="S" type="float"/>
              <param name="T" type="float"/>
            </accessor>
          </technique_common>
        </source>
        <vertices id="craterectbrokenc400-lib-Vertex">
          <input semantic="POSITION" source="#craterectbrokenc400-lib-Position"/>
        </vertices>
        <polygons material="pallet_wood" count="12">
          <input semantic="VERTEX" offset="0" source="#craterectbrokenc400-lib-Vertex"/>
          <input semantic="NORMAL" offset="1" source="#craterectbrokenc400-lib-Normal0"/>
          <input semantic="TEXCOORD" offset="2" set="0" source="#craterectbrokenc400-lib-UV0"/>
          <p>0 0 8 2 1 9 3 2 10</p>
          <p>3 3 11 1 4 12 0 5 13</p>
          <p>4 6 14 5 7 15 7 8 16</p>
          <p>7 9 17 6 10 18 4 11 19</p>
          <p>0 12 20 1 13 21 5 14 22</p>
          <p>5 15 23 4 16 24 0 17 25</p>
          <p>1 18 26 3 19 27 7 20 28</p>
          <p>7 21 29 5 22 5 1 23 1</p>
          <p>3 24 30 2 25 31 6 26 32</p>
          <p>6 27 33 7 28 7 3 29 3</p>
          <p>2 30 34 0 31 0 4 32 35</p>
          <p>4 33 4 6 34 6 2 35 2</p>
        </polygons>
      </mesh>
    </geometry>
    <geometry id="craterectbrokend400-lib" name="craterectbrokend400Mesh">
      <mesh>
        <source id="craterectbrokend400-lib-Position">
          <float_array id="craterectbrokend400-lib-Position-array" count="24">
-0.673772 -0.398085 0.033928
-0.549611 -0.398085 0.033928
-0.673772 -0.398084 0.785158
-0.549611 -0.398084 0.785158
-0.673772 -0.436373 0.033928
-0.549611 -0.436373 0.033928
-0.673772 -0.436373 0.785158
-0.549611 -0.436373 0.785158
</float_array>
          <technique_common>
            <accessor source="#craterectbrokend400-lib-Position-array" count="8" stride="3">
              <param name="X" type="float"/>
              <param name="Y" type="float"/>
              <param name="Z" type="float"/>
            </accessor>
          </technique_common>
        </source>
        <source id="craterectbrokend400-lib-Normal0">
          <float_array id="craterectbrokend400-lib-Normal0-array" count="108">
-0.000000 1.000000 -0.000000
-0.000000 1.000000 -0.000000
-0.000000 1.000000 -0.000000
-0.000000 1.000000 -0.000000
-0.000000 1.000000 -0.000000
-0.000000 1.000000 -0.000000
0.000000 -1.000000 0.000000
0.000000 -1.000000 0.000000
0.000000 -1.000000 0.000000
0.000000 -1.000000 0.000000
0.000000 -1.000000 0.000000
0.000000 -1.000000 0.000000
0.000000 0.000000 -1.000000
0.000000 0.000000 -1.000000
0.000000 0.000000 -1.000000
0.000000 0.000000 -1.000000
0.000000 0.000000 -1.000000
0.000000 0.000000 -1.000000
1.000000 0.000000 -0.000000
1.000000 0.000000 -0.000000
1.000000 0.000000 -0.000000
1.000000 0.000000 -0.000000
1.000000 0.000000 -0.000000
1.000000 0.000000 -0.000000
0.000000 0.000000 1.000000
0.000000 0.000000 1.000000
0.000000 0.000000 1.000000
0.000000 0.000000 1.000000
0.000000 0.000000 1.000000
0.000000 0.000000 1.000000
-1.000000 0.000000 0.000000
-1.000000 0.000000 0.000000
-1.000000 0.000000 0.000000
-1.000000 0.000000 0.000000
-1.000000 0.000000 0.000000
-1.000000 0.000000 0.000000
</float_array>
          <technique_common>
            <accessor source="#craterectbrokend400-lib-Normal0-array" count="36" stride="3">
              <param name="X" type="float"/>
              <param name="Y" type="float"/>
              <param name="Z" type="float"/>
            </accessor>
          </technique_common>
        </source>
        <source id="craterectbrokend400-lib-UV0">
          <float_array id="craterectbrokend400-lib-UV0-array" count="72">
0.677615 0.944591
0.338674 0.944591
0.338674 0.944591
0.998801 0.226236
0.677617 0.984521
0.338677 0.984521
0.338677 0.984521
0.984063 0.226236
0.683424 0.999254
0.332868 0.999254
0.332868 0.915178
0.332868 0.915178
0.683424 0.915178
0.683424 0.999254
0.683424 0.915178
0.683424 0.999254
0.332868 0.999254
0.332868 0.999254
0.332868 0.915179
0.683424 0.915178
0.998801 0.226236
0.998801 0.338251
0.984063 0.338252
0.984063 0.338252
0.984063 0.226236
0.998801 0.226236
0.338674 0.944591
0.677615 0.944591
0.677617 0.984521
0.677617 0.984521
0.998801 0.226236
0.998801 0.338251
0.984063 0.338252
0.984063 0.338252
0.338674 0.944591
0.677617 0.984521
</float_array>
          <technique_common>
            <accessor source="#craterectbrokend400-lib-UV0-array" count="36" stride="2">
              <param name="S" type="float"/>
              <param name="T" type="float"/>
            </accessor>
          </technique_common>
        </source>
        <vertices id="craterectbrokend400-lib-Vertex">
          <input semantic="POSITION" source="#craterectbrokend400-lib-Position"/>
        </vertices>
        <polygons material="pallet_wood" count="12">
          <input semantic="VERTEX" offset="0" source="#craterectbrokend400-lib-Vertex"/>
          <input semantic="NORMAL" offset="1" source="#craterectbrokend400-lib-Normal0"/>
          <input semantic="TEXCOORD" offset="2" set="0" source="#craterectbrokend400-lib-UV0"/>
          <p>0 0 8 2 1 9 3 2 10</p>
          <p>3 3 11 1 4 12 0 5 13</p>
          <p>4 6 14 5 7 15 7 8 16</p>
          <p>7 9 17 6 10 18 4 11 19</p>
          <p>0 12 20 1 13 21 5 14 22</p>
          <p>5 15 23 4 16 24 0 17 25</p>
          <p>1 18 26 3 19 27 7 20 28</p>
          <p>7 21 29 5 22 5 1 23 1</p>
          <p>3 24 30 2 25 31 6 26 32</p>
          <p>6 27 33 7 28 7 3 29 3</p>
          <p>2 30 34 0 31 0 4 32 35</p>
          <p>4 33 4 6 34 6 2 35 2</p>
        </polygons>
      </mesh>
    </geometry>
    <geometry id="bounds-lib" name="boundsMesh">
      <mesh>
        <source id="bounds-lib-Position">
          <float_array id="bounds-lib-Position-array" count="24">
-0.920306 -0.569908 0.000000
0.920306 -0.569908 0.000000
-0.920306 0.569908 0.000000
0.920306 0.569908 0.000000
-0.920306 -0.569908 1.022563
0.920306 -0.569908 1.022563
-0.920306 0.569908 1.022563
0.920306 0.569908 1.022563
</float_array>
          <technique_common>
            <accessor source="#bounds-lib-Position-array" count="8" stride="3">
              <param name="X" type="float"/>
              <param name="Y" type="float"/>
              <param name="Z" type="float"/>
            </accessor>
          </technique_common>
        </source>
        <source id="bounds-lib-Normal0">
          <float_array id="bounds-lib-Normal0-array" count="108">
0.000000 0.000000 -1.000000
0.000000 0.000000 -1.000000
0.000000 0.000000 -1.000000
0.000000 0.000000 -1.000000
0.000000 0.000000 -1.000000
0.000000 0.000000 -1.000000
0.000000 0.000000 1.000000
0.000000 0.000000 1.000000
0.000000 0.000000 1.000000
0.000000 0.000000 1.000000
0.000000 0.000000 1.000000
0.000000 0.000000 1.000000
0.000000 -1.000000 0.000000
0.000000 -1.000000 0.000000
0.000000 -1.000000 0.000000
0.000000 -1.000000 0.000000
0.000000 -1.000000 0.000000
0.000000 -1.000000 0.000000
1.000000 0.000000 0.000000
1.000000 0.000000 0.000000
1.000000 0.000000 0.000000
1.000000 0.000000 0.000000
1.000000 0.000000 0.000000
1.000000 0.000000 0.000000
0.000000 1.000000 0.000000
0.000000 1.000000 0.000000
0.000000 1.000000 0.000000
0.000000 1.000000 0.000000
0.000000 1.000000 0.000000
0.000000 1.000000 0.000000
-1.000000 0.000000 0.000000
-1.000000 0.000000 0.000000
-1.000000 0.000000 0.000000
-1.000000 0.000000 0.000000
-1.000000 0.000000 0.000000
-1.000000 0.000000 0.000000
</float_array>
          <technique_common>
            <accessor source="#bounds-lib-Normal0-array" count="36" stride="3">
              <param name="X" type="float"/>
              <param name="Y" type="float"/>
              <param name="Z" type="float"/>
            </accessor>
          </technique_common>
        </source>
        <source id="bounds-lib-UV0">
          <float_array id="bounds-lib-UV0-array" count="24">
0.000000 0.000000
1.000000 0.000000
0.000000 1.000000
1.000000 1.000000
0.000000 0.000000
1.000000 0.000000
0.000000 1.000000
1.000000 1.000000
0.000000 0.000000
1.000000 0.000000
0.000000 1.000000
1.000000 1.000000
</float_array>
          <technique_common>
            <accessor source="#bounds-lib-UV0-array" count="12" stride="2">
              <param name="S" type="float"/>
              <param name="T" type="float"/>
            </accessor>
          </technique_common>
        </source>
        <vertices id="bounds-lib-Vertex">
          <input semantic="POSITION" source="#bounds-lib-Position"/>
        </vertices>
        <polygons count="12">
          <input semantic="VERTEX" offset="0" source="#bounds-lib-Vertex"/>
          <input semantic="NORMAL" offset="1" source="#bounds-lib-Normal0"/>
          <input semantic="TEXCOORD" offset="2" set="0" source="#bounds-lib-UV0"/>
          <p>0 0 9 2 1 11 3 2 10</p>
          <p>3 3 10 1 4 8 0 5 9</p>
          <p>4 6 8 5 7 9 7 8 11</p>
          <p>7 9 11 6 10 10 4 11 8</p>
          <p>0 12 4 1 13 5 5 14 7</p>
          <p>5 15 7 4 16 6 0 17 4</p>
          <p>1 18 0 3 19 1 7 20 3</p>
          <p>7 21 3 5 22 2 1 23 0</p>
          <p>3 24 4 2 25 5 6 26 7</p>
          <p>6 27 7 7 28 6 3 29 4</p>
          <p>2 30 0 0 31 1 4 32 3</p>
          <p>4 33 3 6 34 2 2 35 0</p>
        </polygons>
      </mesh>
    </geometry>
  </library_geometries>
  <library_visual_scenes>
    <visual_scene id="RootNode" name="RootNode">
      <node id="base01" name="base01">
        <node id="start01" name="start01">
          <node id="craterectunbroken400" name="craterectunbroken400">
            <rotate sid="rotateZ">0 0 1 0.000005</rotate>
            <rotate sid="rotateY">0 1 0 0.000005</rotate>
            <rotate sid="rotateX">1 0 0 -0.000005</rotate>
            <instance_geometry url="#craterectunbroken400-lib">
              <bind_material>
                <technique_common>
                  <instance_material symbol="pallet_wood" target="#pallet_wood"/>
                </technique_common>
              </bind_material>
            </instance_geometry>
          </node>
          <node id="craterectbrokena400" name="craterectbrokena400">
            <instance_geometry url="#craterectbrokena400-lib">
              <bind_material>
                <technique_common>
                  <instance_material symbol="pallet_wood" target="#pallet_wood"/>
                </technique_common>
              </bind_material>
            </instance_geometry>
          </node>
          <node id="craterectbrokenb400" name="craterectbrokenb400">
            <rotate sid="rotateZ">0 0 1 0.000005</rotate>
            <rotate sid="rotateY">0 1 0 0.000005</rotate>
            <rotate sid="rotateX">1 0 0 -0.000005</rotate>
            <instance_geometry url="#craterectbrokenb400-lib">
              <bind_material>
                <technique_common>
                  <instance_material symbol="pallet_wood" target="#pallet_wood"/>
                </technique_common>
              </bind_material>
            </instance_geometry>
          </node>
          <node id="craterectbrokenc400" name="craterectbrokenc400">
            <rotate sid="rotateZ">0 0 1 0.000005</rotate>
            <rotate sid="rotateY">0 1 0 0.000005</rotate>
            <rotate sid="rotateX">1 0 0 -0.000005</rotate>
            <instance_geometry url="#craterectbrokenc400-lib">
              <bind_material>
                <technique_common>
                  <instance_material symbol="pallet_wood" target="#pallet_wood"/>
                </technique_common>
              </bind_material>
            </instance_geometry>
          </node>
          <node id="craterectbrokend400" name="craterectbrokend400">
            <rotate sid="rotateZ">0 0 1 0.000005</rotate>
            <rotate sid="rotateY">0 1 0 0.000005</rotate>
            <rotate sid="rotateX">1 0 0 -0.000005</rotate>
            <instance_geometry url="#craterectbrokend400-lib">
              <bind_material>
                <technique_common>
                  <instance_material symbol="pallet_wood" target="#pallet_wood"/>
                </technique_common>
              </bind_material>
            </instance_geometry>
          </node>
        </node>
        <node id="detail400" name="detail400"></node>
      </node>
      <node id="bounds" name="bounds">
        <node id="bounds-Pivot" name="bounds-Pivot">
          <translate>0.007456 -0.001039 -0.097317</translate>
          <rotate>0.000000 0.000000 0.000000 0.000000</rotate>
          <instance_geometry url="#bounds-lib"/>
        </node>
      </node>
    </visual_scene>
  </library_visual_scenes>
  <scene>
    <instance_visual_scene url="#RootNode"/>
  </scene>
</COLLADA>

