<?xml version="1.0" encoding="utf-8"?>
<COLLADA xmlns="http://www.collada.org/2005/11/COLLADASchema" version="1.4.1">
  <asset>
    <contributor>
      <author>Russell</author>
      <authoring_tool>OpenCOLLADA for 3ds Max;  Version: 1.2.5;  Revision: 673;  Platform: x64;  Configuration: Release Max2010</authoring_tool>
      <source_data>file:///E:/Russell/Desktop/island_04_forcrunch.max</source_data>
    </contributor>
    <created>2011-05-08T23:53:21</created>
    <modified>2011-05-08T23:53:21</modified>
    <unit name="meter" meter="1"/>
    <up_axis>Z_UP</up_axis>
  </asset>
  <library_effects>
    <effect id="lavaglow">
      <profile_COMMON>
        <newparam sid="lavaglow_diffuse_png-surface">
          <surface type="2D">
            <init_from>lavaglow_diffuse_png</init_from>
          </surface>
        </newparam>
        <newparam sid="lavaglow_diffuse_png-sampler">
          <sampler2D>
            <source>lavaglow_diffuse_png-surface</source>
          </sampler2D>
        </newparam>
        <technique sid="common">
          <blinn>
            <emission>
              <color>0 0 0 1</color>
            </emission>
            <ambient>
              <color>0.5882353 0.5882353 0.5882353 1</color>
            </ambient>
            <diffuse>
              <texture texture="lavaglow_diffuse_png-sampler" texcoord="CHANNEL1"/>
            </diffuse>
            <specular>
              <color>0.9 0.9 0.9 1</color>
            </specular>
            <shininess>
              <float>9.999999</float>
            </shininess>
            <reflective>
              <color>0 0 0 1</color>
            </reflective>
            <transparent opaque="A_ONE">
              <color>1 1 1 1</color>
            </transparent>
            <transparency>
              <float>1</float>
            </transparency>
          </blinn>
        </technique>
      </profile_COMMON>
      <extra>
        <technique profile="OpenCOLLADA3dsMax">
          <extended_shader>
            <apply_reflection_dimming>0</apply_reflection_dimming>
            <dim_level>0</dim_level>
            <falloff_type>0</falloff_type>
            <index_of_refraction>1.5</index_of_refraction>
            <opacity_type>0</opacity_type>
            <reflection_level>3</reflection_level>
            <wire_size>1</wire_size>
            <wire_units>0</wire_units>
          </extended_shader>
          <shader>
            <ambient_diffuse_lock>1</ambient_diffuse_lock>
            <ambient_diffuse_texture_lock>1</ambient_diffuse_texture_lock>
            <diffuse_specular_lock>0</diffuse_specular_lock>
            <soften>0.1</soften>
            <use_self_illum_color>0</use_self_illum_color>
          </shader>
        </technique>
      </extra>
    </effect>
    <effect id="ColorEffectR6G135B113">
      <profile_COMMON>
        <technique sid="common">
          <phong>
            <ambient>
              <color>0.02352941 0.5294118 0.4431373 1</color>
            </ambient>
            <diffuse>
              <color>0.02352941 0.5294118 0.4431373 1</color>
            </diffuse>
            <specular>
              <color>1 1 1 1</color>
            </specular>
            <shininess>
              <float>10</float>
            </shininess>
            <reflective>
              <color>0 0 0 1</color>
            </reflective>
            <transparent>
              <color>1 1 1 1</color>
            </transparent>
            <transparency>
              <float>1</float>
            </transparency>
          </phong>
        </technique>
      </profile_COMMON>
      <extra>
        <technique profile="OpenCOLLADA3dsMax">
          <extended_shader>
            <apply_reflection_dimming>0</apply_reflection_dimming>
            <dim_level>0</dim_level>
            <falloff_type>0</falloff_type>
            <index_of_refraction>1.5</index_of_refraction>
            <opacity_type>0</opacity_type>
            <reflection_level>3</reflection_level>
            <wire_size>1</wire_size>
            <wire_units>0</wire_units>
          </extended_shader>
          <shader>
            <ambient_diffuse_lock>1</ambient_diffuse_lock>
            <ambient_diffuse_texture_lock>1</ambient_diffuse_texture_lock>
            <diffuse_specular_lock>0</diffuse_specular_lock>
            <soften>0.1</soften>
            <use_self_illum_color>0</use_self_illum_color>
          </shader>
        </technique>
      </extra>
    </effect>
  </library_effects>
  <library_materials>
    <material id="ColorEffectR6G135B113-material" name="ColorEffectR6G135B113-material">
      <instance_effect url="#ColorEffectR6G135B113"/>
    </material>
    <material id="lavaglow-material" name="lavaglow">
      <instance_effect url="#lavaglow"/>
    </material>
  </library_materials>
  <library_geometries>
    <geometry id="geom-lavaflow400" name="lavaflow400">
      <mesh>
        <source id="geom-lavaflow400-positions">
          <float_array id="geom-lavaflow400-positions-array" count="1575">7.497003 -2.020787 0 6.822067 -1.14774 0 6.442866 -3.124321 0 5.664167 -1.87396 0 5.5229 -3.864249 0 4.936995 -2.688747 0 4.538747 -4.293878 0 4.263925 -3.234736 0 3.520605 -4.500158 0 3.329449 -3.326375 0 2.276186 -5.446378 0 1.401223 -3.737208 0 1.515086 -6.117147 0 0.7530994 -4.220935 0 0.2438119 -6.724155 0 0.1343931 -4.436717 0 -1.311628 -6.331393 0 -0.5159342 -4.218908 0 -3.471587 -4.314447 0 -1.541156 -3.245998 0 -4.029317 -3.281801 0 -1.942775 -2.719488 0 -3.738033 -2.180007 0 -2.252953 -2.064616 0 -3.604393 -1.220361 0 -2.26797 -1.227195 0 -3.873511 -0.2156282 0 -1.97208 -0.2135927 0 -3.902369 0.9584484 0 -1.683509 0.8950291 0 -3.526424 2.040746 0 -1.260989 1.977364 0 -3.801398 3.164684 0 -1.465611 2.87232 0 -3.906077 4.36224 0 -1.197366 3.635984 0 -3.176544 5.35196 0 -0.8635674 4.402877 0 -2.641942 6.309923 0 -0.7919199 5.103484 0 -2.253221 7.466497 0 -0.6304821 5.670005 0 -1.155091 7.835061 0 -0.3120551 6.11511 0 0.009403296 7.880814 0 0.2557814 6.242174 0 1.241938 8.191777 0 1.207206 6.159649 0 2.570573 7.446236 0 2.163811 6.137564 0 -2.530436 -5.303292 0 -1.083868 -3.701004 0 2.84429 -4.929197 0 2.309356 -3.356548 0 6.580211 -2.050163 0 5.618223 -2.914058 0 4.834433 -3.567315 0 3.915105 -3.857491 0 2.196016 -4.342726 0 1.500074 -4.875556 0 0.6959209 -5.435743 0 -0.3677296 -5.517246 0 -2.175322 -4.134093 0 -2.798768 -3.405111 0 -3.015228 -2.566269 0 -2.96042 -1.67321 0 -2.955766 -0.7270586 0 -2.930074 0.335701 0 -2.578381 1.463927 0 -2.509247 2.528133 0 -2.680941 3.524732 0 -2.290689 4.45115 0 -1.837051 5.285924 0 -1.609289 6.159152 0 -1.144732 6.862946 0 -0.3133821 7.075186 0 0.6640735 7.145721 0 1.795116 7.019262 0 -1.39172 -4.907807 0 2.981504 -4.002142 0 7.159535 -1.584263 0 6.956152 -2.601866 0 6.053516 -2.499141 0 6.204269 -1.498461 0 5.976074 -3.540067 0 5.229947 -3.276498 0 5.260372 -2.28805 0 5.046569 -4.117872 0 4.401336 -3.764307 0 4.622296 -3.016758 0 4.006474 -4.393935 0 3.425027 -3.913267 0 3.823738 -3.321046 0 2.5653 -5.176551 0 1.838705 -4.591793 0 2.81735 -3.314616 0 1.944068 -5.759522 0 1.134092 -5.169041 0 1.056081 -3.99159 0 0.9425542 -6.493813 0 0.1891025 -5.580436 0 0.4492876 -4.377673 0 -0.5422686 -6.653512 0 -0.9137809 -5.27515 0 -0.1931906 -4.380982 0 -3.030225 -4.799972 0 -2.506371 -3.780222 0 -0.8151028 -3.970637 0 -3.839037 -3.81146 0 -2.986046 -3.000644 0 -1.758499 -2.998764 0 -3.954133 -2.725905 0 -2.97741 -2.119168 0 -2.081021 -2.407474 0 -3.663743 -1.693032 0 -2.953778 -1.215566 0 -2.305799 -1.664277 0 -3.663035 -0.7235233 0 -2.965049 -0.2114856 0 -2.114384 -0.7322599 0 -3.971999 0.3426134 0 -2.80283 0.9029565 0 -1.877003 0.3343254 0 -3.611769 1.529041 0 -2.444259 2.004547 0 -1.428693 1.452424 0 -3.585723 2.599732 0 -2.650788 3.03312 0 -1.308795 2.445087 0 -4.001654 3.742554 0 -2.546068 4.001293 0 -1.423434 3.276809 0 -3.576387 4.883169 0 -2.020056 4.877419 0 -1.004991 4.01913 0 -2.861305 5.803535 0 -1.716931 5.706704 0 -0.8127965 4.768312 0 -2.486452 6.918077 0 -1.439905 6.572441 0 -0.7321262 5.400226 0 -1.817906 7.745224 0 -0.7377009 7.016208 0 -0.4928566 5.920311 0 -0.5550629 7.838344 0 0.1437274 7.086607 0 -0.07478371 6.21883 0 0.6226026 7.948006 0 1.226276 7.221709 0 0.7051289 6.207386 0 1.896897 7.886971 0 2.367192 6.7919 0 1.692654 6.139591 0 -1.968337 -5.844978 0 -1.320418 -3.468215 0 -1.807152 -4.502148 0 3.145658 -4.689669 0 1.826732 -3.508902 0 2.576823 -4.142872 0 6.500668 -2.575955 0 7.045719 -2.066631 0 6.687448 -1.569911 0 6.113323 -1.979695 0 5.586113 -3.407501 0 6.015763 -3.02862 0 5.636942 -2.39537 0 5.257583 -2.798505 0 4.710525 -3.947635 0 5.161843 -3.716122 0 4.908638 -3.148308 0 4.537934 -3.410283 0 3.709718 -4.162707 0 4.21718 -4.084813 0 4.107735 -3.556228 0 3.623865 -3.60751 0 2.21907 -4.884527 0 2.543918 -4.643711 0 2.223304 -3.827988 0 1.80952 -4.039286 0 1.534539 -5.47783 0 1.894076 -5.164024 0 1.444928 -4.297555 0 1.113078 -4.567677 0 0.528788 -6.084486 0 1.08533 -5.811529 0 0.763296 -4.810631 0 0.3719463 -4.975322 0 -0.7912813 -5.967111 0 -0.1152791 -6.14985 0 -0.0575656 -4.998574 0 -0.501402 -4.863999 0 -2.801585 -4.257671 0 -2.392019 -4.680391 0 -1.600896 -3.947308 0 -1.888227 -3.658095 0 -3.437034 -3.378519 0 -3.165485 -3.831048 0 -2.156273 -3.361179 0 -2.383721 -3.035021 0 -3.418974 -2.395228 0 -3.518646 -2.895868 0 -2.513579 -2.676707 0 -2.583378 -2.292207 0 -3.290961 -1.451389 0 -3.323498 -1.913082 0 -2.625757 -1.88273 0 -2.626956 -1.44823 0 -3.374016 -0.4727013 0 -3.2909 -0.9738162 0 -2.583938 -0.9792814 0 -2.509646 -0.4742102 0 -3.423529 0.6317128 0 -3.452601 0.05727123 0 -2.445616 0.05838721 0 -2.336957 0.6140208 0 -3.026049 1.758166 0 -3.23108 1.21419 0 -2.129784 1.175812 0 -1.916525 1.726059 0 -3.139728 2.834201 0 -3.006759 2.29246 0 -1.868173 2.243484 0 -1.996041 2.724109 0 -3.308082 3.912361 0 -3.302035 3.367233 0 -2.077309 3.182741 0 -1.972106 3.613185 0 -2.761878 4.894431 0 -3.094119 4.431728 0 -1.760833 4.027275 0 -1.537358 4.439734 0 -2.256235 5.768765 0 -2.461966 5.32908 0 -1.373628 4.835468 0 -1.287817 5.216519 0 -1.962492 6.795937 0 -2.115083 6.270502 0 -1.216866 5.594265 0 -1.111519 5.957022 0 -1.222237 7.387168 0 -1.6864 7.189004 0 -0.9363261 6.270044 0 -0.6780772 6.497033 0 -0.1818246 7.474504 0 -0.6866895 7.454401 0 -0.3655517 6.624441 0 -0.006180838 6.665465 0 0.9362436 7.660158 0 0.3554595 7.508288 0 0.4337734 6.676172 0 0.9485247 6.703374 0 2.156777 7.286676 0 1.538132 7.62121 0 1.481722 6.648529 0 2.005009 6.520526 0 -1.93257 -5.138995 0 -1.407846 -5.602092 0 -0.9152929 -4.602004 0 -1.279916 -4.26898 0 2.882284 -4.435901 0 3.258931 -4.268644 0 3.135715 -3.635068 0 2.668508 -3.694883 0 6.694341 -2.874085 0 6.768181 -2.326015 0 6.306995 -2.277825 0 6.248191 -2.811731 0 7.224854 -2.314991 0 7.328269 -1.802525 0 6.866584 -1.818271 0 6.508312 -1.321551 0 6.39224 -1.774312 0 6.990801 -1.366001 0 5.91965 -1.681564 0 5.858842 -2.18655 0 5.750379 -3.711998 0 5.797149 -3.227063 0 5.421848 -3.103003 0 5.376423 -3.570374 0 6.205173 -3.345245 0 5.826352 -2.711995 0 5.447531 -2.078744 0 5.439298 -2.601054 0 5.093317 -2.494007 0 5.083471 -2.982622 0 4.79682 -4.216311 0 4.940501 -3.842594 0 4.624229 -3.678959 0 4.470041 -4.029092 0 5.288446 -4.00003 0 5.03524 -3.432215 0 4.782034 -2.864401 0 4.728364 -3.292037 0 4.451639 -3.141607 0 4.33263 -3.499522 0 3.752645 -4.440306 0 3.960789 -4.125713 0 3.666791 -3.885109 0 3.472816 -4.206713 0 4.271903 -4.349106 0 4.162457 -3.82052 0 4.053012 -3.291935 0 3.869422 -3.589268 0 3.580938 -3.329912 0 3.377238 -3.619821 0 2.423845 -5.307148 0 2.380658 -4.759639 0 2.014295 -4.461906 0 2.057446 -5.019086 0 2.704224 -5.051572 0 2.710557 -4.536035 0 2.383611 -4.235849 0 2.062998 -3.420127 0 2.011374 -3.925814 0 2.44309 -3.74971 0 1.604745 -3.616666 0 1.619964 -4.164501 0 1.74527 -5.932907 0 1.722071 -5.317539 0 1.323809 -5.022753 0 1.324589 -5.643094 0 2.11865 -5.597258 0 1.669502 -4.73079 0 1.220354 -3.864321 0 1.278078 -4.433573 0 0.902348 -4.112599 0 0.9435959 -4.694988 0 0.6072089 -6.639068 0 0.8192376 -5.964778 0 0.4503672 -5.529904 0 0.2164572 -6.152296 0 1.246347 -6.311977 0 0.9243129 -5.31108 0 0.6022791 -4.310182 0 0.5726043 -4.906708 0 0.2935255 -4.420741 0 0.1617478 -5.008576 0 -0.936221 -6.518666 0 -0.4549991 -6.085379 0 -0.6463417 -5.415555 0 -1.112704 -5.803272 0 -0.1441358 -6.725489 0 -0.08642233 -5.574212 0 -0.02870886 -4.422935 0 -0.2804601 -4.949115 0 -0.3564624 -4.312444 0 -0.7148575 -4.747029 0 -3.258263 -4.55746 0 -2.602774 -4.467032 0 -2.344906 -3.957883 0 -2.988979 -4.047335 0 -2.787581 -5.046932 0 -2.168794 -4.90272 0 -1.996458 -4.313849 0 -1.205334 -3.580766 0 -1.74787 -3.801154 0 -1.44551 -4.101576 0 -1.431549 -3.358306 0 -2.023763 -3.51311 0 -3.963691 -3.550268 0 -3.318902 -3.608285 0 -2.910378 -3.20677 0 -3.507682 -3.141222 0 -3.67009 -4.065983 0 -2.660879 -3.596114 0 -1.651668 -3.126245 0 -2.278634 -3.201938 0 -1.857064 -2.863272 0 -2.46441 -2.860066 0 -3.843035 -2.44786 0 -3.484289 -2.646017 0 -2.998044 -2.343157 0 -3.354708 -2.149064 0 -4.021179 -3.005449 0 -3.016112 -2.786287 0 -2.011046 -2.567126 0 -2.547733 -2.486801 0 -2.171844 -2.241817 0 -2.612168 -2.091368 0 -3.628434 -1.458076 0 -3.308023 -1.682213 0 -2.956223 -1.447256 0 -3.282018 -1.216595 0 -3.689272 -1.931037 0 -2.966176 -1.896516 0 -2.29379 -1.870333 0 -2.629051 -1.667836 0 -2.300424 -1.451757 0 -2.613806 -1.220011 0 -3.765297 -0.472962 0 -3.320577 -0.7251521 0 -2.962283 -0.4729482 0 -3.426322 -0.2130361 0 -3.612664 -0.9740836 0 -2.953278 -0.9750488 0 -2.198739 -0.9850138 0 -2.546251 -0.7295204 0 -2.036558 -0.4759797 0 -2.475607 -0.2120184 0 -3.966308 0.6494047 0 -3.451965 0.3386958 0 -2.880497 0.6184438 0 -3.354249 0.9267387 0 -3.941739 0.05524968 0 -2.956285 0.058561 0 -1.927769 0.05748165 0 -2.404468 0.3345518 0 -1.793164 0.6140208 0 -2.244818 0.8950291 0 -3.542914 1.785137 0 -3.104766 1.492017 0 -2.490235 1.736654 0 -2.993767 2.021895 0 -3.757888 1.252569 0 -2.692352 1.185406 0 -1.555296 1.175812 0 -2.013228 1.453708 0 -1.323868 1.720923 0 -1.861049 1.990204 0 -3.681299 2.882247 0 -3.057817 2.564886 0 -2.58302 2.782655 0 -3.228974 3.101338 0 -3.537396 2.315755 0 -2.456795 2.268569 0 -1.260224 2.217803 0 -1.919352 2.487564 0 -1.393927 2.662064 0 -2.06108 2.955156 0 -3.991145 4.056132 0 -3.33603 3.636152 0 -2.632556 3.765682 0 -3.22513 4.182131 0 -3.923295 3.448429 0 -2.685223 3.280512 0 -1.473843 3.079446 0 -2.04692 3.403279 0 -1.319195 3.45778 0 -1.870775 3.819002 0 -3.374137 5.121779 0 -2.933538 4.667159 0 -2.149618 4.667083 0 -2.5983 5.114689 0 -3.760762 4.633955 0 -2.427476 4.229501 0 -1.09419 3.825048 0 -1.64784 4.23514 0 -0.9250978 4.212386 0 -1.441811 4.640147 0 -2.740443 6.044888 0 -2.349178 5.544729 0 -1.772026 5.492642 0 -2.179436 6.008314 0 -3.006135 5.575886 0 -1.917797 5.082273 0 -0.8294582 4.588662 0 -1.324924 5.027118 0 -0.8036084 4.940396 0 -1.254425 5.405094 0 -2.387978 7.215394 0 -2.04787 6.538614 0 -1.537005 6.376479 0 -1.846238 7.020167 0 -2.564192 6.60862 0 -1.665975 5.932384 0 -0.7677572 5.256146 0 -1.170708 5.779689 0 -0.6860325 5.537564 0 -1.034869 6.121922 0 -1.496758 7.807624 0 -1.479544 7.309115 0 -0.9489365 6.954406 0 -0.947084 7.432487 0 -2.066628 7.637311 0 -1.308767 6.73511 0 -0.5664806 5.799391 0 -0.8170193 6.396658 0 -0.4084386 6.027354 0 -0.525566 6.572513 0 -0.2749971 7.857475 0 -0.4339657 7.464532 0 -0.09132746 7.080758 0 0.07842122 7.487896 0 -0.8448102 7.838087 0 -0.5273447 7.055068 0 -0.2025345 6.178168 0 -0.1938261 6.654775 0 0.0762905 6.239398 0 0.2016103 6.668576 0 0.9300961 8.09564 0 0.6433727 7.558202 0 0.9423876 7.203221 0 1.234391 7.71441 0 0.3121541 7.893694 0 0.3966906 7.107556 0 0.4687821 6.229462 0 0.6846358 6.687891 0 0.9546582 6.182073 0 1.217025 6.698345 0 2.232661 7.669751 0 1.846063 7.454114 0 2.080893 6.903601 0 2.468883 7.119068 0 1.56543 8.0916 0 1.510381 7.142844 0 1.452609 6.146239 0 1.743941 6.580424 0 1.929125 6.137451 0 2.265501 6.464732 0 -2.258898 -5.574002 0 -1.680028 -5.376392 0 -1.606243 -4.703987 0 -1.654123 -6.102136 0 -1.16157 -5.102048 0 -0.6690162 -4.10196 0 -1.103411 -4.439222 0 -0.9535885 -3.833973 0 2.989172 -4.80641 0 3.063581 -4.345905 0 2.775396 -4.065392 0 3.320539 -4.585432 0 3.197323 -3.951856 0 3.074107 -3.31828 0 2.899427 -3.658379 0 2.56162 -3.324375 0</float_array>
          <technique_common>
            <accessor source="#geom-lavaflow400-positions-array" count="525" stride="3">
              <param name="X" type="float"/>
              <param name="Y" type="float"/>
              <param name="Z" type="float"/>
            </accessor>
          </technique_common>
        </source>
        <source id="geom-lavaflow400-normals">
          <float_array id="geom-lavaflow400-normals-array" count="1575">0 0 1 0 0 1 0 0 1 0 0 1 0 0 1 0 0 1 0 0 1 0 0 1 0 0 1 0 0 1 0 0 1 0 0 1 0 0 1 0 0 1 0 0 1 0 0 1 0 0 1 0 0 1 0 0 1 0 0 1 0 0 1 0 0 1 0 0 1 0 0 1 0 0 1 0 0 1 0 0 1 0 0 1 0 0 1 0 0 1 0 0 1 0 0 1 0 0 1 0 0 1 0 0 1 0 0 1 0 0 1 0 0 1 0 0 1 0 0 1 0 0 1 0 0 1 0 0 1 0 0 1 0 0 1 0 0 1 0 0 1 0 0 1 0 0 1 0 0 1 0 0 1 0 0 1 0 0 1 0 0 1 0 0 1 0 0 1 0 0 1 0 0 1 0 0 1 0 0 1 0 0 1 0 0 1 0 0 1 0 0 1 0 0 1 0 0 1 0 0 1 0 0 1 0 0 1 0 0 1 0 0 1 0 0 1 0 0 1 0 0 1 0 0 1 0 0 1 0 0 1 0 0 1 0 0 1 0 0 1 0 0 1 0 0 1 0 0 1 0 0 1 0 0 1 0 0 1 0 0 1 0 0 1 0 0 1 0 0 1 0 0 1 0 0 1 0 0 1 0 0 1 0 0 1 0 0 1 0 0 1 0 0 1 0 0 1 0 0 1 0 0 1 0 0 1 0 0 1 0 0 1 0 0 1 0 0 1 0 0 1 0 0 1 0 0 1 0 0 1 0 0 1 0 0 1 0 0 1 0 0 1 0 0 1 0 0 1 0 0 1 0 0 1 0 0 1 0 0 1 0 0 1 0 0 1 0 0 1 0 0 1 0 0 1 0 0 1 0 0 1 0 0 1 0 0 1 0 0 1 0 0 1 0 0 1 0 0 1 0 0 1 0 0 1 0 0 1 0 0 1 0 0 1 0 0 1 0 0 1 0 0 1 0 0 1 0 0 1 0 0 1 0 0 1 0 0 1 0 0 1 0 0 1 0 0 1 0 0 1 0 0 1 0 0 1 0 0 1 0 0 1 0 0 1 0 0 1 0 0 1 0 0 1 0 0 1 0 0 1 0 0 1 0 0 1 0 0 1 0 0 1 0 0 1 0 0 1 0 0 1 0 0 1 0 0 1 0 0 1 0 0 1 0 0 1 0 0 1 0 0 1 0 0 1 0 0 1 0 0 1 0 0 1 0 0 1 0 0 1 0 0 1 0 0 1 0 0 1 0 0 1 0 0 1 0 0 1 0 0 1 0 0 1 0 0 1 0 0 1 0 0 1 0 0 1 0 0 1 0 0 1 0 0 1 0 0 1 0 0 1 0 0 1 0 0 1 0 0 1 0 0 1 0 0 1 0 0 1 0 0 1 0 0 1 0 0 1 0 0 1 0 0 1 0 0 1 0 0 1 0 0 1 0 0 1 0 0 1 0 0 1 0 0 1 0 0 1 0 0 1 0 0 1 0 0 1 0 0 1 0 0 1 0 0 1 0 0 1 0 0 1 0 0 1 0 0 1 0 0 1 0 0 1 0 0 1 0 0 1 0 0 1 0 0 1 0 0 1 0 0 1 0 0 1 0 0 1 0 0 1 0 0 1 0 0 1 0 0 1 0 0 1 0 0 1 0 0 1 0 0 1 0 0 1 0 0 1 0 0 1 0 0 1 0 0 1 0 0 1 0 0 1 0 0 1 0 0 1 0 0 1 0 0 1 0 0 1 0 0 1 0 0 1 0 0 1 0 0 1 0 0 1 0 0 1 0 0 1 0 0 1 0 0 1 0 0 1 0 0 1 0 0 1 0 0 1 0 0 1 0 0 1 0 0 1 0 0 1 0 0 1 0 0 1 0 0 1 0 0 1 0 0 1 0 0 1 0 0 1 0 0 1 0 0 1 0 0 1 0 0 1 0 0 1 0 0 1 0 0 1 0 0 1 0 0 1 0 0 1 0 0 1 0 0 1 0 0 1 0 0 1 0 0 1 0 0 1 0 0 1 0 0 1 0 0 1 0 0 1 0 0 1 0 0 1 0 0 1 0 0 1 0 0 1 0 0 1 0 0 1 0 0 1 0 0 1 0 0 1 0 0 1 0 0 1 0 0 1 0 0 1 0 0 1 0 0 1 0 0 1 0 0 1 0 0 1 0 0 1 0 0 1 0 0 1 0 0 1 0 0 1 0 0 1 0 0 1 0 0 1 0 0 1 0 0 1 0 0 1 0 0 1 0 0 1 0 0 1 0 0 1 0 0 1 0 0 1 0 0 1 0 0 1 0 0 1 0 0 1 0 0 1 0 0 1 0 0 1 0 0 1 0 0 1 0 0 1 0 0 1 0 0 1 0 0 1 0 0 1 0 0 1 0 0 1 0 0 1 0 0 1 0 0 1 0 0 1 0 0 1 0 0 1 0 0 1 0 0 1 0 0 1 0 0 1 0 0 1 0 0 1 0 0 1 0 0 1 0 0 1 0 0 1 0 0 1 0 0 1 0 0 1 0 0 1 0 0 1 0 0 1 0 0 1 0 0 1 0 0 1 0 0 1 0 0 1 0 0 1 0 0 1 0 0 1 0 0 1 0 0 1 0 0 1 0 0 1 0 0 1 0 0 1 0 0 1 0 0 1 0 0 1 0 0 1 0 0 1 0 0 1 0 0 1 0 0 1 0 0 1 0 0 1 0 0 1 0 0 1 0 0 1 0 0 1 0 0 1 0 0 1 0 0 1 0 0 1 0 0 1 0 0 1 0 0 1 0 0 1 0 0 1 0 0 1 0 0 1 0 0 1 0 0 1 0 0 1 0 0 1 0 0 1 0 0 1 0 0 1 0 0 1 0 0 1 0 0 1 0 0 1 0 0 1 0 0 1 0 0 1 0 0 1 0 0 1 0 0 1 0 0 1 0 0 1 0 0 1 0 0 1 0 0 1 0 0 1 0 0 1 0 0 1 0 0 1 0 0 1 0 0 1 0 0 1 0 0 1 0 0 1 0 0 1 0 0 1 0 0 1 0 0 1 0 0 1 0 0 1 0 0 1 0 0 1 0 0 1 0 0 1 0 0 1 0 0 1 0 0 1 0 0 1 0 0 1 0 0 1 0 0 1 0 0 1 0 0 1 0 0 1 0 0 1 0 0 1 0 0 1 0 0 1 0 0 1 0 0 1 0 0 1 0 0 1 0 0 1 0 0 1 0 0 1 0 0 1 0 0 1 0 0 1 0 0 1 0 0 1 0 0 1 0 0 1 0 0 1 0 0 1 0 0 1 0 0 1 0 0 1 0 0 1 0 0 1 0 0 1 0 0 1 0 0 1 0 0 1 0 0 1 0 0 1 0 0 1 0 0 1 0 0 1 0 0 1 0 0 1 0 0 1 0 0 1 0 0 1 0 0 1 0 0 1 0 0 1 0 0 1 0 0 1 0 0 1 0 0 1 0 0 1 0 0 1 0 0 1 0 0 1 0 0 1 0 0 1 0 0 1 0 0 1 0 0 1 0 0 1 0 0 1 0 0 1 0 0 1 0 0 1 0 0 1</float_array>
          <technique_common>
            <accessor source="#geom-lavaflow400-normals-array" count="525" stride="3">
              <param name="X" type="float"/>
              <param name="Y" type="float"/>
              <param name="Z" type="float"/>
            </accessor>
          </technique_common>
        </source>
        <source id="geom-lavaflow400-map1">
          <float_array id="geom-lavaflow400-map1-array" count="1575">12.92853 0.001515854 0 12.92853 0.9967236 0 12.42778 0.001515854 0 12.42778 0.9967236 0 11.92703 0.001515854 0 11.92704 0.9967236 0 11.42629 0.001515854 0 11.42629 0.9967237 0 10.92927 0.001515854 0 10.93068 0.9967237 0 9.997924 0.001515854 0 9.999325 0.9967237 0 9.506433 0.001515854 0 9.506434 0.9967237 0 9.005686 0.001515854 0 9.005688 0.9967237 0 8.504957 0.001515854 0 8.506785 0.9967237 0 7.508797 0.001515854 0 7.510624 0.9967237 0 7.009018 0.001515854 0 7.00902 0.9967237 0 6.508271 0.001515854 0 6.508274 0.9967237 0 6.007523 0.001515854 0 6.007526 0.9967237 0 5.506775 0.001515854 0 5.506779 0.9967237 0 5.006027 0.001515854 0 5.006031 0.9967237 0 4.505281 0.001515854 0 4.505284 0.9967237 0 4.004534 0.001515854 0 4.004537 0.9967237 0 3.503787 0.001515854 0 3.50379 0.9967237 0 3.003039 0.001515854 0 3.003043 0.9967237 0 2.502293 0.001515854 0 2.502296 0.9967237 0 2.001545 0.001515854 0 2.001548 0.9967237 0 1.500798 0.001515854 0 1.500801 0.9967237 0 1.000051 0.001515854 0 1.000054 0.9967237 0 0.4993039 0.001515854 0 0.499307 0.9967237 0 -0.001443781 0.001515854 0 -0.001439378 0.9967237 0 8.005268 0.001515854 0 8.013296 0.9967237 0 10.4542 0.001515855 0 10.46037 0.9967237 0 12.67816 0.4991197 0 12.17741 0.4991197 0 11.67666 0.4991198 0 11.17636 0.4991198 0 10.22973 0.4991198 0 9.755952 0.4991198 0 9.256062 0.4991198 0 8.755407 0.4991198 0 7.759869 0.4991198 0 7.259386 0.4991198 0 6.758646 0.4991198 0 6.257899 0.4991198 0 5.757151 0.4991198 0 5.256403 0.4991198 0 4.755656 0.4991198 0 4.254909 0.4991198 0 3.754162 0.4991198 0 3.253414 0.4991198 0 2.752667 0.4991198 0 2.25192 0.4991198 0 1.751173 0.4991198 0 1.250426 0.4991198 0 0.7496792 0.4991198 0 0.2489319 0.4991198 0 8.257555 0.4991198 0 10.69021 0.4991198 0 12.92853 0.4991197 0 12.67816 0.001515854 0 12.42778 0.4991197 0 12.67816 0.9967236 0 12.17741 0.001515854 0 11.92704 0.4991198 0 12.17741 0.9967236 0 11.67666 0.001515854 0 11.42629 0.4991198 0 11.67666 0.9967237 0 11.17629 0.001515854 0 10.92997 0.4991198 0 11.17643 0.9967237 0 10.22756 0.001515855 0 9.998625 0.4991198 0 10.69238 0.9967237 0 9.755881 0.001515854 0 9.506433 0.4991198 0 9.756022 0.9967237 0 9.25606 0.001515854 0 9.005687 0.4991198 0 9.256062 0.9967237 0 8.755314 0.001515854 0 8.505872 0.4991198 0 8.755499 0.9967237 0 7.757041 0.001515854 0 7.50971 0.4991198 0 8.260384 0.9967237 0 7.259295 0.001515854 0 7.009018 0.4991198 0 7.259479 0.9967237 0 6.758645 0.001515854 0 6.508272 0.4991198 0 6.758647 0.9967237 0 6.257896 0.001515854 0 6.007524 0.4991198 0 6.2579 0.9967237 0 5.757149 0.001515854 0 5.506777 0.4991198 0 5.757153 0.9967237 0 5.256401 0.001515854 0 5.00603 0.4991198 0 5.256405 0.9967237 0 4.755654 0.001515854 0 4.505283 0.4991198 0 4.755658 0.9967237 0 4.254908 0.001515854 0 4.004536 0.4991198 0 4.25491 0.9967237 0 3.75416 0.001515854 0 3.503788 0.4991198 0 3.754164 0.9967237 0 3.253413 0.001515854 0 3.003041 0.4991198 0 3.253416 0.9967237 0 2.752666 0.001515854 0 2.502294 0.4991198 0 2.752669 0.9967237 0 2.251919 0.001515854 0 2.001547 0.4991198 0 2.251922 0.9967237 0 1.751171 0.001515854 0 1.500799 0.4991198 0 1.751174 0.9967237 0 1.250425 0.001515854 0 1.000053 0.4991198 0 1.250427 0.9967237 0 0.7496778 0.001515854 0 0.4993055 0.4991198 0 0.7496805 0.9967237 0 0.2489301 0.001515854 0 -0.00144158 0.4991198 0 0.2489337 0.9967237 0 8.254726 0.001515854 0 7.762698 0.9967237 0 8.009281 0.4991198 0 10.68804 0.001515855 0 10.2319 0.9967237 0 10.45729 0.4991198 0 12.55297 0.2503178 0 12.80334 0.2503178 0 12.80334 0.7479216 0 12.55297 0.7479216 0 12.05222 0.2503178 0 12.3026 0.2503178 0 12.3026 0.7479216 0 12.05222 0.7479217 0 11.55147 0.2503178 0 11.80185 0.2503178 0 11.80185 0.7479217 0 11.55148 0.7479217 0 11.05236 0.2503178 0 11.3011 0.2503178 0 11.3011 0.7479217 0 11.05264 0.7479218 0 10.11455 0.2503178 0 10.34192 0.2503178 0 10.34472 0.7479218 0 10.11595 0.7479218 0 9.63162 0.2503178 0 9.878431 0.2503178 0 9.878713 0.7479218 0 9.631621 0.7479218 0 9.130874 0.2503178 0 9.381247 0.2503178 0 9.381248 0.7479218 0 9.130875 0.7479218 0 8.630316 0.2503178 0 8.8805 0.2503178 0 8.880501 0.7479218 0 8.630682 0.7479218 0 7.633929 0.2503178 0 7.882885 0.2503178 0 7.886534 0.7479218 0 7.635755 0.7479218 0 7.134205 0.2503178 0 7.384374 0.2503178 0 7.38474 0.7479218 0 7.134206 0.7479218 0 6.633459 0.2503178 0 6.883832 0.2503178 0 6.883833 0.7479218 0 6.63346 0.7479218 0 6.13271 0.2503178 0 6.383084 0.2503178 0 6.383086 0.7479218 0 6.132712 0.7479218 0 5.631963 0.2503178 0 5.882337 0.2503178 0 5.882339 0.7479218 0 5.631965 0.7479218 0 5.131215 0.2503178 0 5.381589 0.2503178 0 5.381591 0.7479218 0 5.131217 0.7479218 0 4.630469 0.2503178 0 4.880842 0.2503178 0 4.880843 0.7479218 0 4.63047 0.7479218 0 4.129722 0.2503178 0 4.380095 0.2503178 0 4.380097 0.7479218 0 4.129723 0.7479218 0 3.628974 0.2503178 0 3.879348 0.2503178 0 3.87935 0.7479218 0 3.628976 0.7479218 0 3.128227 0.2503178 0 3.3786 0.2503178 0 3.378602 0.7479218 0 3.128229 0.7479218 0 2.62748 0.2503178 0 2.877853 0.2503178 0 2.877855 0.7479218 0 2.627482 0.7479218 0 2.126733 0.2503178 0 2.377107 0.2503178 0 2.377108 0.7479218 0 2.126734 0.7479218 0 1.625985 0.2503178 0 1.876359 0.2503178 0 1.87636 0.7479218 0 1.625987 0.7479218 0 1.125239 0.2503178 0 1.375612 0.2503178 0 1.375613 0.7479218 0 1.12524 0.7479218 0 0.6244916 0.2503178 0 0.8748654 0.2503178 0 0.8748667 0.7479218 0 0.624493 0.7479218 0 0.1237441 0.2503178 0 0.3741179 0.2503178 0 0.3741195 0.7479218 0 0.1237461 0.7479218 0 8.131679 0.2503178 0 8.380705 0.2503178 0 8.38253 0.7479218 0 8.135328 0.7479218 0 10.57151 0.2503178 0 10.80852 0.2503178 0 10.80992 0.7479218 0 10.57431 0.7479218 0 12.55297 0.001515854 0 12.67816 0.2503178 0 12.55297 0.4991197 0 12.42778 0.2503178 0 12.80334 0.001515854 0 12.92853 0.2503178 0 12.80334 0.4991197 0 12.80334 0.9967236 0 12.67816 0.7479216 0 12.92853 0.7479216 0 12.55297 0.9967236 0 12.42778 0.7479216 0 12.05222 0.001515854 0 12.17741 0.2503178 0 12.05222 0.4991198 0 11.92704 0.2503178 0 12.3026 0.001515854 0 12.3026 0.4991197 0 12.3026 0.9967236 0 12.17741 0.7479217 0 12.05222 0.9967236 0 11.92704 0.7479217 0 11.55147 0.001515854 0 11.67666 0.2503178 0 11.55148 0.4991198 0 11.42629 0.2503178 0 11.80185 0.001515854 0 11.80185 0.4991198 0 11.80185 0.9967237 0 11.67666 0.7479217 0 11.55148 0.9967237 0 11.42629 0.7479217 0 11.05222 0.001515854 0 11.17632 0.2503178 0 11.0525 0.4991198 0 10.92962 0.2503178 0 11.3011 0.001515854 0 11.3011 0.4991198 0 11.3011 0.9967237 0 11.17639 0.7479217 0 11.05278 0.9967237 0 10.93032 0.7479218 0 10.11385 0.001515855 0 10.22864 0.2503178 0 10.11525 0.4991198 0 9.998274 0.2503178 0 10.34052 0.001515855 0 10.45575 0.2503178 0 10.34332 0.4991198 0 10.34612 0.9967237 0 10.23081 0.7479218 0 10.45883 0.7479218 0 10.11666 0.9967237 0 9.998975 0.7479218 0 9.63162 0.001515854 0 9.755917 0.2503178 0 9.63162 0.4991198 0 9.506433 0.2503178 0 9.878291 0.001515854 0 9.878572 0.4991198 0 9.878853 0.9967237 0 9.755987 0.7479218 0 9.631621 0.9967237 0 9.506434 0.7479218 0 9.130873 0.001515854 0 9.25606 0.2503178 0 9.130875 0.4991198 0 9.005686 0.2503178 0 9.381247 0.001515854 0 9.381247 0.4991198 0 9.381248 0.9967237 0 9.256062 0.7479218 0 9.130875 0.9967237 0 9.005688 0.7479218 0 8.630133 0.001515854 0 8.75536 0.2503178 0 8.630499 0.4991198 0 8.505415 0.2503178 0 8.880499 0.001515854 0 8.880501 0.4991198 0 8.880501 0.9967237 0 8.755453 0.7479218 0 8.630865 0.9967237 0 8.506329 0.7479218 0 7.633017 0.001515854 0 7.758455 0.2503178 0 7.634842 0.4991198 0 7.509254 0.2503178 0 7.881061 0.001515854 0 8.007275 0.2503178 0 7.884709 0.4991198 0 7.888359 0.9967237 0 7.761283 0.7479218 0 8.011289 0.7479218 0 7.636667 0.9967237 0 7.510167 0.7479218 0 7.134205 0.001515854 0 7.25934 0.2503178 0 7.134206 0.4991198 0 7.009018 0.2503178 0 7.384191 0.001515854 0 7.384557 0.4991198 0 7.384923 0.9967237 0 7.259433 0.7479218 0 7.134207 0.9967237 0 7.009019 0.7479218 0 6.633458 0.001515854 0 6.758645 0.2503178 0 6.633459 0.4991198 0 6.508271 0.2503178 0 6.883831 0.001515854 0 6.883832 0.4991198 0 6.883833 0.9967237 0 6.758646 0.7479218 0 6.633461 0.9967237 0 6.508273 0.7479218 0 6.13271 0.001515854 0 6.257897 0.2503178 0 6.132711 0.4991198 0 6.007524 0.2503178 0 6.383083 0.001515854 0 6.383085 0.4991198 0 6.383087 0.9967237 0 6.257899 0.7479218 0 6.132713 0.9967237 0 6.007525 0.7479218 0 5.631962 0.001515854 0 5.75715 0.2503178 0 5.631964 0.4991198 0 5.506776 0.2503178 0 5.882336 0.001515854 0 5.882338 0.4991198 0 5.882339 0.9967237 0 5.757152 0.7479218 0 5.631966 0.9967237 0 5.506778 0.7479218 0 5.131214 0.001515854 0 5.256402 0.2503178 0 5.131216 0.4991198 0 5.006028 0.2503178 0 5.381588 0.001515854 0 5.38159 0.4991198 0 5.381592 0.9967237 0 5.256404 0.7479218 0 5.131218 0.9967237 0 5.00603 0.7479218 0 4.630468 0.001515854 0 4.755655 0.2503178 0 4.630469 0.4991198 0 4.505282 0.2503178 0 4.880841 0.001515854 0 4.880842 0.4991198 0 4.880844 0.9967237 0 4.755657 0.7479218 0 4.630471 0.9967237 0 4.505283 0.7479218 0 4.129721 0.001515854 0 4.254909 0.2503178 0 4.129723 0.4991198 0 4.004535 0.2503178 0 4.380095 0.001515854 0 4.380096 0.4991198 0 4.380097 0.9967237 0 4.25491 0.7479218 0 4.129724 0.9967237 0 4.004537 0.7479218 0 3.628973 0.001515854 0 3.754161 0.2503178 0 3.628975 0.4991198 0 3.503787 0.2503178 0 3.879347 0.001515854 0 3.879349 0.4991198 0 3.87935 0.9967237 0 3.754163 0.7479218 0 3.628977 0.9967237 0 3.503789 0.7479218 0 3.128226 0.001515854 0 3.253414 0.2503178 0 3.128228 0.4991198 0 3.00304 0.2503178 0 3.3786 0.001515854 0 3.378601 0.4991198 0 3.378603 0.9967237 0 3.253415 0.7479218 0 3.12823 0.9967237 0 3.003042 0.7479218 0 2.627479 0.001515854 0 2.752667 0.2503178 0 2.627481 0.4991198 0 2.502294 0.2503178 0 2.877853 0.001515854 0 2.877854 0.4991198 0 2.877856 0.9967237 0 2.752668 0.7479218 0 2.627483 0.9967237 0 2.502295 0.7479218 0 2.126732 0.001515854 0 2.25192 0.2503178 0 2.126734 0.4991198 0 2.001546 0.2503178 0 2.377106 0.001515854 0 2.377108 0.4991198 0 2.377109 0.9967237 0 2.251921 0.7479218 0 2.126735 0.9967237 0 2.001547 0.7479218 0 1.625985 0.001515854 0 1.751172 0.2503178 0 1.625986 0.4991198 0 1.500799 0.2503178 0 1.876358 0.001515854 0 1.87636 0.4991198 0 1.876361 0.9967237 0 1.751173 0.7479218 0 1.625987 0.9967237 0 1.5008 0.7479218 0 1.125238 0.001515854 0 1.250425 0.2503178 0 1.125239 0.4991198 0 1.000052 0.2503178 0 1.375611 0.001515854 0 1.375613 0.4991198 0 1.375614 0.9967237 0 1.250427 0.7479218 0 1.125241 0.9967237 0 1.000054 0.7479218 0 0.6244909 0.001515854 0 0.7496785 0.2503178 0 0.6244923 0.4991198 0 0.4993047 0.2503178 0 0.8748647 0.001515854 0 0.8748661 0.4991198 0 0.8748674 0.9967237 0 0.7496799 0.7479218 0 0.6244937 0.9967237 0 0.4993062 0.7479218 0 0.1237431 0.001515854 0 0.248931 0.2503178 0 0.1237451 0.4991198 0 -0.00144268 0.2503178 0 0.374117 0.001515854 0 0.3741187 0.4991198 0 0.3741203 0.9967237 0 0.2489328 0.7479218 0 0.1237471 0.9967237 0 -0.001440479 0.7479218 0 8.129854 0.001515854 0 8.25614 0.2503178 0 8.133503 0.4991198 0 8.379791 0.001515854 0 8.381618 0.4991198 0 8.383443 0.9967237 0 8.258969 0.7479218 0 8.137153 0.9967237 0 10.5701 0.001515855 0 10.68912 0.2503178 0 10.57291 0.4991198 0 10.80782 0.001515855 0 10.80922 0.4991198 0 10.81062 0.9967237 0 10.69129 0.7479218 0 10.57571 0.9967237 0</float_array>
          <technique_common>
            <accessor source="#geom-lavaflow400-map1-array" count="525" stride="3">
              <param name="S" type="float"/>
              <param name="T" type="float"/>
              <param name="P" type="float"/>
            </accessor>
          </technique_common>
        </source>
        <vertices id="geom-lavaflow400-vertices">
          <input semantic="POSITION" source="#geom-lavaflow400-positions"/>
        </vertices>
        <triangles material="lavaglow_1" count="832">
          <input semantic="VERTEX" source="#geom-lavaflow400-vertices" offset="0"/>
          <input semantic="NORMAL" source="#geom-lavaflow400-normals" offset="1"/>
          <input semantic="TEXCOORD" source="#geom-lavaflow400-map1" offset="2" set="1"/>
          <p>2 0 2 263 1 263 159 2 159 159 2 159 266 3 266 2 0 2 263 1 263 81 4 81 264 5 264 264 5 264 159 2 159 263 1 263 54 6 54 265 7 265 159 2 159 159 2 159 264 5 264 54 6 54 265 7 265 82 8 82 266 3 266 266 3 266 159 2 159 265 7 265 81 4 81 267 9 267 160 10 160 160 10 160 264 5 264 81 4 81 267 9 267 0 11 0 268 12 268 268 12 268 160 10 160 267 9 267 80 13 80 269 14 269 160 10 160 160 10 160 268 12 268 80 13 80 269 14 269 54 6 54 264 5 264 264 5 264 160 10 160 269 14 269 1 15 1 270 16 270 161 17 161 161 17 161 272 18 272 1 15 1 270 16 270 83 19 83 271 20 271 271 20 271 161 17 161 270 16 270 54 6 54 269 14 269 161 17 161 161 17 161 271 20 271 54 6 54 269 14 269 80 13 80 272 18 272 272 18 272 161 17 161 269 14 269 83 19 83 273 21 273 162 22 162 162 22 162 271 20 271 83 19 83 273 21 273 3 23 3 274 24 274 274 24 274 162 22 162 273 21 273 82 8 82 265 7 265 162 22 162 162 22 162 274 24 274 82 8 82 265 7 265 54 6 54 271 20 271 271 20 271 162 22 162 265 7 265 4 25 4 275 26 275 163 27 163 163 27 163 278 28 278 4 25 4 275 26 275 84 29 84 276 30 276 276 30 276 163 27 163 275 26 275 55 31 55 277 32 277 163 27 163 163 27 163 276 30 276 55 31 55 277 32 277 85 33 85 278 28 278 278 28 278 163 27 163 277 32 277 84 29 84 279 34 279 164 35 164 164 35 164 276 30 276 84 29 84 279 34 279 2 0 2 266 3 266 266 3 266 164 35 164 279 34 279 82 8 82 280 36 280 164 35 164 164 35 164 266 3 266 82 8 82 280 36 280 55 31 55 276 30 276 276 30 276 164 35 164 280 36 280 3 23 3 281 37 281 165 38 165 165 38 165 274 24 274 3 23 3 281 37 281 86 39 86 282 40 282 282 40 282 165 38 165 281 37 281 55 31 55 280 36 280 165 38 165 165 38 165 282 40 282 55 31 55 280 36 280 82 8 82 274 24 274 274 24 274 165 38 165 280 36 280 86 39 86 283 41 283 166 42 166 166 42 166 282 40 282 86 39 86 283 41 283 5 43 5 284 44 284 284 44 284 166 42 166 283 41 283 85 33 85 277 32 277 166 42 166 166 42 166 284 44 284 85 33 85 277 32 277 55 31 55 282 40 282 282 40 282 166 42 166 277 32 277 6 45 6 285 46 285 167 47 167 167 47 167 288 48 288 6 45 6 285 46 285 87 49 87 286 50 286 286 50 286 167 47 167 285 46 285 56 51 56 287 52 287 167 47 167 167 47 167 286 50 286 56 51 56 287 52 287 88 53 88 288 48 288 288 48 288 167 47 167 287 52 287 87 49 87 289 54 289 168 55 168 168 55 168 286 50 286 87 49 87 289 54 289 4 25 4 278 28 278 278 28 278 168 55 168 289 54 289 85 33 85 290 56 290 168 55 168 168 55 168 278 28 278 85 33 85 290 56 290 56 51 56 286 50 286 286 50 286 168 55 168 290 56 290 5 43 5 291 57 291 169 58 169 169 58 169 284 44 284 5 43 5 291 57 291 89 59 89 292 60 292 292 60 292 169 58 169 291 57 291 56 51 56 290 56 290 169 58 169 169 58 169 292 60 292 56 51 56 290 56 290 85 33 85 284 44 284 284 44 284 169 58 169 290 56 290 89 59 89 293 61 293 170 62 170 170 62 170 292 60 292 89 59 89 293 61 293 7 63 7 294 64 294 294 64 294 170 62 170 293 61 293 88 53 88 287 52 287 170 62 170 170 62 170 294 64 294 88 53 88 287 52 287 56 51 56 292 60 292 292 60 292 170 62 170 287 52 287 8 65 8 295 66 295 171 67 171 171 67 171 298 68 298 8 65 8 295 66 295 90 69 90 296 70 296 296 70 296 171 67 171 295 66 295 57 71 57 297 72 297 171 67 171 171 67 171 296 70 296 57 71 57 297 72 297 91 73 91 298 68 298 298 68 298 171 67 171 297 72 297 90 69 90 299 74 299 172 75 172 172 75 172 296 70 296 90 69 90 299 74 299 6 45 6 288 48 288 288 48 288 172 75 172 299 74 299 88 53 88 300 76 300 172 75 172 172 75 172 288 48 288 88 53 88 300 76 300 57 71 57 296 70 296 296 70 296 172 75 172 300 76 300 7 63 7 301 77 301 173 78 173 173 78 173 294 64 294 7 63 7 301 77 301 92 79 92 302 80 302 302 80 302 173 78 173 301 77 301 57 71 57 300 76 300 173 78 173 173 78 173 302 80 302 57 71 57 300 76 300 88 53 88 294 64 294 294 64 294 173 78 173 300 76 300 92 79 92 303 81 303 174 82 174 174 82 174 302 80 302 92 79 92 303 81 303 9 83 9 304 84 304 304 84 304 174 82 174 303 81 303 91 73 91 297 72 297 174 82 174 174 82 174 304 84 304 91 73 91 297 72 297 57 71 57 302 80 302 302 80 302 174 82 174 297 72 297 10 85 10 305 86 305 175 87 175 175 87 175 308 88 308 10 85 10 305 86 305 93 89 93 306 90 306 306 90 306 175 87 175 305 86 305 58 91 58 307 92 307 175 87 175 175 87 175 306 90 306 58 91 58 307 92 307 94 93 94 308 88 308 308 88 308 175 87 175 307 92 307 93 89 93 309 94 309 176 95 176 176 95 176 306 90 306 93 89 93 309 94 309 52 96 52 310 97 310 310 97 310 176 95 176 309 94 309 158 98 158 311 99 311 176 95 176 176 95 176 310 97 310 158 98 158 311 99 311 58 91 58 306 90 306 306 90 306 176 95 176 311 99 311 53 100 53 312 101 312 177 102 177 177 102 177 314 103 314 53 100 53 312 101 312 157 104 157 313 105 313 313 105 313 177 102 177 312 101 312 58 91 58 311 99 311 177 102 177 177 102 177 313 105 313 58 91 58 311 99 311 158 98 158 314 103 314 314 103 314 177 102 177 311 99 311 157 104 157 315 106 315 178 107 178 178 107 178 313 105 313 157 104 157 315 106 315 11 108 11 316 109 316 316 109 316 178 107 178 315 106 315 94 93 94 307 92 307 178 107 178 178 107 178 316 109 316 94 93 94 307 92 307 58 91 58 313 105 313 313 105 313 178 107 178 307 92 307 12 110 12 317 111 317 179 112 179 179 112 179 320 113 320 12 110 12 317 111 317 96 114 96 318 115 318 318 115 318 179 112 179 317 111 317 59 116 59 319 117 319 179 112 179 179 112 179 318 115 318 59 116 59 319 117 319 97 118 97 320 113 320 320 113 320 179 112 179 319 117 319 96 114 96 321 119 321 180 120 180 180 120 180 318 115 318 96 114 96 321 119 321 10 85 10 308 88 308 308 88 308 180 120 180 321 119 321 94 93 94 322 121 322 180 120 180 180 120 180 308 88 308 94 93 94 322 121 322 59 116 59 318 115 318 318 115 318 180 120 180 322 121 322 11 108 11 323 122 323 181 123 181 181 123 181 316 109 316 11 108 11 323 122 323 98 124 98 324 125 324 324 125 324 181 123 181 323 122 323 59 116 59 322 121 322 181 123 181 181 123 181 324 125 324 59 116 59 322 121 322 94 93 94 316 109 316 316 109 316 181 123 181 322 121 322 98 124 98 325 126 325 182 127 182 182 127 182 324 125 324 98 124 98 325 126 325 13 128 13 326 129 326 326 129 326 182 127 182 325 126 325 97 118 97 319 117 319 182 127 182 182 127 182 326 129 326 97 118 97 319 117 319 59 116 59 324 125 324 324 125 324 182 127 182 319 117 319 14 130 14 327 131 327 183 132 183 183 132 183 330 133 330 14 130 14 327 131 327 99 134 99 328 135 328 328 135 328 183 132 183 327 131 327 60 136 60 329 137 329 183 132 183 183 132 183 328 135 328 60 136 60 329 137 329 100 138 100 330 133 330 330 133 330 183 132 183 329 137 329 99 134 99 331 139 331 184 140 184 184 140 184 328 135 328 99 134 99 331 139 331 12 110 12 320 113 320 320 113 320 184 140 184 331 139 331 97 118 97 332 141 332 184 140 184 184 140 184 320 113 320 97 118 97 332 141 332 60 136 60 328 135 328 328 135 328 184 140 184 332 141 332 13 128 13 333 142 333 185 143 185 185 143 185 326 129 326 13 128 13 333 142 333 101 144 101 334 145 334 334 145 334 185 143 185 333 142 333 60 136 60 332 141 332 185 143 185 185 143 185 334 145 334 60 136 60 332 141 332 97 118 97 326 129 326 326 129 326 185 143 185 332 141 332 101 144 101 335 146 335 186 147 186 186 147 186 334 145 334 101 144 101 335 146 335 15 148 15 336 149 336 336 149 336 186 147 186 335 146 335 100 138 100 329 137 329 186 147 186 186 147 186 336 149 336 100 138 100 329 137 329 60 136 60 334 145 334 334 145 334 186 147 186 329 137 329 16 150 16 337 151 337 187 152 187 187 152 187 340 153 340 16 150 16 337 151 337 102 154 102 338 155 338 338 155 338 187 152 187 337 151 337 61 156 61 339 157 339 187 152 187 187 152 187 338 155 338 61 156 61 339 157 339 103 158 103 340 153 340 340 153 340 187 152 187 339 157 339 102 154 102 341 159 341 188 160 188 188 160 188 338 155 338 102 154 102 341 159 341 14 130 14 330 133 330 330 133 330 188 160 188 341 159 341 100 138 100 342 161 342 188 160 188 188 160 188 330 133 330 100 138 100 342 161 342 61 156 61 338 155 338 338 155 338 188 160 188 342 161 342 15 148 15 343 162 343 189 163 189 189 163 189 336 149 336 15 148 15 343 162 343 104 164 104 344 165 344 344 165 344 189 163 189 343 162 343 61 156 61 342 161 342 189 163 189 189 163 189 344 165 344 61 156 61 342 161 342 100 138 100 336 149 336 336 149 336 189 163 189 342 161 342 104 164 104 345 166 345 190 167 190 190 167 190 344 165 344 104 164 104 345 166 345 17 168 17 346 169 346 346 169 346 190 167 190 345 166 345 103 158 103 339 157 339 190 167 190 190 167 190 346 169 346 103 158 103 339 157 339 61 156 61 344 165 344 344 165 344 190 167 190 339 157 339 18 170 18 347 171 347 191 172 191 191 172 191 350 173 350 18 170 18 347 171 347 105 174 105 348 175 348 348 175 348 191 172 191 347 171 347 62 176 62 349 177 349 191 172 191 191 172 191 348 175 348 62 176 62 349 177 349 106 178 106 350 173 350 350 173 350 191 172 191 349 177 349 105 174 105 351 179 351 192 180 192 192 180 192 348 175 348 105 174 105 351 179 351 50 181 50 352 182 352 352 182 352 192 180 192 351 179 351 155 183 155 353 184 353 192 180 192 192 180 192 352 182 352 155 183 155 353 184 353 62 176 62 348 175 348 348 175 348 192 180 192 353 184 353 51 185 51 354 186 354 193 187 193 193 187 193 356 188 356 51 185 51 354 186 354 154 189 154 355 190 355 355 190 355 193 187 193 354 186 354 62 176 62 353 184 353 193 187 193 193 187 193 355 190 355 62 176 62 353 184 353 155 183 155 356 188 356 356 188 356 193 187 193 353 184 353 154 189 154 357 191 357 194 192 194 194 192 194 355 190 355 154 189 154 357 191 357 19 193 19 358 194 358 358 194 358 194 192 194 357 191 357 106 178 106 349 177 349 194 192 194 194 192 194 358 194 358 106 178 106 349 177 349 62 176 62 355 190 355 355 190 355 194 192 194 349 177 349 20 195 20 359 196 359 195 197 195 195 197 195 362 198 362 20 195 20 359 196 359 108 199 108 360 200 360 360 200 360 195 197 195 359 196 359 63 201 63 361 202 361 195 197 195 195 197 195 360 200 360 63 201 63 361 202 361 109 203 109 362 198 362 362 198 362 195 197 195 361 202 361 108 199 108 363 204 363 196 205 196 196 205 196 360 200 360 108 199 108 363 204 363 18 170 18 350 173 350 350 173 350 196 205 196 363 204 363 106 178 106 364 206 364 196 205 196 196 205 196 350 173 350 106 178 106 364 206 364 63 201 63 360 200 360 360 200 360 196 205 196 364 206 364 19 193 19 365 207 365 197 208 197 197 208 197 358 194 358 19 193 19 365 207 365 110 209 110 366 210 366 366 210 366 197 208 197 365 207 365 63 201 63 364 206 364 197 208 197 197 208 197 366 210 366 63 201 63 364 206 364 106 178 106 358 194 358 358 194 358 197 208 197 364 206 364 110 209 110 367 211 367 198 212 198 198 212 198 366 210 366 110 209 110 367 211 367 21 213 21 368 214 368 368 214 368 198 212 198 367 211 367 109 203 109 361 202 361 198 212 198 198 212 198 368 214 368 109 203 109 361 202 361 63 201 63 366 210 366 366 210 366 198 212 198 361 202 361 22 215 22 369 216 369 199 217 199 199 217 199 372 218 372 22 215 22 369 216 369 111 219 111 370 220 370 370 220 370 199 217 199 369 216 369 64 221 64 371 222 371 199 217 199 199 217 199 370 220 370 64 221 64 371 222 371 112 223 112 372 218 372 372 218 372 199 217 199 371 222 371 111 219 111 373 224 373 200 225 200 200 225 200 370 220 370 111 219 111 373 224 373 20 195 20 362 198 362 362 198 362 200 225 200 373 224 373 109 203 109 374 226 374 200 225 200 200 225 200 362 198 362 109 203 109 374 226 374 64 221 64 370 220 370 370 220 370 200 225 200 374 226 374 21 213 21 375 227 375 201 228 201 201 228 201 368 214 368 21 213 21 375 227 375 113 229 113 376 230 376 376 230 376 201 228 201 375 227 375 64 221 64 374 226 374 201 228 201 201 228 201 376 230 376 64 221 64 374 226 374 109 203 109 368 214 368 368 214 368 201 228 201 374 226 374 113 229 113 377 231 377 202 232 202 202 232 202 376 230 376 113 229 113 377 231 377 23 233 23 378 234 378 378 234 378 202 232 202 377 231 377 112 223 112 371 222 371 202 232 202 202 232 202 378 234 378 112 223 112 371 222 371 64 221 64 376 230 376 376 230 376 202 232 202 371 222 371 24 235 24 379 236 379 203 237 203 203 237 203 382 238 382 24 235 24 379 236 379 114 239 114 380 240 380 380 240 380 203 237 203 379 236 379 65 241 65 381 242 381 203 237 203 203 237 203 380 240 380 65 241 65 381 242 381 115 243 115 382 238 382 382 238 382 203 237 203 381 242 381 114 239 114 383 244 383 204 245 204 204 245 204 380 240 380 114 239 114 383 244 383 22 215 22 372 218 372 372 218 372 204 245 204 383 244 383 112 223 112 384 246 384 204 245 204 204 245 204 372 218 372 112 223 112 384 246 384 65 241 65 380 240 380 380 240 380 204 245 204 384 246 384 23 233 23 385 247 385 205 248 205 205 248 205 378 234 378 23 233 23 385 247 385 116 249 116 386 250 386 386 250 386 205 248 205 385 247 385 65 241 65 384 246 384 205 248 205 205 248 205 386 250 386 65 241 65 384 246 384 112 223 112 378 234 378 378 234 378 205 248 205 384 246 384 116 249 116 387 251 387 206 252 206 206 252 206 386 250 386 116 249 116 387 251 387 25 253 25 388 254 388 388 254 388 206 252 206 387 251 387 115 243 115 381 242 381 206 252 206 206 252 206 388 254 388 115 243 115 381 242 381 65 241 65 386 250 386 386 250 386 206 252 206 381 242 381 26 255 26 389 256 389 207 257 207 207 257 207 392 258 392 26 255 26 389 256 389 117 259 117 390 260 390 390 260 390 207 257 207 389 256 389 66 261 66 391 262 391 207 257 207 207 257 207 390 260 390 66 261 66 391 262 391 118 263 118 392 258 392 392 258 392 207 257 207 391 262 391 117 259 117 393 264 393 208 265 208 208 265 208 390 260 390 117 259 117 393 264 393 24 235 24 382 238 382 382 238 382 208 265 208 393 264 393 115 243 115 394 266 394 208 265 208 208 265 208 382 238 382 115 243 115 394 266 394 66 261 66 390 260 390 390 260 390 208 265 208 394 266 394 25 253 25 395 267 395 209 268 209 209 268 209 388 254 388 25 253 25 395 267 395 119 269 119 396 270 396 396 270 396 209 268 209 395 267 395 66 261 66 394 266 394 209 268 209 209 268 209 396 270 396 66 261 66 394 266 394 115 243 115 388 254 388 388 254 388 209 268 209 394 266 394 119 269 119 397 271 397 210 272 210 210 272 210 396 270 396 119 269 119 397 271 397 27 273 27 398 274 398 398 274 398 210 272 210 397 271 397 118 263 118 391 262 391 210 272 210 210 272 210 398 274 398 118 263 118 391 262 391 66 261 66 396 270 396 396 270 396 210 272 210 391 262 391 28 275 28 399 276 399 211 277 211 211 277 211 402 278 402 28 275 28 399 276 399 120 279 120 400 280 400 400 280 400 211 277 211 399 276 399 67 281 67 401 282 401 211 277 211 211 277 211 400 280 400 67 281 67 401 282 401 121 283 121 402 278 402 402 278 402 211 277 211 401 282 401 120 279 120 403 284 403 212 285 212 212 285 212 400 280 400 120 279 120 403 284 403 26 255 26 392 258 392 392 258 392 212 285 212 403 284 403 118 263 118 404 286 404 212 285 212 212 285 212 392 258 392 118 263 118 404 286 404 67 281 67 400 280 400 400 280 400 212 285 212 404 286 404 27 273 27 405 287 405 213 288 213 213 288 213 398 274 398 27 273 27 405 287 405 122 289 122 406 290 406 406 290 406 213 288 213 405 287 405 67 281 67 404 286 404 213 288 213 213 288 213 406 290 406 67 281 67 404 286 404 118 263 118 398 274 398 398 274 398 213 288 213 404 286 404 122 289 122 407 291 407 214 292 214 214 292 214 406 290 406 122 289 122 407 291 407 29 293 29 408 294 408 408 294 408 214 292 214 407 291 407 121 283 121 401 282 401 214 292 214 214 292 214 408 294 408 121 283 121 401 282 401 67 281 67 406 290 406 406 290 406 214 292 214 401 282 401 30 295 30 409 296 409 215 297 215 215 297 215 412 298 412 30 295 30 409 296 409 123 299 123 410 300 410 410 300 410 215 297 215 409 296 409 68 301 68 411 302 411 215 297 215 215 297 215 410 300 410 68 301 68 411 302 411 124 303 124 412 298 412 412 298 412 215 297 215 411 302 411 123 299 123 413 304 413 216 305 216 216 305 216 410 300 410 123 299 123 413 304 413 28 275 28 402 278 402 402 278 402 216 305 216 413 304 413 121 283 121 414 306 414 216 305 216 216 305 216 402 278 402 121 283 121 414 306 414 68 301 68 410 300 410 410 300 410 216 305 216 414 306 414 29 293 29 415 307 415 217 308 217 217 308 217 408 294 408 29 293 29 415 307 415 125 309 125 416 310 416 416 310 416 217 308 217 415 307 415 68 301 68 414 306 414 217 308 217 217 308 217 416 310 416 68 301 68 414 306 414 121 283 121 408 294 408 408 294 408 217 308 217 414 306 414 125 309 125 417 311 417 218 312 218 218 312 218 416 310 416 125 309 125 417 311 417 31 313 31 418 314 418 418 314 418 218 312 218 417 311 417 124 303 124 411 302 411 218 312 218 218 312 218 418 314 418 124 303 124 411 302 411 68 301 68 416 310 416 416 310 416 218 312 218 411 302 411 32 315 32 419 316 419 219 317 219 219 317 219 422 318 422 32 315 32 419 316 419 126 319 126 420 320 420 420 320 420 219 317 219 419 316 419 69 321 69 421 322 421 219 317 219 219 317 219 420 320 420 69 321 69 421 322 421 127 323 127 422 318 422 422 318 422 219 317 219 421 322 421 126 319 126 423 324 423 220 325 220 220 325 220 420 320 420 126 319 126 423 324 423 30 295 30 412 298 412 412 298 412 220 325 220 423 324 423 124 303 124 424 326 424 220 325 220 220 325 220 412 298 412 124 303 124 424 326 424 69 321 69 420 320 420 420 320 420 220 325 220 424 326 424 31 313 31 425 327 425 221 328 221 221 328 221 418 314 418 31 313 31 425 327 425 128 329 128 426 330 426 426 330 426 221 328 221 425 327 425 69 321 69 424 326 424 221 328 221 221 328 221 426 330 426 69 321 69 424 326 424 124 303 124 418 314 418 418 314 418 221 328 221 424 326 424 128 329 128 427 331 427 222 332 222 222 332 222 426 330 426 128 329 128 427 331 427 33 333 33 428 334 428 428 334 428 222 332 222 427 331 427 127 323 127 421 322 421 222 332 222 222 332 222 428 334 428 127 323 127 421 322 421 69 321 69 426 330 426 426 330 426 222 332 222 421 322 421 34 335 34 429 336 429 223 337 223 223 337 223 432 338 432 34 335 34 429 336 429 129 339 129 430 340 430 430 340 430 223 337 223 429 336 429 70 341 70 431 342 431 223 337 223 223 337 223 430 340 430 70 341 70 431 342 431 130 343 130 432 338 432 432 338 432 223 337 223 431 342 431 129 339 129 433 344 433 224 345 224 224 345 224 430 340 430 129 339 129 433 344 433 32 315 32 422 318 422 422 318 422 224 345 224 433 344 433 127 323 127 434 346 434 224 345 224 224 345 224 422 318 422 127 323 127 434 346 434 70 341 70 430 340 430 430 340 430 224 345 224 434 346 434 33 333 33 435 347 435 225 348 225 225 348 225 428 334 428 33 333 33 435 347 435 131 349 131 436 350 436 436 350 436 225 348 225 435 347 435 70 341 70 434 346 434 225 348 225 225 348 225 436 350 436 70 341 70 434 346 434 127 323 127 428 334 428 428 334 428 225 348 225 434 346 434 131 349 131 437 351 437 226 352 226 226 352 226 436 350 436 131 349 131 437 351 437 35 353 35 438 354 438 438 354 438 226 352 226 437 351 437 130 343 130 431 342 431 226 352 226 226 352 226 438 354 438 130 343 130 431 342 431 70 341 70 436 350 436 436 350 436 226 352 226 431 342 431 36 355 36 439 356 439 227 357 227 227 357 227 442 358 442 36 355 36 439 356 439 132 359 132 440 360 440 440 360 440 227 357 227 439 356 439 71 361 71 441 362 441 227 357 227 227 357 227 440 360 440 71 361 71 441 362 441 133 363 133 442 358 442 442 358 442 227 357 227 441 362 441 132 359 132 443 364 443 228 365 228 228 365 228 440 360 440 132 359 132 443 364 443 34 335 34 432 338 432 432 338 432 228 365 228 443 364 443 130 343 130 444 366 444 228 365 228 228 365 228 432 338 432 130 343 130 444 366 444 71 361 71 440 360 440 440 360 440 228 365 228 444 366 444 35 353 35 445 367 445 229 368 229 229 368 229 438 354 438 35 353 35 445 367 445 134 369 134 446 370 446 446 370 446 229 368 229 445 367 445 71 361 71 444 366 444 229 368 229 229 368 229 446 370 446 71 361 71 444 366 444 130 343 130 438 354 438 438 354 438 229 368 229 444 366 444 134 369 134 447 371 447 230 372 230 230 372 230 446 370 446 134 369 134 447 371 447 37 373 37 448 374 448 448 374 448 230 372 230 447 371 447 133 363 133 441 362 441 230 372 230 230 372 230 448 374 448 133 363 133 441 362 441 71 361 71 446 370 446 446 370 446 230 372 230 441 362 441 38 375 38 449 376 449 231 377 231 231 377 231 452 378 452 38 375 38 449 376 449 135 379 135 450 380 450 450 380 450 231 377 231 449 376 449 72 381 72 451 382 451 231 377 231 231 377 231 450 380 450 72 381 72 451 382 451 136 383 136 452 378 452 452 378 452 231 377 231 451 382 451 135 379 135 453 384 453 232 385 232 232 385 232 450 380 450 135 379 135 453 384 453 36 355 36 442 358 442 442 358 442 232 385 232 453 384 453 133 363 133 454 386 454 232 385 232 232 385 232 442 358 442 133 363 133 454 386 454 72 381 72 450 380 450 450 380 450 232 385 232 454 386 454 37 373 37 455 387 455 233 388 233 233 388 233 448 374 448 37 373 37 455 387 455 137 389 137 456 390 456 456 390 456 233 388 233 455 387 455 72 381 72 454 386 454 233 388 233 233 388 233 456 390 456 72 381 72 454 386 454 133 363 133 448 374 448 448 374 448 233 388 233 454 386 454 137 389 137 457 391 457 234 392 234 234 392 234 456 390 456 137 389 137 457 391 457 39 393 39 458 394 458 458 394 458 234 392 234 457 391 457 136 383 136 451 382 451 234 392 234 234 392 234 458 394 458 136 383 136 451 382 451 72 381 72 456 390 456 456 390 456 234 392 234 451 382 451 40 395 40 459 396 459 235 397 235 235 397 235 462 398 462 40 395 40 459 396 459 138 399 138 460 400 460 460 400 460 235 397 235 459 396 459 73 401 73 461 402 461 235 397 235 235 397 235 460 400 460 73 401 73 461 402 461 139 403 139 462 398 462 462 398 462 235 397 235 461 402 461 138 399 138 463 404 463 236 405 236 236 405 236 460 400 460 138 399 138 463 404 463 38 375 38 452 378 452 452 378 452 236 405 236 463 404 463 136 383 136 464 406 464 236 405 236 236 405 236 452 378 452 136 383 136 464 406 464 73 401 73 460 400 460 460 400 460 236 405 236 464 406 464 39 393 39 465 407 465 237 408 237 237 408 237 458 394 458 39 393 39 465 407 465 140 409 140 466 410 466 466 410 466 237 408 237 465 407 465 73 401 73 464 406 464 237 408 237 237 408 237 466 410 466 73 401 73 464 406 464 136 383 136 458 394 458 458 394 458 237 408 237 464 406 464 140 409 140 467 411 467 238 412 238 238 412 238 466 410 466 140 409 140 467 411 467 41 413 41 468 414 468 468 414 468 238 412 238 467 411 467 139 403 139 461 402 461 238 412 238 238 412 238 468 414 468 139 403 139 461 402 461 73 401 73 466 410 466 466 410 466 238 412 238 461 402 461 42 415 42 469 416 469 239 417 239 239 417 239 472 418 472 42 415 42 469 416 469 141 419 141 470 420 470 470 420 470 239 417 239 469 416 469 74 421 74 471 422 471 239 417 239 239 417 239 470 420 470 74 421 74 471 422 471 142 423 142 472 418 472 472 418 472 239 417 239 471 422 471 141 419 141 473 424 473 240 425 240 240 425 240 470 420 470 141 419 141 473 424 473 40 395 40 462 398 462 462 398 462 240 425 240 473 424 473 139 403 139 474 426 474 240 425 240 240 425 240 462 398 462 139 403 139 474 426 474 74 421 74 470 420 470 470 420 470 240 425 240 474 426 474 41 413 41 475 427 475 241 428 241 241 428 241 468 414 468 41 413 41 475 427 475 143 429 143 476 430 476 476 430 476 241 428 241 475 427 475 74 421 74 474 426 474 241 428 241 241 428 241 476 430 476 74 421 74 474 426 474 139 403 139 468 414 468 468 414 468 241 428 241 474 426 474 143 429 143 477 431 477 242 432 242 242 432 242 476 430 476 143 429 143 477 431 477 43 433 43 478 434 478 478 434 478 242 432 242 477 431 477 142 423 142 471 422 471 242 432 242 242 432 242 478 434 478 142 423 142 471 422 471 74 421 74 476 430 476 476 430 476 242 432 242 471 422 471 44 435 44 479 436 479 243 437 243 243 437 243 482 438 482 44 435 44 479 436 479 144 439 144 480 440 480 480 440 480 243 437 243 479 436 479 75 441 75 481 442 481 243 437 243 243 437 243 480 440 480 75 441 75 481 442 481 145 443 145 482 438 482 482 438 482 243 437 243 481 442 481 144 439 144 483 444 483 244 445 244 244 445 244 480 440 480 144 439 144 483 444 483 42 415 42 472 418 472 472 418 472 244 445 244 483 444 483 142 423 142 484 446 484 244 445 244 244 445 244 472 418 472 142 423 142 484 446 484 75 441 75 480 440 480 480 440 480 244 445 244 484 446 484 43 433 43 485 447 485 245 448 245 245 448 245 478 434 478 43 433 43 485 447 485 146 449 146 486 450 486 486 450 486 245 448 245 485 447 485 75 441 75 484 446 484 245 448 245 245 448 245 486 450 486 75 441 75 484 446 484 142 423 142 478 434 478 478 434 478 245 448 245 484 446 484 146 449 146 487 451 487 246 452 246 246 452 246 486 450 486 146 449 146 487 451 487 45 453 45 488 454 488 488 454 488 246 452 246 487 451 487 145 443 145 481 442 481 246 452 246 246 452 246 488 454 488 145 443 145 481 442 481 75 441 75 486 450 486 486 450 486 246 452 246 481 442 481 46 455 46 489 456 489 247 457 247 247 457 247 492 458 492 46 455 46 489 456 489 147 459 147 490 460 490 490 460 490 247 457 247 489 456 489 76 461 76 491 462 491 247 457 247 247 457 247 490 460 490 76 461 76 491 462 491 148 463 148 492 458 492 492 458 492 247 457 247 491 462 491 147 459 147 493 464 493 248 465 248 248 465 248 490 460 490 147 459 147 493 464 493 44 435 44 482 438 482 482 438 482 248 465 248 493 464 493 145 443 145 494 466 494 248 465 248 248 465 248 482 438 482 145 443 145 494 466 494 76 461 76 490 460 490 490 460 490 248 465 248 494 466 494 45 453 45 495 467 495 249 468 249 249 468 249 488 454 488 45 453 45 495 467 495 149 469 149 496 470 496 496 470 496 249 468 249 495 467 495 76 461 76 494 466 494 249 468 249 249 468 249 496 470 496 76 461 76 494 466 494 145 443 145 488 454 488 488 454 488 249 468 249 494 466 494 149 469 149 497 471 497 250 472 250 250 472 250 496 470 496 149 469 149 497 471 497 47 473 47 498 474 498 498 474 498 250 472 250 497 471 497 148 463 148 491 462 491 250 472 250 250 472 250 498 474 498 148 463 148 491 462 491 76 461 76 496 470 496 496 470 496 250 472 250 491 462 491 48 475 48 499 476 499 251 477 251 251 477 251 502 478 502 48 475 48 499 476 499 150 479 150 500 480 500 500 480 500 251 477 251 499 476 499 77 481 77 501 482 501 251 477 251 251 477 251 500 480 500 77 481 77 501 482 501 151 483 151 502 478 502 502 478 502 251 477 251 501 482 501 150 479 150 503 484 503 252 485 252 252 485 252 500 480 500 150 479 150 503 484 503 46 455 46 492 458 492 492 458 492 252 485 252 503 484 503 148 463 148 504 486 504 252 485 252 252 485 252 492 458 492 148 463 148 504 486 504 77 481 77 500 480 500 500 480 500 252 485 252 504 486 504 47 473 47 505 487 505 253 488 253 253 488 253 498 474 498 47 473 47 505 487 505 152 489 152 506 490 506 506 490 506 253 488 253 505 487 505 77 481 77 504 486 504 253 488 253 253 488 253 506 490 506 77 481 77 504 486 504 148 463 148 498 474 498 498 474 498 253 488 253 504 486 504 152 489 152 507 491 507 254 492 254 254 492 254 506 490 506 152 489 152 507 491 507 49 493 49 508 494 508 508 494 508 254 492 254 507 491 507 151 483 151 501 482 501 254 492 254 254 492 254 508 494 508 151 483 151 501 482 501 77 481 77 506 490 506 506 490 506 254 492 254 501 482 501 50 181 50 509 495 509 255 496 255 255 496 255 352 182 352 50 181 50 509 495 509 153 497 153 510 498 510 510 498 510 255 496 255 509 495 509 78 499 78 511 500 511 255 496 255 255 496 255 510 498 510 78 499 78 511 500 511 155 183 155 352 182 352 352 182 352 255 496 255 511 500 511 153 497 153 512 501 512 256 502 256 256 502 256 510 498 510 153 497 153 512 501 512 16 150 16 340 153 340 340 153 340 256 502 256 512 501 512 103 158 103 513 503 513 256 502 256 256 502 256 340 153 340 103 158 103 513 503 513 78 499 78 510 498 510 510 498 510 256 502 256 513 503 513 17 168 17 514 504 514 257 505 257 257 505 257 346 169 346 17 168 17 514 504 514 107 506 107 515 507 515 515 507 515 257 505 257 514 504 514 78 499 78 513 503 513 257 505 257 257 505 257 515 507 515 78 499 78 513 503 513 103 158 103 346 169 346 346 169 346 257 505 257 513 503 513 107 506 107 516 508 516 258 509 258 258 509 258 515 507 515 107 506 107 516 508 516 51 185 51 356 188 356 356 188 356 258 509 258 516 508 516 155 183 155 511 500 511 258 509 258 258 509 258 356 188 356 155 183 155 511 500 511 78 499 78 515 507 515 515 507 515 258 509 258 511 500 511 52 96 52 517 510 517 259 511 259 259 511 259 310 97 310 52 96 52 517 510 517 156 512 156 518 513 518 518 513 518 259 511 259 517 510 517 79 514 79 519 515 519 259 511 259 259 511 259 518 513 518 79 514 79 519 515 519 158 98 158 310 97 310 310 97 310 259 511 259 519 515 519 156 512 156 520 516 520 260 517 260 260 517 260 518 513 518 156 512 156 520 516 520 8 65 8 298 68 298 298 68 298 260 517 260 520 516 520 91 73 91 521 518 521 260 517 260 260 517 260 298 68 298 91 73 91 521 518 521 79 514 79 518 513 518 518 513 518 260 517 260 521 518 521 9 83 9 522 519 522 261 520 261 261 520 261 304 84 304 9 83 9 522 519 522 95 521 95 523 522 523 523 522 523 261 520 261 522 519 522 79 514 79 521 518 521 261 520 261 261 520 261 523 522 523 79 514 79 521 518 521 91 73 91 304 84 304 304 84 304 261 520 261 521 518 521 95 521 95 524 523 524 262 524 262 262 524 262 523 522 523 95 521 95 524 523 524 53 100 53 314 103 314 314 103 314 262 524 262 524 523 524 158 98 158 519 515 519 262 524 262 262 524 262 314 103 314 158 98 158 519 515 519 79 514 79 523 522 523 523 522 523 262 524 262 519 515 519</p>
        </triangles>
      </mesh>
    </geometry>
    <geometry id="geom-bounds" name="bounds">
      <mesh>
        <source id="geom-bounds-positions">
          <float_array id="geom-bounds-positions-array" count="24">-18.53584 -24.40073 0 18.53584 -24.40073 0 -18.53584 24.40073 0 18.53584 24.40073 0 -18.53584 -24.40073 -1.488479 18.53584 -24.40073 -1.488479 -18.53584 24.40073 -1.488479 18.53584 24.40073 -1.488479</float_array>
          <technique_common>
            <accessor source="#geom-bounds-positions-array" count="8" stride="3">
              <param name="X" type="float"/>
              <param name="Y" type="float"/>
              <param name="Z" type="float"/>
            </accessor>
          </technique_common>
        </source>
        <source id="geom-bounds-normals">
          <float_array id="geom-bounds-normals-array" count="72">0 0 1 0 0 1 0 0 1 0 0 1 0 0 -1 0 0 -1 0 0 -1 0 0 -1 0 -1 0 0 -1 0 0 -1 0 0 -1 0 1 0 0 1 0 0 1 0 0 1 0 0 0 1 0 0 1 0 0 1 0 0 1 0 -1 0 0 -1 0 0 -1 0 0 -1 0 0</float_array>
          <technique_common>
            <accessor source="#geom-bounds-normals-array" count="24" stride="3">
              <param name="X" type="float"/>
              <param name="Y" type="float"/>
              <param name="Z" type="float"/>
            </accessor>
          </technique_common>
        </source>
        <source id="geom-bounds-map1">
          <float_array id="geom-bounds-map1-array" count="36">0 0 0 1 0 0 0 1 0 1 1 0 0 0 0 1 0 0 0 1 0 1 1 0 0 0 0 1 0 0 0 1 0 1 1 0</float_array>
          <technique_common>
            <accessor source="#geom-bounds-map1-array" count="12" stride="3">
              <param name="S" type="float"/>
              <param name="T" type="float"/>
              <param name="P" type="float"/>
            </accessor>
          </technique_common>
        </source>
        <vertices id="geom-bounds-vertices">
          <input semantic="POSITION" source="#geom-bounds-positions"/>
        </vertices>
        <triangles material="ColorMaterial" count="12">
          <input semantic="VERTEX" source="#geom-bounds-vertices" offset="0"/>
          <input semantic="NORMAL" source="#geom-bounds-normals" offset="1"/>
          <input semantic="TEXCOORD" source="#geom-bounds-map1" offset="2" set="1"/>
          <p>2 0 10 0 1 8 3 2 11 1 3 9 3 2 11 0 1 8 5 4 8 4 5 9 7 6 10 6 7 11 7 6 10 4 5 9 1 8 5 0 9 4 5 10 7 4 11 6 5 10 7 0 9 4 3 12 1 1 13 0 7 14 3 5 15 2 7 14 3 1 13 0 2 16 5 3 17 4 6 18 7 7 19 6 6 18 7 3 17 4 0 20 1 2 21 0 4 22 3 6 23 2 4 22 3 2 21 0</p>
        </triangles>
      </mesh>
      <extra>
        <technique profile="OpenCOLLADA3dsMax">
          <box>
            <generateuvs>1</generateuvs>
            <height>-1.488479</height>
            <heightsegments>1</heightsegments>
            <length>48.80147</length>
            <lengthsegments>1</lengthsegments>
            <width>37.07169</width>
            <widthsegments>1</widthsegments>
          </box>
        </technique>
      </extra>
    </geometry>
  </library_geometries>
  <library_lights>
    <light id="EnvironmentAmbientLight" name="EnvironmentAmbientLight">
      <technique_common>
        <ambient>
          <color>0 0 0</color>
        </ambient>
      </technique_common>
    </light>
  </library_lights>
  <library_images>
    <image id="lavaglow_diffuse_png">
      <init_from>file:///E:/Projects/Pacific/game/art/shapes/volcano/lavaglow_diffuse.png</init_from>
    </image>
  </library_images>
  <library_visual_scenes>
    <visual_scene id="MaxScene">
      <node name="EnvironmentAmbientLight">
        <instance_light url="#EnvironmentAmbientLight"/>
      </node>
      <node id="node-base00" name="base00">
        <matrix>1 0 0 0 0 1 0 0 0 0 1 0 0 0 0 1</matrix>
        <node id="node-start00" name="start00">
          <matrix>1 0 0 0 0 1 0 0 0 0 1 0 0 0 0 1</matrix>
          <node id="node-lavaflow400" name="lavaflow400">
            <matrix>3.157525 0 0 0 0 3.157525 0 0 0 0 3.157525 0 0 0 0 1</matrix>
            <node>
              <matrix>1 0 0 -1.733839 0 1 0 -0.733141 0 0 1 -5.79902e-5 0 0 0 1</matrix>
              <instance_geometry url="#geom-lavaflow400">
                <bind_material>
                  <technique_common>
                    <instance_material symbol="lavaglow_1" target="#lavaglow-material">
                      <bind_vertex_input semantic="CHANNEL1" input_semantic="TEXCOORD" input_set="1"/>
                    </instance_material>
                  </technique_common>
                </bind_material>
              </instance_geometry>
            </node>
          </node>
        </node>
        <node id="node-detail400" name="detail400">
          <matrix>1 0 0 0 0 1 0 0 0 0 1 0 0 0 0 1</matrix>
        </node>
      </node>
      <node id="node-bounds" name="bounds">
        <matrix>1 0 0 0.3803997 0 1 0 -0.3423977 0 0 1 0.6415243 0 0 0 1</matrix>
        <instance_geometry url="#geom-bounds">
          <bind_material>
            <technique_common>
              <instance_material symbol="ColorMaterial" target="#ColorEffectR6G135B113-material"/>
            </technique_common>
          </bind_material>
        </instance_geometry>
      </node>
    </visual_scene>
  </library_visual_scenes>
  <scene>
    <instance_visual_scene url="#MaxScene"/>
  </scene>
</COLLADA>