<?xml version="1.0" encoding="utf-8"?>
<COLLADA xmlns="http://www.collada.org/2005/11/COLLADASchema" version="1.4.1">
  <asset>
    <contributor>
      <author>Duion</author>
      <authoring_tool>Blender 2.65.0 r53189</authoring_tool>
    </contributor>
    <created>2013-06-11T15:10:13</created>
    <modified>2013-06-11T15:10:13</modified>
    <unit name="meter" meter="1"/>
    <up_axis>Z_UP</up_axis>
  </asset>
  <library_lights>
    <light id="Hemi-light" name="Hemi">
      <technique_common>
        <ambient>
          <color>1 1 1</color>
        </ambient>
      </technique_common>
      <extra>
        <technique profile="blender">
          <adapt_thresh>0.000999987</adapt_thresh>
          <area_shape>0</area_shape>
          <area_size>1</area_size>
          <area_sizey>1</area_sizey>
          <area_sizez>1</area_sizez>
          <atm_distance_factor>1</atm_distance_factor>
          <atm_extinction_factor>1</atm_extinction_factor>
          <atm_turbidity>2</atm_turbidity>
          <att1>0</att1>
          <att2>1</att2>
          <backscattered_light>1</backscattered_light>
          <bias>1</bias>
          <blue>1</blue>
          <buffers>1</buffers>
          <bufflag>0</bufflag>
          <bufsize>512</bufsize>
          <buftype>2</buftype>
          <clipend>40</clipend>
          <clipsta>0.5</clipsta>
          <compressthresh>0.04999995</compressthresh>
          <dist sid="blender_dist">25</dist>
          <energy sid="blender_energy">1</energy>
          <falloff_type>2</falloff_type>
          <filtertype>0</filtertype>
          <flag>0</flag>
          <gamma sid="blender_gamma">1</gamma>
          <green>1</green>
          <halo_intensity sid="blnder_halo_intensity">1</halo_intensity>
          <horizon_brightness>1</horizon_brightness>
          <mode>1</mode>
          <ray_samp>1</ray_samp>
          <ray_samp_method>1</ray_samp_method>
          <ray_samp_type>0</ray_samp_type>
          <ray_sampy>1</ray_sampy>
          <ray_sampz>1</ray_sampz>
          <red>1</red>
          <samp>3</samp>
          <shadhalostep>0</shadhalostep>
          <shadow_b sid="blender_shadow_b">0</shadow_b>
          <shadow_g sid="blender_shadow_g">0</shadow_g>
          <shadow_r sid="blender_shadow_r">0</shadow_r>
          <shadspotsize>45</shadspotsize>
          <sky_colorspace>2</sky_colorspace>
          <sky_exposure>1</sky_exposure>
          <skyblendfac>1</skyblendfac>
          <skyblendtype>1</skyblendtype>
          <soft>3</soft>
          <spotblend>0.15</spotblend>
          <spotsize>45</spotsize>
          <spread>1</spread>
          <sun_brightness>1</sun_brightness>
          <sun_effect_type>0</sun_effect_type>
          <sun_intensity>1</sun_intensity>
          <sun_size>1</sun_size>
          <type>3</type>
        </technique>
      </extra>
    </light>
  </library_lights>
  <library_images/>
  <library_effects>
    <effect id="fir_tree_01_branch-effect">
      <profile_COMMON>
        <technique sid="common">
          <phong>
            <emission>
              <color sid="emission">0 0 0 1</color>
            </emission>
            <ambient>
              <color sid="ambient">0 0 0 1</color>
            </ambient>
            <diffuse>
              <color sid="diffuse">0.7 0.7 0.7 1</color>
            </diffuse>
            <specular>
              <color sid="specular">0.5 0.5 0.5 1</color>
            </specular>
            <shininess>
              <float sid="shininess">50</float>
            </shininess>
            <transparency>
              <float sid="transparency">0</float>
            </transparency>
            <index_of_refraction>
              <float sid="index_of_refraction">1</float>
            </index_of_refraction>
          </phong>
        </technique>
        <extra>
          <technique profile="GOOGLEEARTH">
            <double_sided>1</double_sided>
          </technique>
        </extra>
      </profile_COMMON>
      <extra><technique profile="MAX3D"><double_sided>1</double_sided></technique></extra>
    </effect>
    <effect id="fir_tree_01_bark-effect">
      <profile_COMMON>
        <technique sid="common">
          <phong>
            <emission>
              <color sid="emission">0 0 0 1</color>
            </emission>
            <ambient>
              <color sid="ambient">0 0 0 1</color>
            </ambient>
            <diffuse>
              <color sid="diffuse">0.7 0.7 0.7 1</color>
            </diffuse>
            <specular>
              <color sid="specular">0.5 0.5 0.5 1</color>
            </specular>
            <shininess>
              <float sid="shininess">50</float>
            </shininess>
            <index_of_refraction>
              <float sid="index_of_refraction">1</float>
            </index_of_refraction>
          </phong>
        </technique>
        <extra>
          <technique profile="GOOGLEEARTH">
            <double_sided>1</double_sided>
          </technique>
        </extra>
      </profile_COMMON>
      <extra><technique profile="MAX3D"><double_sided>1</double_sided></technique></extra>
    </effect>
  </library_effects>
  <library_materials>
    <material id="fir_tree_01_branch-material" name="fir_tree_01_branch">
      <instance_effect url="#fir_tree_01_branch-effect"/>
    </material>
    <material id="fir_tree_01_bark-material" name="fir_tree_01_bark">
      <instance_effect url="#fir_tree_01_bark-effect"/>
    </material>
  </library_materials>
  <library_geometries>
    <geometry id="tanne128-mesh" name="tanne128">
      <mesh>
        <source id="tanne128-mesh-positions">
          <float_array id="tanne128-mesh-positions-array" count="1848">0 -2.38419e-6 17.34679 0 -0.2365443 11.69003 0.167262 -0.167262 11.69003 0 -2.38419e-6 17.34679 0.2365446 0 11.69003 0 -2.38419e-6 17.34679 0.167262 0.167262 11.69003 0 -2.38419e-6 17.34679 0 0.2365443 11.69003 0 -2.38419e-6 17.34679 -0.167262 0.167262 11.69003 0 -2.38419e-6 17.34679 -0.2365446 0 11.69003 0 -2.38419e-6 17.34679 -0.167262 -0.167262 11.69003 0 -2.38419e-6 17.34679 0 -0.3098192 6.767434 0.2190752 -0.2190752 6.767434 0.3098192 0 6.767434 0.2190752 0.2190752 6.767434 0 0.3098192 6.767434 -0.2190752 0.2190752 6.767434 -0.3098192 0 6.767434 -0.2190752 -0.2190752 6.767434 0 -0.3851616 1.295715 0.2723503 -0.2723506 1.221128 0.3851614 0 1.0146 0.2723503 0.2723504 1.073998 0 0.3851618 1.133317 -0.2723503 0.2723504 1.27822 -0.3851614 0 1.087813 -0.2723503 -0.2723506 1.141882 0.06720256 -0.7638059 -1.671222 0.6406155 -0.52301 -1.671222 0.7358055 0.005600214 -1.671222 0.5062094 0.6126138 -1.671222 -0.07280254 0.8254085 -1.671222 -0.5566111 0.5062095 -1.671222 -0.7750063 -0.02240085 -1.671222 -0.562212 -0.6686161 -1.671222 0 2.999999 3.680148 0.187598 0 5.814782 2.482819 0.02515006 5.608628 2.281749 2.996146 3.435014 0 -3.000001 3.68015 2.579111 -2.996147 3.498097 4.772439 0.2852901 5.697715 4.561835 3.22636 3.48466 5.151242 -2.742869 3.629236 -2.687979 -1.332205 3.860295 0.067456 -0.136107 5.997765 -0.991135 1.989506 6.139832 -3.759869 0.8595234 3.983655 2.687979 1.332203 3.860297 1.354252 3.99427 4.12193 -2.368261 3.706598 7.047717 -5.157118 2.643178 4.883632 -0.33555 6.196239 5.241723 2.487727 -1.676668 4.040441 -0.131718 -0.195436 6.170303 -1.544088 -2.089521 5.904263 0.767168 -4.134487 3.88732 -2.487727 1.676666 4.040444 -3.506008 0.07077938 3.651304 -3.573016 -3.365155 5.778185 -1.668931 -5.901092 3.897937 -5.094003 -1.00066 3.393315 1.477522 2.610924 4.22059 0.134102 -0.07588803 6.357903 1.859379 -1.096687 6.136821 3.42247 1.489467 4.024856 -1.477522 -2.610926 4.220591 1.057938 -4.02493 4.045186 3.566496 -1.563344 7.10186 5.345021 0.9531572 5.078022 3.573241 -4.775278 5.292085 -1.948293 2.281261 4.400736 -0.02114295 -0.01805704 6.543417 1.58584 1.328133 6.556706 0.008564949 3.940514 4.488008 1.948293 -2.281263 4.400737 3.548653 -0.9025017 4.374168 3.346368 2.354385 7.059371 2.133932 5.24391 5.117082 5.30815 0.1598822 4.839592 -1.92925 -2.297389 4.580883 0.04732096 -0.03974008 6.722853 -1.600245 1.288356 6.724778 -4.271711 -0.2787337 4.724944 1.92925 2.297387 4.580885 0.271493 3.637947 4.587522 -2.469814 2.910918 7.76787 -5.671364 2.096981 6.130978 -0.605001 5.27341 5.6388 2.46183 -1.714466 4.76103 -0.156675 -0.2249741 6.886281 -1.317897 -1.888854 6.596188 1.071435 -3.710024 4.459302 -2.46183 1.714464 4.761033 -3.786906 -0.1891687 4.449816 -2.532771 -3.483738 7.022797 -0.37687 -5.629407 4.93952 -5.169909 -2.020335 4.902465 -1.648621 2.5064 4.941177 0.179686 0.1181908 7.073217 2.329564 1.374637 6.818252 0.900401 4.125531 4.822777 1.648621 -2.506402 4.941178 3.279626 -1.37606 4.55487 4.792517 1.851361 6.528088 3.821867 4.885023 4.67159 5.207216 -0.9288406 4.142642 -2.793211 -1.094521 5.121325 0.01144397 -0.02920717 7.263956 -0.793657 1.976732 7.274155 -3.534523 0.8631702 5.074271 2.793211 1.094519 5.121326 1.737375 3.723145 5.240497 -2.072162 3.608151 7.905591 -4.746279 2.462994 5.640738 0.138683 5.919953 6.072676 0.586178 -2.942176 5.301471 -0.06433498 -0.01281917 7.443327 -1.926377 -0.3532162 7.294959 -1.685892 -3.388389 5.21608 -0.586178 2.942174 5.301474 -3.237566 2.407472 5.233109 -3.401053 -0.8849814 8.364727 -3.528028 -4.043559 6.467595 -5.431797 1.64455 6.61276 0.759939 2.902152 5.481618 -0.109157 0.02858275 7.621506 1.911076 -0.5001392 7.700544 2.619352 2.366793 5.493535 -0.759939 -2.902154 5.481619 2.119886 -3.607781 5.728032 3.828468 -0.1953024 8.491687 4.392415 2.63281 6.194821 4.875617 -3.314106 6.827837 -2.397757 1.802985 5.661767 -0.03958797 -0.05264621 7.803614 1.011117 1.338493 7.827884 -0.917764 3.737537 5.799129 2.397757 -1.802987 5.661767 3.436625 -0.3877539 5.653296 2.307184 2.32534 8.458714 0.851294 5.191688 6.654195 4.726701 0.628643 6.254399 -2.284915 -1.944008 5.841911 -0.03365296 0.03955167 7.984144 -1.22401 1.318667 7.851741 -4.102016 0.2554171 5.807621 2.284915 1.944006 5.841915 1.046882 3.335473 5.761912 -1.679452 2.68392 8.840866 -4.982606 2.569317 7.2075 0.57375 4.802627 6.834374 0.856728 -2.875069 6.022058 -0.216303 -0.06445729 8.153001 -2.055009 -0.6125843 7.913689 -1.308126 -3.519689 5.772953 -0.856728 2.875067 6.022061 -3.121069 2.199852 5.781656 -3.813749 -1.213524 8.447122 -3.387541 -4.221656 6.358739 -5.296238 1.466538 6.394968 1.764017 2.426569 6.202208 0.163991 -0.1192153 8.335455 1.67749 -1.219225 8.124823 3.569051 1.114346 5.987466 -1.764017 -2.426571 6.202208 0.06296998 -3.754677 5.99019 3.155356 -2.27027 8.631093 5.335541 -0.1447771 6.552411 1.850767 -5.029063 6.562528 -1.97583 2.257452 6.382353 0.12447 0.1089416 8.518821 1.603113 1.38563 8.351301 -0.187669 3.817007 6.236269 1.97583 -2.257454 6.382355 3.52394 -0.896947 6.18517 3.199238 2.473924 8.693344 1.728105 5.16765 6.65093 5.195924 0.2732989 6.511063 -1.224232 -2.738843 6.5625 0.2178969 -0.09739941 8.692028 -1.651127 0.7559816 8.922172 -3.141315 -1.881057 6.820456 1.224232 2.738841 6.562502 -0.57954 3.544236 6.761342 -3.484809 1.691334 9.118767 -5.02304 -0.9399632 7.044648 -2.348886 4.429876 6.927441 2.841557 -0.9620581 6.742648 -0.02938896 -0.08680742 8.883548 -0.752495 -1.879653 8.797971 2.035777 -3.226458 6.797095 -2.841557 0.9620559 6.74265 -3.288914 -0.4748421 6.520925 -1.980583 -3.393921 8.708715 0.649618 -5.191047 6.852853 -4.185739 -1.681832 6.300835 0.2192119 2.991979 6.922794 -0.076433 0.005599498 9.064285 1.686849 -0.05972844 9.117988 1.653204 2.838904 6.840127 -0.2192119 -2.991981 6.922795 2.242236 -3.124311 7.145244 3.334392 0.5290495 9.449634 3.004239 3.27813 7.015419 4.571939 -2.472493 7.702905 -2.27863 -1.95137 7.102941 0.05155396 -0.06020247 9.244337 -0.967133 1.104003 9.257461 -3.790946 -0.1477451 7.24474 2.27863 1.951368 7.102943 1.218866 3.151183 7.107505 -1.507024 2.380866 9.948221 -4.711563 1.793768 8.222505 0.642398 4.469082 7.800854 0.725709 -2.910902 7.283089 0.124749 0.03109842 9.422089 -1.419959 -0.3357695 9.476004 -0.782745 -3.249187 7.308563 -0.725709 2.9109 7.283092 -3.104892 2.27997 7.49844 -2.576253 -1.165608 10.18844 -1.91383 -4.046641 7.98556 -4.997445 1.070742 8.536648 2.972317 0.4066088 7.463235 -0.02505797 0.1831794 9.598106 0.21895 -1.601724 9.744042 3.244562 -1.583504 7.637578 -2.972317 -0.4066112 7.463237 -2.700496 -2.393613 7.636532 0.451755 -3.320199 10.25332 3.504986 -3.50352 8.195165 -2.44048 -4.310634 8.192774 -1.773156 2.419899 7.643383 0.119293 0.08740937 9.781134 1.594216 1.241377 9.650815 -0.445288 3.381491 7.448049 1.773156 -2.419901 7.643383 3.453168 -1.177501 7.580751 2.886776 2.599905 9.496505 0.715712 4.535872 7.231478 4.942912 0.2859528 7.494062 -0.614982 -2.936291 7.82353 0.022879 -0.004794597 9.966263 -1.2333 0.2450094 9.909667 -2.513025 -2.536499 7.856043 0.614982 2.936289 7.823533 -1.059719 3.28478 7.83084 -2.257689 0.5617463 10.6122 -4.129773 -2.055085 8.812381 -2.468874 3.709444 8.704515 1.883685 2.334893 8.003677 0.04620796 -0.03727865 10.14571 1.127504 -0.8751737 10.09127 2.875205 1.508791 7.888065 -1.883685 -2.334895 8.003679 -0.334286 -3.558689 8.028803 2.364174 -1.394605 10.3927 4.027217 0.9851857 8.120532 1.401409 -4.397546 8.482912 -1.318203 2.694872 8.183824 -0.06149399 -0.03008067 10.32559 1.229576 0.6029053 10.34577 0.224941 3.449206 8.228903 1.318203 -2.694875 8.183825 2.951773 -1.89531 8.25178 2.412703 1.244478 10.85251 1.651522 4.213311 8.803494 4.463706 -1.086489 8.864595 -2.999345 -0.06268632 8.363971 4.58e-4 -0.02197068 10.50672 -0.01910996 1.58838 10.50298 -3.032675 2.10115 8.442075 2.999345 0.06268364 8.363973 2.953118 1.70549 8.324913 0.273645 3.105625 10.96665 -2.703617 4.154568 9.062053 3.221841 3.261904 8.758578 2.351747 -1.862603 8.544118 0.11179 0.1411442 10.6794 -0.71001 -0.9270057 10.75284 0.914312 -3.605211 8.808447 -2.351747 1.862601 8.54412 -3.093166 0.8541576 8.575712 -1.779753 -1.473462 11.37658 -0.845717 -4.66742 9.789737 -4.079322 0.3448665 9.141064 -0.488744 2.959918 8.724267 -0.07965695 -0.01315373 10.8656 1.033897 0.1081072 10.82304 0.80158 3.144853 8.745532 0.488744 -2.959921 8.724267 2.568831 -2.58833 8.831799 1.802337 0.5279521 11.5158 1.712204 3.64582 9.550447 4.18213 -1.80806 9.943709 -2.413733 -1.781542 8.904413 -0.01532196 0.02075719 11.04712 -1.00989 1.157037 11.02531 -2.984527 -0.9320524 8.716983 2.413733 1.78154 8.904415 1.187548 3.366698 9.055408 -2.332003 1.926065 10.96563 -3.83474 -0.3707874 8.504314 -0.444037 4.534317 9.16996 1.558103 -2.563654 9.08456 0.182555 0.1109482 11.21675 -1.034729 -0.6416829 11.35698 0.292666 -3.331784 9.213797 -1.558103 2.563652 9.084562 -2.934324 1.726269 9.265043 -2.193836 -1.439244 11.65553 -0.91472 -4.14611 9.504113 -4.248213 0.8414605 9.613528 2.423711 1.767942 9.264708 -0.152018 0.2084041 11.39198 0.587727 -0.8502929 11.54211 3.391004 0.4289705 9.51801 -2.423711 -1.767946 9.26471 -1.678609 -2.77653 9.363764 1.137828 -1.978195 11.89187 4.142051 -0.9880676 9.998159 -1.116575 -3.857384 9.660689 -2.580609 1.529854 9.444855 -0.07885301 -0.1330119 11.58213 0.553427 1.076432 11.67359 -2.022133 2.37702 9.378635 2.580609 -1.529857 9.444857 3.572819 0.2387244 9.731075 0.689223 2.429961 11.93165 -1.884065 3.367735 9.463729 3.950496 2.195889 10.22837 -2.279474 -1.950386 9.625003 -0.005420982 0.006333053 11.76785 -0.822451 0.9694771 11.73999 -3.383306 -0.6561115 9.644436 2.279474 1.950382 9.625005 1.334369 3.050764 9.59331 -1.506184 1.962092 12.12049 -4.331879 0.6708083 10.13558 0.529452 4.184834 9.997416 2.962844 -0.4706956 9.80515 0.04378998 0.2756381 11.92976 -0.144235 -0.906597 12.05774 2.741091 -1.838134 9.960367 -2.962844 0.4706924 9.805152 -3.224901 -1.20728 10.05501 -0.163249 -1.974158 12.61537 2.699699 -3.085548 10.57572 -3.286001 -2.747552 10.81478 -1.173851 2.760808 9.985298 -0.05183994 -0.02204197 12.12742 1.323609 0.459023 12.16096 0.751755 3.526161 10.19691 1.173851 -2.760812 9.9853 2.116702 -2.306544 9.855648 2.793984 0.417121 12.29263 2.80807 3.657069 10.53355 3.160692 -2.289472 9.8164 -2.709908 -1.287013 10.16545 0.01059997 -0.02232301 12.30816 -0.326106 0.6287521 12.23208 -3.347323 0.06630331 10.19548 2.709908 1.287009 10.16545 2.208807 2.330932 10.16601 -0.49262 1.172138 12.69992 -3.750587 1.273141 10.97734 1.915535 3.24089 10.82565 0.291262 -2.985829 10.34559 0.321449 0.03135395 12.46397 -0.977221 -0.120563 12.65695 -0.976982 -3.102231 10.48865 -0.291262 2.985825 10.3456 -1.941714 2.817513 10.64964 -2.195926 -0.4584521 13.04893 -2.171581 -3.401962 10.82924 -3.500732 2.438507 11.17891 1.536916 2.576408 10.52574 -0.197122 0.1175889 12.65627 0.900374 -0.5243811 12.78388 2.709912 1.874419 10.64772 -1.536916 -2.576412 10.52574 -0.1874639 -3.379149 10.7202 2.001276 -1.053822 13.16086 3.888419 1.28753 11.02812 1.164691 -4.05612 11.19155 -1.864114 2.350547 10.70589 -0.125053 -0.09917509 12.8428 0.487795 0.3833459 12.83396 -0.860584 3.146274 10.79927 1.864114 -2.350551 10.70589 2.905321 -1.52469 10.80743 0.96162 0.7762119 13.31315 -0.03070098 3.829992 11.50163 3.769873 -0.8127289 11.52966 -2.936221 -0.6153078 10.88603 0.077443 -0.3695601 12.99537 -0.183866 0.8226909 13.20436 -3.201017 0.6603792 11.09195 2.936221 0.6153042 10.88604 2.620488 2.109884 11.18679 -0.536475 1.923279 13.65107 -3.560292 1.844129 11.54344 2.202705 3.500556 11.75346 1.635756 -2.514819 11.06618 0.251693 0.1637098 13.1879 -0.360443 -0.3094981 13.2282 0.124968 -3.447847 11.35551 -1.635756 2.514815 11.06618 -2.285648 2.042434 11.14162 -0.938943 -0.3802442 13.73091 -1.336573 -3.773121 12.3445 -2.892991 1.983878 11.68531 2.522965 1.623158 11.24633 -0.05264198 0.08182477 13.38698 0.569761 -0.8787282 13.43519 3.198722 0.5726141 11.2965 -2.522965 -1.623162 11.24633 -1.822364 -2.711965 11.31179 1.199911 -1.816128 13.62662 3.882761 -0.4541049 11.49612 -1.113696 -3.775898 11.52939 -2.999681 0.04369908 11.42648 -0.003702998 -0.2541052 13.55422 -0.01984196 0.8210298 13.672 -2.966567 1.007535 11.46431 2.999681 -0.04370284 11.42648 3.003907 1.55553 11.6948 -0.300829 1.818379 14.00189 -3.184122 1.9078 11.70614 2.681547 3.058888 12.2247 -0.756059 -2.903168 11.60663 0.02152496 -0.005608201 13.74937 -0.683153 0.1905828 13.70774 -1.688322 -2.651709 11.58574 0.756059 2.903164 11.60663 -0.609707 3.250171 11.65217 -1.324482 0.2263027 14.06142 -2.551214 -2.58022 12.0095 -1.888392 3.37879 12.23504 2.541097 -1.594625 11.78677 0.191485 0.3051357 13.89914 -0.428306 -0.5451413 14.07445 1.681262 -2.899089 12.17695 -2.541097 1.594621 11.78677 -2.902606 0.9528221 11.78845 -1.284072 -1.155785 14.32008 0.519181 -3.909659 12.65986 -3.469402 0.499868 11.85533 2.079139 2.162677 11.96692 -0.100494 0.09661066 14.10524 0.48777 -0.4680173 14.12322 2.973306 1.302619 12.05469 -2.079139 -2.162681 11.96692 -1.245204 -2.963972 12.03543 0.992072 -0.9916784 14.49297 3.765111 0.4926779 12.56974 -0.509275 -3.717639 12.51637 -2.990465 -0.2389969 12.14707 0.02450895 -0.3066853 14.26773 -0.03794795 0.4830726 14.35354 -3.046942 0.629208 12.22835 2.990465 0.238993 12.14707 2.866149 1.63299 12.39503 -0.268217 1.145949 14.73546 -3.27836 1.370424 12.61874 2.519589 2.857213 13.035 1.71608 -2.460707 12.32721 0.159437 0.1111876 14.46124 -0.58414 -0.3765823 14.53266 0.629006 -3.20669 12.5052 -1.71608 2.460703 12.32722 -2.412707 1.962744 12.34731 -1.379385 -0.7055824 14.77981 -0.520551 -3.757478 12.89827 -3.165394 1.616289 12.5413 1.139702 2.77508 12.50736 -0.1447319 0.05943858 14.6445 0.797988 -0.4309594 14.71787 2.645548 2.105069 12.78217 -1.139702 -2.775084 12.50736 -0.518233 -2.978743 12.40093 1.515384 -1.233685 14.8459 3.874833 1.023392 13.13404 -0.05825895 -3.438471 12.34501 -2.250226 -1.984059 12.68751 0.230526 -0.2614544 14.80183 -0.152015 0.2078155 14.84788 -2.771869 -1.374047 12.79218 2.250226 1.984055 12.68751 1.365828 2.96871 12.93334 -0.542852 0.4671375 15.23296 -3.302283 -1.000555 13.27764 0.469164 3.649369 13.67057 2.489148 -1.67456 12.86766 0.1886309 0.2803875 14.9837 -0.166332 -0.2532885 15.04314 1.866695 -2.598596 13.05362 -2.489148 1.674556 12.86766 -3.042271 0.8511559 13.01804 -0.484365 -0.6686085 15.41832 1.291995 -3.369866 13.64642 -3.550757 0.1711508 13.55179 -1.500671 2.597686 13.04781 -0.397363 -0.2295565 15.14095 0.441524 0.3474645 15.36162 -0.887831 2.91896 13.07863 1.500671 -2.59769 13.04781 2.708413 -1.867223 13.47795 1.09839 1.138406 15.58904 -0.415347 3.420001 13.12028 3.702527 -0.8695323 13.92215 -2.224453 -2.012912 13.22795 0.305303 -0.3373925 15.32195 -0.339863 0.3367264 15.52259 -2.807066 -1.362379 13.37368 2.224453 2.012908 13.22795 1.439807 2.873322 13.52502 -1.045921 0.9190915 15.79902 -3.450084 -0.7979162 13.59363 0.586382 3.630212 13.90765 2.956366 -0.5098042 13.4081 0.06120395 0.3549205 15.52048 -0.163388 -0.4832596 15.66527 2.700944 -1.80517 13.7574 -2.956366 0.5097998 13.4081 -3.016997 -0.02763915 13.37591 -0.627015 -1.225288 15.83963 2.135546 -2.987436 14.14997 -3.269192 -0.5005232 13.37275 1.207808 2.2554 14.04427 -0.204132 0.1255714 15.71766 0.199037 -0.08209556 15.7133 2.312824 1.54428 14.23494 -1.571866 -2.555239 13.58825 -1.103127 -2.812221 13.60554 0.403877 -0.3728986 15.99377 3.090337 0.6956974 14.89622 -0.845769 -3.156973 13.92515 -2.681982 1.344235 13.7684 -0.10873 -0.2169356 15.89747 0.343008 0.6096174 16.00369 -2.157458 2.379274 13.95239 2.395518 -1.180432 14.19701 2.766596 -0.4285923 14.24082 0.886565 1.373232 16.15845 -1.529379 3.344359 14.19129 3.225116 0.2669477 14.3314 -0.228715 -2.99127 13.94854 0.192874 -0.01475059 16.08266 -0.191646 0.01371133 16.0581 -1.114553 -2.923521 14.03011 0.260708 2.347107 14.78274 -0.605624 2.413331 14.86046 -0.482069 0.03900933 16.31164 -1.867582 -2.860236 14.50428 -1.340588 2.475137 15.32632 1.863657 1.669094 14.89316 -0.140385 0.1584583 16.26107 0.234722 -0.2651677 16.28506 2.469068 0.9856596 14.98097 -2.245515 -1.98939 14.12869 -1.617565 -2.698108 14.22553 0.570332 -0.6311337 16.55743 3.025782 0.3733657 15.37602 -1.039528 -3.334012 14.63528 -2.508392 0.4034167 14.78505 -0.03803294 -0.4927917 16.39392 0.06674796 0.2390853 16.56824 -2.437033 1.228024 15.04256 2.452919 -0.06595969 15.09593 2.48614 0.4779293 15.15553 0.280651 0.9516612 16.73811 -2.253629 2.036043 15.29738 2.611932 1.008237 15.213 -0.1100276 -2.098456 15.27928 0.353906 -0.05783265 16.60163 -0.336713 0.003969252 16.71325 -0.7959699 -1.948428 15.25528 0.5621218 2.669173 15.07115 -0.6197533 2.836392 15.37135 -1.004941 -0.1375977 16.91221 -1.47075 -2.04656 15.34573 -1.775669 2.728681 15.79172 1.715996 -0.4591796 15.42019 0.02294099 0.2013802 16.80239 -0.04399996 -0.3571968 16.83269 1.602596 -1.435277 15.53499 -2.019947 0.4209471 15.35272 -2.104016 -0.3364828 15.4037 -0.1594229 -0.8573198 17.06632 1.426391 -2.334048 15.91355 -2.243615 -1.029518 15.68697 -1.683138 1.628507 15.35712 -0.3063033 -0.2843674 17.012 0.04364573 -0.04590797 17.08583 -1.169439 2.027295 15.37156 0.9730833 -1.590002 15.61922 1.781588 -0.8816549 15.75191 0.2556213 0.2428032 17.12462 -0.9040816 2.459613 15.78859 2.338074 -0.1346087 15.67266 -0.5632218 -1.921394 15.9976 0.3849392 -0.1239606 17.10051 0.01607733 0.01470947 17.38574 -1.314683 -1.540761 16.08527 1.446393 1.585519 15.63024 0.6502549 1.982782 15.77257 -0.568219 0.2237152 17.21124 -2.032394 -1.257122 16.42746 -0.1114361 2.289232 16.1477</float_array>
          <technique_common>
            <accessor source="#tanne128-mesh-positions-array" count="616" stride="3">
              <param name="X" type="float"/>
              <param name="Y" type="float"/>
              <param name="Z" type="float"/>
            </accessor>
          </technique_common>
        </source>
        <source id="tanne128-mesh-normals">
          <float_array id="tanne128-mesh-normals-array" count="1848">0 -0.999115 0.04174929 0 -0.9995728 0.02822959 0.7068087 -0.7068087 0.02822959 0.706473 -0.706473 0.04174929 0.9995728 0 0.02822959 0.999115 0 0.04174929 0.7068087 0.7068087 0.02822959 0.706473 0.706473 0.04177981 0 0.9995728 0.02822959 0 0.999115 0.04177981 -0.7068087 0.7068087 0.02822959 -0.706473 0.706473 0.04177981 -0.9995728 0 0.02822959 -0.999115 0 0.04174929 -0.7068087 -0.7068087 0.02822959 -0.706473 -0.706473 0.04174929 0.9998779 8.54518e-4 0.0140385 0.7075106 0.706534 0.0140385 -0.7078768 -0.7061678 0.01416057 -4.57778e-4 -0.9998779 0.01425212 0.001190185 0.9998779 0.01413005 0.708182 -0.7058626 0.01419109 -0.7072054 0.7068392 0.01419109 -0.9998779 -7.93481e-4 0.01413005 -0.6849269 -0.7227393 0.09201329 0.02575761 -0.9975891 0.06427198 0.7259133 -0.6839808 0.07181 0.9944151 0.05291908 0.0912503 -0.722068 0.6894742 0.05648976 -0.9956969 0.007599055 0.09216588 0.7091586 0.7004914 0.07986694 -0.03234958 0.9956054 0.08767968 0.9885556 0.0693075 0.1338236 0.699057 0.7005219 0.1433759 -0.9902036 0.01330602 0.1388286 -0.6660665 -0.7292398 0.156621 -0.06286811 0.986755 0.1494186 -0.7454451 0.6526688 0.135258 0.07907342 -0.9869991 0.1398358 0.7635426 -0.6289255 0.1462752 0.07675403 0.5866573 0.8061465 0.08908349 0.002777159 0.9960021 0.02566605 -0.007782161 0.9996338 -0.006012141 0.5901364 0.8072451 0.06830042 -0.5755486 0.8148747 0.04559463 -0.5714591 0.8193304 -0.04043698 0.01895195 0.9989929 -0.08761864 0.5896176 0.802881 0.02255314 -0.5670034 0.8233589 -0.5041047 -0.2985626 0.810358 0.02365183 -0.0590533 0.9979553 0.1337931 -0.1820124 0.9741203 -0.4163945 -0.4688864 0.7789239 0.5416425 0.2018189 0.8160039 0.5787225 0.137791 0.803766 0.178869 -0.3393048 0.9234901 -0.314066 -0.6201362 0.7188635 0.6128422 0.07248145 0.7868587 0.4197516 -0.3815119 0.823542 -0.07589954 -0.09256261 0.9927976 -0.03427225 -0.07831048 0.9963073 0.3559374 -0.4179205 0.8358104 -0.5671254 0.2467421 0.7857601 -0.4856715 0.3754997 0.7893307 -0.08053833 0.03723257 0.9960326 0.2871792 -0.453505 0.8436842 -0.3991821 0.4881741 0.7760552 0.3593555 0.4574114 0.8133793 0.084109 -0.03897213 0.9956664 -0.2003845 0.02655106 0.979339 0.08667254 0.6033509 0.7927183 -0.2275765 -0.5311747 0.8160955 -0.3753166 -0.4774621 0.7944273 -0.4318369 0.1750847 0.8847621 -0.1955015 0.6915799 0.6953032 -0.5131688 -0.4119694 0.7529221 -0.3838313 0.427778 0.8183233 -0.003570616 -0.008148431 0.999939 -0.10889 -0.06222718 0.9920957 -0.4193548 0.3959166 0.8169195 0.381756 -0.4453871 0.8098392 0.2720115 -0.5401471 0.7963805 -0.1781671 -0.1651051 0.9700309 -0.4543901 0.3627125 0.813593 0.1583605 -0.6222114 0.766625 -0.3527024 -0.4561296 0.817011 0.01266515 0.00238043 0.9999085 0.1243324 -0.2351756 0.9639577 -0.2931608 -0.5306864 0.7952208 0.3658559 0.4505142 0.8143254 0.5921812 0.2310556 0.7719352 0.3294168 -0.3717154 0.8679159 -0.230903 -0.6001465 0.765801 0.7587512 -0.01199376 0.6512345 0.412244 -0.4183172 0.8093203 -0.07760852 -0.109592 0.990936 0.02548295 0.02331614 0.9993897 0.4883572 -0.3193457 0.8120976 -0.5393536 0.2398449 0.8071535 -0.4578692 0.3651845 0.8105411 0.1156346 0.1645253 0.9795526 0.5569933 -0.215125 0.8021485 -0.3663747 0.4820399 0.7958312 -0.2451552 0.507828 0.8258004 0.09643846 0.04947048 0.9940794 0.09002959 0.05850398 0.9942015 -0.1527451 0.5248879 0.8373364 0.4197821 -0.4538102 0.7860042 0.3324076 -0.5258339 0.7829219 0.1234474 -0.04919582 0.9911191 -0.05447548 0.5376751 0.8413648 0.2468642 -0.5870846 0.7709586 -0.5512253 -0.2075564 0.8080996 -0.004364132 -0.00741595 0.999939 0.0972014 -0.1201208 0.9879757 -0.4713584 -0.3945433 0.7887509 0.5394452 0.1937315 0.8193915 0.5536668 0.1545152 0.8182318 0.1108737 -0.280282 0.9534593 -0.3740348 -0.5617848 0.737846 0.5671254 0.1144139 0.8156072 0.06219667 -0.5702994 0.8190557 -0.05056911 -0.01501506 0.9985961 0.2406079 0.09836113 0.9656056 0.3546251 -0.5174108 0.7787714 -0.1469161 0.5550096 0.8187201 0.04788351 0.6226692 0.7809992 0.5227516 0.1478011 0.8395337 0.6165655 -0.417249 0.6676229 0.2396923 0.662801 0.7093722 0.1383404 0.5734123 0.8074587 -0.03241062 0.01870781 0.9992981 -0.2188177 -0.02505564 0.9754326 -0.1246681 0.6217536 0.7731865 -0.1910763 -0.5429243 0.8177435 -0.2256538 -0.5346233 0.8143864 -0.3908506 0.072573 0.9175695 -0.3737602 0.6252632 0.685049 -0.2604144 -0.5255287 0.8099002 -0.4759666 0.3224281 0.8182013 -0.005859553 -0.01806694 0.9998169 -0.1542405 -0.1191747 0.9808039 -0.5197302 0.271981 0.8098392 0.467452 -0.3526108 0.8106327 0.3289895 -0.5259865 0.7842342 -0.23014 -0.2842189 0.9306925 -0.5616322 0.2196722 0.7976623 0.1767327 -0.67098 0.7200537 -0.4555803 -0.3547776 0.8164007 -0.02624589 0.05227816 0.9982604 0.06274604 -0.2697836 0.9608448 -0.3934446 -0.480636 0.7836543 0.3927427 0.4221015 0.8170415 0.6166875 0.1192052 0.7780999 0.2676779 -0.4885708 0.8304086 -0.3240761 -0.595172 0.7353435 0.7537767 -0.2068239 0.6236763 0.07440412 -0.5815302 0.8100833 -0.1087679 -0.03344827 0.9934996 0.07196265 0.0298776 0.9969481 0.2367321 -0.5394147 0.8080386 -0.2519608 0.5268411 0.8117313 -0.1160008 0.5756096 0.8094119 0.2544938 0.07846307 0.9638661 0.3921324 -0.482284 0.7833186 0.02261418 0.6124455 0.7901548 0.4080325 0.4182562 0.8114871 0.08301031 -0.06002986 0.9947203 -0.0658589 0.045381 0.996765 0.2891324 0.5124058 0.8085879 -0.2724692 -0.5162206 0.811945 -0.3940855 -0.4360485 0.8090152 -0.2103946 0.1523483 0.9656667 0.1636097 0.5947448 0.7870724 -0.5073702 -0.3465682 0.788934 -0.333079 0.4737693 0.8152104 0.06332588 0.05203402 0.9966124 -0.04406869 -0.01684617 0.9988708 -0.3869747 0.4283578 0.8165227 0.4389783 -0.3920102 0.8084353 0.3369854 -0.4843288 0.8073672 -0.1257362 -0.1184118 0.9849544 -0.4394665 0.3803521 0.8137151 0.2298349 -0.5666067 0.7912534 -0.1511887 -0.5657522 0.8105716 0.1018708 -0.04458749 0.9937742 0.0941801 -0.0424512 0.9946287 -0.1666311 -0.5551927 0.8148442 0.3189184 0.4975127 0.8066958 0.3256325 0.4977569 0.8038271 0.09350872 -0.02587968 0.9952697 -0.182165 -0.5443282 0.8188421 0.3323161 0.498001 0.8009583 0.5247048 -0.2040467 0.8264412 -0.02114927 -0.04629653 0.9986877 -0.01110869 -0.0424512 0.9990234 0.474105 -0.2624592 0.8404187 -0.5919675 0.1389813 0.7938475 -0.5687429 0.2419812 0.7860957 -0.09369182 0.02008116 0.9953917 0.4177679 -0.3220924 0.8495132 -0.5414594 0.3351542 0.7709891 0.04809713 0.5984069 0.799707 -0.02117979 0.008117914 0.9997254 -0.1104465 -0.0336619 0.993286 -0.1480758 0.6065859 0.7810602 -0.08008056 -0.5634632 0.8222297 -0.05316323 -0.5463729 0.835841 -0.2222357 0.05914485 0.9731742 -0.3275856 0.5927305 0.7357403 -0.02511668 -0.5279397 0.8489029 -0.416364 -0.3977477 0.8175299 0.01754814 -0.007629573 0.9997864 0.09503459 -0.2198553 0.9708853 -0.3674429 -0.4734641 0.80047 0.4402295 0.3809626 0.8130436 0.6066164 0.1698355 0.7766045 0.261269 -0.3622852 0.8946806 -0.3151341 -0.5455794 0.776513 0.7275307 -0.05188143 0.6840724 0.1514939 -0.5646229 0.811304 0.03918576 -4.57778e-4 0.9992066 0.2132023 0.1399884 0.9669179 0.4228034 -0.4786218 0.7694632 -0.08902245 0.5704825 0.8164312 -0.0262764 0.5958129 0.8026673 0.4317148 0.1524094 0.8890042 0.6566362 -0.3546861 0.6655477 0.03704947 0.6184576 0.7849056 0.5656301 0.1461836 0.8115788 -0.01135283 0.08285772 0.9964904 -0.02453684 0.1805475 0.9832453 0.5567187 0.2253792 0.7995239 -0.5841853 -0.01120024 0.8115177 -0.5969726 0.06811732 0.7993408 -0.03790396 0.2763756 0.9602954 0.5441756 0.3031404 0.782281 -0.6058229 0.1470077 0.7818537 -0.2972808 0.5173803 0.8024232 0.05603194 0.04361093 0.997467 0.06045717 0.0451979 0.9971313 -0.3366191 0.4998627 0.7979675 0.3774529 -0.4309213 0.8196356 0.4049196 -0.3941771 0.8250069 0.02786338 0.08609271 0.99588 -0.3739738 0.4820704 0.7922605 0.4322947 -0.3554491 0.8286996 -0.1217078 -0.5607166 0.8189947 -0.01156651 0.006256282 0.9999085 0.2529069 -0.08090454 0.9640797 0.06555372 -0.6202582 0.7816095 0.101535 0.5649586 0.8188116 0.3513901 0.5219275 0.7772149 0.5064241 -0.1263771 0.8529618 0.2499465 -0.6549577 0.7130955 0.5784478 0.4442579 0.6841029 0.4094058 0.4276254 0.8059023 0.03323465 -0.02246159 0.999176 -0.09256261 0.02520829 0.9953612 0.2606891 0.5442671 0.7973571 -0.3476058 -0.4552141 0.8196967 -0.3713492 -0.4315317 0.8220771 -0.1694692 0.1560411 0.9730827 0.1083712 0.6383252 0.7620777 -0.3952147 -0.4067812 0.8235725 -0.2699362 0.5131688 0.8146916 -0.02169865 -0.009735405 0.9996948 -0.1637318 -0.08832055 0.9825129 -0.400708 0.4541459 0.7956786 0.2343211 -0.5285806 0.8158819 0.1289712 -0.5863216 0.7997375 -0.3082064 -0.1515244 0.9391461 -0.5227821 0.385815 0.760155 0.02142399 -0.6355479 0.7717216 -0.5740227 -0.02417063 0.8184454 0.003814756 -0.00112915 0.9999695 -0.02990812 -0.1434675 0.9891964 -0.5741752 -0.0844447 0.8143559 0.5855587 0.02249211 0.810297 0.5882443 -0.154973 0.7936643 0.009369134 -0.2897122 0.9570605 -0.572161 -0.1452986 0.8071535 0.5727103 -0.3243812 0.7528306 0.4958342 -0.3006379 0.8146916 0.02526932 0.05059969 0.9983825 0.2336802 0.1430402 0.9617298 0.5355693 -0.2627338 0.8025453 -0.447737 0.3780328 0.810297 -0.2432935 0.6003296 0.761803 0.3329264 0.3444014 0.8777734 0.5739311 -0.2236396 0.7877438 -0.01974546 0.7643361 0.6444594 -0.06515699 0.5686514 0.8199713 0.001464843 0.01855522 0.9998169 -0.2804346 -0.1569262 0.9469283 -0.4197516 0.49559 0.7603381 0.07159638 -0.5717948 0.8172551 -0.06900233 -0.6273995 0.7755974 -0.5707877 -0.1864376 0.7996155 -0.7231056 0.3523362 0.5940733 -0.2061525 -0.6671957 0.7157506 -0.5173498 -0.3243812 0.7918943 -0.01397746 0.02096617 0.9996643 -0.01477092 0.02056944 0.9996643 -0.4607074 -0.4232001 0.7801141 0.4528031 0.3301798 0.8281808 0.3771477 0.3762932 0.8462477 -0.08749651 -0.07586902 0.9932554 -0.4054384 -0.506241 0.7611011 0.2927641 0.4222236 0.8578753 0.3686636 -0.4586017 0.8085269 0.08413952 0.05099642 0.995117 0.1285134 0.08276617 0.9882199 0.4195685 -0.4300668 0.7993408 -0.2293161 0.5377361 0.811304 -0.2023987 0.5525071 0.8085269 0.1822565 0.0994293 0.9781793 0.4686117 -0.4003113 0.7874691 -0.1750541 0.5669118 0.8049257 0.4028443 0.4233222 0.8114566 -0.0682699 0.09314244 0.993286 -0.1001312 0.1655934 0.9810785 0.386578 0.4383679 0.8113651 -0.5236366 -0.2790918 0.8048952 -0.5900449 -0.1920835 0.7841731 -0.1799982 0.2088686 0.961211 0.3697928 0.453505 0.8108768 -0.6476028 -0.1051057 0.7546617 -0.5252236 0.29429 0.7984253 -0.02871787 -0.04556411 0.9985351 -0.03305155 -0.1280251 0.9912106 -0.619068 0.1288796 0.7746514 0.4515824 -0.350383 0.8205206 0.4512772 -0.3087558 0.8372448 -0.170629 -0.1735587 0.9699088 -0.684988 -0.02652055 0.7280191 0.4499954 -0.2643818 0.8529618 -0.4406262 -0.3718985 0.817011 -0.007263362 0.01083403 0.9999085 0.07858514 -0.1183202 0.9898374 -0.3812372 -0.4483779 0.8084048 0.4307382 0.3912778 0.8132267 0.5339213 0.2751244 0.7994934 0.1918393 -0.2223883 0.9558702 -0.3177282 -0.5212256 0.7920469 0.6233406 0.153447 0.7667165 0.5873593 -0.004486203 0.8092898 0.02121031 0.1161839 0.9929807 0.01934874 0.2899258 0.9568163 0.6169317 0.1709342 0.7682119 -0.5528123 0.1940367 0.810358 -0.5439314 0.2961211 0.7851192 0.0653401 0.4502701 0.8904691 0.6259346 0.3394269 0.7021088 -0.5288553 0.3955504 0.7508774 -0.252266 0.5059053 0.8248543 -0.009124994 -0.004730343 0.999939 -0.06079286 -0.00100708 0.9981384 -0.1915951 0.502121 0.8432875 0.2546769 -0.5495163 0.7957091 0.1042512 -0.6160161 0.7807551 -0.09659105 -0.1300699 0.9867855 -0.1265907 0.4959258 0.8590655 -0.03405863 -0.6616718 0.7489852 -0.5220496 -0.2348704 0.8199103 -0.003753721 0.03463846 0.9993897 0.07928705 -0.2800683 0.9566943 -0.456679 -0.4365367 0.7751396 0.4972075 0.2822962 0.8203681 0.6386914 0.007354915 0.7694022 0.216071 -0.539201 0.8139592 -0.3705252 -0.616596 0.6946013 0.7177954 -0.2705771 0.6414991 0.164983 -0.5739616 0.802057 0.1454207 0.01379436 0.9892575 0.2194586 0.03805655 0.9748528 0.2715537 -0.5658132 0.7784967 0.07260352 0.5849788 0.8077639 0.0946989 0.5830867 0.8068484 0.3029267 0.008270502 0.9529405 0.3722953 -0.5513474 0.7465743 0.1172215 0.5808283 0.8055055 0.2314829 0.5411847 0.8084048 -0.08832055 0.05310219 0.9946593 -0.1754814 0.09298986 0.9800714 0.1460921 0.5947753 0.7904599 -0.372631 -0.4502701 0.8113956 -0.4202399 -0.422071 0.8032472 -0.2474135 0.1577501 0.9559618 0.06018245 0.6416517 0.7646107 -0.4669637 -0.3922544 0.7924742 -0.3819696 0.4288766 0.818598 -0.03399759 -0.02533036 0.9990845 -0.2463454 -0.2033143 0.9475997 -0.5713065 0.2971892 0.7650075 0.3275856 -0.4721213 0.8183844 0.1681874 -0.6197088 0.7665639 -0.4448989 -0.3579821 0.8208869 -0.7286905 0.1487777 0.6684469 5.18815e-4 -0.7363506 0.6765648 -0.5437178 -0.250557 0.8009583 0.03485208 -0.1682791 0.985107 0.0662862 -0.2580035 0.9638661 -0.5246742 -0.3515427 0.7752922 0.595172 -0.02453684 0.8031861 0.605884 -0.07528913 0.7919553 0.06503492 -0.3538926 0.9329814 -0.5000763 -0.4473708 0.7414472 0.615009 -0.1264076 0.7783135 0.4068422 -0.4246345 0.808771 0.04998928 0.06659138 0.9965209 0.378399 0.08767968 0.9214454 0.5051119 -0.3905149 0.7696158 -0.2946257 0.4933927 0.8183538 0.03967404 0.6824244 0.7298502 0.5934324 0.2666097 0.7594226 0.5960265 -0.352092 0.7216407 0.3762627 0.7660756 0.5210731 0.4706565 0.3435469 0.8126774 -0.02383494 0.03671371 0.9990234 -0.05789357 0.08734393 0.9944761 0.4421827 0.3901181 0.8076113 -0.507828 -0.2827235 0.8137151 -0.5321512 -0.2451552 0.810358 -0.08651995 0.1410871 0.9861751 0.4125187 0.435316 0.8001648 -0.5554674 -0.2069765 0.8053224 -0.5914182 -0.05645924 0.8043764 -0.001342773 -0.1058382 0.9943541 0.03036588 -0.2074343 0.977752 -0.5927 -0.2203436 0.7746514 0.5713981 -0.1147496 0.8125858 0.5651112 -0.1301614 0.8146611 -0.03070157 -0.3211768 0.9465011 -0.5786309 -0.3708609 0.7263711 0.5584277 -0.1460005 0.8165532 -0.1814325 -0.5495468 0.8154851 -0.02264469 -0.002288877 0.9997254 0.2246162 -0.007965326 0.974395 0.07025361 -0.6167181 0.7840205 0.1473128 0.55562 0.8182623 0.2824793 0.535966 0.7955565 0.4447462 -0.09411907 0.8906827 0.3156834 -0.641377 0.6992401 0.4127628 0.5058748 0.7574084 0.5618153 -0.1734977 0.8088321 0.08551281 0.1248207 0.988464 0.1260109 0.1554002 0.9797663 0.5241249 -0.1964781 0.8286386 -0.4593036 0.3963439 0.7949156 -0.3838618 0.5218665 0.761742 0.08648943 0.2701193 0.9589221 0.4829554 -0.2202826 0.8474685 -0.3090609 0.6241951 0.7174901 0.3695181 0.4450514 0.8156682 -0.03482156 0.03225803 0.9988708 -0.1702322 0.1745964 0.9697867 0.2687155 0.5536057 0.7882016 -0.4260689 -0.3920102 0.815302 -0.5533616 -0.2789087 0.784814 -0.3092135 0.2997528 0.9024934 0.161565 0.6498001 0.7426984 -0.6638692 -0.1577501 0.7309793 -0.574633 -0.1227454 0.8091067 0.005035519 -0.1205481 0.9926756 0.07135224 -0.2928556 0.9534593 -0.5544908 -0.340495 0.7593005 0.5833613 -0.07373267 0.8088321 0.5960875 -0.150914 0.7885678 0.04544204 -0.4734031 0.8796655 -0.5076754 -0.5373394 0.6734215 0.6050295 -0.2281258 0.7628102 0.396588 -0.4239021 0.8142338 0.06735432 0.04397714 0.9967345 0.1597338 0.08276617 0.9836726 0.4185613 -0.4043703 0.8131657 -0.2971892 0.5092319 0.8076724 -0.1842402 0.5899533 0.7861263 0.2186346 0.1826533 0.9585254 0.4407788 -0.3839228 0.8113346 -0.07245093 0.6564531 0.7508774 0.1443525 0.5511948 0.8217719 -0.04284799 0.02685624 0.9987182 -0.0778222 0.05551314 0.9953917 0.1852168 0.5058138 0.842494 -0.2313608 -0.5593432 0.7959533 -0.388226 -0.4992828 0.7745598 -0.199469 -0.01760917 0.9797357 0.2280953 0.4548784 0.8608356 -0.5134434 -0.4366283 0.7387005 -0.3838008 -0.435255 0.8143864 0.0687887 -0.1001617 0.992584 0.2953886 -0.2343821 0.9261452 -0.1950438 -0.6469924 0.7371135 0.5148473 0.2864162 0.8079776 0.6127507 0.2025818 0.7638173 0.4273202 -0.4305551 0.7949461 0.01116973 -0.8031556 0.5956298 0.6991485 0.1151768 0.7055879 0.5416425 -0.2269051 0.8093814 0.0720542 0.1113315 0.9911496 0.2066408 0.2824488 0.9367352 0.6390576 -0.102237 0.7622913 -0.4211554 0.4071169 0.8104496 -0.3200476 0.571276 0.7557604 0.3111667 0.4533219 0.8352306 0.7191687 0.02533036 0.6943266 -0.2062441 0.7123326 0.6708273 -0.416303 0.4519181 0.788934 -0.1694387 -0.1082186 0.9795526 -0.1825312 -0.1192969 0.9759209 -0.5098117 0.4070864 0.7578356 0.1197851 -0.5863216 0.8011414 0.1541795 -0.5426496 0.8256783 -0.2643208 -0.05847346 0.9626454 -0.5878475 0.3632923 0.7227699 0.1900998 -0.4940336 0.848384 -0.3283181 -0.511887 0.7938169 0.1428571 -0.1528062 0.9778436 0.1746574 -0.1796014 0.9680777 -0.2858363 -0.5641041 0.7746208 0.5483871 0.2523881 0.7972045 0.5470138 0.2463759 0.8000122 0.1775872 -0.2371288 0.9550768 -0.2433851 -0.6119877 0.7524338 0.5456099 0.2402111 0.8028504 0.5855587 0.05551314 0.8086795 0.03851431 0.1443525 0.9887692 0.04736471 0.175756 0.9832758 0.5577868 0.0137028 0.8298593 -0.5771355 0.184759 0.7954344 -0.5615406 0.3144017 0.7653432 -0.0419324 0.2537614 0.9663381 0.5262306 -0.03106784 0.8497269 -0.5401777 0.4209418 0.7286599 0.2062135 0.5080721 0.8362377 -0.05301064 -0.01434367 0.9984741 -0.2294992 0.2401501 0.9432051 0.1210058 0.5871456 0.8003479 -0.2798852 -0.5024567 0.8180181 -0.5906552 -0.3005158 0.7488327 -0.4782861 0.3588061 0.8015381 0.0368663 0.6553545 0.754387 -0.8182318 -0.05471968 0.5722221 -0.5594348 0.1667836 0.8118839 -0.07818841 -0.08319342 0.9934386 -0.08569598 -0.1082491 0.9904172 -0.5491195 0.1719717 0.8178045 0.4558855 -0.3167211 0.8317515 0.4365673 -0.3715018 0.819361 -0.05883967 -0.1571398 0.9858089 -0.5384076 0.1773125 0.8237861 0.4170049 -0.4217353 0.8051088 -0.006775081 -0.5744804 0.8184454 0.03906369 -0.05850398 0.9974975 0.3072603 -0.08639788 0.9476913 0.2112796 -0.6071047 0.7659841 0.07281714 0.4674215 0.8810083 0.3250831 0.4785913 0.8156072 0.5690176 -0.05755788 0.8202765 0.4185003 -0.6085391 0.6741539 0.5356914 0.4604633 0.7077853 0.3136387 0.3662526 0.8760339 -0.09756767 0.01675462 0.995056 -0.2207403 0.1562852 0.9627064 0.2096316 0.509476 0.8345286 -0.4752647 -0.3341777 0.8138676 -0.58034 -0.2270272 0.7820673 -0.3170568 0.3194983 0.8929411 0.1083712 0.6258125 0.7723624 -0.6718345 -0.1144139 0.7317728 -0.568865 -0.1594592 0.8068178 -0.06802576 -0.21601 0.9739983 -0.05243074 -0.2171697 0.9747002 -0.5513779 -0.1266213 0.8245491 0.4941557 -0.2081972 0.8440504 0.5069125 -0.2524796 0.8241829 0.01593065 -0.2317575 0.9726249 -0.5338603 -0.09515666 0.8401746 0.5164647 -0.2886136 0.806177 -0.03457742 -0.5656606 0.8238777 0.127842 -0.05182039 0.9904172 0.2120731 -0.05236971 0.9758294 0.1305887 -0.610004 0.7815485 0.2439344 0.447737 0.8602252 0.241615 0.4351024 0.867336 0.3014008 -0.163335 0.9393903 0.2693564 -0.6329844 0.7257607 0.2392041 0.422071 0.8744164 0.6259041 1.83111e-4 0.77987 -0.009247064 0.07657092 0.9970092 0.08853417 0.2193976 0.9715873 0.6582232 0.09790337 0.7463912 -0.5659658 0.11536 0.8162786 -0.5491195 0.2755821 0.7889645 0.147557 0.3702505 0.9171118 0.677694 0.1716055 0.7150182 -0.5169531 0.4308908 0.7396161 -0.398236 0.4272897 0.8116703 -0.07593005 -0.04742574 0.9959716 -0.05587935 -0.1615344 0.9852595 -0.5903195 0.2543718 0.7660146 0.310831 -0.5494858 0.7755059 0.4155095 -0.4270455 0.8030641 -0.1748405 -0.1694998 0.9698783 -0.7399213 0.06668293 0.6693625 0.4859768 -0.3289285 0.8096866 3.35704e-4 -0.5827509 0.8126469 0.3101596 -0.04733419 0.9494919 0.209418 -0.06189149 0.9758599 -0.04385507 -0.5456404 0.836848 0.4776147 0.4246345 0.769097 0.3977477 0.4472182 0.8010804 0.113773 -0.06414991 0.9914243 -0.08307135 -0.5108494 0.8556169 0.3031404 0.4686117 0.8297373</float_array>
          <technique_common>
            <accessor source="#tanne128-mesh-normals-array" count="616" stride="3">
              <param name="X" type="float"/>
              <param name="Y" type="float"/>
              <param name="Z" type="float"/>
            </accessor>
          </technique_common>
        </source>
        <source id="tanne128-mesh-map-0">
          <float_array id="tanne128-mesh-map-0-array" count="2304">0.7825139 3.665211 0.8138256 2.427772 0.8742132 2.427772 0.7825139 3.665211 0.7825139 3.665211 0.8742132 2.427772 1.028553 2.430897 0.7825139 3.665211 0.7825139 3.665211 1.028553 2.430897 0.955463 2.430897 0.7825139 3.665211 0.7825139 3.665211 0.955463 2.430897 0.7732006 2.427772 0.7825139 3.665211 0.7825139 3.665211 0.7732006 2.427772 0.7003135 2.427772 0.7825139 3.665211 0.7825139 3.665211 0.7003135 2.427772 0.5459734 2.427772 0.7825139 3.665211 0.7825139 3.665211 0.5459734 2.427772 0.6253136 2.427772 0.7825139 3.665211 0.8138256 2.427772 0.7825139 3.665211 0.7825139 3.665211 0.6253136 2.427772 0.9901075 0.9952951 0.8935834 0.9952951 0.8742132 2.427772 0.916053 2.427772 0.472083 2.430562 0.358933 2.430562 0.1331458 0.9959972 0.2575068 0.9959972 0.8935834 0.9952951 0.7672402 0.9952951 0.7732006 2.427772 0.8742132 2.427772 0.2575068 0.9959972 0.3878282 0.9959972 0.585233 2.430562 0.472083 2.430562 0.6349381 0.9952951 0.5086113 0.9893346 0.6303482 2.427772 0.6721885 2.427772 0.7672402 0.9952951 0.6349381 0.9952951 0.6721885 2.427772 0.7732006 2.427772 0.006194531 0.9900367 0.1331458 0.9959972 0.358933 2.430562 0.2703397 2.436523 0.3878282 0.9959972 0.5028586 0.9959972 0.6321032 2.430562 0.585233 2.430562 0.2575068 0.9959972 0.1331458 0.9959972 0.1298878 9.19275e-4 0.2634673 0.003899455 0.2634673 0.003899455 0.4119478 0.003899455 0.3878282 0.9959972 0.2575068 0.9959972 0.4119478 0.003899455 0.5240259 0.003899455 0.5028586 0.9959972 0.3878282 0.9959972 0.6325661 -0.001695573 0.5167538 0.004264831 0.5086113 0.9893346 0.6349381 0.9952951 0.8959539 -0.001695573 0.7553192 -0.001695573 0.7672402 0.9952951 0.8935834 0.9952951 0.9998456 -0.001695573 0.8959539 -0.001695573 0.8935834 0.9952951 0.9901075 0.9952951 0.002908587 0.003899455 0.1298878 9.19275e-4 0.1331458 0.9959972 0.006194531 0.9900367 0.7553192 -0.001695573 0.6325661 -0.001695573 0.6349381 0.9952951 0.7672402 0.9952951 1.205995 -0.5986248 0.9894526 -0.5986248 0.8959539 -0.001695573 0.9998456 -0.001695573 -0.2499578 -0.595219 0.05071079 -0.595219 0.1298878 9.19275e-4 0.002908587 0.003899455 0.7791611 -0.6001148 0.5196975 -0.5941544 0.6325661 -0.001695573 0.7553192 -0.001695573 0.2634673 0.003899455 0.1298878 9.19275e-4 0.05071079 -0.595219 0.2634673 -0.595219 0.2634673 -0.595219 0.5343371 -0.595219 0.4119478 0.003899455 0.2634673 0.003899455 0.5343371 -0.595219 0.7709314 -0.595219 0.5240259 0.003899455 0.4119478 0.003899455 0.5196975 -0.5941544 0.264411 -0.588194 0.5167538 0.004264831 0.6325661 -0.001695573 0.9894526 -0.5986248 0.7791611 -0.6001148 0.7553192 -0.001695573 0.8959539 -0.001695573 1 0 0.5 0 0.5 0.5 1 0.5 0.5 0 0 0 0 0.5 0.5 0.5 1 0.5 0.5 0.5 0.5 1 1 1 0.5 0.5 0 0.5 0 1 0.5 1 1 0 0.5 0 0.5 0.5 1 0.5 0.5 0 0 0 0 0.5 0.5 0.5 1 0.5 0.5 0.5 0.5 1 1 1 0.5 0.5 0 0.5 0 1 0.5 1 1 0 0.5 0 0.5 0.5 1 0.5 0.5 0 0 0 0 0.5 0.5 0.5 1 0.5 0.5 0.5 0.5 1 1 1 0.5 0.5 0 0.5 0 1 0.5 1 1 0 0.5 0 0.5 0.5 1 0.5 0.5 0 0 0 0 0.5 0.5 0.5 1 0.5 0.5 0.5 0.5 1 1 1 0.5 0.5 0 0.5 0 1 0.5 1 1 0 0.5 0 0.5 0.5 1 0.5 0.5 0 0 0 0 0.5 0.5 0.5 1 0.5 0.5 0.5 0.5 1 1 1 0.5 0.5 0 0.5 0 1 0.5 1 1 0 0.5 0 0.5 0.5 1 0.5 0.5 0 0 0 0 0.5 0.5 0.5 1 0.5 0.5 0.5 0.5 1 1 1 0.5 0.5 0 0.5 0 1 0.5 1 1 0 0.5 0 0.5 0.5 1 0.5 0.5 0 0 0 0 0.5 0.5 0.5 1 0.5 0.5 0.5 0.5 1 1 1 0.5 0.5 0 0.5 0 1 0.5 1 1 0 0.5 0 0.5 0.5 1 0.5 0.5 0 0 0 0 0.5 0.5 0.5 1 0.5 0.5 0.5 0.5 1 1 1 0.5 0.5 0 0.5 0 1 0.5 1 1 0 0.5 0 0.5 0.5 1 0.5 0.5 0 0 0 0 0.5 0.5 0.5 1 0.5 0.5 0.5 0.5 1 1 1 0.5 0.5 0 0.5 0 1 0.5 1 1 0 0.5 0 0.5 0.5 1 0.5 0.5 0 0 0 0 0.5 0.5 0.5 1 0.5 0.5 0.5 0.5 1 1 1 0.5 0.5 0 0.5 0 1 0.5 1 1 0 0.5 0 0.5 0.5 1 0.5 0.5 0 0 0 0 0.5 0.5 0.5 1 0.5 0.5 0.5 0.5 1 1 1 0.5 0.5 0 0.5 0 1 0.5 1 1 0 0.5 0 0.5 0.5 1 0.5 0.5 0 0 0 0 0.5 0.5 0.5 1 0.5 0.5 0.5 0.5 1 1 1 0.5 0.5 0 0.5 0 1 0.5 1 1 0 0.5 0 0.5 0.5 1 0.5 0.5 0 0 0 0 0.5 0.5 0.5 1 0.5 0.5 0.5 0.5 1 1 1 0.5 0.5 0 0.5 0 1 0.5 1 1 0 0.5 0 0.5 0.5 1 0.5 0.5 0 0 0 0 0.5 0.5 0.5 1 0.5 0.5 0.5 0.5 1 1 1 0.5 0.5 0 0.5 0 1 0.5 1 1 0 0.5 0 0.5 0.5 1 0.5 0.5 0 0 0 0 0.5 0.5 0.5 1 0.5 0.5 0.5 0.5 1 1 1 0.5 0.5 0 0.5 0 1 0.5 1 1 0 0.5 0 0.5 0.5 1 0.5 0.5 0 0 0 0 0.5 0.5 0.5 1 0.5 0.5 0.5 0.5 1 1 1 0.5 0.5 0 0.5 0 1 0.5 1 1 0 0.5 0 0.5 0.5 1 0.5 0.5 0 0 0 0 0.5 0.5 0.5 1 0.5 0.5 0.5 0.5 1 1 1 0.5 0.5 0 0.5 0 1 0.5 1 1 0 0.5 0 0.5 0.5 1 0.5 0.5 0 0 0 0 0.5 0.5 0.5 1 0.5 0.5 0.5 0.5 1 1 1 0.5 0.5 0 0.5 0 1 0.5 1 1 0 0.5 0 0.5 0.5 1 0.5 0.5 0 0 0 0 0.5 0.5 0.5 1 0.5 0.5 0.5 0.5 1 1 1 0.5 0.5 0 0.5 0 1 0.5 1 1 0 0.5 0 0.5 0.5 1 0.5 0.5 0 0 0 0 0.5 0.5 0.5 1 0.5 0.5 0.5 0.5 1 1 1 0.5 0.5 0 0.5 0 1 0.5 1 1 0 0.5 0 0.5 0.5 1 0.5 0.5 0 0 0 0 0.5 0.5 0.5 1 0.5 0.5 0.5 0.5 1 1 1 0.5 0.5 0 0.5 0 1 0.5 1 1 0 0.5 0 0.5 0.5 1 0.5 0.5 0 0 0 0 0.5 0.5 0.5 1 0.5 0.5 0.5 0.5 1 1 1 0.5 0.5 0 0.5 0 1 0.5 1 1 0 0.5 0 0.5 0.5 1 0.5 0.5 0 0 0 0 0.5 0.5 0.5 1 0.5 0.5 0.5 0.5 1 1 1 0.5 0.5 0 0.5 0 1 0.5 1 1 0 0.5 0 0.5 0.5 1 0.5 0.5 0 0 0 0 0.5 0.5 0.5 1 0.5 0.5 0.5 0.5 1 1 1 0.5 0.5 0 0.5 0 1 0.5 1 1 0 0.5 0 0.5 0.5 1 0.5 0.5 0 0 0 0 0.5 0.5 0.5 1 0.5 0.5 0.5 0.5 1 1 1 0.5 0.5 0 0.5 0 1 0.5 1 1 0 0.5 0 0.5 0.5 1 0.5 0.5 0 0 0 0 0.5 0.5 0.5 1 0.5 0.5 0.5 0.5 1 1 1 0.5 0.5 0 0.5 0 1 0.5 1 1 0 0.5 0 0.5 0.5 1 0.5 0.5 0 0 0 0 0.5 0.5 0.5 1 0.5 0.5 0.5 0.5 1 1 1 0.5 0.5 0 0.5 0 1 0.5 1 1 0 0.5 0 0.5 0.5 1 0.5 0.5 0 0 0 0 0.5 0.5 0.5 1 0.5 0.5 0.5 0.5 1 1 1 0.5 0.5 0 0.5 0 1 0.5 1 1 0 0.5 0 0.5 0.5 1 0.5 0.5 0 0 0 0 0.5 0.5 0.5 1 0.5 0.5 0.5 0.5 1 1 1 0.5 0.5 0 0.5 0 1 0.5 1 1 0 0.5 0 0.5 0.5 1 0.5 0.5 0 0 0 0 0.5 0.5 0.5 1 0.5 0.5 0.5 0.5 1 1 1 0.5 0.5 0 0.5 0 1 0.5 1 1 0 0.5 0 0.5 0.5 1 0.5 0.5 0 0 0 0 0.5 0.5 0.5 1 0.5 0.5 0.5 0.5 1 1 1 0.5 0.5 0 0.5 0 1 0.5 1 1 0 0.5 0 0.5 0.5 1 0.5 0.5 0 0 0 0 0.5 0.5 0.5 1 0.5 0.5 0.5 0.5 1 1 1 0.5 0.5 0 0.5 0 1 0.5 1 1 0 0.5 0 0.5 0.5 1 0.5 0.5 0 0 0 0 0.5 0.5 0.5 1 0.5 0.5 0.5 0.5 1 1 1 0.5 0.5 0 0.5 0 1 0.5 1 1 0 0.5 0 0.5 0.5 1 0.5 0.5 0 0 0 0 0.5 0.5 0.5 1 0.5 0.5 0.5 0.5 1 1 1 0.5 0.5 0 0.5 0 1 0.5 1 1 0 0.5 0 0.5 0.5 1 0.5 0.5 0 0 0 0 0.5 0.5 0.5 1 0.5 0.5 0.5 0.5 1 1 1 0.5 0.5 0 0.5 0 1 0.5 1 1 0 0.5 0 0.5 0.5 1 0.5 0.5 0 0 0 0 0.5 0.5 0.5 1 0.5 0.5 0.5 0.5 1 1 1 0.5 0.5 0 0.5 0 1 0.5 1 1 0 0.5 0 0.5 0.5 1 0.5 0.5 0 0 0 0 0.5 0.5 0.5 1 0.5 0.5 0.5 0.5 1 1 1 0.5 0.5 0 0.5 0 1 0.5 1 1 0 0.5 0 0.5 0.5 1 0.5 0.5 0 0 0 0 0.5 0.5 0.5 1 0.5 0.5 0.5 0.5 1 1 1 0.5 0.5 0 0.5 0 1 0.5 1 1 0 0.5 0 0.5 0.5 1 0.5 0.5 0 0 0 0 0.5 0.5 0.5 1 0.5 0.5 0.5 0.5 1 1 1 0.5 0.5 0 0.5 0 1 0.5 1 1 0 0.5 0 0.5 0.5 1 0.5 0.5 0 0 0 0 0.5 0.5 0.5 1 0.5 0.5 0.5 0.5 1 1 1 0.5 0.5 0 0.5 0 1 0.5 1 1 0 0.5 0 0.5 0.5 1 0.5 0.5 0 0 0 0 0.5 0.5 0.5 1 0.5 0.5 0.5 0.5 1 1 1 0.5 0.5 0 0.5 0 1 0.5 1 1 0 0.5 0 0.5 0.5 1 0.5 0.5 0 0 0 0 0.5 0.5 0.5 1 0.5 0.5 0.5 0.5 1 1 1 0.5 0.5 0 0.5 0 1 0.5 1 1 0 0.5 0 0.5 0.5 1 0.5 0.5 0 0 0 0 0.5 0.5 0.5 1 0.5 0.5 0.5 0.5 1 1 1 0.5 0.5 0 0.5 0 1 0.5 1 1 0 0.5 0 0.5 0.5 1 0.5 0.5 0 0 0 0 0.5 0.5 0.5 1 0.5 0.5 0.5 0.5 1 1 1 0.5 0.5 0 0.5 0 1 0.5 1 1 0 0.5 0 0.5 0.5 1 0.5 0.5 0 0 0 0 0.5 0.5 0.5 1 0.5 0.5 0.5 0.5 1 1 1 0.5 0.5 0 0.5 0 1 0.5 1 1 0 0.5 0 0.5 0.5 1 0.5 0.5 0 0 0 0 0.5 0.5 0.5 1 0.5 0.5 0.5 0.5 1 1 1 0.5 0.5 0 0.5 0 1 0.5 1 1 0 0.5 0 0.5 0.5 1 0.5 0.5 0 0 0 0 0.5 0.5 0.5 1 0.5 0.5 0.5 0.5 1 1 1 0.5 0.5 0 0.5 0 1 0.5 1 1 0 0.5 0 0.5 0.5 1 0.5 0.5 0 0 0 0 0.5 0.5 0.5 1 0.5 0.5 0.5 0.5 1 1 1 0.5 0.5 0 0.5 0 1 0.5 1 1 0 0.5 0 0.5 0.5 1 0.5 0.5 0 0 0 0 0.5 0.5 0.5 1 0.5 0.5 0.5 0.5 1 1 1 0.5 0.5 0 0.5 0 1 0.5 1 1 0 0.5 0 0.5 0.5 1 0.5 0.5 0 0 0 0 0.5 0.5 0.5 1 0.5 0.5 0.5 0.5 1 1 1 0.5 0.5 0 0.5 0 1 0.5 1 1 0 0.5 0 0.5 0.5 1 0.5 0.5 0 0 0 0 0.5 0.5 0.5 1 0.5 0.5 0.5 0.5 1 1 1 0.5 0.5 0 0.5 0 1 0.5 1 1 0 0.5 0 0.5 0.5 1 0.5 0.5 0 0 0 0 0.5 0.5 0.5 1 0.5 0.5 0.5 0.5 1 1 1 0.5 0.5 0 0.5 0 1 0.5 1 1 0 0.5 0 0.5 0.5 1 0.5 0.5 0 0 0 0 0.5 0.5 0.5 1 0.5 0.5 0.5 0.5 1 1 1 0.5 0.5 0 0.5 0 1 0.5 1 1 0 0.5 0 0.5 0.5 1 0.5 0.5 0 0 0 0 0.5 0.5 0.5 1 0.5 0.5 0.5 0.5 1 1 1 0.5 0.5 0 0.5 0 1 0.5 1 1 0 0.5 0 0.5 0.5 1 0.5 0.5 0 0 0 0 0.5 0.5 0.5 1 0.5 0.5 0.5 0.5 1 1 1 0.5 0.5 0 0.5 0 1 0.5 1 1 0 0.5 0 0.5 0.5 1 0.5 0.5 0 0 0 0 0.5 0.5 0.5 1 0.5 0.5 0.5 0.5 1 1 1 0.5 0.5 0 0.5 0 1 0.5 1 1 0 0.5 0 0.5 0.5 1 0.5 0.5 0 0 0 0 0.5 0.5 0.5 1 0.5 0.5 0.5 0.5 1 1 1 0.5 0.5 0 0.5 0 1 0.5 1 1 0 0.5 0 0.5 0.5 1 0.5 0.5 0 0 0 0 0.5 0.5 0.5 1 0.5 0.5 0.5 0.5 1 1 1 0.5 0.5 0 0.5 0 1 0.5 1 1 0 0.5 0 0.5 0.5 1 0.5 0.5 0 0 0 0 0.5 0.5 0.5 1 0.5 0.5 0.5 0.5 1 1 1 0.5 0.5 0 0.5 0 1 0.5 1 1 0 0.5 0 0.5 0.5 1 0.5 0.5 0 0 0 0 0.5 0.5 0.5 1 0.5 0.5 0.5 0.5 1 1 1 0.5 0.5 0 0.5 0 1 0.5 1 1 0 0.5 0 0.5 0.5 1 0.5 0.5 0 0 0 0 0.5 0.5 0.5 1 0.5 0.5 0.5 0.5 1 1 1 0.5 0.5 0 0.5 0 1 0.5 1 1 0 0.5 0 0.5 0.5 1 0.5 0.5 0 0 0 0 0.5 0.5 0.5 1 0.5 0.5 0.5 0.5 1 1 1 0.5 0.5 0 0.5 0 1 0.5 1 1 0 0.5 0 0.5 0.5 1 0.5 0.5 0 0 0 0 0.5 0.5 0.5 1 0.5 0.5 0.5 0.5 1 1 1 0.5 0.5 0 0.5 0 1 0.5 1 1 0 0.5 0 0.5 0.5 1 0.5 0.5 0 0 0 0 0.5 0.5 0.5 1 0.5 0.5 0.5 0.5 1 1 1 0.5 0.5 0 0.5 0 1 0.5 1</float_array>
          <technique_common>
            <accessor source="#tanne128-mesh-map-0-array" count="1152" stride="2">
              <param name="S" type="float"/>
              <param name="T" type="float"/>
            </accessor>
          </technique_common>
        </source>
        <source id="tanne128-mesh-colors">
          <float_array id="tanne128-mesh-colors-array" count="3456">0 0 0 0 0 0 0 0 0 0 0 0 0 0 0 0 0 0 0 0 0 0 0 0 0 0 0 0 0 0 0 0 0 0 0 0 0 0 0 0 0 0 0 0 0 0 0 0 0 0 0 0 0 0 0 0 0 0 0 0 0 0 0 0 0 0 0 0 0 0 0 0 0 0 0 0 0 0 0 0 0 0 0 0 0 0 0 0 0 0 0 0 0 0 0 0 0 0 0 0 0 0 0 0 0 0 0 0 0 0 0 0 0 0 0 0 0 0 0 0 0 0 0 0 0 0 0 0 0 0 0 0 0 0 0 0 0 0 0 0 0 0 0 0 0 0 0 0 0 0 0 0 0 0 0 0 0 0 0 0 0 0 0 0 0 0 0 0 0 0 0 0 0 0 0 0 0 0 0 0 0 0 0 0 0 0 0 0 0 0 0 0 0 0 0 0 0 0 0 0 0 0 0 0 0 0 0 0 0 0 0 0 0 0 0 0 0 0 0 0 0 0 0 0 0 0 0 0 0 0 0 0 0 0 0 0 0 0 0 0 0 0 0 0 0 0 0 0 0 0 0 0 0 0 0 0 0 0 0 0 0 0 0 0 0 0 0 0 0 0 0 0 0 0 0 0 0 0 0 0 0 0 0 0 0 0 0 0 0 0 0 0 0 0 0 0 0 0 0 0 0 0 0 0 0 0 0 0 0 0 0 0 0 0 0 0 0 0 0 0 0 0 0 0 0 0 0 0 0 0 0 0 0 0 0 0 0 0 0 0 0 0 0 0 0 0 0 0 0 0 0 0 0 0 0 0 0 0 0 0 0 0 0 0 0 0 0 0 0 0 0 0 0 0 0 0 0 0 0 0 0 0 0 0 0.6666667 1 1 0 1 1 0.7686275 1 1 1 0.7490196 1 0 1 1 1 1 1 1 0.6784314 1 0.1411765 0.9372549 1 1 0.7490196 1 1 1 1 1 1 1 1 0.01960784 1 0.882353 1 1 1 0.6784314 1 1 1 1 1 0.1803922 1 0.7647059 0.2666667 1 0 1 1 0 0 1 1 0.9568628 1 0 1 1 0 1 1 1 1 1 0 0 1 1 0.9568628 1 1 0 1 1 0.03921568 1 1 0.2470588 1 1 0 1 1 1 1 1 1 1 1 0.03921568 1 1 1 1 0 0.654902 1 0.6313726 0.2588235 1 1 1 1 0 1 1 0.3647059 0.772549 1 1 0 1 0.5882353 1 1 1 0.3960784 1 0.8156863 0.05490195 1 1 0 1 1 1 1 0.8156863 1 1 1 0.7843137 1 1 1 1 1 0.003921568 1 0.4509804 1 1 0 1 1 0.01568627 0.2156863 1 1 1 1 0 1 1 1 0.3647059 1 1 0.4588235 1 0 0.2352941 1 1 0.1647059 1 0 0.2156863 1 1 0 1 1 0.2 1 0 0.2352941 1 1 0.4588235 1 1 0.1921569 1 1 0 1 0.654902 0.01568627 1 0 0.8078432 1 0 1 1 1 1 1 0 1 1 1 0.4901961 1 1 0.2196078 1 0 1 1 1 1 1 0.08235293 0.2745098 1 1 1 1 1 0.345098 1 0.1019608 0.172549 1 1 0.2196078 1 1 0 1 1 0 1 1 0.9568628 1 0 1 1 0 0.007843136 1 1 0.3333333 1 0 0.6117647 1 0.007843136 0.2039216 1 1 0 1 0 0 1 1 0.2431373 1 0.8980392 0 1 1 0.1568627 1 1 0.5254902 1 0.1921569 0 1 1 1 1 1 1 1 1 0.6431373 1 1 0.4588235 1 0 0.6313726 1 0.1607843 0.4509804 1 1 0.5607843 1 0 0.4862745 1 0.5725491 0.8784314 1 1 0.06666666 1 0.03137254 0.1137255 1 1 0.5607843 1 0.172549 0.4745098 1 1 0.01960784 1 1 1 1 0.9568628 0.6 1 1 0.7058824 1 1 0.6196079 1 1 1 1 0.7333334 0 1 0 0.04313725 1 1 0.8784314 1 1 1 1 0 0.6627451 1 1 0.3921568 1 1 0.4392157 1 0 0.03137254 1 1 1 1 1 0.654902 1 1 0.2980392 1 1 0 1 0.5647059 0.02745097 1 1 0.4392157 1 1 0 1 1 0.007843136 1 0.4235294 1 1 0 0 1 0 0 1 0.01960784 1 1 0 0.3294118 1 0.5764706 1 1 1 1 1 0 0.07450979 1 1 1 1 0.1333333 0.5176471 1 1 0.2745098 1 1 1 1 1 0.2 1 1 1 1 1 1 1 1 0.2745098 1 0.5921569 0.4784314 1 0 0.04313725 1 0 0.4392157 1 0.7529412 0.4392157 1 0 0 1 0.2156863 0.07058823 1 1 1 1 0.003921568 0 1 1 0.7176471 1 0.0980392 0.4156863 1 1 1 1 1 0.03921568 1 0.1098039 0.3607843 1 1 1 1 1 0.772549 1 1 1 1 0.4352941 1 1 0 0.003921568 1 0 0.05490195 1 0.3529412 1 1 0 1 1 1 1 1 1 0.9058824 1 0 1 1 1 1 1 0.3372549 1 1 1 1 1 1 0.1294118 1 0.01568627 1 1 1 0.7764706 1 1 0 1 1 1 1 0.7372549 0.1137255 1 0 0.317647 1 0 0.09411764 1 1 0.02352941 1 0 0.6156863 1 0.9686275 0.03921568 1 1 0.1333333 1 0 0.9568628 1 1 0.02352941 1 0 0.9411765 1 1 0.8235294 1 1 1 1 0 0 1 1 0.0117647 1 1 0.5450981 1 1 0 1 0.6156863 0 1 0 0 0.2941176 0 0 1 0.7137255 0 1 0 0.2980392 1 1 0.01568627 1 1 0 1 0 0 1 1 0.854902 1 0 0.8431373 1 1 1 1 1 0.6235294 1 0 0.2196078 1 1 1 1 1 1 1 1 1 1 0.7058824 1 1 0 1 1 0 0.5843138 1 0.8901961 0.9098039 1 0 0 0.2392157 1 0 1 0.6 0.509804 1 0 0.372549 1 1 1 1 0.5686275 1 1 1 1 1 1 0.03137254 1 0.7019608 1 1 1 0.509804 1 1 0.682353 1 1 1 1 0.1764706 0.07058823 1 0 0.6078432 1 0.05098038 1 1 0.6705883 0.427451 1 0 1 1 1 0.07058823 1 1 0.4784314 1 0.04313725 1 1 1 0.427451 1 0 1 1 1 1 1 1 0.2784314 1 0.04313725 1 1 1 1 1 1 1 1 1 1 1 0.9960784 0 1 0 0.2117647 1 0 0.1529412 1 1 0.345098 1 0 0.6117647 1 0.003921568 0 1 1 0.01568627 1 0.2078431 1 1 1 0.345098 1 0.882353 0.6666667 1 1 0.7607843 1 1 1 1 0.9568628 0.5176471 1 1 0.5372549 1 1 1 1 1 1 1 0.04705882 0.5058824 1 0 1 1 0 0.9176471 1 1 0 1 0 1 0.972549 0.8352941 0.6078432 1 1 0.07058823 1 0 1 1 1 0.854902 1 0 1 1 1 1 1 1 0.4705882 1 0 1 1 1 0.7803922 1 1 0.03137254 1 1 1 1 0.7882353 0.1294118 1 0 1 1 0 1 1 1 0.3372549 1 0 0.882353 0.2156863 0.3882353 0 1 1 0.03137254 1 0.4039216 0.2588235 1 1 0.3372549 1 1 1 1 1 0.6666667 1 1 0.6117647 1 1 1 1 1 0.8745098 1 1 0.3294118 1 1 1 1 0.5921569 0 1 0 0 1 0 0 1 0.5843138 0 1 0 1 1 0.1764706 1 1 1 0.05098038 1 0 1 1 1 1 1 0.4313725 0.4862745 1 1 0.3764706 1 1 1 1 0.4313725 0.8862745 1 1 0.05098038 1 1 1 1 1 0.3803921 1 1 0.9137255 1 0 0.1882353 1 0 0.1372549 1 1 0.9294118 1 0 0.1058824 1 0 0 1 1 0 1 0 0 1 1 0.9294118 1 0 1 1 0.4627451 1 1 1 1 1 0 1 1 1 0.9137255 1 1 1 1 1 1 1 1 1 1 0 0.9254902 1 0 0.7294118 1 0.4039216 1 1 0 1 1 1 0.427451 1 1 0.3137255 1 0 1 1 1 1 1 0 1 1 1 1 1 1 0.4745098 1 0 1 1 1 0.4862745 1 1 1 1 1 0.9960784 1 0.3098039 0.7254902 1 0 0.05882352 1 0 1 1 0 0.0117647 1 0 0.1921569 1 0.1058824 0.02745097 1 1 0.2235294 1 0.007843136 0.1647059 1 1 0.9529412 1 0 1 1 1 1 1 1 1 1 0 0.6078432 1 1 1 1 1 0.5882353 1 1 0.2862745 1 1 0.03137254 1 0 1 1 0 0.06274509 1 1 0.654902 1 0 0.1176471 1 0 1 1 0.07058823 0.3843137 1 0.1686275 0 1 1 0.654902 1 0.8745098 1 1 1 0.4666666 1 1 1 1 1 0.3882353 1 1 1 1 1 1 1 1 0.4666666 1 1 1 1 0 0.5960785 0.6156863 0 0.882353 0.8784314 1 0.3921568 1 0 1 0.7921569 0.7568628 0.7607843 1 1 0.5647059 1 0 0.7254902 1 1 1 1 0 1 1 0.9450981 0.3372549 1 1 0.01960784 1 0 0.9176471 1 1 1 1 1 1 1 1 0.227451 1 0.9254902 0 1 0 0.1843137 1 0 0.8470588 1 1 0 1 0 0.6666667 1 1 0.5843138 1 1 1 1 0 1 1 1 1 1 0 0.8509804 1 0.04313725 0.7098039 1 1 1 1 0 1 1 1 1 1 1 1 1 1 0.7098039 1 1 0.2235294 1 0 0.3490196 1 0 1 1 1 0.9411765 1 0 0 1 1 1 1 1 1 1 0 0.627451 1 1 0.9411765 1 0 1 1 1 1 1 1 0.8470588 1 0 0.01568627 1 1 1 1 1 1 1 1 0.003921568 1 0.01568627 1 1 0 0.1215686 1 0 0.145098 1 0.1215686 1 1 0 0.1490196 1 1 0.8784314 1 1 0 1 0 0 1 1 1 1 0.4352941 0.6431373 1 1 0.9568628 1 1 1 1 0 0.6431373 1 1 1 1 1 1 1 1 0.9568628 1 1 1 1 0 0.3215686 1 0 0.654902 1 1 1 1 0 0.02352941 0.7215687 0.007843136 1 1 1 1 1 0.227451 0 1 1 1 1 0.2666667 0.08235293 1 1 1 1 1 0.254902 1 0.2666667 0.1411765 1 1 1 1 1 1 1 1 0.1529412 1 0.7333334 0.6705883 1 0 0 0.4078431 0 0.3058823 0.2627451 0 0.7647059 1 0 0.1607843 1 1 1 1 1 1 1 0 0.882353 1 1 0.7647059 1 0 0.5568628 1 0.2509804 0.6 1 1 0.7450981 1 0 0.2823529 1 1 1 1 1 1 1 0.8392157 0.5686275 1 1 0.5254902 1 0 0 1 0 0 1 1 0.4784314 1 0 0 1 1 0.5882353 1 1 0.6509804 1 0 0 1 1 1 1 0.02352941 0.06274509 1 1 0.01960784 1 1 1 1 0.05098038 0.06274509 1 1 0.6509804 1 1 1 1 1 0.01960784 1 1 0.6078432 1 0 0.07843136 1 0 0.09019607 1 1 0.5882353 1 0 0.2156863 1 0.4 1 1 1 1 1 0.5921569 0.3411765 1 1 1 1 0.6039216 0.1686275 1 1 1 1 1 0.3568627 1 0.6039216 0.3921568 1 1 1 1 1 1 1 1 0.6313726 1 1 0 1 0 0.2235294 1 0 1 1 1 0.427451 1 0 0 1 1 0.8980392 1 1 0.4901961 1 0 0 1 1 0.427451 1 0 1 1 0.1568627 0.9490196 1 1 0.9058824 1 0 0.4745098 1 1 1 1 1 1 1 1 0.1058824 1 1 1 1 0 0.4549019 1 0 0.2784314 1 0.03529411 1 1 0 0.6235294 1 1 1 1 1 0.5529412 1 0 0.3019608 1 1 1 1 0 1 1 0.427451 1 1 1 1 1 0 1 1 1 1 1 1 0.2588235 1 1 1 1 1 1 1 0 0.254902 1 0 0.317647 1 1 1 1 0 0 1 1 0 1 1 0 1 0 0 1 1 1 1 0 0.5803922 1 1 0.7686275 1 1 0.7254902 1 0.07450979 0.972549 1 1 1 1 1 1 1 1 1 1 1 0.8901961 1 0 0.2941176 1 0 0.9098039 1 1 1 1 0 0.2823529 1 0.9137255 1 1 1 1 1 0.1686275 0.4352941 1 1 1 1 0 0.4901961 1 0.0117647 0.172549 1 1 0.8470588 1 0.1686275 0.2039216 1 1 1 1 1 1 1 1 0.3686274 1 1 1 1 0 0.6 1 0 1 1 1 1 1 0 0.3607843 1 0 0.1098039 1 0.7921569 0.1921569 1 0.1568627 0.5803922 1 1 1 1 0.007843136 1 1 1 1 1 1 0.6431373 1 0.05098038 1 1 1 1 1 1 1 1 1 0.8196079 1 1 0.9843137 1 0 0 1 0 0 1 1 0.7058824 1 0 0.1058824 0.1764706 1 1 1 0.7176471 1 1 0 0 1 1 1 1 0 0.8862745 1 0 1 1 1 0.4431372 1 0 1 1 1 1 1 1 1 1 0.1019608 1 1 1 1 1 0 0 1 0.003921568 0 1 1 1 1 0 0.6156863 1 1 1 1 1 0.1294118 1 0 0.2470588 1 1 1 1 0.003921568 0.2784314 1 0.8470588 1 1 1 0.9215686 1 0.003921568 0.7137255 1 1 0.1294118 1 1 0.1372549 1 1 1 1 1 0 1 0 0.1686275 1 0 0.06666666 1 1 0 1 0 0 1 0.2941176 1 1 1 0.3058823 1 0.08235293 0.003921568 1 1 1 1 0.08235293 0.9921569 1 1 0.06666666 1 1 1 1 0.08235293 0.7529412 1 1 1 1 1 0.6039216 1 1 0.06666666 1 1 0.04313725 1 0 1 1 0 1 1 1 0.4156863 1 0 0.2196078 1 1 1 1 1 0.6392157 1 0 0.3686274 1 1 0.4156863 1 0 1 1 0 1 1 1 1 1 0 1 1 1 0.6392157 1 1 0.8862745 1 0.4078431 0.9019608 1 1 1 1 0 0 1 0 0 1 1 0.5019608 1 0 1 1 1 1 1 1 1 1 0 1 1 1 0.5019608 1 0 1 1 0.6039216 1 1 1 0.5176471 1 0 1 1 1 1 1 1 0.2431373 1 0.9607843 1 1 1 0.8745098 1 0 0.8509804 1 0 0.1411765 1 1 0.7019608 1 0 1 1 1 0.05490195 1 1 0.07450979 1 0 1 1 1 1 1 0 0.172549 1 0 0.5686275 1 1 0.4039216 1 0 1 1 1 0.07450979 1 1 0.4980392 1 0 1 1 1 0.1058824 1 0 1 1 0.01568627 1 1 1 0.682353 1 0 0 1 1 1 1 1 0.8745098 1 0 0 1 1 0.682353 1 0.03921568 1 1 1 1 1 1 1 1 0.03921568 1 1 1 0.7882353 1 1 0.6588236 1 1 1 1 1 0.5607843 1 0 0.0117647 1 0 0 1 1 0.4862745 1 0 1 1 1 1 1 1 0.5137255 1 0.0117647 1 1 1 0.5176471 1 0 1 1 0.05490195 0.5725491 1 1 0.5843138 1 0.0117647 1 1 1 0.7411765 1 1 0.8117647 1 0.5921569 1 1 1 0.02352941 1 0 0 1 0 0 1 0.9333333 0.2392157 1 0 1 1 1 1 1 1 0.882353 1 0 1 1 1 0.627451 1 0 0.4313725 1 0 1 1 1 0.4392157 1 0 1 1 1 0.882353 1 1 0.9882353 1 0.01568627 1 1 1 0.9686275 1 0 1 1 0 0.01568627 1 1 0.8196079 1 0 0.4980392 1 1 0.5137255 1 1 0.6431373 1 0 0.6941177 1 1 0.8196079 1 0 0.01568627 1 0.1882353 0 1 1 0.03921568 1 0 0.9686275 1 1 0.6431373 1 1 0.427451 1 0.03137254 1 1 1 0.6196079 1 0 0.9058824 1 0.09411764 1 1 1 0.9058824 1 0 0 1 1 0.2666667 1 1 0.4039216 1 0 0 1 1 1 1 0.09411764 1 1 1 1 1 1 0.654902 1 0.09411764 1 1 1 0.4039216 1 1 0.1333333 1 1 1 1 1 0.3803921 1 0 0.01960784 1 0 0 1 1 0.6196079 1 0 0.8196079 1 1 0.9176471 1 1 1 1 0 1 1 1 1 1 0 0.4117647 1 0 0.4313725 1 1 1 1 0 0.172549 1 1 1 1 1 1 1 0 0.2666667 1 1 0.6509804 1 0 1 1 0 0 1 1 0.345098 1 0 0.4235294 1 1 0.827451 1 1 0.6352941 1 0 0.5803922 1 1 0.5254902 1 0 0.2196078 1 0 0.3411765 1 1 0.9529412 1 0 0.5333334 1 1 0.6352941 1 1 0.6705883 1 0 0.3647059 1 1 1 1 0 0.2313725 1 0 0.3098039 1 1 1 1 0 0.4117647 1 1 0 1 1 0 1 0.5176471 1 1 1 1 1 0.5176471 1 1 0.9372549 1 1 1 0.3882353 1 0.5176471 1 1 1 0.2039216 1 1 0.2196078 1 1 1 1 1 0.1607843 1 0.003921568 0.882353 1 0 0.3372549 1 1 0.08235293 1 0.003921568 0 1 1 1 1 1 1 1 0 0 1 1 0.08235293 1 0 0.7921569 1 0 0.3607843 1 1 0.1764706 1 0 0.1960784 1 1 1 1 1 1 1 0 0.1215686 1 1 0.08235293 1 0 0.8196079 1 0 0.06274509 1 1 0.5725491 1 0 1 1 1 1 1 1 1 1 0 0.4431372 1 1 0.5725491 1 0 0.06274509 1 0 0.0862745 1 1 0.9803922 1 0 0.2745098 1 1 0.9686275 1 1 0.854902 1 0 0.02352941 1 1 1 1 0 0.2588235 1 0 0.4549019 1 1 1 1 0 0.01960784 1 1 0.6980392 1 1 0 1 0.003921568 0.8078432 1 1 1 1 0 0.4901961 1 0.01960784 0.2901961 1 1 1 1 0.003921568 1 1 1 0 1 1 1 1 0.1254902 0.5529412 1 1 0.0980392 1 0 0.7098039 1 0 0.4196078 1 1 0.05098038 1 0 0.2431373 1 1 1 1 1 1 1 0 0.09411764 1 1 0.5058824 1 0 0.1294118 1 0.03921568 0 1 1 0.5137255 1 0 0.1372549 1 1 1 1 1 1 1 0 0 1 1 0 1 0 0.5215687 1 0 0.3372549 1 1 0 1 0 0.1568627 1 1 1 1 1 1 1 0 0.007843136 1 1 0 1 0 0.3372549 1 0 0.227451 1 1 1 1 0 0.007843136 1 1 1 1 1 0.509804 1 0.09019607 0.007843136 1 1 1 1 0 0.4941176 1 0 0.6627451 1 1 1 1 0 0.4549019 1 1 0 1 1 0 1 0 0.5450981 1 1 1 1 0 0.6666667 1 0 0.6784314 1 1 0.3686274 1 0 0.5450981 1 1 0 1 1 0 1 0 0.6117647 1 1 1 1 0 0.02352941 1 0 0.5333334 1 1 1 1 0 0.5333334 1 1 0.007843136 1 1 0.003921568 1 0 0.5843138 1 1 1 1 0 0.5333334 1 1 0.3411765 1 1 0.509804 1 0 1 1 1 0.7803922 1 1 1 1 1 0.5450981 1 1 0 1 0 0.5921569 1 0 0.6117647 1 1 0 1 0 0.627451 1 1 0.6117647 1 1 1 1 0 0.6117647 1 1 1 1 0 0.3843137 1 0 0.5254902 1 1 0.9019608 1 0 0.007843136 1 1 0.5529412 1 1 0.3137255 1 0 0 1 1 1 1 0 0.09019607 1 0 0.145098 1 1 0.8352941 1 0 0 1 1 1 1 1 1 1 0 0 1 1 0.8352941 1 0 0.1607843 1 0 0.2039216 1 1 0.2823529 1 0 0.5803922 1 1 1 1 1 0.7176471 1 0 0.4509804 1 1 1 1 0 0.345098 1 0 0.4352941 1 1 1 1 0 0.9882353 1 1 0.07450979 1 1 0 1 0 0.9058824 1 1 1 1 0 0.4784314 1 0.3882353 0.4627451 1 1 0.4156863 1 0 0.8078432 1 1 0.5686275 1 1 0.4431372 1 0.3882353 0.6 1 1 0 1 0 0.3764706 1 0 0.6 1 1 0 1 0 0.4941176 1 1 0.172549 1 1 0.4509804 1 0 0.4627451 1 1 0.07450979 1 0 1 1 0.07058823 1 1 1 0.2392157 1 0 1 1 1 1 1 1 0.7058824 1 0.07058823 1 1 1 0.07058823 1 0 0.09411764 1 0 0.05490195 1 1 0.2470588 1 0 0.5607843 1 1 0.4156863 1 1 0.6784314 1 0 0.7607843 1 1 0.2470588 1 0 0.4392157 1 0 0.5725491 1 1 0.1372549 1 0 0.9254902 1 1 0.6784314 1 1 1 1 0 1 1 1 0.1490196 1 0 0.4784314 1 0 0.4352941 1 1 0.3764706 1 0 0.4745098 1 1 1 1 1 0.2823529 1 0 0.0862745 1 1 0.6980392 1 0 0.5215687 1 0 0.4 1 1 1 1 0 0.5215687 1 1 0.6627451 1 1 0.2509804 1 0 0.4 1 1 0.5254902 1 0 0.4392157 1 0 0.3058823 1 1 1 1 0 0.4392157 1 1 0.05490195 1 1 0.509804 1 0 0.3019608 1 1 1 1 0 0.3058823 1 0 0.7647059 1 1 1 1 0 0.2901961 1 1 0.2705882 1 1 0.5176471 1 0 0.4313725 1</float_array>
          <technique_common>
            <accessor source="#tanne128-mesh-colors-array" count="1152" stride="3">
              <param name="R" type="float"/>
              <param name="G" type="float"/>
              <param name="B" type="float"/>
            </accessor>
          </technique_common>
        </source>
        <vertices id="tanne128-mesh-vertices">
          <input semantic="POSITION" source="#tanne128-mesh-positions"/>
        </vertices>
        <polylist material="fir_tree_01_branch-material" count="256">
          <input semantic="VERTEX" source="#tanne128-mesh-vertices" offset="0"/>
          <input semantic="NORMAL" source="#tanne128-mesh-normals" offset="1"/>
          <input semantic="TEXCOORD" source="#tanne128-mesh-map-0" offset="2" set="0"/>
          <input semantic="COLOR" source="#tanne128-mesh-colors" offset="3"/>
          <vcount>4 4 4 4 4 4 4 4 4 4 4 4 4 4 4 4 4 4 4 4 4 4 4 4 4 4 4 4 4 4 4 4 4 4 4 4 4 4 4 4 4 4 4 4 4 4 4 4 4 4 4 4 4 4 4 4 4 4 4 4 4 4 4 4 4 4 4 4 4 4 4 4 4 4 4 4 4 4 4 4 4 4 4 4 4 4 4 4 4 4 4 4 4 4 4 4 4 4 4 4 4 4 4 4 4 4 4 4 4 4 4 4 4 4 4 4 4 4 4 4 4 4 4 4 4 4 4 4 4 4 4 4 4 4 4 4 4 4 4 4 4 4 4 4 4 4 4 4 4 4 4 4 4 4 4 4 4 4 4 4 4 4 4 4 4 4 4 4 4 4 4 4 4 4 4 4 4 4 4 4 4 4 4 4 4 4 4 4 4 4 4 4 4 4 4 4 4 4 4 4 4 4 4 4 4 4 4 4 4 4 4 4 4 4 4 4 4 4 4 4 4 4 4 4 4 4 4 4 4 4 4 4 4 4 4 4 4 4 4 4 4 4 4 4 4 4 4 4 4 4 4 4 4 4 4 4 </vcount>
          <p>40 40 128 128 41 41 129 129 42 42 130 130 43 43 131 131 41 41 132 132 44 44 133 133 45 45 134 134 42 42 135 135 43 43 136 136 42 42 137 137 46 46 138 138 47 47 139 139 42 42 140 140 45 45 141 141 48 48 142 142 46 46 143 143 49 49 144 144 50 50 145 145 51 51 146 146 52 52 147 147 50 50 148 148 53 53 149 149 54 54 150 150 51 51 151 151 52 52 152 152 51 51 153 153 55 55 154 154 56 56 155 155 51 51 156 156 54 54 157 157 57 57 158 158 55 55 159 159 58 58 160 160 59 59 161 161 60 60 162 162 61 61 163 163 59 59 164 164 62 62 165 165 63 63 166 166 60 60 167 167 61 61 168 168 60 60 169 169 64 64 170 170 65 65 171 171 60 60 172 172 63 63 173 173 66 66 174 174 64 64 175 175 67 67 176 176 68 68 177 177 69 69 178 178 70 70 179 179 68 68 180 180 71 71 181 181 72 72 182 182 69 69 183 183 70 70 184 184 69 69 185 185 73 73 186 186 74 74 187 187 69 69 188 188 72 72 189 189 75 75 190 190 73 73 191 191 76 76 192 192 77 77 193 193 78 78 194 194 79 79 195 195 77 77 196 196 80 80 197 197 81 81 198 198 78 78 199 199 79 79 200 200 78 78 201 201 82 82 202 202 83 83 203 203 78 78 204 204 81 81 205 205 84 84 206 206 82 82 207 207 85 85 208 208 86 86 209 209 87 87 210 210 88 88 211 211 86 86 212 212 89 89 213 213 90 90 214 214 87 87 215 215 88 88 216 216 87 87 217 217 91 91 218 218 92 92 219 219 87 87 220 220 90 90 221 221 93 93 222 222 91 91 223 223 94 94 224 224 95 95 225 225 96 96 226 226 97 97 227 227 95 95 228 228 98 98 229 229 99 99 230 230 96 96 231 231 97 97 232 232 96 96 233 233 100 100 234 234 101 101 235 235 96 96 236 236 99 99 237 237 102 102 238 238 100 100 239 239 103 103 240 240 104 104 241 241 105 105 242 242 106 106 243 243 104 104 244 244 107 107 245 245 108 108 246 246 105 105 247 247 106 106 248 248 105 105 249 249 109 109 250 250 110 110 251 251 105 105 252 252 108 108 253 253 111 111 254 254 109 109 255 255 112 112 256 256 113 113 257 257 114 114 258 258 115 115 259 259 113 113 260 260 116 116 261 261 117 117 262 262 114 114 263 263 115 115 264 264 114 114 265 265 118 118 266 266 119 119 267 267 114 114 268 268 117 117 269 269 120 120 270 270 118 118 271 271 121 121 272 272 122 122 273 273 123 123 274 274 124 124 275 275 122 122 276 276 125 125 277 277 126 126 278 278 123 123 279 279 124 124 280 280 123 123 281 281 127 127 282 282 128 128 283 283 123 123 284 284 126 126 285 285 129 129 286 286 127 127 287 287 130 130 288 288 131 131 289 289 132 132 290 290 133 133 291 291 131 131 292 292 134 134 293 293 135 135 294 294 132 132 295 295 133 133 296 296 132 132 297 297 136 136 298 298 137 137 299 299 132 132 300 300 135 135 301 301 138 138 302 302 136 136 303 303 139 139 304 304 140 140 305 305 141 141 306 306 142 142 307 307 140 140 308 308 143 143 309 309 144 144 310 310 141 141 311 311 142 142 312 312 141 141 313 313 145 145 314 314 146 146 315 315 141 141 316 316 144 144 317 317 147 147 318 318 145 145 319 319 148 148 320 320 149 149 321 321 150 150 322 322 151 151 323 323 149 149 324 324 152 152 325 325 153 153 326 326 150 150 327 327 151 151 328 328 150 150 329 329 154 154 330 330 155 155 331 331 150 150 332 332 153 153 333 333 156 156 334 334 154 154 335 335 157 157 336 336 158 158 337 337 159 159 338 338 160 160 339 339 158 158 340 340 161 161 341 341 162 162 342 342 159 159 343 343 160 160 344 344 159 159 345 345 163 163 346 346 164 164 347 347 159 159 348 348 162 162 349 349 165 165 350 350 163 163 351 351 166 166 352 352 167 167 353 353 168 168 354 354 169 169 355 355 167 167 356 356 170 170 357 357 171 171 358 358 168 168 359 359 169 169 360 360 168 168 361 361 172 172 362 362 173 173 363 363 168 168 364 364 171 171 365 365 174 174 366 366 172 172 367 367 175 175 368 368 176 176 369 369 177 177 370 370 178 178 371 371 176 176 372 372 179 179 373 373 180 180 374 374 177 177 375 375 178 178 376 376 177 177 377 377 181 181 378 378 182 182 379 379 177 177 380 380 180 180 381 381 183 183 382 382 181 181 383 383 184 184 384 384 185 185 385 385 186 186 386 386 187 187 387 387 185 185 388 388 188 188 389 389 189 189 390 390 186 186 391 391 187 187 392 392 186 186 393 393 190 190 394 394 191 191 395 395 186 186 396 396 189 189 397 397 192 192 398 398 190 190 399 399 193 193 400 400 194 194 401 401 195 195 402 402 196 196 403 403 194 194 404 404 197 197 405 405 198 198 406 406 195 195 407 407 196 196 408 408 195 195 409 409 199 199 410 410 200 200 411 411 195 195 412 412 198 198 413 413 201 201 414 414 199 199 415 415 202 202 416 416 203 203 417 417 204 204 418 418 205 205 419 419 203 203 420 420 206 206 421 421 207 207 422 422 204 204 423 423 205 205 424 424 204 204 425 425 208 208 426 426 209 209 427 427 204 204 428 428 207 207 429 429 210 210 430 430 208 208 431 431 211 211 432 432 212 212 433 433 213 213 434 434 214 214 435 435 212 212 436 436 215 215 437 437 216 216 438 438 213 213 439 439 214 214 440 440 213 213 441 441 217 217 442 442 218 218 443 443 213 213 444 444 216 216 445 445 219 219 446 446 217 217 447 447 220 220 448 448 221 221 449 449 222 222 450 450 223 223 451 451 221 221 452 452 224 224 453 453 225 225 454 454 222 222 455 455 223 223 456 456 222 222 457 457 226 226 458 458 227 227 459 459 222 222 460 460 225 225 461 461 228 228 462 462 226 226 463 463 229 229 464 464 230 230 465 465 231 231 466 466 232 232 467 467 230 230 468 468 233 233 469 469 234 234 470 470 231 231 471 471 232 232 472 472 231 231 473 473 235 235 474 474 236 236 475 475 231 231 476 476 234 234 477 477 237 237 478 478 235 235 479 479 238 238 480 480 239 239 481 481 240 240 482 482 241 241 483 483 239 239 484 484 242 242 485 485 243 243 486 486 240 240 487 487 241 241 488 488 240 240 489 489 244 244 490 490 245 245 491 491 240 240 492 492 243 243 493 493 246 246 494 494 244 244 495 495 247 247 496 496 248 248 497 497 249 249 498 498 250 250 499 499 248 248 500 500 251 251 501 501 252 252 502 502 249 249 503 503 250 250 504 504 249 249 505 505 253 253 506 506 254 254 507 507 249 249 508 508 252 252 509 509 255 255 510 510 253 253 511 511 256 256 512 512 257 257 513 513 258 258 514 514 259 259 515 515 257 257 516 516 260 260 517 517 261 261 518 518 258 258 519 519 259 259 520 520 258 258 521 521 262 262 522 522 263 263 523 523 258 258 524 524 261 261 525 525 264 264 526 526 262 262 527 527 265 265 528 528 266 266 529 529 267 267 530 530 268 268 531 531 266 266 532 532 269 269 533 533 270 270 534 534 267 267 535 535 268 268 536 536 267 267 537 537 271 271 538 538 272 272 539 539 267 267 540 540 270 270 541 541 273 273 542 542 271 271 543 543 274 274 544 544 275 275 545 545 276 276 546 546 277 277 547 547 275 275 548 548 278 278 549 549 279 279 550 550 276 276 551 551 277 277 552 552 276 276 553 553 280 280 554 554 281 281 555 555 276 276 556 556 279 279 557 557 282 282 558 558 280 280 559 559 283 283 560 560 284 284 561 561 285 285 562 562 286 286 563 563 284 284 564 564 287 287 565 565 288 288 566 566 285 285 567 567 286 286 568 568 285 285 569 569 289 289 570 570 290 290 571 571 285 285 572 572 288 288 573 573 291 291 574 574 289 289 575 575 292 292 576 576 293 293 577 577 294 294 578 578 295 295 579 579 293 293 580 580 296 296 581 581 297 297 582 582 294 294 583 583 295 295 584 584 294 294 585 585 298 298 586 586 299 299 587 587 294 294 588 588 297 297 589 589 300 300 590 590 298 298 591 591 301 301 592 592 302 302 593 593 303 303 594 594 304 304 595 595 302 302 596 596 305 305 597 597 306 306 598 598 303 303 599 599 304 304 600 600 303 303 601 601 307 307 602 602 308 308 603 603 303 303 604 604 306 306 605 605 309 309 606 606 307 307 607 607 310 310 608 608 311 311 609 609 312 312 610 610 313 313 611 611 311 311 612 612 314 314 613 613 315 315 614 614 312 312 615 615 313 313 616 616 312 312 617 617 316 316 618 618 317 317 619 619 312 312 620 620 315 315 621 621 318 318 622 622 316 316 623 623 319 319 624 624 320 320 625 625 321 321 626 626 322 322 627 627 320 320 628 628 323 323 629 629 324 324 630 630 321 321 631 631 322 322 632 632 321 321 633 633 325 325 634 634 326 326 635 635 321 321 636 636 324 324 637 637 327 327 638 638 325 325 639 639 328 328 640 640 329 329 641 641 330 330 642 642 331 331 643 643 329 329 644 644 332 332 645 645 333 333 646 646 330 330 647 647 331 331 648 648 330 330 649 649 334 334 650 650 335 335 651 651 330 330 652 652 333 333 653 653 336 336 654 654 334 334 655 655 337 337 656 656 338 338 657 657 339 339 658 658 340 340 659 659 338 338 660 660 341 341 661 661 342 342 662 662 339 339 663 663 340 340 664 664 339 339 665 665 343 343 666 666 344 344 667 667 339 339 668 668 342 342 669 669 345 345 670 670 343 343 671 671 346 346 672 672 347 347 673 673 348 348 674 674 349 349 675 675 347 347 676 676 350 350 677 677 351 351 678 678 348 348 679 679 349 349 680 680 348 348 681 681 352 352 682 682 353 353 683 683 348 348 684 684 351 351 685 685 354 354 686 686 352 352 687 687 355 355 688 688 356 356 689 689 357 357 690 690 358 358 691 691 356 356 692 692 359 359 693 693 360 360 694 694 357 357 695 695 358 358 696 696 357 357 697 697 361 361 698 698 362 362 699 699 357 357 700 700 360 360 701 701 363 363 702 702 361 361 703 703 364 364 704 704 365 365 705 705 366 366 706 706 367 367 707 707 365 365 708 708 368 368 709 709 369 369 710 710 366 366 711 711 367 367 712 712 366 366 713 713 370 370 714 714 371 371 715 715 366 366 716 716 369 369 717 717 372 372 718 718 370 370 719 719 373 373 720 720 374 374 721 721 375 375 722 722 376 376 723 723 374 374 724 724 377 377 725 725 378 378 726 726 375 375 727 727 376 376 728 728 375 375 729 729 379 379 730 730 380 380 731 731 375 375 732 732 378 378 733 733 381 381 734 734 379 379 735 735 382 382 736 736 383 383 737 737 384 384 738 738 385 385 739 739 383 383 740 740 386 386 741 741 387 387 742 742 384 384 743 743 385 385 744 744 384 384 745 745 388 388 746 746 389 389 747 747 384 384 748 748 387 387 749 749 390 390 750 750 388 388 751 751 391 391 752 752 392 392 753 753 393 393 754 754 394 394 755 755 392 392 756 756 395 395 757 757 396 396 758 758 393 393 759 759 394 394 760 760 393 393 761 761 397 397 762 762 398 398 763 763 393 393 764 764 396 396 765 765 399 399 766 766 397 397 767 767 400 400 768 768 401 401 769 769 402 402 770 770 403 403 771 771 401 401 772 772 404 404 773 773 405 405 774 774 402 402 775 775 403 403 776 776 402 402 777 777 406 406 778 778 407 407 779 779 402 402 780 780 405 405 781 781 408 408 782 782 406 406 783 783 409 409 784 784 410 410 785 785 411 411 786 786 412 412 787 787 410 410 788 788 413 413 789 789 414 414 790 790 411 411 791 791 412 412 792 792 411 411 793 793 415 415 794 794 416 416 795 795 411 411 796 796 414 414 797 797 417 417 798 798 415 415 799 799 418 418 800 800 419 419 801 801 420 420 802 802 421 421 803 803 419 419 804 804 422 422 805 805 423 423 806 806 420 420 807 807 421 421 808 808 420 420 809 809 424 424 810 810 425 425 811 811 420 420 812 812 423 423 813 813 426 426 814 814 424 424 815 815 427 427 816 816 428 428 817 817 429 429 818 818 430 430 819 819 428 428 820 820 431 431 821 821 432 432 822 822 429 429 823 823 430 430 824 824 429 429 825 825 433 433 826 826 434 434 827 827 429 429 828 828 432 432 829 829 435 435 830 830 433 433 831 831 436 436 832 832 437 437 833 833 438 438 834 834 439 439 835 835 437 437 836 836 440 440 837 837 441 441 838 838 438 438 839 839 439 439 840 840 438 438 841 841 442 442 842 842 443 443 843 843 438 438 844 844 441 441 845 845 444 444 846 846 442 442 847 847 445 445 848 848 446 446 849 849 447 447 850 850 448 448 851 851 446 446 852 852 449 449 853 853 450 450 854 854 447 447 855 855 448 448 856 856 447 447 857 857 451 451 858 858 452 452 859 859 447 447 860 860 450 450 861 861 453 453 862 862 451 451 863 863 454 454 864 864 455 455 865 865 456 456 866 866 457 457 867 867 455 455 868 868 458 458 869 869 459 459 870 870 456 456 871 871 457 457 872 872 456 456 873 873 460 460 874 874 461 461 875 875 456 456 876 876 459 459 877 877 462 462 878 878 460 460 879 879 463 463 880 880 464 464 881 881 465 465 882 882 466 466 883 883 464 464 884 884 467 467 885 885 468 468 886 886 465 465 887 887 466 466 888 888 465 465 889 889 469 469 890 890 470 470 891 891 465 465 892 892 468 468 893 893 471 471 894 894 469 469 895 895 472 472 896 896 473 473 897 897 474 474 898 898 475 475 899 899 473 473 900 900 476 476 901 901 477 477 902 902 474 474 903 903 475 475 904 904 474 474 905 905 478 478 906 906 479 479 907 907 474 474 908 908 477 477 909 909 480 480 910 910 478 478 911 911 481 481 912 912 482 482 913 913 483 483 914 914 484 484 915 915 482 482 916 916 485 485 917 917 486 486 918 918 483 483 919 919 484 484 920 920 483 483 921 921 487 487 922 922 488 488 923 923 483 483 924 924 486 486 925 925 489 489 926 926 487 487 927 927 490 490 928 928 491 491 929 929 492 492 930 930 493 493 931 931 491 491 932 932 494 494 933 933 495 495 934 934 492 492 935 935 493 493 936 936 492 492 937 937 496 496 938 938 497 497 939 939 492 492 940 940 495 495 941 941 498 498 942 942 496 496 943 943 499 499 944 944 500 500 945 945 501 501 946 946 502 502 947 947 500 500 948 948 503 503 949 949 504 504 950 950 501 501 951 951 502 502 952 952 501 501 953 953 505 505 954 954 506 506 955 955 501 501 956 956 504 504 957 957 507 507 958 958 505 505 959 959 508 508 960 960 509 509 961 961 510 510 962 962 511 511 963 963 509 509 964 964 512 512 965 965 513 513 966 966 510 510 967 967 511 511 968 968 510 510 969 969 514 514 970 970 515 515 971 971 510 510 972 972 513 513 973 973 516 516 974 974 514 514 975 975 517 517 976 976 518 518 977 977 519 519 978 978 520 520 979 979 518 518 980 980 521 521 981 981 522 522 982 982 519 519 983 983 520 520 984 984 519 519 985 985 523 523 986 986 524 524 987 987 519 519 988 988 522 522 989 989 525 525 990 990 523 523 991 991 526 526 992 992 527 527 993 993 528 528 994 994 529 529 995 995 527 527 996 996 530 530 997 997 531 531 998 998 528 528 999 999 529 529 1000 1000 528 528 1001 1001 532 532 1002 1002 533 533 1003 1003 528 528 1004 1004 531 531 1005 1005 534 534 1006 1006 532 532 1007 1007 535 535 1008 1008 536 536 1009 1009 537 537 1010 1010 538 538 1011 1011 536 536 1012 1012 539 539 1013 1013 540 540 1014 1014 537 537 1015 1015 538 538 1016 1016 537 537 1017 1017 541 541 1018 1018 542 542 1019 1019 537 537 1020 1020 540 540 1021 1021 543 543 1022 1022 541 541 1023 1023 544 544 1024 1024 545 545 1025 1025 546 546 1026 1026 547 547 1027 1027 545 545 1028 1028 548 548 1029 1029 549 549 1030 1030 546 546 1031 1031 547 547 1032 1032 546 546 1033 1033 550 550 1034 1034 551 551 1035 1035 546 546 1036 1036 549 549 1037 1037 552 552 1038 1038 550 550 1039 1039 553 553 1040 1040 554 554 1041 1041 555 555 1042 1042 556 556 1043 1043 554 554 1044 1044 557 557 1045 1045 558 558 1046 1046 555 555 1047 1047 556 556 1048 1048 555 555 1049 1049 559 559 1050 1050 560 560 1051 1051 555 555 1052 1052 558 558 1053 1053 561 561 1054 1054 559 559 1055 1055 562 562 1056 1056 563 563 1057 1057 564 564 1058 1058 565 565 1059 1059 563 563 1060 1060 566 566 1061 1061 567 567 1062 1062 564 564 1063 1063 565 565 1064 1064 564 564 1065 1065 568 568 1066 1066 569 569 1067 1067 564 564 1068 1068 567 567 1069 1069 570 570 1070 1070 568 568 1071 1071 571 571 1072 1072 572 572 1073 1073 573 573 1074 1074 574 574 1075 1075 572 572 1076 1076 575 575 1077 1077 576 576 1078 1078 573 573 1079 1079 574 574 1080 1080 573 573 1081 1081 577 577 1082 1082 578 578 1083 1083 573 573 1084 1084 576 576 1085 1085 579 579 1086 1086 577 577 1087 1087 580 580 1088 1088 581 581 1089 1089 582 582 1090 1090 583 583 1091 1091 581 581 1092 1092 584 584 1093 1093 585 585 1094 1094 582 582 1095 1095 583 583 1096 1096 582 582 1097 1097 586 586 1098 1098 587 587 1099 1099 582 582 1100 1100 585 585 1101 1101 588 588 1102 1102 586 586 1103 1103 589 589 1104 1104 590 590 1105 1105 591 591 1106 1106 592 592 1107 1107 590 590 1108 1108 593 593 1109 1109 594 594 1110 1110 591 591 1111 1111 592 592 1112 1112 591 591 1113 1113 595 595 1114 1114 596 596 1115 1115 591 591 1116 1116 594 594 1117 1117 597 597 1118 1118 595 595 1119 1119 598 598 1120 1120 599 599 1121 1121 600 600 1122 1122 601 601 1123 1123 599 599 1124 1124 602 602 1125 1125 603 603 1126 1126 600 600 1127 1127 601 601 1128 1128 600 600 1129 1129 604 604 1130 1130 605 605 1131 1131 600 600 1132 1132 603 603 1133 1133 606 606 1134 1134 604 604 1135 1135 607 607 1136 1136 608 608 1137 1137 609 609 1138 1138 610 610 1139 1139 608 608 1140 1140 611 611 1141 1141 612 612 1142 1142 609 609 1143 1143 610 610 1144 1144 609 609 1145 1145 613 613 1146 1146 614 614 1147 1147 609 609 1148 1148 612 612 1149 1149 615 615 1150 1150 613 613 1151 1151</p>
        </polylist>
        <polylist material="fir_tree_01_bark-material" count="32">
          <input semantic="VERTEX" source="#tanne128-mesh-vertices" offset="0"/>
          <input semantic="NORMAL" source="#tanne128-mesh-normals" offset="1"/>
          <input semantic="TEXCOORD" source="#tanne128-mesh-map-0" offset="2" set="0"/>
          <input semantic="COLOR" source="#tanne128-mesh-colors" offset="3"/>
          <vcount>4 4 4 4 4 4 4 4 4 4 4 4 4 4 4 4 4 4 4 4 4 4 4 4 4 4 4 4 4 4 4 4 </vcount>
          <p>0 0 0 0 1 1 1 1 2 2 2 2 3 3 3 3 3 3 4 4 2 2 5 5 4 4 6 6 5 5 7 7 5 5 8 8 4 4 9 9 6 6 10 10 7 7 11 11 7 7 12 12 6 6 13 13 8 8 14 14 9 9 15 15 9 9 16 16 8 8 17 17 10 10 18 18 11 11 19 19 11 11 20 20 10 10 21 21 12 12 22 22 13 13 23 23 13 13 24 24 12 12 25 25 14 14 26 26 15 15 27 27 1 1 28 28 0 0 29 29 15 15 30 30 14 14 31 31 18 16 32 32 19 17 33 33 6 6 34 34 4 4 35 35 1 1 36 36 14 14 37 37 23 18 38 38 16 19 39 39 19 17 40 40 20 20 41 41 8 8 42 42 6 6 43 43 16 19 44 44 17 21 45 45 2 2 46 46 1 1 47 47 21 22 48 48 22 23 49 49 12 12 50 50 10 10 51 51 20 20 52 52 21 22 53 53 10 10 54 54 8 8 55 55 22 23 56 56 23 18 57 57 14 14 58 58 12 12 59 59 17 21 60 60 18 16 61 61 4 4 62 62 2 2 63 63 16 19 64 64 23 18 65 65 31 24 66 66 24 25 67 67 24 25 68 68 25 26 69 69 17 21 70 70 16 19 71 71 25 26 72 72 26 27 73 73 18 16 74 74 17 21 75 75 29 28 76 76 30 29 77 77 22 23 78 78 21 22 79 79 27 30 80 80 28 31 81 81 20 20 82 82 19 17 83 83 26 27 84 84 27 30 85 85 19 17 86 86 18 16 87 87 30 29 88 88 31 24 89 89 23 18 90 90 22 23 91 91 28 31 92 92 29 28 93 93 21 22 94 94 20 20 95 95 34 32 96 96 35 33 97 97 27 30 98 98 26 27 99 99 38 34 100 100 39 35 101 101 31 24 102 102 30 29 103 103 36 36 104 104 37 37 105 105 29 28 106 106 28 31 107 107 24 25 108 108 31 24 109 109 39 35 110 110 32 38 111 111 32 38 112 112 33 39 113 113 25 26 114 114 24 25 115 115 33 39 116 116 34 32 117 117 26 27 118 118 25 26 119 119 37 37 120 120 38 34 121 121 30 29 122 122 29 28 123 123 35 33 124 124 36 36 125 125 28 31 126 126 27 30 127 127</p>
        </polylist>
      </mesh>
      <extra><technique profile="MAYA"><double_sided>1</double_sided></technique></extra>
    </geometry>
    <geometry id="Collision-1-mesh" name="Collision-1">
      <mesh>
        <source id="Collision-1-mesh-positions">
          <float_array id="Collision-1-mesh-positions-array" count="120">0 -2.38419e-6 17.34679 0 -0.2365443 11.69003 0.167262 -0.167262 11.69003 0 -2.38419e-6 17.34679 0.2365446 0 11.69003 0 -2.38419e-6 17.34679 0.167262 0.167262 11.69003 0 -2.38419e-6 17.34679 0 0.2365443 11.69003 0 -2.38419e-6 17.34679 -0.167262 0.167262 11.69003 0 -2.38419e-6 17.34679 -0.2365446 0 11.69003 0 -2.38419e-6 17.34679 -0.167262 -0.167262 11.69003 0 -2.38419e-6 17.34679 0 -0.3098192 6.767434 0.2190752 -0.2190752 6.767434 0.3098192 0 6.767434 0.2190752 0.2190752 6.767434 0 0.3098192 6.767434 -0.2190752 0.2190752 6.767434 -0.3098192 0 6.767434 -0.2190752 -0.2190752 6.767434 0 -0.3851616 1.295715 0.2723503 -0.2723506 1.221128 0.3851614 0 1.0146 0.2723503 0.2723504 1.073998 0 0.3851618 1.133317 -0.2723503 0.2723504 1.27822 -0.3851614 0 1.087813 -0.2723503 -0.2723506 1.141882 0.06720256 -0.7638059 -1.671222 0.6406155 -0.52301 -1.671222 0.7358055 0.005600214 -1.671222 0.5062094 0.6126138 -1.671222 -0.07280254 0.8254085 -1.671222 -0.5566111 0.5062095 -1.671222 -0.7750063 -0.02240085 -1.671222 -0.562212 -0.6686161 -1.671222</float_array>
          <technique_common>
            <accessor source="#Collision-1-mesh-positions-array" count="40" stride="3">
              <param name="X" type="float"/>
              <param name="Y" type="float"/>
              <param name="Z" type="float"/>
            </accessor>
          </technique_common>
        </source>
        <source id="Collision-1-mesh-normals">
          <float_array id="Collision-1-mesh-normals-array" count="96">0.3823985 -0.9231907 0.03860396 0.9231903 -0.3823996 0.03860419 0.9231903 0.3823996 0.03860455 0.3823985 0.9231907 0.03860473 -0.3823985 0.9231907 0.03860473 -0.9231903 0.3823996 0.03860455 -0.9231903 -0.3823996 0.03860419 -0.3823985 -0.9231907 0.03860396 0.9237918 0.3826481 0.01375097 -0.3826476 -0.923792 0.01375097 0.3826476 0.923792 0.01375097 0.3826476 -0.923792 0.01375097 -0.9237918 0.3826481 0.01375097 -0.3826476 0.923792 0.01375097 -0.9237918 -0.3826481 0.01375097 0.9237918 -0.3826481 0.01375097 -0.3860024 -0.9224125 0.01254385 0.384289 -0.9231263 0.01263415 0.9256294 -0.3782305 0.01231968 -0.925506 0.3785279 0.01246345 0.3839207 0.9232843 0.01228898 0.9243301 0.3814 0.01216149 -0.9242879 -0.3814976 0.01231324 -0.3795019 0.9251063 0.01251447 0.9276192 0.3529352 0.1223087 -0.9359932 -0.3236309 0.1384915 -0.4726608 0.8713902 0.1314184 -0.2449124 -0.9596605 0.1380928 0.3921249 -0.9111034 0.1269981 0.9670153 -0.2165354 0.1341407 -0.9270917 0.3542179 0.1226001 0.3621968 0.9215109 0.140111</float_array>
          <technique_common>
            <accessor source="#Collision-1-mesh-normals-array" count="32" stride="3">
              <param name="X" type="float"/>
              <param name="Y" type="float"/>
              <param name="Z" type="float"/>
            </accessor>
          </technique_common>
        </source>
        <source id="Collision-1-mesh-map-0">
          <float_array id="Collision-1-mesh-map-0-array" count="256">0.7825139 3.665211 0.8138256 2.427772 0.8742132 2.427772 0.7825139 3.665211 0.7825139 3.665211 0.8742132 2.427772 1.028553 2.430897 0.7825139 3.665211 0.7825139 3.665211 1.028553 2.430897 0.955463 2.430897 0.7825139 3.665211 0.7825139 3.665211 0.955463 2.430897 0.7732006 2.427772 0.7825139 3.665211 0.7825139 3.665211 0.7732006 2.427772 0.7003135 2.427772 0.7825139 3.665211 0.7825139 3.665211 0.7003135 2.427772 0.5459734 2.427772 0.7825139 3.665211 0.7825139 3.665211 0.5459734 2.427772 0.6253136 2.427772 0.7825139 3.665211 0.8138256 2.427772 0.7825139 3.665211 0.7825139 3.665211 0.6253136 2.427772 0.9901075 0.9952951 0.8935834 0.9952951 0.8742132 2.427772 0.916053 2.427772 0.472083 2.430562 0.358933 2.430562 0.1331458 0.9959972 0.2575068 0.9959972 0.8935834 0.9952951 0.7672402 0.9952951 0.7732006 2.427772 0.8742132 2.427772 0.2575068 0.9959972 0.3878282 0.9959972 0.585233 2.430562 0.472083 2.430562 0.6349381 0.9952951 0.5086113 0.9893346 0.6303482 2.427772 0.6721885 2.427772 0.7672402 0.9952951 0.6349381 0.9952951 0.6721885 2.427772 0.7732006 2.427772 0.006194531 0.9900367 0.1331458 0.9959972 0.358933 2.430562 0.2703397 2.436523 0.3878282 0.9959972 0.5028586 0.9959972 0.6321032 2.430562 0.585233 2.430562 0.2575068 0.9959972 0.1331458 0.9959972 0.1298878 9.19275e-4 0.2634673 0.003899455 0.2634673 0.003899455 0.4119478 0.003899455 0.3878282 0.9959972 0.2575068 0.9959972 0.4119478 0.003899455 0.5240259 0.003899455 0.5028586 0.9959972 0.3878282 0.9959972 0.6325661 -0.001695573 0.5167538 0.004264831 0.5086113 0.9893346 0.6349381 0.9952951 0.8959539 -0.001695573 0.7553192 -0.001695573 0.7672402 0.9952951 0.8935834 0.9952951 0.9998456 -0.001695573 0.8959539 -0.001695573 0.8935834 0.9952951 0.9901075 0.9952951 0.002908587 0.003899455 0.1298878 9.19275e-4 0.1331458 0.9959972 0.006194531 0.9900367 0.7553192 -0.001695573 0.6325661 -0.001695573 0.6349381 0.9952951 0.7672402 0.9952951 1.205995 -0.5986248 0.9894526 -0.5986248 0.8959539 -0.001695573 0.9998456 -0.001695573 -0.2499578 -0.595219 0.05071079 -0.595219 0.1298878 9.19275e-4 0.002908587 0.003899455 0.7791611 -0.6001148 0.5196975 -0.5941544 0.6325661 -0.001695573 0.7553192 -0.001695573 0.2634673 0.003899455 0.1298878 9.19275e-4 0.05071079 -0.595219 0.2634673 -0.595219 0.2634673 -0.595219 0.5343371 -0.595219 0.4119478 0.003899455 0.2634673 0.003899455 0.5343371 -0.595219 0.7709314 -0.595219 0.5240259 0.003899455 0.4119478 0.003899455 0.5196975 -0.5941544 0.264411 -0.588194 0.5167538 0.004264831 0.6325661 -0.001695573 0.9894526 -0.5986248 0.7791611 -0.6001148 0.7553192 -0.001695573 0.8959539 -0.001695573</float_array>
          <technique_common>
            <accessor source="#Collision-1-mesh-map-0-array" count="128" stride="2">
              <param name="S" type="float"/>
              <param name="T" type="float"/>
            </accessor>
          </technique_common>
        </source>
        <source id="Collision-1-mesh-colors">
          <float_array id="Collision-1-mesh-colors-array" count="384">0 0 0 0 0 0 0 0 0 0 0 0 0 0 0 0 0 0 0 0 0 0 0 0 0 0 0 0 0 0 0 0 0 0 0 0 0 0 0 0 0 0 0 0 0 0 0 0 0 0 0 0 0 0 0 0 0 0 0 0 0 0 0 0 0 0 0 0 0 0 0 0 0 0 0 0 0 0 0 0 0 0 0 0 0 0 0 0 0 0 0 0 0 0 0 0 0 0 0 0 0 0 0 0 0 0 0 0 0 0 0 0 0 0 0 0 0 0 0 0 0 0 0 0 0 0 0 0 0 0 0 0 0 0 0 0 0 0 0 0 0 0 0 0 0 0 0 0 0 0 0 0 0 0 0 0 0 0 0 0 0 0 0 0 0 0 0 0 0 0 0 0 0 0 0 0 0 0 0 0 0 0 0 0 0 0 0 0 0 0 0 0 0 0 0 0 0 0 0 0 0 0 0 0 0 0 0 0 0 0 0 0 0 0 0 0 0 0 0 0 0 0 0 0 0 0 0 0 0 0 0 0 0 0 0 0 0 0 0 0 0 0 0 0 0 0 0 0 0 0 0 0 0 0 0 0 0 0 0 0 0 0 0 0 0 0 0 0 0 0 0 0 0 0 0 0 0 0 0 0 0 0 0 0 0 0 0 0 0 0 0 0 0 0 0 0 0 0 0 0 0 0 0 0 0 0 0 0 0 0 0 0 0 0 0 0 0 0 0 0 0 0 0 0 0 0 0 0 0 0 0 0 0 0 0 0 0 0 0 0 0 0 0 0 0 0 0 0 0 0 0 0 0 0 0 0 0 0 0 0 0 0 0 0 0 0 0 0 0 0 0 0 0 0 0 0 0 0 0 0 0 0 0 0</float_array>
          <technique_common>
            <accessor source="#Collision-1-mesh-colors-array" count="128" stride="3">
              <param name="R" type="float"/>
              <param name="G" type="float"/>
              <param name="B" type="float"/>
            </accessor>
          </technique_common>
        </source>
        <vertices id="Collision-1-mesh-vertices">
          <input semantic="POSITION" source="#Collision-1-mesh-positions"/>
        </vertices>
        <polylist count="32">
          <input semantic="VERTEX" source="#Collision-1-mesh-vertices" offset="0"/>
          <input semantic="NORMAL" source="#Collision-1-mesh-normals" offset="1"/>
          <input semantic="TEXCOORD" source="#Collision-1-mesh-map-0" offset="2" set="0"/>
          <input semantic="COLOR" source="#Collision-1-mesh-colors" offset="3"/>
          <vcount>4 4 4 4 4 4 4 4 4 4 4 4 4 4 4 4 4 4 4 4 4 4 4 4 4 4 4 4 4 4 4 4 </vcount>
          <p>0 0 0 0 1 0 1 1 2 0 2 2 3 0 3 3 3 1 4 4 2 1 5 5 4 1 6 6 5 1 7 7 5 2 8 8 4 2 9 9 6 2 10 10 7 2 11 11 7 3 12 12 6 3 13 13 8 3 14 14 9 3 15 15 9 4 16 16 8 4 17 17 10 4 18 18 11 4 19 19 11 5 20 20 10 5 21 21 12 5 22 22 13 5 23 23 13 6 24 24 12 6 25 25 14 6 26 26 15 6 27 27 1 7 28 28 0 7 29 29 15 7 30 30 14 7 31 31 18 8 32 32 19 8 33 33 6 8 34 34 4 8 35 35 1 9 36 36 14 9 37 37 23 9 38 38 16 9 39 39 19 10 40 40 20 10 41 41 8 10 42 42 6 10 43 43 16 11 44 44 17 11 45 45 2 11 46 46 1 11 47 47 21 12 48 48 22 12 49 49 12 12 50 50 10 12 51 51 20 13 52 52 21 13 53 53 10 13 54 54 8 13 55 55 22 14 56 56 23 14 57 57 14 14 58 58 12 14 59 59 17 15 60 60 18 15 61 61 4 15 62 62 2 15 63 63 16 16 64 64 23 16 65 65 31 16 66 66 24 16 67 67 24 17 68 68 25 17 69 69 17 17 70 70 16 17 71 71 25 18 72 72 26 18 73 73 18 18 74 74 17 18 75 75 29 19 76 76 30 19 77 77 22 19 78 78 21 19 79 79 27 20 80 80 28 20 81 81 20 20 82 82 19 20 83 83 26 21 84 84 27 21 85 85 19 21 86 86 18 21 87 87 30 22 88 88 31 22 89 89 23 22 90 90 22 22 91 91 28 23 92 92 29 23 93 93 21 23 94 94 20 23 95 95 34 24 96 96 35 24 97 97 27 24 98 98 26 24 99 99 38 25 100 100 39 25 101 101 31 25 102 102 30 25 103 103 36 26 104 104 37 26 105 105 29 26 106 106 28 26 107 107 24 27 108 108 31 27 109 109 39 27 110 110 32 27 111 111 32 28 112 112 33 28 113 113 25 28 114 114 24 28 115 115 33 29 116 116 34 29 117 117 26 29 118 118 25 29 119 119 37 30 120 120 38 30 121 121 30 30 122 122 29 30 123 123 35 31 124 124 36 31 125 125 28 31 126 126 27 31 127 127</p>
        </polylist>
      </mesh>
      <extra><technique profile="MAYA"><double_sided>1</double_sided></technique></extra>
    </geometry>
  </library_geometries>
  <library_visual_scenes>
    <visual_scene id="Scene" name="Scene">
      <node id="base01" name="base01" type="NODE">
        <translate sid="location">0 0 0</translate>
        <rotate sid="rotationZ">0 0 1 0</rotate>
        <rotate sid="rotationY">0 1 0 0</rotate>
        <rotate sid="rotationX">1 0 0 0</rotate>
        <scale sid="scale">1 1 1</scale>
        <node id="start01" name="start01" type="NODE">
          <translate sid="location">0 0 0</translate>
          <rotate sid="rotationZ">0 0 1 0</rotate>
          <rotate sid="rotationY">0 1 0 0</rotate>
          <rotate sid="rotationX">1 0 0 0</rotate>
          <scale sid="scale">1 1 1</scale>
          <node id="tanne128" name="tanne128" type="NODE">
            <translate sid="location">0 0 0</translate>
            <rotate sid="rotationZ">0 0 1 0</rotate>
            <rotate sid="rotationY">0 1 0 0</rotate>
            <rotate sid="rotationX">1 0 0 0</rotate>
            <scale sid="scale">1 1 1</scale>
            <instance_geometry url="#tanne128-mesh">
              <bind_material>
                <technique_common>
                  <instance_material symbol="fir_tree_01_branch-material" target="#fir_tree_01_branch-material">
                    <bind_vertex_input semantic="UVMap" input_semantic="TEXCOORD" input_set="0"/>
                  </instance_material>
                  <instance_material symbol="fir_tree_01_bark-material" target="#fir_tree_01_bark-material">
                    <bind_vertex_input semantic="UVMap" input_semantic="TEXCOORD" input_set="0"/>
                  </instance_material>
                </technique_common>
              </bind_material>
            </instance_geometry>
          </node>
          <node id="Collision-1" name="Collision-1" type="NODE">
            <translate sid="location">0 0 0</translate>
            <rotate sid="rotationZ">0 0 1 0</rotate>
            <rotate sid="rotationY">0 1 0 0</rotate>
            <rotate sid="rotationX">1 0 0 0</rotate>
            <scale sid="scale">1 1 1</scale>
            <instance_geometry url="#Collision-1-mesh"/>
          </node>
        </node>
        <node id="collisionmesh-1" name="collisionmesh-1" type="NODE">
          <translate sid="location">0 0 0</translate>
          <rotate sid="rotationZ">0 0 1 0</rotate>
          <rotate sid="rotationY">0 1 0 0</rotate>
          <rotate sid="rotationX">1 0 0 0</rotate>
          <scale sid="scale">1 1 1</scale>
        </node>
        <node id="detail128" name="detail128" type="NODE">
          <translate sid="location">0 0 0</translate>
          <rotate sid="rotationZ">0 0 1 0</rotate>
          <rotate sid="rotationY">0 1 0 0</rotate>
          <rotate sid="rotationX">1 0 0 0</rotate>
          <scale sid="scale">1 1 1</scale>
        </node>
      </node>
      <node id="Hemi" name="Hemi" type="NODE">
        <translate sid="location">-2.606273 8.150056 -2.287507</translate>
        <rotate sid="rotationZ">0 0 1 0</rotate>
        <rotate sid="rotationY">0 1 0 0</rotate>
        <rotate sid="rotationX">1 0 0 0</rotate>
        <scale sid="scale">1 1 1</scale>
        <instance_light url="#Hemi-light"/>
      </node>
    </visual_scene>
  </library_visual_scenes>
  <scene>
    <instance_visual_scene url="#Scene"/>
  </scene>
</COLLADA>