<?xml version="1.0" encoding="utf-8"?>
<COLLADA xmlns="http://www.collada.org/2005/11/COLLADASchema" version="1.4.1">
  <asset>
    <contributor>
      <author>Duion</author>
      <authoring_tool>Blender 2.65.0 r53189</authoring_tool>
    </contributor>
    <created>2013-06-11T18:10:58</created>
    <modified>2013-06-11T18:10:58</modified>
    <unit name="meter" meter="1"/>
    <up_axis>Z_UP</up_axis>
  </asset>
  <library_lights>
    <light id="Hemi-light" name="Hemi">
      <technique_common>
        <ambient>
          <color>1 1 1</color>
        </ambient>
      </technique_common>
      <extra>
        <technique profile="blender">
          <adapt_thresh>0.000999987</adapt_thresh>
          <area_shape>0</area_shape>
          <area_size>0.1</area_size>
          <area_sizey>0.1</area_sizey>
          <area_sizez>0.1</area_sizez>
          <atm_distance_factor>1</atm_distance_factor>
          <atm_extinction_factor>1</atm_extinction_factor>
          <atm_turbidity>2</atm_turbidity>
          <att1>0</att1>
          <att2>1</att2>
          <backscattered_light>1</backscattered_light>
          <bias>1</bias>
          <blue>1</blue>
          <buffers>1</buffers>
          <bufflag>0</bufflag>
          <bufsize>512</bufsize>
          <buftype>2</buftype>
          <clipend>40</clipend>
          <clipsta>0.5</clipsta>
          <compressthresh>0.04999995</compressthresh>
          <dist sid="blender_dist">25</dist>
          <energy sid="blender_energy">1</energy>
          <falloff_type>2</falloff_type>
          <filtertype>0</filtertype>
          <flag>0</flag>
          <gamma sid="blender_gamma">1</gamma>
          <green>1</green>
          <halo_intensity sid="blnder_halo_intensity">1</halo_intensity>
          <horizon_brightness>1</horizon_brightness>
          <mode>1</mode>
          <ray_samp>1</ray_samp>
          <ray_samp_method>1</ray_samp_method>
          <ray_samp_type>0</ray_samp_type>
          <ray_sampy>1</ray_sampy>
          <ray_sampz>1</ray_sampz>
          <red>1</red>
          <samp>3</samp>
          <shadhalostep>0</shadhalostep>
          <shadow_b sid="blender_shadow_b">0</shadow_b>
          <shadow_g sid="blender_shadow_g">0</shadow_g>
          <shadow_r sid="blender_shadow_r">0</shadow_r>
          <shadspotsize>45</shadspotsize>
          <sky_colorspace>2</sky_colorspace>
          <sky_exposure>1</sky_exposure>
          <skyblendfac>1</skyblendfac>
          <skyblendtype>1</skyblendtype>
          <soft>3</soft>
          <spotblend>0.15</spotblend>
          <spotsize>45</spotsize>
          <spread>1</spread>
          <sun_brightness>1</sun_brightness>
          <sun_effect_type>0</sun_effect_type>
          <sun_intensity>1</sun_intensity>
          <sun_size>1</sun_size>
          <type>3</type>
        </technique>
      </extra>
    </light>
  </library_lights>
  <library_images/>
  <library_effects>
    <effect id="ekasia_tumula_01_bark-effect">
      <profile_COMMON>
        <technique sid="common">
          <phong>
            <emission>
              <color sid="emission">0 0 0 1</color>
            </emission>
            <ambient>
              <color sid="ambient">0 0 0 1</color>
            </ambient>
            <diffuse>
              <color sid="diffuse">0.8 0.8 0.8 1</color>
            </diffuse>
            <specular>
              <color sid="specular">0 0 0 1</color>
            </specular>
            <shininess>
              <float sid="shininess">50</float>
            </shininess>
            <index_of_refraction>
              <float sid="index_of_refraction">1</float>
            </index_of_refraction>
          </phong>
        </technique>
        <extra>
          <technique profile="GOOGLEEARTH">
            <double_sided>1</double_sided>
          </technique>
        </extra>
      </profile_COMMON>
      <extra><technique profile="MAX3D"><double_sided>1</double_sided></technique></extra>
    </effect>
    <effect id="ekasia_tumula_01_branch-effect">
      <profile_COMMON>
        <technique sid="common">
          <phong>
            <emission>
              <color sid="emission">0 0 0 1</color>
            </emission>
            <ambient>
              <color sid="ambient">0 0 0 1</color>
            </ambient>
            <diffuse>
              <color sid="diffuse">0.8 0.8 0.8 1</color>
            </diffuse>
            <specular>
              <color sid="specular">0 0 0 1</color>
            </specular>
            <shininess>
              <float sid="shininess">50</float>
            </shininess>
            <transparency>
              <float sid="transparency">0</float>
            </transparency>
            <index_of_refraction>
              <float sid="index_of_refraction">1</float>
            </index_of_refraction>
          </phong>
        </technique>
        <extra>
          <technique profile="GOOGLEEARTH">
            <double_sided>1</double_sided>
          </technique>
        </extra>
      </profile_COMMON>
      <extra><technique profile="MAX3D"><double_sided>1</double_sided></technique></extra>
    </effect>
  </library_effects>
  <library_materials>
    <material id="ekasia_tumula_01_bark-material" name="ekasia_tumula_01_bark">
      <instance_effect url="#ekasia_tumula_01_bark-effect"/>
    </material>
    <material id="ekasia_tumula_01_branch-material" name="ekasia_tumula_01_branch">
      <instance_effect url="#ekasia_tumula_01_branch-effect"/>
    </material>
  </library_materials>
  <library_geometries>
    <geometry id="ekasia160-mesh" name="ekasia160">
      <mesh>
        <source id="ekasia160-mesh-positions">
          <float_array id="ekasia160-mesh-positions-array" count="495">0.1623539 0.1313425 -0.9281443 0.1455172 0.0267775 1.499324 0.1277812 0.1297101 1.49424 0.03553593 0.1864374 -0.928076 0.0323081 0.1730601 1.49233 -0.103623 0.1845455 -0.9279451 -0.07324796 0.1734053 1.492582 -0.192583 0.07275766 -0.9277623 -0.1421297 0.0898717 1.496927 -0.173132 -0.06015479 -0.9276611 -0.1290663 -0.01104658 1.50192 -0.09381228 -0.1555375 -0.9276491 -0.07012456 -0.08430451 1.505417 0.03172111 -0.2065165 -0.92772 0.02442717 -0.1245198 1.507175 0.1544899 -0.1358705 -0.9278972 0.1184269 -0.07258075 1.504345 0.188008 -0.00412482 -0.9280465 0.125198 0.1317972 2.994828 0.1157763 0.216689 2.987772 0.03981655 0.2568134 2.985077 -0.04651606 0.2623392 2.985369 -0.1069933 0.1975845 2.991352 -0.1012941 0.1145686 2.998277 -0.05669653 0.05184978 3.003157 0.0186637 0.01432931 3.005645 0.09812653 0.05205047 3.001772 0.0864467 0.2225112 4.49287 0.03281247 0.2498152 4.49262 -0.02769726 0.2526913 4.4927 -0.06931656 0.2064912 4.49336 -0.06439656 0.1482332 4.49409 -0.03246855 0.1046893 4.49459 0.0207169 0.07920676 4.49481 0.0759322 0.1066352 4.49436 0.0939942 0.1629782 4.49361 0.01490998 0.190476 5.93333 0.05959516 0.1577429 6.8995 -1.88768 0.6483463 4.40248 -0.960154 0.4253613 3.97239 0.987119 -0.06524193 6.46941 -0.976555 0.2688069 6.70603 -2.92383 0.7594103 4.20901 -2.284998 0.6335157 6.481564 -3.88144 1.237515 4.196992 -1.31819 -1.147271 5.66156 -0.509891 1.953359 5.64042 0.417632 1.730369 5.21033 -0.390667 -1.370251 5.23147 -2.35434 -1.036201 5.46809 -1.54604 2.064419 5.44695 -2.98213 -0.8738188 4.69939 -2.17383 2.226809 4.67825 -0.736484 0.07587319 5.24204 2.30523 0.7439194 3.58909 1.53064 0.4877855 2.78434 -1.51107 -0.1802597 4.43729 0.378078 0.3529361 5.51836 3.41979 1.020979 3.86542 1.679753 0.6536967 5.492086 4.490223 1.1568 4.36749 0.359229 2.118239 4.32366 1.20951 -1.298451 4.50746 0.434931 -1.554581 3.70271 -0.415354 1.862109 3.51891 1.47379 2.395299 4.59999 2.32408 -1.021381 4.78379 2.57043 2.490599 4.38549 3.42072 -0.9260887 4.56929 -1.10963 1.264249 3.82201 1.54748 -1.200941 3.9173 1.33563 -1.11093 2.75822 -1.32148 1.354259 2.66293 -0.564764 0.7068042 4.76566 2.09234 -1.758391 4.860949 0.175502 0.1152691 5.41653 2.83261 -2.349931 5.511819 1.45168 1.355929 3.75454 -1.01383 -1.292621 3.98477 -1.22568 -1.20261 2.8257 1.23983 1.44594 2.59546 1.99654 0.7984772 4.69819 -0.468963 -1.850061 4.92843 2.73681 0.2069421 5.34906 0.271303 -2.441601 5.579289 1.18512 0.7990894 4.09112 -2.02053 -0.8157826 3.60555 -1.59557 -0.6824504 2.51238 1.61008 0.9324206 2.99795 0.284078 0.4301632 4.80934 -2.92157 -1.184711 4.32378 -0.707481 -0.1157508 4.99312 -3.426685 -1.530419 5.273273 0.381013 -1.629451 3.96671 -1.21642 1.612759 3.72997 -0.791458 1.74609 2.6368 0.805973 -1.49612 2.87353 -0.520031 -1.998381 4.684929 -2.11746 1.243829 4.44819 -1.51159 -2.544291 4.8687 -3.10902 0.6979193 4.63197 -0.407917 1.490789 5.078771 0.71025 -1.799951 4.92911 0.569657 -1.486111 3.84582 -0.54851 1.804629 3.99547 -0.05756604 0.8250451 5.97959 1.0606 -2.465691 5.829929 0.6469926 -0.1159187 6.451886 1.819074 -3.336499 6.573738 1.79733 0.4062402 4.97164 -1.49499 -0.7154039 5.03624 -1.63559 -0.4015616 3.95294 1.65673 0.7200824 3.88835 2.14768 -0.2595 5.87246 -1.14464 -1.381141 5.93706 2.70646 -1.146461 6.20357 -0.585857 -2.268101 6.268159 -1.02538 0.7321084 4.14346 2.10162 -0.8431165 3.17145 1.57017 -0.6735644 2.12225 -1.55684 0.9016605 3.09426 -0.04359287 0.3969632 4.78965 3.08341 -1.178261 3.81765 1.06275 0.1406892 4.86132 4.071148 -1.450157 4.091662 1.32077 1.578939 3.52652 -0.24453 -1.689941 3.78838 -0.775986 -1.52039 2.73918 0.789311 1.74849 2.47733 2.30256 1.243789 4.17272 0.737262 -2.025091 4.434579 3.4089 0.9875163 4.24439 1.8436 -2.281361 4.506249 0.726975 -1.553671 3.27827 -0.527879 1.589349 4.570001 -0.620183 1.696249 3.3977 0.634671 -1.44677 2.10597 0.551479 -1.141651 4.41727 -0.703375 2.001379 5.709001 0.243908 -0.3433038 5.1678 -0.6060761 2.272845 6.459519 -1.57155 -0.6773236 3.9922 1.77065 0.7129994 3.85607 1.67834 0.8198986 2.68377 -1.66385 -0.5704245 2.8199 -1.74705 -0.2652968 5.1312 1.59515 1.125029 4.99507 -2.05462 0.5330461 5.88173 1.28758 1.923369 5.745591 -0.849316 1.640789 5.00211 0.722718 -1.006721 6.33483 0.79823 -1.152951 5.25399 -0.773804 1.494559 3.92127 -0.650711 1.283619 6.05289 0.921323 -1.363881 7.38561 -0.3382357 0.644638 6.998311 0.8153383 -1.223569 8.331034 1.38227 1.168099 5.65401 -1.50886 -0.534035 5.68293 -1.43335 -0.6802658 4.60209 1.45778 1.021869 4.57317 1.58087 0.8109359 6.70479 -1.31026 -0.8911981 6.73371 1.89366 0.09869867 7.42231 -0.997465 -1.603431 7.45123</float_array>
          <technique_common>
            <accessor source="#ekasia160-mesh-positions-array" count="165" stride="3">
              <param name="X" type="float"/>
              <param name="Y" type="float"/>
              <param name="Z" type="float"/>
            </accessor>
          </technique_common>
        </source>
        <source id="ekasia160-mesh-normals">
          <float_array id="ekasia160-mesh-normals-array" count="495">0.6195868 0.492172 -0.6114078 0.7956175 0.6057314 -0.007721126 0.9985046 -0.05117952 0.01825004 0.1474959 0.7358318 -0.6608783 0.2140263 0.9765008 -0.02432322 -0.3480941 0.7043672 -0.6185797 -0.428785 0.9032258 -0.01742607 -0.7579577 0.2016358 -0.6203193 -0.9627674 0.2699972 0.0112918 -0.7003388 -0.3139744 -0.6410108 -0.9179968 -0.3947569 0.03790396 -0.4505752 -0.617542 -0.6446425 -0.6015809 -0.7969604 0.05392616 0.05371254 -0.7926878 -0.6071963 0.05078279 -0.9966735 0.06360054 0.6241646 -0.4771264 -0.6186407 0.7827082 -0.6206855 0.04556411 0.75515 -0.02533036 -0.6550188 0.9945372 -0.102237 0.02072203 0.8229926 0.56798 -0.007690608 0.270516 0.9623402 -0.02618485 -0.3662831 0.9302347 -0.0208441 -0.9396344 0.3420515 0.008423089 -0.9433271 -0.329722 0.03695791 -0.6525468 -0.7557604 0.0547502 -0.008911371 -0.9977416 0.06646931 0.7513047 -0.6581012 0.04895168 0.8169805 0.5756402 0.03347879 0.2562029 0.9663076 0.02444529 -0.3844417 0.922605 0.03100675 -0.9465926 0.3198645 0.04040646 -0.9357585 -0.349498 0.04647964 -0.6377758 -0.7684255 0.05230867 0.007751643 -0.9981384 0.06036561 0.7577441 -0.6504105 0.05255287 8.85037e-4 0.01333653 0.9999085 0.9950255 -0.09112823 0.03958249 0.1934873 0.9801935 0.04165774 0.2365489 0.9715873 0.00640887 0.1367534 0.986755 0.08722186 0.2365489 0.9715873 0.00640887 0.1263466 0.9873654 0.0954619 0.3400983 0.9401532 -0.01919609 0.2998138 0.9534593 -0.03146457 0.4461501 0.8916898 -0.07599109 0.1007721 -0.01947081 0.9946898 0.3991821 -0.09784233 0.9116184 0.1325113 -0.02777183 0.9907834 0.3991821 -0.09784233 0.9116184 -0.5001984 0.1362041 0.8550981 -0.4734947 0.129368 0.8712119 -0.7385479 0.1969054 0.6447646 -0.7385479 0.1969054 0.6447646 -0.2445143 0.9678335 -0.05877864 -0.2384105 0.9700309 -0.04666274 -0.2490005 0.966094 -0.06778156 -0.2490005 0.966094 -0.06778156 -0.2315744 0.9722282 -0.03323465 -0.1791131 0.9833979 0.02893149 -0.216071 0.9762871 -0.01068145 -0.1528977 0.9864498 0.05914485 -0.4831385 -0.07327491 0.8724632 -0.6922819 -0.1341288 0.709006 -0.4838099 -0.07348853 0.8720664 -0.6922819 -0.1341288 0.7090365 -0.0399487 0.043733 0.9982299 -0.01840263 0.04913479 0.9985961 0.1828058 0.09811699 0.9782098 0.1828058 0.09811699 0.9782098 -0.6803796 -0.7321085 0.03231906 -0.6798608 -0.7301859 0.06753742 -0.680105 -0.7330851 -6.1037e-4 -0.6798608 -0.7301859 0.06753742 -0.6798914 -0.7332072 -0.01046782 -0.6797083 -0.7298197 0.07293921 -0.6780602 -0.7265542 0.1108432 -0.6780602 -0.7265542 0.1108432 -0.6466567 0.6382641 0.4176153 -0.7116306 0.6783349 0.1827448 -0.6423231 0.6352123 0.4288156 -0.7116306 0.6783349 0.1827448 -0.4640339 0.4957732 0.7340312 -0.4614093 0.4936063 0.7371746 -0.3810236 0.4260079 0.8205512 -0.3810236 0.4260079 0.8205512 -0.4402295 0.8951079 -0.07034516 -0.4414502 0.8950774 -0.06241035 -0.4388256 0.8950163 -0.07943964 -0.4414502 0.8950774 -0.06241035 -0.440962 0.8951079 -0.0655232 -0.4506363 0.891934 0.03640854 -0.4603106 0.8799097 0.1174352 -0.4532914 0.8875698 0.08200323 0.6932585 0.3859981 0.6085391 0.8215583 0.4319285 0.3720511 0.6918546 0.3854488 0.6105228 0.8215583 0.4319285 0.3720511 0.3187658 0.2242805 0.920896 0.3238014 0.2265999 0.9185461 0.1124912 0.1273843 0.9854427 0.1124912 0.1273843 0.9854427 -0.9441816 -0.3236182 0.06149476 -0.9460127 -0.3227638 0.02923673 -0.9417707 -0.3240761 0.08954131 -0.9460127 -0.3227638 0.02923673 -0.9216895 -0.3229469 0.2148197 -0.8608356 -0.2964873 0.4135563 -0.7738273 -0.2858058 0.5652028 -0.8160039 -0.2777795 0.5068514 -0.2740257 0.8321482 0.4820704 -0.3021942 0.9043855 0.3012177 -0.2760399 0.8374279 0.4716941 -0.3021942 0.9043855 0.3012177 -0.1601001 0.5183874 0.8399915 -0.1755424 0.5618153 0.8084048 -0.08407849 0.3015534 0.9497055 -0.08407849 0.3015229 0.9497055 -0.4232917 -0.9006623 0.09781181 -0.4305551 -0.8995941 0.07269507 -0.4159978 -0.90112 0.122013 -0.4305551 -0.8995941 0.07269507 -0.3842891 -0.8971526 0.217658 -0.3569139 -0.8649861 0.3526719 -0.2297128 -0.7955565 0.560625 -0.3451033 -0.8476211 0.4029969 -0.6388134 0.360332 0.6797388 -0.78399 0.4125492 0.4637898 -0.645497 0.3629261 0.6719871 -0.78399 0.4125492 0.4637898 -0.2386547 0.1905575 0.9522081 -0.2761009 0.2073733 0.9384747 -0.04135257 0.0994293 0.994171 -0.04135257 0.0994293 0.994171 -0.9252297 -0.3786737 0.02252262 -0.9277017 -0.3732414 0.006958186 -0.922605 -0.3838313 0.0376293 -0.922605 -0.3838313 0.0376293 -0.9295023 -0.3686941 -0.005859553 -0.8983429 -0.4020203 0.1769463 -0.9226661 -0.3829768 0.04425179 -0.8721275 -0.4129154 0.2623981 0.3852657 -0.9131444 0.1329996 0.377636 -0.9189428 -0.1135289 0.3853572 -0.9139683 0.127018 0.377636 -0.9189428 -0.1135289 0.3335368 -0.745262 0.5773187 0.3348186 -0.7488632 0.5718864 0.279458 -0.5982849 0.7509384 0.279458 -0.5982849 0.7509384 0.8602557 0.5098422 -0.001861572 0.8586078 0.5125584 0.005462765 0.8616596 0.5073702 -0.008423089 0.8616596 0.5073702 -0.008423089 0.8534501 0.5204321 0.02713096 0.8484145 0.5288248 0.02200382 0.83755 0.5405439 0.07940912 0.8457289 0.533372 0.01562547 -0.5035554 0.8571429 0.1082797 -0.5026704 0.8512833 -0.1502731 -0.5033723 0.8568682 0.1111789 -0.5026704 0.8512833 -0.1502731 -0.4178289 0.7191382 0.5551622 -0.4131596 0.711417 0.5684683 -0.33961 0.5893124 0.7330241 -0.33961 0.5893124 0.7330241</float_array>
          <technique_common>
            <accessor source="#ekasia160-mesh-normals-array" count="165" stride="3">
              <param name="X" type="float"/>
              <param name="Y" type="float"/>
              <param name="Z" type="float"/>
            </accessor>
          </technique_common>
        </source>
        <source id="ekasia160-mesh-map-0">
          <float_array id="ekasia160-mesh-map-0-array" count="996">0.8945313 0 0.8945313 1 1.003906 1 0.8945313 1 0.8945313 0 0.7890625 0 0.7890625 0 0.7890625 1 0.8945313 1 0.6796875 0 0.7890625 1 0.7890625 0 0.6796875 0 0.6796875 1 0.7890625 1 0.5664063 0 0.6796875 1 0.6796875 0 0.5664063 0 0.5664063 1 0.6796875 1 0.4492188 0 0.5664063 1 0.5664063 0 0.4492188 0 0.4492188 1 0.5664063 1 0.3398438 0 0.4492188 1 0.4492188 0 0.3398438 0 0.3398438 1 0.4492188 1 0.234375 0 0.3398438 1 0.3398438 0 0.234375 0 0.234375 1 0.3398438 1 0.1210937 0 0.234375 1 0.234375 0 0.1210937 0 0.1210937 1 0.234375 1 0.01171875 0 0.1210937 1 0.1210937 0 0.8945313 1 1.003906 2 1.003906 1 0.8945313 1 0.8945313 2 1.003906 2 0.7890625 1 0.8945313 2 0.8945313 1 0.7890625 1 0.7890625 2 0.8945313 2 0.6796875 1 0.7890625 2 0.7890625 1 0.6796875 1 0.6796875 2 0.7890625 2 0.5664063 1 0.6796875 2 0.6796875 1 0.5664063 1 0.5664063 2 0.6796875 2 0.4492188 1 0.5664063 2 0.5664063 1 0.4492188 1 0.4492188 2 0.5664063 2 0.3398438 1 0.4492188 2 0.4492188 1 0.3398438 1 0.3398438 2 0.4492188 2 0.234375 1 0.3398438 2 0.3398438 1 0.234375 1 0.234375 2 0.3398438 2 0.1210937 1 0.234375 2 0.234375 1 0.1210937 1 0.1210937 2 0.234375 2 0.7890625 2 0.8945313 3 0.8945313 2 0.7890625 2 0.7890625 3 0.8945313 3 0.6796875 2 0.7890625 3 0.7890625 2 0.6796875 2 0.6796875 3 0.7890625 3 0.5664063 2 0.6796875 3 0.6796875 2 0.5664063 2 0.5664063 3 0.6796875 3 0.4492188 2 0.5664063 3 0.5664063 2 0.4492188 2 0.4492188 3 0.5664063 3 0.3398438 2 0.4492188 3 0.4492188 2 0.3398438 2 0.3398438 3 0.4492188 3 0.234375 2 0.3398438 3 0.3398438 2 0.234375 2 0.234375 3 0.3398438 3 0.1210937 2 0.234375 3 0.234375 2 0.1210937 2 0.1210937 3 0.234375 3 0.3398438 3 0.4492188 4 0.4492188 3 0.8945313 0 1.003906 1 1.003906 0 0.01171875 0 0.01171875 1 0.1210937 1 0.01171875 1 0.1210937 2 0.1210937 1 0.01171875 1 0.01171875 2 0.1210937 2 0.8945313 2 1.003906 3 1.003906 2 0.8945313 2 0.8945313 3 1.003906 3 0.01171875 2 0.1210937 3 0.1210937 2 0.01171875 2 0.01171875 3 0.1210937 3 0.8945313 3 1.003906 4 1.003906 3 0.7890625 3 0.8945313 4 0.8945313 3 0.6796875 3 0.7890625 4 0.7890625 3 0.5664063 3 0.6796875 4 0.6796875 3 0.4492188 3 0.5664063 4 0.5664063 3 0.234375 3 0.3398438 4 0.3398438 3 0.1210937 3 0.234375 4 0.234375 3 0.01171875 3 0.1210937 4 0.1210937 3 1.683594 -0.921875 1.609375 -0.828125 1.789062 -0.984375 1.789062 -0.984375 1.609375 -0.828125 1.90625 -0.9375 1.90625 -0.9375 1.609375 -0.828125 1.648437 -0.7109375 1.90625 -0.9375 1.648437 -0.7109375 1.949219 -0.828125 1.648437 -0.7109375 1.734375 -0.625 1.949219 -0.828125 1.734375 -0.625 1.929687 -0.71875 1.949219 -0.828125 1.734375 -0.625 1.859375 -0.625 1.929687 -0.71875 0 -0.666667 1 -1 1 -0.666667 0 -0.666667 0 -1 1 -1 0 -0.333333 1 -0.666667 1 -0.333333 0 -0.333333 0 -0.666667 1 -0.666667 0 0 1 -0.333333 1 0 0 0 0 -0.333333 1 -0.333333 0 -0.666667 1 -1 1 -0.666667 0 -0.666667 0 -1 1 -1 0 -0.333333 1 -0.666667 1 -0.333333 0 -0.333333 0 -0.666667 1 -0.666667 0 0 1 -0.333333 1 0 0 0 0 -0.333333 1 -0.333333 0 -0.666667 1 -0.666667 1 -1 0 -0.666667 1 -1 0 -1 0 -0.333333 1 -0.333333 1 -0.666667 0 -0.333333 1 -0.666667 0 -0.666667 0 0 1 0 1 -0.333333 0 0 1 -0.333333 0 -0.333333 0 -0.666667 1 -1 1 -0.666667 0 -0.666667 0 -1 1 -1 0 -0.333333 1 -0.666667 1 -0.333333 0 -0.333333 0 -0.666667 1 -0.666667 0 0 1 -0.333333 1 0 0 0 0 -0.333333 1 -0.333333 0 -0.666667 1 -1 1 -0.666667 0 -0.666667 0 -1 1 -1 0 -0.333333 1 -0.666667 1 -0.333333 0 -0.333333 0 -0.666667 1 -0.666667 0 0 1 -0.333333 1 0 0 0 0 -0.333333 1 -0.333333 0 -0.666667 1 -1 1 -0.666667 0 -0.666667 0 -1 1 -1 0 -0.333333 1 -0.666667 1 -0.333333 0 -0.333333 0 -0.666667 1 -0.666667 0 0 1 -0.333333 1 0 0 0 0 -0.333333 1 -0.333333 0 -0.666667 1 -1 1 -0.666667 0 -0.666667 0 -1 1 -1 0 -0.333333 1 -0.666667 1 -0.333333 0 -0.333333 0 -0.666667 1 -0.666667 0 0 1 -0.333333 1 0 0 0 0 -0.333333 1 -0.333333 0 -0.666667 1 -1 1 -0.666667 0 -0.666667 0 -1 1 -1 0 -0.333333 1 -0.666667 1 -0.333333 0 -0.333333 0 -0.666667 1 -0.666667 0 0 1 -0.333333 1 0 0 0 0 -0.333333 1 -0.333333 0 -0.666667 1 -1 1 -0.666667 0 -0.666667 0 -1 1 -1 0 -0.333333 1 -0.666667 1 -0.333333 0 -0.333333 0 -0.666667 1 -0.666667 0 0 1 -0.333333 1 0 0 0 0 -0.333333 1 -0.333333 0 -0.666667 1 -1 1 -0.666667 0 -0.666667 0 -1 1 -1 0 -0.333333 1 -0.666667 1 -0.333333 0 -0.333333 0 -0.666667 1 -0.666667 0 0 1 -0.333333 1 0 0 0 0 -0.333333 1 -0.333333 0 -0.666667 1 -1 1 -0.666667 0 -0.666667 0 -1 1 -1 0 -0.333333 1 -0.666667 1 -0.333333 0 -0.333333 0 -0.666667 1 -0.666667 0 0 1 -0.333333 1 0 0 0 0 -0.333333 1 -0.333333 0 -0.666667 1 -1 1 -0.666667 0 -0.666667 0 -1 1 -1 0 -0.333333 1 -0.666667 1 -0.333333 0 -0.333333 0 -0.666667 1 -0.666667 0 0 1 -0.333333 1 0 0 0 0 -0.333333 1 -0.333333 0 -0.666667 1 -0.666667 1 -1 0 -0.666667 1 -1 0 -1 0 -0.333333 1 -0.333333 1 -0.666667 0 -0.333333 1 -0.666667 0 -0.666667 0 0 1 0 1 -0.333333 0 0 1 -0.333333 0 -0.333333 0 -0.666667 1 -1 1 -0.666667 0 -0.666667 0 -1 1 -1 0 -0.333333 1 -0.666667 1 -0.333333 0 -0.333333 0 -0.666667 1 -0.666667 0 0 1 -0.333333 1 0 0 0 0 -0.333333 1 -0.333333 0 -0.666667 1 -0.666667 1 -1 0 -0.666667 1 -1 0 -1 0 -0.333333 1 -0.333333 1 -0.666667 0 -0.333333 1 -0.666667 0 -0.666667 0 0 1 0 1 -0.333333 0 0 1 -0.333333 0 -0.333333 0 -0.666667 1 -1 1 -0.666667 0 -0.666667 0 -1 1 -1 0 -0.333333 1 -0.666667 1 -0.333333 0 -0.333333 0 -0.666667 1 -0.666667 0 0 1 -0.333333 1 0 0 0 0 -0.333333 1 -0.333333</float_array>
          <technique_common>
            <accessor source="#ekasia160-mesh-map-0-array" count="498" stride="2">
              <param name="S" type="float"/>
              <param name="T" type="float"/>
            </accessor>
          </technique_common>
        </source>
        <source id="ekasia160-mesh-colors">
          <float_array id="ekasia160-mesh-colors-array" count="1494">0 0 0 0 0 0 0 0 0 0 0 0 0 0 0 0 0 0 0 0 0 0 0 0 0 0 0 0 0 0 0 0 0 0 0 0 0 0 0 0 0 0 0 0 0 0 0 0 0 0 0 0 0 0 0 0 0 0 0 0 0 0 0 0 0 0 0 0 0 0 0 0 0 0 0 0 0 0 0 0 0 0 0 0 0 0 0 0 0 0 0 0 0 0 0 0 0 0 0 0 0 0 0 0 0 0 0 0 0 0 0 0 0 0 0 0 0 0 0 0 0 0 0 0 0 0 0 0 0 0 0 0 0 0 0 0 0 0 0 0 0 0 0 0 0 0 0 0 0 0 0 0 0 0 0 0 0 0 0 0 0 0 0 0 0 0 0 0 0 0 0 0 0 0 0 0 0 0 0 0 0 0 0 0 0 0 0 0 0 0 0 0 0 0 0 0 0 0 0 0 0 0 0 0 0 0 0 0 0 0 0 0 0 0 0 0 0 0 0 0 0 0 0 0 0 0 0 0 0 0 0 0 0 0 0 0 0 0 0 0 0 0 0 0 0 0 0 0 0 0 0 0 0 0 0 0 0 0 0 0 0 0 0 0 0 0 0 0 0 0 0 0 0 0 0 0 0 0 0 0 0 0 0 0 0 0 0 0 0 0 0 0 0 0 0 0 0 0 0 0 0 0 0 0 0 0 0 0 0 0 0 0 0 0 0 0 0 0 0 0 0 0 0 0 0 0 0 0 0 0 0 0 0 0 0 0 0 0 0 0 0 0 0 0 0 0 0 0 0 0 0 0 0 0 0 0 0 0 0 0 0 0 0 0 0 0 0 0 0 0 0 0 0 0 0 0 0 0 0 0 0 0 0 0 0 0 0 0 0 0 0 0 0 0 0 0 0 0 0 0 0 0 0 0 0 0 0 0 0 0 0 0 0 0 0 0 0 0 0 0 0 0 0 0 0 0 0 0 0 0 0 0 0 0 0 0 0 0 0 0 0 0 0 0 0 0 0 0 0 0 0 0 0 0 0 0 0 0 0 0 0 0 0 0 0 0 0 0 0 0 0 0 0 0 0 0 0 0 0 0 0 0 0 0 0 0 0 0 0 0 0 0 0 0 0 0 0 0 0 0 0 0 0 0 0 0 0 0 0 0 0 0 0 0 0 0 0 0 0 0 0 0 0 0 0 0 0 0 0 0 0 0 0 0 0 0 0 0 0 0 0 0 0 0 0 0 0 0 0 0 0 0 0 0 0 0 0 0 0 0 0 0 0 0 0 0 0 0 0 0 0 0 0 0 0 0 0 0 0 0 0 0 0 0 0 0 0 0 0 0 0 0 0 0 0 0 0 0 0 0 0 0 0 0 0 0 0 0 0 0 0 0 0 0 0 0 0 0 0 0 0 0 0 0 0 0 0 0 0 0 1 0.9803922 1 0 1 1 1 1 1 1 0.9803922 1 1 1 1 0 1 1 1 0.1882353 1 1 1 1 1 1 1 1 0.1882353 1 1 0.9803922 1 1 1 1 1 0.317647 1 1 1 1 1 0.427451 1 1 0.317647 1 1 0 1 1 1 1 1 0.682353 1 1 0.2705882 1 1 0.827451 1 1 0.5843138 1 1 1 1 1 0.2941176 1 1 0.09019607 1 1 0.8627451 1 1 0.5843138 1 1 0.09019607 1 1 0.682353 1 1 0.8627451 1 1 1 1 1 0.4078431 1 1 0.2431373 1 1 1 1 1 0.09019607 1 1 0.1372549 1 0 0.8156863 1 1 0.5294118 1 1 0.1411765 1 0 0.2313725 1 0 0.1411765 1 0.6862745 1 1 0 1 1 1 0.3411765 1 1 0.5294118 1 0 1 1 1 0.5294118 1 0 1 1 0.2078431 1 1 1 0.2156863 1 1 0.3411765 1 0.07843136 1 1 1 0.3411765 1 0 1 1 1 0 1 0.7450981 1 1 0.654902 1 1 1 0.7058824 1 1 1 1 1 1 1 0.1098039 0.7254902 1 0.6235294 1 1 1 1 1 1 0.7254902 1 1 1 1 0 1 1 1 0.5882353 1 1 1 1 1 0.5725491 1 1 0.5882353 1 1 0.7254902 1 1 1 1 1 0 1 0.4313725 0.5843138 1 0.4901961 1 1 1 1 1 1 0.0980392 1 0.4313725 0.5843138 1 0 0.6196079 1 1 1 1 1 0.1764706 1 0 0.03529411 1 1 0 1 0.4901961 1 1 0 1 1 1 0.1764706 1 1 0 1 0 1 1 0 1 1 1 0.1764706 1 0.3098039 1 1 1 0.9098039 1 1 1 1 1 1 1 1 0.1098039 1 1 0.9098039 1 1 1 1 0.5803922 1 1 1 0.9254902 1 1 1 1 0.3372549 0.6313726 1 0.3568627 1 1 1 0.03529411 1 1 0.9411765 1 1 1 1 1 0.03529411 1 1 1 1 0.1607843 0.9411765 1 0 1 1 1 1 1 1 1 1 0 1 1 1 1 1 1 1 1 0 1 1 1 1 1 1 1 1 0 1 1 0 1 1 1 1 1 0 1 1 1 1 1 1 0.2862745 1 0 1 1 0 1 1 1 1 1 1 0.8784314 1 0.7843137 1 1 1 1 1 1 1 1 1 0.3372549 1 0.7843137 1 1 1 0.4705882 1 1 1 1 1 1 1 1 0.4705882 1 1 0.8784314 1 1 1 1 1 0 1 1 0.6980392 1 1 0.8784314 1 1 0.1843137 1 1 0.4705882 1 1 0.6980392 1 1 0.2901961 1 1 1 1 1 1 1 1 0.2117647 1 1 1 1 0 0 1 0.07058823 0.7137255 1 1 1 1 1 1 1 0.07058823 0.7137255 1 1 0.4470588 1 1 1 1 0.3882353 1 1 1 1 1 1 0.7843137 1 0.7372549 1 1 0.07843136 0.7137255 1 1 1 1 0 1 1 1 1 1 0.8431373 0.7333334 1 0 1 1 0 1 1 1 1 1 1 0 1 1 0.7058824 1 1 0.3686274 1 1 0 1 1 1 1 0 0.9490196 1 1 0.4705882 1 1 0.3686274 1 1 1 1 1 0.4705882 1 1 1 1 1 0.3686274 1 0 0.7372549 1 0.827451 0 1 1 1 1 0 1 1 0.3137255 1 1 0.827451 0 1 0 1 1 1 1 1 1 1 1 0 1 1 0 0.9411765 1 1 1 1 0 1 1 1 1 1 1 0.6784314 1 0 1 1 0 1 1 1 1 1 1 0.4549019 1 1 0.3803921 1 1 0.9686275 1 1 1 1 1 0.09411764 1 1 0.3803921 1 1 0.08235293 1 1 0.9686275 1 1 0.3411765 1 1 0.6 1 1 0.4549019 1 1 0.9686275 1 1 0.4352941 1 1 0.372549 1 1 0.2745098 1 1 0.5176471 1 1 0.6 1 1 0.2313725 1 0.7568628 0.7294118 1 0.7058824 0.07450979 1 1 0.6039216 1 1 0.7294118 1 1 0.6039216 1 0.7803922 0.1529412 1 0 1 1 1 0.7921569 1 1 0.827451 1 0.5254902 1 1 0.07450979 0.07450979 1 1 0.7294118 1 0 1 1 1 0.2509804 1 1 0.7921569 1 0 1 1 1 0.7921569 1 0 0.2784314 1 0 0.4509804 1 1 0.05882352 1 1 0.7058824 1 0.9176471 1 1 1 1 1 1 1 1 0.07843136 0.2078431 1 1 0.9411765 1 0.6470589 0.9294118 1 0.1294118 0.3490196 1 0 1 1 0 1 1 1 0.7490196 1 0.6470589 0.9294118 1 1 0.1490196 1 1 0.3647059 1 1 0.8313726 1 0.5607843 0.9764706 1 1 0.2156863 1 1 1 1 1 1 1 1 0.5529412 1 0 1 1 1 1 1 1 0.7490196 1 1 0.6117647 1 1 1 1 1 0.7490196 1 1 1 1 1 0.5921569 1 1 0.6588236 1 1 0 1 1 0.6117647 1 1 0.6588236 1 1 0.6039216 1 1 0.7490196 1 1 0.3568627 1 0.3921568 1 1 1 0.9568628 1 1 0.3568627 1 0.1372549 1 1 0 0.3058823 1 1 0.9921569 1 1 1 1 1 0.7803922 1 1 0.9921569 1 1 0.3568627 1 1 1 1 1 0.9372549 1 1 0.9490196 1 1 0.1254902 1 1 0.9372549 1 1 0.9411765 1 1 0.8627451 1</float_array>
          <technique_common>
            <accessor source="#ekasia160-mesh-colors-array" count="498" stride="3">
              <param name="R" type="float"/>
              <param name="G" type="float"/>
              <param name="B" type="float"/>
            </accessor>
          </technique_common>
        </source>
        <vertices id="ekasia160-mesh-vertices">
          <input semantic="POSITION" source="#ekasia160-mesh-positions"/>
        </vertices>
        <polylist material="ekasia_tumula_01_bark-material" count="70">
          <input semantic="VERTEX" source="#ekasia160-mesh-vertices" offset="0"/>
          <input semantic="NORMAL" source="#ekasia160-mesh-normals" offset="1"/>
          <input semantic="TEXCOORD" source="#ekasia160-mesh-map-0" offset="2" set="0"/>
          <input semantic="COLOR" source="#ekasia160-mesh-colors" offset="3"/>
          <vcount>3 3 3 3 3 3 3 3 3 3 3 3 3 3 3 3 3 3 3 3 3 3 3 3 3 3 3 3 3 3 3 3 3 3 3 3 3 3 3 3 3 3 3 3 3 3 3 3 3 3 3 3 3 3 3 3 3 3 3 3 3 3 3 3 3 3 3 3 3 3 </vcount>
          <p>0 0 0 0 2 1 1 1 1 2 2 2 2 1 3 3 0 0 4 4 3 3 5 5 3 3 6 6 4 4 7 7 2 1 8 8 5 5 9 9 4 4 10 10 3 3 11 11 5 5 12 12 6 6 13 13 4 4 14 14 7 7 15 15 6 6 16 16 5 5 17 17 7 7 18 18 8 8 19 19 6 6 20 20 9 9 21 21 8 8 22 22 7 7 23 23 9 9 24 24 10 10 25 25 8 8 26 26 11 11 27 27 10 10 28 28 9 9 29 29 11 11 30 30 12 12 31 31 10 10 32 32 13 13 33 33 12 12 34 34 11 11 35 35 13 13 36 36 14 14 37 37 12 12 38 38 15 15 39 39 14 14 40 40 13 13 41 41 15 15 42 42 16 16 43 43 14 14 44 44 17 17 45 45 16 16 46 46 15 15 47 47 2 1 48 48 18 18 49 49 1 2 50 50 2 1 51 51 19 19 52 52 18 18 53 53 4 4 54 54 19 19 55 55 2 1 56 56 4 4 57 57 20 20 58 58 19 19 59 59 6 6 60 60 20 20 61 61 4 4 62 62 6 6 63 63 21 21 64 64 20 20 65 65 8 8 66 66 21 21 67 67 6 6 68 68 8 8 69 69 22 22 70 70 21 21 71 71 10 10 72 72 22 22 73 73 8 8 74 74 10 10 75 75 23 23 76 76 22 22 77 77 12 12 78 78 23 23 79 79 10 10 80 80 12 12 81 81 24 24 82 82 23 23 83 83 14 14 84 84 24 24 85 85 12 12 86 86 14 14 87 87 25 25 88 88 24 24 89 89 16 16 90 90 25 25 91 91 14 14 92 92 16 16 93 93 26 26 94 94 25 25 95 95 20 20 96 96 27 27 97 97 19 19 98 98 20 20 99 99 28 28 100 100 27 27 101 101 21 21 102 102 28 28 103 103 20 20 104 104 21 21 105 105 29 29 106 106 28 28 107 107 22 22 108 108 29 29 109 109 21 21 110 110 22 22 111 111 30 30 112 112 29 29 113 113 23 23 114 114 30 30 115 115 22 22 116 116 23 23 117 117 31 31 118 118 30 30 119 119 24 24 120 120 31 31 121 121 23 23 122 122 24 24 123 123 32 32 124 124 31 31 125 125 25 25 126 126 32 32 127 127 24 24 128 128 25 25 129 129 33 33 130 130 32 32 131 131 26 26 132 132 33 33 133 133 25 25 134 134 26 26 135 135 34 34 136 136 33 33 137 137 32 32 138 138 36 35 139 139 31 31 140 140 0 0 141 141 1 2 142 142 17 17 143 143 17 17 144 144 1 2 145 145 16 16 146 146 1 2 147 147 26 26 148 148 16 16 149 149 1 2 150 150 18 18 151 151 26 26 152 152 19 19 153 153 35 36 154 154 18 18 155 155 19 19 156 156 27 27 157 157 35 36 158 158 18 18 159 159 34 34 160 160 26 26 161 161 18 18 162 162 35 36 163 163 34 34 164 164 27 27 165 165 36 35 166 166 35 36 167 167 28 28 168 168 36 35 169 169 27 27 170 170 29 29 171 171 36 35 172 172 28 28 173 173 30 30 174 174 36 35 175 175 29 29 176 176 31 31 177 177 36 35 178 178 30 30 179 179 33 33 180 180 36 35 181 181 32 32 182 182 34 34 183 183 36 35 184 184 33 33 185 185 35 36 186 186 36 35 187 187 34 34 188 188 3 3 189 189 0 0 190 190 5 5 191 191 5 5 192 192 0 0 193 193 7 7 194 194 7 7 195 195 0 0 196 196 17 17 197 197 7 7 198 198 17 17 199 199 9 9 200 200 17 17 201 201 15 15 202 202 9 9 203 203 15 15 204 204 11 11 205 205 9 9 206 206 15 15 207 207 13 13 208 208 11 11 209 209</p>
        </polylist>
        <polylist material="ekasia_tumula_01_branch-material" count="96">
          <input semantic="VERTEX" source="#ekasia160-mesh-vertices" offset="0"/>
          <input semantic="NORMAL" source="#ekasia160-mesh-normals" offset="1"/>
          <input semantic="TEXCOORD" source="#ekasia160-mesh-map-0" offset="2" set="0"/>
          <input semantic="COLOR" source="#ekasia160-mesh-colors" offset="3"/>
          <vcount>3 3 3 3 3 3 3 3 3 3 3 3 3 3 3 3 3 3 3 3 3 3 3 3 3 3 3 3 3 3 3 3 3 3 3 3 3 3 3 3 3 3 3 3 3 3 3 3 3 3 3 3 3 3 3 3 3 3 3 3 3 3 3 3 3 3 3 3 3 3 3 3 3 3 3 3 3 3 3 3 3 3 3 3 3 3 3 3 3 3 3 3 3 3 3 3 </vcount>
          <p>37 37 210 210 39 38 211 211 38 39 212 212 37 37 213 213 40 40 214 214 39 38 215 215 41 41 216 216 38 39 217 217 42 42 218 218 41 41 219 219 37 37 220 220 38 39 221 221 43 43 222 222 42 42 223 223 44 44 224 224 43 43 225 225 41 41 226 226 42 42 227 227 45 45 228 228 47 46 229 229 46 47 230 230 45 45 231 231 48 48 232 232 47 46 233 233 49 49 234 234 46 47 235 235 50 50 236 236 49 49 237 237 45 45 238 238 46 47 239 239 51 51 240 240 50 50 241 241 52 52 242 242 51 51 243 243 49 49 244 244 50 50 245 245 53 53 246 246 54 54 247 247 55 55 248 248 53 53 249 249 55 55 250 250 56 56 251 251 57 57 252 252 58 58 253 253 54 54 254 254 57 57 255 255 54 54 256 256 53 53 257 257 59 59 258 258 60 60 259 259 58 58 260 260 59 59 261 261 58 58 262 262 57 57 263 263 61 61 264 264 63 62 265 265 62 63 266 266 61 61 267 267 64 64 268 268 63 62 269 269 65 65 270 270 62 63 271 271 66 66 272 272 65 65 273 273 61 61 274 274 62 63 275 275 67 67 276 276 66 66 277 277 68 68 278 278 67 67 279 279 65 65 280 280 66 66 281 281 69 69 282 282 71 70 283 283 70 71 284 284 69 69 285 285 72 72 286 286 71 70 287 287 73 73 288 288 70 71 289 289 74 74 290 290 73 73 291 291 69 69 292 292 70 71 293 293 75 75 294 294 74 74 295 295 76 76 296 296 75 75 297 297 73 73 298 298 74 74 299 299 77 77 300 300 79 78 301 301 78 79 302 302 77 77 303 303 80 80 304 304 79 78 305 305 81 81 306 306 78 79 307 307 82 82 308 308 81 81 309 309 77 77 310 310 78 79 311 311 83 83 312 312 82 82 313 313 84 84 314 314 83 83 315 315 81 81 316 316 82 82 317 317 85 85 318 318 87 86 319 319 86 87 320 320 85 85 321 321 88 88 322 322 87 86 323 323 89 89 324 324 86 87 325 325 90 90 326 326 89 89 327 327 85 85 328 328 86 87 329 329 91 91 330 330 90 90 331 331 92 92 332 332 91 91 333 333 89 89 334 334 90 90 335 335 93 93 336 336 95 94 337 337 94 95 338 338 93 93 339 339 96 96 340 340 95 94 341 341 97 97 342 342 94 95 343 343 98 98 344 344 97 97 345 345 93 93 346 346 94 95 347 347 99 99 348 348 98 98 349 349 100 100 350 350 99 99 351 351 97 97 352 352 98 98 353 353 101 101 354 354 103 102 355 355 102 103 356 356 101 101 357 357 104 104 358 358 103 102 359 359 105 105 360 360 102 103 361 361 106 106 362 362 105 105 363 363 101 101 364 364 102 103 365 365 107 107 366 366 106 106 367 367 108 108 368 368 107 107 369 369 105 105 370 370 106 106 371 371 109 109 372 372 111 110 373 373 110 111 374 374 109 109 375 375 112 112 376 376 111 110 377 377 113 113 378 378 110 111 379 379 114 114 380 380 113 113 381 381 109 109 382 382 110 111 383 383 115 115 384 384 114 114 385 385 116 116 386 386 115 115 387 387 113 113 388 388 114 114 389 389 117 117 390 390 119 118 391 391 118 119 392 392 117 117 393 393 120 120 394 394 119 118 395 395 121 121 396 396 118 119 397 397 122 122 398 398 121 121 399 399 117 117 400 400 118 119 401 401 123 123 402 402 122 122 403 403 124 124 404 404 123 123 405 405 121 121 406 406 122 122 407 407 125 125 408 408 127 126 409 409 126 127 410 410 125 125 411 411 128 128 412 412 127 126 413 413 129 129 414 414 126 127 415 415 130 130 416 416 129 129 417 417 125 125 418 418 126 127 419 419 131 131 420 420 130 130 421 421 132 132 422 422 131 131 423 423 129 129 424 424 130 130 425 425 133 133 426 426 134 134 427 427 135 135 428 428 133 133 429 429 135 135 430 430 136 136 431 431 137 137 432 432 138 138 433 433 134 134 434 434 137 137 435 435 134 134 436 436 133 133 437 437 139 139 438 438 140 140 439 439 138 138 440 440 139 139 441 441 138 138 442 442 137 137 443 443 141 141 444 444 143 142 445 445 142 143 446 446 141 141 447 447 144 144 448 448 143 142 449 449 145 145 450 450 142 143 451 451 146 146 452 452 145 145 453 453 141 141 454 454 142 143 455 455 147 147 456 456 146 146 457 457 148 148 458 458 147 147 459 459 145 145 460 460 146 146 461 461 149 149 462 462 150 150 463 463 151 151 464 464 149 149 465 465 151 151 466 466 152 152 467 467 153 153 468 468 154 154 469 469 150 150 470 470 153 153 471 471 150 150 472 472 149 149 473 473 155 155 474 474 156 156 475 475 154 154 476 476 155 155 477 477 154 154 478 478 153 153 479 479 157 157 480 480 159 158 481 481 158 159 482 482 157 157 483 483 160 160 484 484 159 158 485 485 161 161 486 486 158 159 487 487 162 162 488 488 161 161 489 489 157 157 490 490 158 159 491 491 163 163 492 492 162 162 493 493 164 164 494 494 163 163 495 495 161 161 496 496 162 162 497 497</p>
        </polylist>
      </mesh>
      <extra><technique profile="MAYA"><double_sided>1</double_sided></technique></extra>
    </geometry>
    <geometry id="collisionmesh-1-mesh" name="collisionmesh-1">
      <mesh>
        <source id="collisionmesh-1-mesh-positions">
          <float_array id="collisionmesh-1-mesh-positions-array" count="111">0.1623539 0.1313425 -0.9281443 0.1455172 0.0267775 1.499324 0.1277812 0.1297101 1.49424 0.03553593 0.1864374 -0.928076 0.0323081 0.1730601 1.49233 -0.103623 0.1845455 -0.9279451 -0.07324796 0.1734053 1.492582 -0.192583 0.07275766 -0.9277623 -0.1421297 0.0898717 1.496927 -0.173132 -0.06015479 -0.9276611 -0.1290663 -0.01104658 1.50192 -0.09381228 -0.1555375 -0.9276491 -0.07012456 -0.08430451 1.505417 0.03172111 -0.2065165 -0.92772 0.02442717 -0.1245198 1.507175 0.1544899 -0.1358705 -0.9278972 0.1184269 -0.07258075 1.504345 0.188008 -0.00412482 -0.9280465 0.125198 0.1317972 2.994828 0.1157763 0.216689 2.987772 0.03981655 0.2568134 2.985077 -0.04651606 0.2623392 2.985369 -0.1069933 0.1975845 2.991352 -0.1012941 0.1145686 2.998277 -0.05669653 0.05184978 3.003157 0.0186637 0.01432931 3.005645 0.09812653 0.05205047 3.001772 0.0864467 0.2225112 4.49287 0.03281247 0.2498152 4.49262 -0.02769726 0.2526913 4.4927 -0.06931656 0.2064912 4.49336 -0.06439656 0.1482332 4.49409 -0.03246855 0.1046893 4.49459 0.0207169 0.07920676 4.49481 0.0759322 0.1066352 4.49436 0.0939942 0.1629782 4.49361 0.01490998 0.190476 5.93333</float_array>
          <technique_common>
            <accessor source="#collisionmesh-1-mesh-positions-array" count="37" stride="3">
              <param name="X" type="float"/>
              <param name="Y" type="float"/>
              <param name="Z" type="float"/>
            </accessor>
          </technique_common>
        </source>
        <source id="collisionmesh-1-mesh-normals">
          <float_array id="collisionmesh-1-mesh-normals-array" count="210">0.9852613 0.1704677 0.01417666 0.3984579 0.9171649 0.00630486 0.4133329 0.9105629 0.005583822 -0.01358932 0.9998925 0.005508184 0.003281712 0.9999843 0.004561066 -0.7823988 0.6226486 0.01268392 -0.7711786 0.636514 0.01155412 -0.9892321 -0.1447522 0.02160578 -0.9916452 -0.1273464 0.0205596 -0.7686028 -0.6391622 0.0268594 -0.7794679 -0.6259059 0.02591335 -0.3760637 -0.9260827 0.03077417 -0.3916894 -0.919615 0.02979528 0.498556 -0.8663149 0.03066718 0.4841017 -0.8744996 0.02993327 0.9689239 -0.2464847 0.02078008 0.9854646 0.1698747 0.001460134 0.9938821 0.1104358 0.00155729 0.413746 0.9090394 -0.04961407 0.4678825 0.8822681 -0.05185467 0.003131687 0.9984239 -0.05603414 0.06355494 0.9961438 -0.06048411 -0.7719154 0.6352713 -0.02402371 -0.7319284 0.680637 -0.03184896 -0.9914069 -0.1267275 0.0324437 -0.9974974 -0.06647044 0.02409344 -0.7789406 -0.6235296 0.06680077 -0.8157063 -0.5753857 0.05961954 -0.391283 -0.9161683 0.08679372 -0.4463735 -0.8911858 0.08086097 0.4838799 -0.8712286 0.08258968 0.4306448 -0.8989104 0.08065468 0.4669081 0.8842876 0.005677759 0.453642 0.8911622 0.00624448 0.0638917 0.9979447 0.004929363 0.04748272 0.9988551 0.005800545 -0.7301445 0.6831597 0.01348841 -0.7427957 0.6693576 0.01466321 -0.9974722 -0.0663585 0.02541428 -0.9961318 -0.08379375 0.0264576 -0.8157391 -0.5774711 0.03311842 -0.8061619 -0.590716 0.03402417 -0.446387 -0.8939931 0.03892439 -0.4318806 -0.90105 0.03985083 0.4300543 -0.901973 0.03870266 0.4448003 -0.8947656 0.03933614 -0.8052446 -0.5897259 0.06168037 0.9824271 0.1860569 0.01482856 0.9648435 -0.2620455 0.02022546 0.9646421 -0.261253 0.03482162 0.9472681 -0.3184992 0.03523653 0.9935615 0.1117969 0.01835954 0.9918538 0.1259798 0.01884073 0.9472925 -0.3193324 0.0257641 0.9520411 -0.3048496 0.0261631 0.9906359 0.1262376 0.05200481 0.4531112 0.8904496 0.04230582 0.04748964 0.9980011 0.04169523 -0.7416586 0.6688497 0.05081993 -0.9948776 -0.08330178 0.05726581 -0.4313225 -0.8996431 0.06784605 0.4442321 -0.893104 0.07087463 0.9508849 -0.3040547 0.0580396 -9.27978e-4 -8.96223e-4 -0.9999992 -9.28082e-4 -8.96744e-4 -0.9999991 -9.27986e-4 -8.97324e-4 -0.9999992 -9.27976e-4 -8.97272e-4 -0.9999992 -9.2791e-4 -8.97695e-4 -0.9999992 -9.27783e-4 -8.97144e-4 -0.9999992 -9.27884e-4 -8.95864e-4 -0.9999992</float_array>
          <technique_common>
            <accessor source="#collisionmesh-1-mesh-normals-array" count="70" stride="3">
              <param name="X" type="float"/>
              <param name="Y" type="float"/>
              <param name="Z" type="float"/>
            </accessor>
          </technique_common>
        </source>
        <source id="collisionmesh-1-mesh-map-0">
          <float_array id="collisionmesh-1-mesh-map-0-array" count="420">0.8945313 0 0.8945313 1 1.003906 1 0.8945313 1 0.8945313 0 0.7890625 0 0.7890625 0 0.7890625 1 0.8945313 1 0.6796875 0 0.7890625 1 0.7890625 0 0.6796875 0 0.6796875 1 0.7890625 1 0.5664063 0 0.6796875 1 0.6796875 0 0.5664063 0 0.5664063 1 0.6796875 1 0.4492188 0 0.5664063 1 0.5664063 0 0.4492188 0 0.4492188 1 0.5664063 1 0.3398438 0 0.4492188 1 0.4492188 0 0.3398438 0 0.3398438 1 0.4492188 1 0.234375 0 0.3398438 1 0.3398438 0 0.234375 0 0.234375 1 0.3398438 1 0.1210937 0 0.234375 1 0.234375 0 0.1210937 0 0.1210937 1 0.234375 1 0.01171875 0 0.1210937 1 0.1210937 0 0.8945313 1 1.003906 2 1.003906 1 0.8945313 1 0.8945313 2 1.003906 2 0.7890625 1 0.8945313 2 0.8945313 1 0.7890625 1 0.7890625 2 0.8945313 2 0.6796875 1 0.7890625 2 0.7890625 1 0.6796875 1 0.6796875 2 0.7890625 2 0.5664063 1 0.6796875 2 0.6796875 1 0.5664063 1 0.5664063 2 0.6796875 2 0.4492188 1 0.5664063 2 0.5664063 1 0.4492188 1 0.4492188 2 0.5664063 2 0.3398438 1 0.4492188 2 0.4492188 1 0.3398438 1 0.3398438 2 0.4492188 2 0.234375 1 0.3398438 2 0.3398438 1 0.234375 1 0.234375 2 0.3398438 2 0.1210937 1 0.234375 2 0.234375 1 0.1210937 1 0.1210937 2 0.234375 2 0.7890625 2 0.8945313 3 0.8945313 2 0.7890625 2 0.7890625 3 0.8945313 3 0.6796875 2 0.7890625 3 0.7890625 2 0.6796875 2 0.6796875 3 0.7890625 3 0.5664063 2 0.6796875 3 0.6796875 2 0.5664063 2 0.5664063 3 0.6796875 3 0.4492188 2 0.5664063 3 0.5664063 2 0.4492188 2 0.4492188 3 0.5664063 3 0.3398438 2 0.4492188 3 0.4492188 2 0.3398438 2 0.3398438 3 0.4492188 3 0.234375 2 0.3398438 3 0.3398438 2 0.234375 2 0.234375 3 0.3398438 3 0.1210937 2 0.234375 3 0.234375 2 0.1210937 2 0.1210937 3 0.234375 3 0.3398438 3 0.4492188 4 0.4492188 3 0.8945313 0 1.003906 1 1.003906 0 0.01171875 0 0.01171875 1 0.1210937 1 0.01171875 1 0.1210937 2 0.1210937 1 0.01171875 1 0.01171875 2 0.1210937 2 0.8945313 2 1.003906 3 1.003906 2 0.8945313 2 0.8945313 3 1.003906 3 0.01171875 2 0.1210937 3 0.1210937 2 0.01171875 2 0.01171875 3 0.1210937 3 0.8945313 3 1.003906 4 1.003906 3 0.7890625 3 0.8945313 4 0.8945313 3 0.6796875 3 0.7890625 4 0.7890625 3 0.5664063 3 0.6796875 4 0.6796875 3 0.4492188 3 0.5664063 4 0.5664063 3 0.234375 3 0.3398438 4 0.3398438 3 0.1210937 3 0.234375 4 0.234375 3 0.01171875 3 0.1210937 4 0.1210937 3 1.683594 -0.921875 1.609375 -0.828125 1.789062 -0.984375 1.789062 -0.984375 1.609375 -0.828125 1.90625 -0.9375 1.90625 -0.9375 1.609375 -0.828125 1.648437 -0.7109375 1.90625 -0.9375 1.648437 -0.7109375 1.949219 -0.828125 1.648437 -0.7109375 1.734375 -0.625 1.949219 -0.828125 1.734375 -0.625 1.929687 -0.71875 1.949219 -0.828125 1.734375 -0.625 1.859375 -0.625 1.929687 -0.71875</float_array>
          <technique_common>
            <accessor source="#collisionmesh-1-mesh-map-0-array" count="210" stride="2">
              <param name="S" type="float"/>
              <param name="T" type="float"/>
            </accessor>
          </technique_common>
        </source>
        <source id="collisionmesh-1-mesh-colors">
          <float_array id="collisionmesh-1-mesh-colors-array" count="630">0 0 0 0 0 0 0 0 0 0 0 0 0 0 0 0 0 0 0 0 0 0 0 0 0 0 0 0 0 0 0 0 0 0 0 0 0 0 0 0 0 0 0 0 0 0 0 0 0 0 0 0 0 0 0 0 0 0 0 0 0 0 0 0 0 0 0 0 0 0 0 0 0 0 0 0 0 0 0 0 0 0 0 0 0 0 0 0 0 0 0 0 0 0 0 0 0 0 0 0 0 0 0 0 0 0 0 0 0 0 0 0 0 0 0 0 0 0 0 0 0 0 0 0 0 0 0 0 0 0 0 0 0 0 0 0 0 0 0 0 0 0 0 0 0 0 0 0 0 0 0 0 0 0 0 0 0 0 0 0 0 0 0 0 0 0 0 0 0 0 0 0 0 0 0 0 0 0 0 0 0 0 0 0 0 0 0 0 0 0 0 0 0 0 0 0 0 0 0 0 0 0 0 0 0 0 0 0 0 0 0 0 0 0 0 0 0 0 0 0 0 0 0 0 0 0 0 0 0 0 0 0 0 0 0 0 0 0 0 0 0 0 0 0 0 0 0 0 0 0 0 0 0 0 0 0 0 0 0 0 0 0 0 0 0 0 0 0 0 0 0 0 0 0 0 0 0 0 0 0 0 0 0 0 0 0 0 0 0 0 0 0 0 0 0 0 0 0 0 0 0 0 0 0 0 0 0 0 0 0 0 0 0 0 0 0 0 0 0 0 0 0 0 0 0 0 0 0 0 0 0 0 0 0 0 0 0 0 0 0 0 0 0 0 0 0 0 0 0 0 0 0 0 0 0 0 0 0 0 0 0 0 0 0 0 0 0 0 0 0 0 0 0 0 0 0 0 0 0 0 0 0 0 0 0 0 0 0 0 0 0 0 0 0 0 0 0 0 0 0 0 0 0 0 0 0 0 0 0 0 0 0 0 0 0 0 0 0 0 0 0 0 0 0 0 0 0 0 0 0 0 0 0 0 0 0 0 0 0 0 0 0 0 0 0 0 0 0 0 0 0 0 0 0 0 0 0 0 0 0 0 0 0 0 0 0 0 0 0 0 0 0 0 0 0 0 0 0 0 0 0 0 0 0 0 0 0 0 0 0 0 0 0 0 0 0 0 0 0 0 0 0 0 0 0 0 0 0 0 0 0 0 0 0 0 0 0 0 0 0 0 0 0 0 0 0 0 0 0 0 0 0 0 0 0 0 0 0 0 0 0 0 0 0 0 0 0 0 0 0 0 0 0 0 0 0 0 0 0 0 0 0 0 0 0 0 0 0 0 0 0 0 0 0 0 0 0 0 0 0 0 0 0 0 0 0 0 0 0 0 0 0 0 0 0 0 0 0 0 0 0 0 0 0 0 0 0 0 0 0 0 0 0 0 0 0 0 0 0 0 0 0 0 0 0 0 0 0 0 0</float_array>
          <technique_common>
            <accessor source="#collisionmesh-1-mesh-colors-array" count="210" stride="3">
              <param name="R" type="float"/>
              <param name="G" type="float"/>
              <param name="B" type="float"/>
            </accessor>
          </technique_common>
        </source>
        <vertices id="collisionmesh-1-mesh-vertices">
          <input semantic="POSITION" source="#collisionmesh-1-mesh-positions"/>
        </vertices>
        <polylist count="70">
          <input semantic="VERTEX" source="#collisionmesh-1-mesh-vertices" offset="0"/>
          <input semantic="NORMAL" source="#collisionmesh-1-mesh-normals" offset="1"/>
          <input semantic="TEXCOORD" source="#collisionmesh-1-mesh-map-0" offset="2" set="0"/>
          <input semantic="COLOR" source="#collisionmesh-1-mesh-colors" offset="3"/>
          <vcount>3 3 3 3 3 3 3 3 3 3 3 3 3 3 3 3 3 3 3 3 3 3 3 3 3 3 3 3 3 3 3 3 3 3 3 3 3 3 3 3 3 3 3 3 3 3 3 3 3 3 3 3 3 3 3 3 3 3 3 3 3 3 3 3 3 3 3 3 3 3 </vcount>
          <p>0 0 0 0 2 0 1 1 1 0 2 2 2 1 3 3 0 1 4 4 3 1 5 5 3 2 6 6 4 2 7 7 2 2 8 8 5 3 9 9 4 3 10 10 3 3 11 11 5 4 12 12 6 4 13 13 4 4 14 14 7 5 15 15 6 5 16 16 5 5 17 17 7 6 18 18 8 6 19 19 6 6 20 20 9 7 21 21 8 7 22 22 7 7 23 23 9 8 24 24 10 8 25 25 8 8 26 26 11 9 27 27 10 9 28 28 9 9 29 29 11 10 30 30 12 10 31 31 10 10 32 32 13 11 33 33 12 11 34 34 11 11 35 35 13 12 36 36 14 12 37 37 12 12 38 38 15 13 39 39 14 13 40 40 13 13 41 41 15 14 42 42 16 14 43 43 14 14 44 44 17 15 45 45 16 15 46 46 15 15 47 47 2 16 48 48 18 16 49 49 1 16 50 50 2 17 51 51 19 17 52 52 18 17 53 53 4 18 54 54 19 18 55 55 2 18 56 56 4 19 57 57 20 19 58 58 19 19 59 59 6 20 60 60 20 20 61 61 4 20 62 62 6 21 63 63 21 21 64 64 20 21 65 65 8 22 66 66 21 22 67 67 6 22 68 68 8 23 69 69 22 23 70 70 21 23 71 71 10 24 72 72 22 24 73 73 8 24 74 74 10 25 75 75 23 25 76 76 22 25 77 77 12 26 78 78 23 26 79 79 10 26 80 80 12 27 81 81 24 27 82 82 23 27 83 83 14 28 84 84 24 28 85 85 12 28 86 86 14 29 87 87 25 29 88 88 24 29 89 89 16 30 90 90 25 30 91 91 14 30 92 92 16 31 93 93 26 31 94 94 25 31 95 95 20 32 96 96 27 32 97 97 19 32 98 98 20 33 99 99 28 33 100 100 27 33 101 101 21 34 102 102 28 34 103 103 20 34 104 104 21 35 105 105 29 35 106 106 28 35 107 107 22 36 108 108 29 36 109 109 21 36 110 110 22 37 111 111 30 37 112 112 29 37 113 113 23 38 114 114 30 38 115 115 22 38 116 116 23 39 117 117 31 39 118 118 30 39 119 119 24 40 120 120 31 40 121 121 23 40 122 122 24 41 123 123 32 41 124 124 31 41 125 125 25 42 126 126 32 42 127 127 24 42 128 128 25 43 129 129 33 43 130 130 32 43 131 131 26 44 132 132 33 44 133 133 25 44 134 134 26 45 135 135 34 45 136 136 33 45 137 137 32 46 138 138 36 46 139 139 31 46 140 140 0 47 141 141 1 47 142 142 17 47 143 143 17 48 144 144 1 48 145 145 16 48 146 146 1 49 147 147 26 49 148 148 16 49 149 149 1 50 150 150 18 50 151 151 26 50 152 152 19 51 153 153 35 51 154 154 18 51 155 155 19 52 156 156 27 52 157 157 35 52 158 158 18 53 159 159 34 53 160 160 26 53 161 161 18 54 162 162 35 54 163 163 34 54 164 164 27 55 165 165 36 55 166 166 35 55 167 167 28 56 168 168 36 56 169 169 27 56 170 170 29 57 171 171 36 57 172 172 28 57 173 173 30 58 174 174 36 58 175 175 29 58 176 176 31 59 177 177 36 59 178 178 30 59 179 179 33 60 180 180 36 60 181 181 32 60 182 182 34 61 183 183 36 61 184 184 33 61 185 185 35 62 186 186 36 62 187 187 34 62 188 188 3 63 189 189 0 63 190 190 5 63 191 191 5 64 192 192 0 64 193 193 7 64 194 194 7 65 195 195 0 65 196 196 17 65 197 197 7 66 198 198 17 66 199 199 9 66 200 200 17 67 201 201 15 67 202 202 9 67 203 203 15 68 204 204 11 68 205 205 9 68 206 206 15 69 207 207 13 69 208 208 11 69 209 209</p>
        </polylist>
      </mesh>
      <extra><technique profile="MAYA"><double_sided>1</double_sided></technique></extra>
    </geometry>
    <geometry id="ekasia80-mesh" name="ekasia80">
      <mesh>
        <source id="ekasia80-mesh-positions">
          <float_array id="ekasia80-mesh-positions-array" count="267">0.1623539 0.1313425 -0.9281443 0.1029086 0.1142035 3.961955 0.1121642 0.1536108 1.638671 0.03553593 0.1864374 -0.928076 -0.103623 0.1845455 -0.9279451 -0.173189 0.07840985 -0.9195649 -0.1027188 0.192744 3.553338 -0.173132 -0.06015479 -0.9276611 -0.112005 -0.05262482 1.472671 -0.09381228 -0.1555375 -0.9276491 0.03172111 -0.2065165 -0.92772 0.07493942 -0.102124 1.727922 0.1544899 -0.1358705 -0.9278972 0.188008 -0.00412482 -0.9280465 0.1119005 0.2335382 3.517065 -0.02673834 0.2830865 3.467025 -0.00689578 0.01937758 3.074303 0.007647633 0.1716448 5.944792 0.06728565 0.09456169 6.888411 -1.244524 -0.3430252 4.11809 0.987119 -0.06524193 6.46941 -3.797487 1.411257 4.161042 -2.284998 0.6335157 6.481564 -0.398599 -1.334098 5.218529 -2.20584 2.213063 4.761348 0.417632 1.730369 5.21033 -3.023962 -0.9036105 4.749149 -1.420837 -0.4029834 4.672236 2.30523 0.7439194 3.58909 1.53064 0.4877855 2.78434 1.188375 0.4054692 5.599263 4.548891 0.9430454 4.298126 -0.5073392 1.85555 3.61419 3.419397 -0.8015254 4.905237 0.434931 -1.554581 3.70271 2.578581 2.55575 4.573966 -0.8321987 1.371702 4.130296 0.9574688 -1.363267 2.957604 -1.32148 1.354259 2.66293 2.405388 -2.428945 5.479022 0.175502 0.1152691 5.41653 1.085148 1.606299 2.663627 0.1448196 -2.353987 5.758023 -1.22568 -1.20261 2.8257 2.73681 0.2069421 5.34906 0.9823009 0.2666517 4.643192 -2.02053 -0.8157826 3.60555 -1.59557 -0.6824504 2.51238 1.61008 0.9324206 2.99795 -3.150588 -2.125195 5.123921 1.057962 -1.344208 3.012808 -3.066379 0.7919011 5.001019 -0.791458 1.74609 2.6368 -1.51159 -2.544291 4.8687 0.03490841 1.499814 5.286527 0.9347458 -1.808567 5.070921 0.569657 -1.486111 3.84582 -0.54851 1.804629 3.99547 0.6469926 -0.1159187 6.451886 1.819074 -3.336499 6.573738 1.623365 0.5914364 3.892391 -0.7608426 -2.126093 6.671621 -1.63559 -0.4015616 3.95294 2.70646 -1.146461 6.20357 -1.388552 1.365521 3.264028 1.69215 -0.3056219 2.30212 0.382566 -0.1441914 5.177673 3.720621 -1.749007 4.274388 0.9028387 1.610861 2.4465 1.711645 -2.340077 4.916776 -0.775986 -1.52039 2.73918 3.4089 0.9875163 4.24439 0.4234042 -1.698256 2.243534 -0.768265 1.470334 3.533353 0.8579593 -0.8903181 4.594452 -0.5449905 2.323861 6.441166 -1.505076 -0.9257664 2.790826 1.390309 1.689474 6.01325 1.67834 0.8198986 2.68377 -2.05462 0.5330461 5.88173 -0.9716235 1.553888 4.055037 0.9369063 -1.124736 6.90532 0.79823 -1.152951 5.25399 -0.3004158 1.067518 6.711552 0.8153383 -1.223569 8.331034 1.36725 1.247832 4.556943 -1.078154 -1.351509 7.697925 -1.43335 -0.6802658 4.60209 1.89366 0.09869867 7.42231</float_array>
          <technique_common>
            <accessor source="#ekasia80-mesh-positions-array" count="89" stride="3">
              <param name="X" type="float"/>
              <param name="Y" type="float"/>
              <param name="Z" type="float"/>
            </accessor>
          </technique_common>
        </source>
        <source id="ekasia80-mesh-normals">
          <float_array id="ekasia80-mesh-normals-array" count="267">0.6151921 0.4933622 -0.6148564 0.5821406 0.8127995 -0.02008116 0.8637349 -0.5009613 0.05441445 0.1381573 0.7381512 -0.6602985 -0.3928953 0.6952727 -0.6017945 -0.7541429 0.2414014 -0.6107059 -0.7254555 -0.2664571 -0.6345714 -0.9964293 0.0737937 0.04031491 -0.7519761 -0.657796 0.0424512 -0.4537492 -0.616596 -0.6433302 0.04541152 -0.7928099 -0.6077456 0.4054079 -0.9121983 0.05893123 0.6243782 -0.4750511 -0.620014 0.7539903 -0.02703934 -0.6563006 0.8282113 0.5603504 0.007995843 -0.2513809 0.967864 -7.32444e-4 -0.3801996 -0.9201025 0.09396648 -0.004669308 0.002044737 0.9999695 0.2158269 0.9598681 -0.1790215 0.08185064 0.9777215 -0.1931821 0.4646443 0.8139897 -0.3485824 0.4257943 0.887753 -0.1747795 0.185522 0.9617603 0.2014222 -0.1654103 0.04269534 0.9852901 -0.1603747 0.04535049 0.985992 -0.1644032 0.0432142 0.9854122 -0.1693777 0.04058957 0.9847102 -0.2960906 0.9551073 -0.007263362 -0.2103641 0.9765923 0.04425179 -0.298471 0.9542528 -0.01638841 -0.2469252 0.9686575 0.02587968 -0.1192663 0.9877926 0.1000397 -0.3282876 -0.02636796 0.9441816 -0.3564867 -0.07431256 0.9313029 -0.3303629 -0.02984708 0.9433577 -0.3007904 0.01873832 0.9534898 -0.764977 -0.6150701 0.1909543 -0.7537767 -0.6040834 0.2585223 -0.7748955 -0.5965758 0.2087466 -0.7772454 -0.6150701 0.1325113 -0.7501755 -0.6588641 -0.05584883 -0.5708487 0.5853756 0.5757012 -0.6441847 0.5600147 0.520951 -0.5763115 0.5837275 0.5719169 -0.498764 0.6040529 0.62154 -0.4399548 0.8776818 0.1899167 -0.3745232 0.9263283 0.04049801 -0.3970458 0.8911405 0.2194586 -0.4639424 0.8684958 0.1744133 -0.4279611 0.8171331 0.3861202 0.5384991 0.3106784 0.783227 0.5617542 0.4227119 0.7111423 0.5408796 0.3205054 0.7776116 0.5088046 0.2039552 0.8363597 -0.9191565 -0.2980437 0.2574236 -0.9301126 -0.2807703 0.236671 -0.9346294 -0.296701 0.1959593 -0.8900418 -0.3173009 0.3272805 -0.9462569 -0.285165 0.1523483 -0.9213843 -0.3274025 0.2092959 -0.1768853 0.7752922 0.6063112 -0.229133 0.7869198 0.5728935 -0.1828974 0.7767571 0.6026185 -0.1297647 0.7622913 0.6340526 -0.4918058 -0.8526872 -0.1760918 -0.4836878 -0.8581194 -0.1720938 -0.4627827 -0.8715476 -0.1618396 -0.5128026 -0.8379772 -0.1864986 -0.5031587 0.3817255 0.7752922 -0.5435041 0.3621631 0.7572253 -0.5089877 0.3790094 0.7728202 -0.4673604 0.3979003 0.7894223 -0.8453017 -0.460738 0.2704245 -0.846675 -0.4894558 0.208655 -0.8463698 -0.4736167 0.2435072 -0.8425245 -0.4420911 0.3076571 0.3700674 -0.8556169 0.361858 0.4708701 -0.8427381 0.2608112 0.3765069 -0.8553118 0.3558458 0.268746 -0.8517411 0.4497513 0.8617511 0.4947966 -0.1120029 0.8650166 0.5016022 0.009124994 0.8501541 0.5203101 -0.08026367 0.8709678 0.4842067 -0.08325445 0.8616596 0.4958648 0.1078219 -0.4609821 0.8258919 0.3245643 -0.5483261 0.8019959 0.2367931 -0.4677877 0.8245491 0.3181555 -0.3707389 0.8364513 0.4035462</float_array>
          <technique_common>
            <accessor source="#ekasia80-mesh-normals-array" count="89" stride="3">
              <param name="X" type="float"/>
              <param name="Y" type="float"/>
              <param name="Z" type="float"/>
            </accessor>
          </technique_common>
        </source>
        <source id="ekasia80-mesh-map-0">
          <float_array id="ekasia80-mesh-map-0-array" count="426">0.8945313 0 0.8729436 1 1.003906 2.472072 0.8729436 1 0.8945313 0 0.7890625 0 0.6796875 0 0.8729436 1 0.7890625 0 0.6796875 0 0.5668439 0.003863036 0.8729436 1 0.4492188 0 0.5543872 2.373237 0.5668439 0.003863036 0.4492188 0 0.4004277 1 0.5543872 2.373237 0.3398438 0 0.4004277 1 0.4492188 0 0.234375 0 0.4004277 1 0.3398438 0 0.234375 0 0.1824873 1 0.4004277 1 0.1210937 0 0.1824873 1 0.234375 0 0.01171875 0 0.1824873 1 0.1210937 0 0.8729436 1 0.8945313 2.351622 1.003906 2.472072 0.8729436 1 0.7040801 2.263819 0.8945313 2.351622 0.5668439 0.003863036 0.7040801 2.263819 0.8729436 1 0.5543872 2.373237 0.7040801 2.263819 0.5668439 0.003863036 0.4004277 1 0.2632925 2 0.5543871 2.373237 0.1824873 1 0.2632925 2 0.4004277 1 0.1824873 1 0.08294397 2.591557 0.2632925 2 0.2632925 2 0.228213 4.011135 0.5543871 2.373237 0.08294397 2.591557 0.228213 4.011135 0.2632925 2 0.8945313 0 1.003906 2.472072 1.003906 0 0.01171875 0 0.08294397 2.591557 0.1824873 1 0.8945313 2.351622 1.003906 4 1.003906 2.472072 0.7040801 2.263819 0.8945313 4 0.8945313 2.351622 0.5543871 2.373237 0.6796875 4 0.7040801 2.263819 1.683594 -0.921875 1.609375 -0.828125 1.789062 -0.984375 1.789062 -0.984375 1.609375 -0.828125 1.90625 -0.9375 1.90625 -0.9375 1.609375 -0.828125 1.648437 -0.7109375 1.90625 -0.9375 1.648437 -0.7109375 1.949219 -0.828125 1.648437 -0.7109375 1.734375 -0.625 1.949219 -0.828125 1.734375 -0.625 1.929687 -0.71875 1.949219 -0.828125 1.734375 -0.625 1.859375 -0.625 1.929687 -0.71875 0 -0.670477 0 -1 1 -0.9527899 0 -0.670477 1 -0.9527899 1 9.03248e-4 0 0 0 -0.670477 1 9.03248e-4 0 -0.9970008 1 -1 1 -0.01223546 0 -0.005545318 0 -0.9970008 1 -0.01223546 0 -0.9487468 1 -0.666667 1 -1 0 -0.1338719 1 -2.49048e-4 1 -0.666667 0 -0.1338719 1 -0.666667 0 -0.9487468 0 -0.9990491 1 -1 1 -0.01400864 0 -0.006700158 0 -0.9990491 1 -0.01400864 0 -0.5816307 0 -1 1 -0.9585374 0 -0.5816307 1 -0.9585374 1 -0.07336491 0 0 0 -0.5816307 1 -0.07336491 0 -0.9998161 1 -1 1 -0.004904925 0 0 0 -0.9998161 1 -0.004904925 0 -0.4958231 1 -1 1 -0.666667 0 -0.4958231 0 -1 1 -1 0 -0.4958231 1 -0.666667 1 -0.01975947 0 -1.005422 1 -1 1 -0.001624107 0 0 0 -1.005422 1 -0.001624107 0 -0.5852868 1 -1 1 -0.6153311 0 -0.5852868 0 -1 1 -1 0 0 1 -0.6153311 1 0 0 0 0 -0.5852868 1 -0.6153311 0 -0.9867866 1 -1 1 -0.01173889 0 0 0 -0.9867866 1 -0.01173889 0 -0.1690947 1 -0.9548727 1 -0.06369566 0 -0.1690947 0 -0.9554044 1 -0.9548727 0 -0.9808945 1 -1 1 -0.01887583 0 0 0 -0.9808945 1 -0.01887583 0 -0.271732 1 0.003103196 1 -0.9594743 0 -0.271732 1 -0.9594743 0 -0.9596792 0 -1.002798 1 -1 1 0.00365287 0 0 0 -1.002798 1 0.00365287 0 -0.9530957 1 -0.4872618 1 -1 0 -0.1260938 1 -0.4872618 0 -0.9530957 0 -0.1260938 1 0 1 -0.4872618 0 -1.002936 1 -1 1 -0.003437101 0 0 0 -1.002936 1 -0.003437101</float_array>
          <technique_common>
            <accessor source="#ekasia80-mesh-map-0-array" count="213" stride="2">
              <param name="S" type="float"/>
              <param name="T" type="float"/>
            </accessor>
          </technique_common>
        </source>
        <source id="ekasia80-mesh-colors">
          <float_array id="ekasia80-mesh-colors-array" count="639">0 0 0 0 0 0 0 0 0 0 0 0 0 0 0 0 0 0 0 0 0 0 0 0 0 0 0 0 0 0 0 0 0 0 0 0 0 0 0 0 0 0 0 0 0 0 0 0 0 0 0 0 0 0 0 0 0 0 0 0 0 0 0 0 0 0 0 0 0 0 0 0 0 0 0 0 0 0 0 0 0 0 0 0 0 0 0 0 0 0 0 0 0 0 0 0 0 0 0 0 0 0 0 0 0 0 0 0 0 0 0 0 0 0 0 0 0 0 0 0 0 0 0 0 0 0 0 0 0 0 0 0 0 0 0 0 0 0 0 0 0 0 0 0 0 0 0 0 0 0 0 0 0 0 0 0 0 0 0 0 0 0 0 0 0 0 0 0 0 0 0 0 0 0 0 0 0 0 0 0 0 0 0 0 0 0 0 0 0 0 0 0 0 0 0 0 0 0 0 0 0 0 0 0 0 0 0 0 0 0 0 0 0 0 0 0 0 0 0 0 0 0 0 0 0 0 0 0 0 0 0 0 0 0 0 0 0 0 0 0 0 0 0 0 0 0 0 0 0 0 0 0 0 0 0 0 0 0 0 0 0 0 0 0 0 0 0 0 0 0 0 0 0 0 0 0 0 0 0 0 0 0 0 0 0 0 0 0 0.9960784 0.9882353 0.9960784 1 1 1 0.1411765 1 1 0.9960784 0.9882353 0.9960784 0.1411765 1 1 1 0.4235294 1 1 0.317647 1 1 0 1 1 0.4235294 1 1 0.682353 1 1 0.2705882 1 1 0.827451 1 1 0.9843137 1 1 0.682353 1 1 0.6862745 1 0 0.8156863 1 1 0.5294118 1 1 0.1411765 1 0.04313725 1 1 1 0.2156863 1 1 0.5294118 1 0.04313725 1 1 1 0.5294118 1 0 1 1 1 0 1 0.7450981 1 1 0.654902 1 1 1 0.5882353 1 1 1 1 0 1 1 1 1 1 1 0.0980392 1 0.4352941 0.6352941 1 0 0.6196079 1 1 1 1 1 0.03529411 1 0 1 1 0 1 1 1 0.03529411 1 0.3098039 1 1 1 0.9098039 1 1 1 1 1 0.03529411 1 0.6705883 0.8156863 1 0.1607843 0.9411765 1 0 0.9960784 0.9960784 1 1 1 1 1 1 0 0.9960784 0.9960784 1 1 1 1 1 1 0 1 1 1 1 1 1 0.3254902 1 1 0.654902 1 0.7843137 1 1 1 1 1 1 0.1843137 1 1 0.654902 1 1 0.8745098 1 1 0.2901961 1 1 1 1 1 1 1 1 0.2117647 1 1 1 1 0 0 1 0.3882353 1 1 1 1 1 1 0.7843137 1 0.7372549 1 1 0.07843136 0.7137255 1 1 1 1 0 1 1 1 1 1 0.8431373 0.7333334 1 1 0.4705882 1 1 1 1 1 0.9843137 1 0 1 1 0.8470588 0.1333333 1 1 0.7372549 1 0 1 1 0 0.9411765 1 0.8470588 0.1333333 1 1 0.5529412 1 1 0.3803921 1 1 0.5019608 1 1 0.5176471 1 1 0.5529412 1 1 0.2313725 1 0 1 1 1 0.2431373 1 1 0.827451 1 0.5254902 1 1 0.07450979 0.07450979 1 0.8039216 0.2196078 1 0 0.4509804 1 1 0.05882352 1 1 0.7058824 1 1 0.3647059 1 1 0.8313726 1 0.5607843 0.9764706 1 1 0.2156863 1 1 0.7882353 1 1 1 1 1 0.6901961 1 1 0.7882353 1 1 0.5921569 1 1 0.6901961 1 1 0 1 1 0.7882353 1 0.1294118 1 1 0.3921568 1 1 1 0.9568628 1 1 0.9372549 1 1 0.9411765 1 1 0.8627451 1</float_array>
          <technique_common>
            <accessor source="#ekasia80-mesh-colors-array" count="213" stride="3">
              <param name="R" type="float"/>
              <param name="G" type="float"/>
              <param name="B" type="float"/>
            </accessor>
          </technique_common>
        </source>
        <vertices id="ekasia80-mesh-vertices">
          <input semantic="POSITION" source="#ekasia80-mesh-positions"/>
        </vertices>
        <polylist material="ekasia_tumula_01_bark-material" count="32">
          <input semantic="VERTEX" source="#ekasia80-mesh-vertices" offset="0"/>
          <input semantic="NORMAL" source="#ekasia80-mesh-normals" offset="1"/>
          <input semantic="TEXCOORD" source="#ekasia80-mesh-map-0" offset="2" set="0"/>
          <input semantic="COLOR" source="#ekasia80-mesh-colors" offset="3"/>
          <vcount>3 3 3 3 3 3 3 3 3 3 3 3 3 3 3 3 3 3 3 3 3 3 3 3 3 3 3 3 3 3 3 3 </vcount>
          <p>0 0 0 0 2 1 1 1 1 2 2 2 2 1 3 3 0 0 4 4 3 3 5 5 4 4 6 6 2 1 7 7 3 3 8 8 4 4 9 9 5 5 10 10 2 1 11 11 7 6 12 12 6 7 13 13 5 5 14 14 7 6 15 15 8 8 16 16 6 7 17 17 9 9 18 18 8 8 19 19 7 6 20 20 10 10 21 21 8 8 22 22 9 9 23 23 10 10 24 24 11 11 25 25 8 8 26 26 12 12 27 27 11 11 28 28 10 10 29 29 13 13 30 30 11 11 31 31 12 12 32 32 2 1 33 33 14 14 34 34 1 2 35 35 2 1 36 36 15 15 37 37 14 14 38 38 5 5 39 39 15 15 40 40 2 1 41 41 6 7 42 42 15 15 43 43 5 5 44 44 8 8 45 45 16 16 46 46 6 7 47 47 11 11 48 48 16 16 49 49 8 8 50 50 11 11 51 51 1 2 52 52 16 16 53 53 16 16 54 54 17 17 55 55 6 7 56 56 1 2 57 57 17 17 58 58 16 16 59 59 0 0 60 60 1 2 61 61 13 13 62 62 13 13 63 63 1 2 64 64 11 11 65 65 14 14 66 66 17 17 67 67 1 2 68 68 15 15 69 69 17 17 70 70 14 14 71 71 6 7 72 72 17 17 73 73 15 15 74 74 3 3 75 75 0 0 76 76 4 4 77 77 4 4 78 78 0 0 79 79 5 5 80 80 5 5 81 81 0 0 82 82 13 13 83 83 5 5 84 84 13 13 85 85 7 6 86 86 13 13 87 87 12 12 88 88 7 6 89 89 12 12 90 90 9 9 91 91 7 6 92 92 12 12 93 93 10 10 94 94 9 9 95 95</p>
        </polylist>
        <polylist material="ekasia_tumula_01_branch-material" count="39">
          <input semantic="VERTEX" source="#ekasia80-mesh-vertices" offset="0"/>
          <input semantic="NORMAL" source="#ekasia80-mesh-normals" offset="1"/>
          <input semantic="TEXCOORD" source="#ekasia80-mesh-map-0" offset="2" set="0"/>
          <input semantic="COLOR" source="#ekasia80-mesh-colors" offset="3"/>
          <vcount>3 3 3 3 3 3 3 3 3 3 3 3 3 3 3 3 3 3 3 3 3 3 3 3 3 3 3 3 3 3 3 3 3 3 3 3 3 3 3 </vcount>
          <p>18 18 96 96 20 19 97 97 19 20 98 98 18 18 99 99 19 20 100 100 21 21 101 101 22 22 102 102 18 18 103 103 21 21 104 104 23 23 105 105 25 24 106 106 24 25 107 107 26 26 108 108 23 23 109 109 24 25 110 110 27 27 111 111 28 28 112 112 29 29 113 113 30 30 114 114 31 31 115 115 28 28 116 116 30 30 117 117 28 28 118 118 27 27 119 119 32 32 120 120 34 33 121 121 33 34 122 122 35 35 123 123 32 32 124 124 33 34 125 125 36 36 126 126 38 37 127 127 37 38 128 128 36 36 129 129 37 38 130 130 39 39 131 131 40 40 132 132 36 36 133 133 39 39 134 134 41 41 135 135 43 42 136 136 42 43 137 137 44 44 138 138 41 41 139 139 42 43 140 140 45 45 141 141 47 46 142 142 46 47 143 143 45 45 144 144 48 48 145 145 47 46 146 146 45 45 147 147 46 47 148 148 49 49 149 149 50 50 150 150 52 51 151 151 51 52 152 152 53 53 153 153 50 50 154 154 51 52 155 155 54 54 156 156 56 55 157 157 55 56 158 158 54 54 159 159 57 57 160 160 56 55 161 161 58 58 162 162 55 56 163 163 59 59 164 164 58 58 165 165 54 54 166 166 55 56 167 167 60 60 168 168 62 61 169 169 61 62 170 170 63 63 171 171 60 60 172 172 61 62 173 173 66 64 174 174 65 65 175 175 67 66 176 176 66 64 177 177 64 67 178 178 65 65 179 179 68 68 180 180 70 69 181 181 69 70 182 182 71 71 183 183 68 68 184 184 69 70 185 185 74 72 186 186 75 73 187 187 73 74 188 188 74 72 189 189 73 74 190 190 72 75 191 191 76 76 192 192 78 77 193 193 77 78 194 194 79 79 195 195 76 76 196 196 77 78 197 197 80 80 198 198 81 81 199 199 82 82 200 200 83 83 201 201 81 81 202 202 80 80 203 203 83 83 204 204 84 84 205 205 81 81 206 206 85 85 207 207 87 86 208 208 86 87 209 209 88 88 210 210 85 85 211 211 86 87 212 212</p>
        </polylist>
      </mesh>
      <extra><technique profile="MAYA"><double_sided>1</double_sided></technique></extra>
    </geometry>
  </library_geometries>
  <library_visual_scenes>
    <visual_scene id="Scene" name="Scene">
      <node id="Hemi" name="Hemi" type="NODE">
        <translate sid="location">13.62831 5.58176 -7.251319</translate>
        <rotate sid="rotationZ">0 0 1 0</rotate>
        <rotate sid="rotationY">0 1 0 0</rotate>
        <rotate sid="rotationX">1 0 0 0</rotate>
        <scale sid="scale">1 1 1</scale>
        <instance_light url="#Hemi-light"/>
      </node>
      <node id="base" name="base" type="NODE">
        <translate sid="location">0 0 0</translate>
        <rotate sid="rotationZ">0 0 1 0</rotate>
        <rotate sid="rotationY">0 1 0 0</rotate>
        <rotate sid="rotationX">1 0 0 0</rotate>
        <scale sid="scale">1 1 1</scale>
        <node id="collision-1" name="collision-1" type="NODE">
          <translate sid="location">0 0 0</translate>
          <rotate sid="rotationZ">0 0 1 0</rotate>
          <rotate sid="rotationY">0 1 0 0</rotate>
          <rotate sid="rotationX">1 0 0 0</rotate>
          <scale sid="scale">1 1 1</scale>
        </node>
        <node id="detail160" name="detail160" type="NODE">
          <translate sid="location">0 0 0</translate>
          <rotate sid="rotationZ">0 0 1 0</rotate>
          <rotate sid="rotationY">0 1 0 0</rotate>
          <rotate sid="rotationX">1 0 0 0</rotate>
          <scale sid="scale">1 1 1</scale>
        </node>
        <node id="start" name="start" type="NODE">
          <translate sid="location">0 0 0</translate>
          <rotate sid="rotationZ">0 0 1 0</rotate>
          <rotate sid="rotationY">0 1 0 0</rotate>
          <rotate sid="rotationX">1 0 0 0</rotate>
          <scale sid="scale">1 1 1</scale>
          <node id="ekasia160" name="ekasia160" type="NODE">
            <translate sid="location">0 0 0</translate>
            <rotate sid="rotationZ">0 0 1 0</rotate>
            <rotate sid="rotationY">0 1 0 0</rotate>
            <rotate sid="rotationX">1 0 0 0</rotate>
            <scale sid="scale">1 1 1</scale>
            <instance_geometry url="#ekasia160-mesh">
              <bind_material>
                <technique_common>
                  <instance_material symbol="ekasia_tumula_01_bark-material" target="#ekasia_tumula_01_bark-material">
                    <bind_vertex_input semantic="UVMap" input_semantic="TEXCOORD" input_set="0"/>
                  </instance_material>
                  <instance_material symbol="ekasia_tumula_01_branch-material" target="#ekasia_tumula_01_branch-material">
                    <bind_vertex_input semantic="UVMap" input_semantic="TEXCOORD" input_set="0"/>
                  </instance_material>
                </technique_common>
              </bind_material>
            </instance_geometry>
          </node>
          <node id="collisionmesh-1" name="collisionmesh-1" type="NODE">
            <translate sid="location">0 0 0</translate>
            <rotate sid="rotationZ">0 0 1 0</rotate>
            <rotate sid="rotationY">0 1 0 0</rotate>
            <rotate sid="rotationX">1 0 0 0</rotate>
            <scale sid="scale">1 1 1</scale>
            <instance_geometry url="#collisionmesh-1-mesh"/>
          </node>
          <node id="ekasia80" name="ekasia80" type="NODE">
            <translate sid="location">0 0 0</translate>
            <rotate sid="rotationZ">0 0 1 0</rotate>
            <rotate sid="rotationY">0 1 0 0</rotate>
            <rotate sid="rotationX">1 0 0 0</rotate>
            <scale sid="scale">1 1 1</scale>
            <instance_geometry url="#ekasia80-mesh">
              <bind_material>
                <technique_common>
                  <instance_material symbol="ekasia_tumula_01_bark-material" target="#ekasia_tumula_01_bark-material">
                    <bind_vertex_input semantic="UVMap" input_semantic="TEXCOORD" input_set="0"/>
                  </instance_material>
                  <instance_material symbol="ekasia_tumula_01_branch-material" target="#ekasia_tumula_01_branch-material">
                    <bind_vertex_input semantic="UVMap" input_semantic="TEXCOORD" input_set="0"/>
                  </instance_material>
                </technique_common>
              </bind_material>
            </instance_geometry>
          </node>
        </node>
        <node id="detail80" name="detail80" type="NODE">
          <translate sid="location">0 0 0</translate>
          <rotate sid="rotationZ">0 0 1 0</rotate>
          <rotate sid="rotationY">0 1 0 0</rotate>
          <rotate sid="rotationX">1 0 0 0</rotate>
          <scale sid="scale">1 1 1</scale>
        </node>
      </node>
    </visual_scene>
  </library_visual_scenes>
  <scene>
    <instance_visual_scene url="#Scene"/>
  </scene>
</COLLADA>