<?xml version="1.0" encoding="utf-8"?>
<COLLADA xmlns="http://www.collada.org/2005/11/COLLADASchema" version="1.4.1">
  <asset>
    <contributor>
      <author>Russell</author>
      <authoring_tool>OpenCOLLADA for 3ds Max;  Version: 1.2.5;  Revision: 673;  Platform: x64;  Configuration: Release Max2010</authoring_tool>
      <source_data>file:///E:/Projects/Pacific_Art/06_Rocks/03_All%20Rocks%20V2/Allrocks_V2_01.max</source_data>
    </contributor>
    <created>2011-04-27T10:16:39</created>
    <modified>2011-04-27T10:16:39</modified>
    <unit name="meter" meter="1"/>
    <up_axis>Z_UP</up_axis>
  </asset>
  <library_effects>
    <effect id="tex_underwater_rock">
      <profile_COMMON>
        <newparam sid="grayrock_diffuse_dds-surface">
          <surface type="2D">
            <init_from>grayrock_diffuse_dds</init_from>
          </surface>
        </newparam>
        <newparam sid="grayrock_diffuse_dds-sampler">
          <sampler2D>
            <source>grayrock_diffuse_dds-surface</source>
          </sampler2D>
        </newparam>
        <technique sid="common">
          <blinn>
            <emission>
              <color>0 0 0 1</color>
            </emission>
            <ambient>
              <texture texture="grayrock_diffuse_dds-sampler" texcoord="CHANNEL1"/>
            </ambient>
            <diffuse>
              <texture texture="grayrock_diffuse_dds-sampler" texcoord="CHANNEL1"/>
            </diffuse>
            <specular>
              <color>0.9 0.9 0.9 1</color>
            </specular>
            <shininess>
              <float>9.999999</float>
            </shininess>
            <reflective>
              <color>0 0 0 1</color>
            </reflective>
            <transparent opaque="A_ONE">
              <color>1 1 1 1</color>
            </transparent>
            <transparency>
              <float>1</float>
            </transparency>
          </blinn>
        </technique>
      </profile_COMMON>
      <extra>
        <technique profile="OpenCOLLADA3dsMax">
          <extended_shader>
            <apply_reflection_dimming>0</apply_reflection_dimming>
            <dim_level>0</dim_level>
            <falloff_type>0</falloff_type>
            <index_of_refraction>1.5</index_of_refraction>
            <opacity_type>0</opacity_type>
            <reflection_level>3</reflection_level>
            <wire_size>1</wire_size>
            <wire_units>0</wire_units>
          </extended_shader>
          <shader>
            <ambient_diffuse_lock>1</ambient_diffuse_lock>
            <ambient_diffuse_texture_lock>1</ambient_diffuse_texture_lock>
            <diffuse_specular_lock>0</diffuse_specular_lock>
            <soften>0.1</soften>
            <use_self_illum_color>0</use_self_illum_color>
          </shader>
        </technique>
      </extra>
    </effect>
    <effect id="ColorEffectR6G134B113">
      <profile_COMMON>
        <technique sid="common">
          <phong>
            <ambient>
              <color>0.02352941 0.5254902 0.4431373 1</color>
            </ambient>
            <diffuse>
              <color>0.02352941 0.5254902 0.4431373 1</color>
            </diffuse>
            <specular>
              <color>1 1 1 1</color>
            </specular>
            <shininess>
              <float>10</float>
            </shininess>
            <reflective>
              <color>0 0 0 1</color>
            </reflective>
            <transparent>
              <color>1 1 1 1</color>
            </transparent>
            <transparency>
              <float>1</float>
            </transparency>
          </phong>
        </technique>
      </profile_COMMON>
      <extra>
        <technique profile="OpenCOLLADA3dsMax">
          <extended_shader>
            <apply_reflection_dimming>0</apply_reflection_dimming>
            <dim_level>0</dim_level>
            <falloff_type>0</falloff_type>
            <index_of_refraction>1.5</index_of_refraction>
            <opacity_type>0</opacity_type>
            <reflection_level>3</reflection_level>
            <wire_size>1</wire_size>
            <wire_units>0</wire_units>
          </extended_shader>
          <shader>
            <ambient_diffuse_lock>1</ambient_diffuse_lock>
            <ambient_diffuse_texture_lock>1</ambient_diffuse_texture_lock>
            <diffuse_specular_lock>0</diffuse_specular_lock>
            <soften>0.1</soften>
            <use_self_illum_color>0</use_self_illum_color>
          </shader>
        </technique>
      </extra>
    </effect>
    <effect id="greyrock">
      <profile_COMMON>
        <newparam sid="grayrock_diffuse_png-surface">
          <surface type="2D">
            <init_from>grayrock_diffuse_png</init_from>
          </surface>
        </newparam>
        <newparam sid="grayrock_diffuse_png-sampler">
          <sampler2D>
            <source>grayrock_diffuse_png-surface</source>
          </sampler2D>
        </newparam>
        <technique sid="common">
          <blinn>
            <emission>
              <color>0 0 0 1</color>
            </emission>
            <ambient>
              <color>0.588 0.588 0.588 1</color>
            </ambient>
            <diffuse>
              <texture texture="grayrock_diffuse_png-sampler" texcoord="CHANNEL1"/>
            </diffuse>
            <specular>
              <color>0.9 0.9 0.9 1</color>
            </specular>
            <shininess>
              <float>10</float>
            </shininess>
            <reflective>
              <color>0 0 0 1</color>
            </reflective>
            <transparent opaque="A_ONE">
              <color>1 1 1 1</color>
            </transparent>
            <transparency>
              <float>1</float>
            </transparency>
          </blinn>
        </technique>
      </profile_COMMON>
      <extra>
        <technique profile="OpenCOLLADA3dsMax">
          <extended_shader>
            <apply_reflection_dimming>0</apply_reflection_dimming>
            <dim_level>0</dim_level>
            <falloff_type>0</falloff_type>
            <index_of_refraction>1.5</index_of_refraction>
            <opacity_type>0</opacity_type>
            <reflection_level>3</reflection_level>
            <wire_size>1</wire_size>
            <wire_units>0</wire_units>
          </extended_shader>
          <shader>
            <ambient_diffuse_lock>1</ambient_diffuse_lock>
            <ambient_diffuse_texture_lock>1</ambient_diffuse_texture_lock>
            <diffuse_specular_lock>0</diffuse_specular_lock>
            <soften>0.1</soften>
            <use_self_illum_color>0</use_self_illum_color>
          </shader>
        </technique>
      </extra>
    </effect>
  </library_effects>
  <library_materials>
    <material id="ColorEffectR6G134B113-material" name="ColorEffectR6G134B113-material">
      <instance_effect url="#ColorEffectR6G134B113"/>
    </material>
    <material id="tex_underwater_rock-material" name="tex_underwater_rock">
      <instance_effect url="#tex_underwater_rock"/>
    </material>
    <material id="greyrock-material" name="greyrock">
      <instance_effect url="#greyrock"/>
    </material>
  </library_materials>
  <library_geometries>
    <geometry id="geom-smallrocksix100" name="smallrocksix100">
      <mesh>
        <source id="geom-smallrocksix100-positions">
          <float_array id="geom-smallrocksix100-positions-array" count="126">-1.456454 0.6840858 0.1235255 -0.1128462 -1.052168 0.3196263 1.187271 0.7831263 0.03794457 -0.2593123 0.4861149 1.290525 1.229793 -0.7346726 0.3360699 0.7194597 1.07342 0.7404395 -1.259293 -0.1646777 -0.2949751 -1.195038 -0.3868328 0.3556036 0.2121642 0.7189144 -0.3076335 0.3972514 1.265815 0.1819489 0.1750024 -0.3753243 -0.3942517 1.269533 0.7962288 0.350807 1.126895 -0.6003256 0.5755602 -0.9843048 0.3357744 0.8530439 -1.167651 0.6843585 -0.2227814 -0.1657247 -0.8424798 0.7079624 1.351326 -0.07727247 0.2023029 0.3271959 -0.01840264 1.111134 0.7831427 0.8282098 0.8490052 0.7119226 -0.4440323 0.7220769 0.6472275 -0.8895717 0.2364123 -0.3680894 -0.1847029 1.087922 -1.059907 -0.5703588 0.03388762 0.3093335 0.3009686 -0.3926692 0.5326732 1.238188 0.4952549 1.286871 0.2630195 0.3295401 0.6673878 0.6014947 -0.2624527 -1.41325 -0.1571518 -0.1088351 -0.8006862 -0.4913259 0.739163 -1.3683 0.7506179 -0.0663875 -1.35662 0.4190797 0.4752155 0.0876154 -1.047935 0.49139 1.066188 -0.779636 0.4639758 0.1123063 1.225897 0.110836 -0.002845129 0.2972445 1.256762 1.184867 0.8155965 0.5061982 0.1513118 -0.8302761 -0.02062017 0.3397412 -0.5792761 0.7990713 -1.24053 0.8252019 0.1075934 -0.5235952 0.7196063 -0.2578681 0.5398309 1.110091 0.7592933 1.253546 0.4969544 0.08679795</float_array>
          <technique_common>
            <accessor source="#geom-smallrocksix100-positions-array" count="42" stride="3">
              <param name="X" type="float"/>
              <param name="Y" type="float"/>
              <param name="Z" type="float"/>
            </accessor>
          </technique_common>
        </source>
        <source id="geom-smallrocksix100-normals">
          <float_array id="geom-smallrocksix100-normals-array" count="126">0.1932162 -0.04342668 0.9801947 0.3611519 -0.2499662 0.8983798 0.4866676 0.2333719 0.8418386 0.1557722 0.05483421 -0.9862698 0.3498163 0.250422 -0.9027278 0.1376393 -0.3428661 -0.9292461 -0.8373076 0.1508452 0.5255108 -0.8906785 0.4284555 0.1520455 -0.7616852 -0.5271428 0.3767707 -0.1982851 0.3259853 0.9243466 0.01391384 0.7599385 0.649846 -0.3943333 0.8983222 0.1936969 0.06430686 -0.7393259 -0.6702701 -0.4629717 -0.2882705 -0.8381869 -0.188422 -0.7381681 0.6477693 0.2273166 -0.5578934 0.7981742 -0.2226297 -0.3718779 0.9011897 0.9031681 0.03851382 0.4275559 0.06019946 0.4368885 -0.897499 0.1323083 0.9375347 -0.3217502 0.6627296 0.4680739 -0.5845481 -0.923933 -0.3099445 -0.224237 -0.1487489 0.9448823 -0.2916697 -0.09185039 0.4614172 -0.8824159 -0.6445785 0.5957485 -0.4791682 -0.4928361 -0.8269985 -0.2705292 -0.5295687 -0.5840319 0.615194 -0.2632589 0.4988167 -0.8257583 0.1043213 0.9711756 0.2143242 0.4112951 0.6982545 0.5858983 0.8782672 0.4682922 0.09669179 0.9533017 -0.1121749 -0.280415 0.7836506 -0.6010213 -0.1570513 0.2779959 -0.9384017 -0.2052331 0.5463966 -0.2478548 0.8000117 0.095955 -0.9239639 0.3702477 -0.6215369 0.1563603 0.7676219 -0.2447739 -0.9671189 -0.06904282 0.7456579 0.3861841 0.5430065 0.8342706 0.02136695 -0.5509411 0.4201864 -0.2312484 0.8774779 0.303682 -0.8250107 0.4765863</float_array>
          <technique_common>
            <accessor source="#geom-smallrocksix100-normals-array" count="42" stride="3">
              <param name="X" type="float"/>
              <param name="Y" type="float"/>
              <param name="Z" type="float"/>
            </accessor>
          </technique_common>
        </source>
        <source id="geom-smallrocksix100-map1">
          <float_array id="geom-smallrocksix100-map1-array" count="162">0.4601614 0.6397494 0 0.399553 0.650296 0 0.5682604 0.5975587 0 0.6131153 0.8042707 0 0.4021102 0.6096384 0 0.454495 0.5223079 0 0.5205893 0.4997715 0 0.5630049 0.4511797 0 0.6254673 0.8758062 0 0.6847946 0.8819929 0 0.5051408 0.4750287 0 0.7043207 0.5027679 0 0.1843561 0.8660064 0 0.3170721 0.9710304 0 0.2728654 0.7658792 0 0.3640739 0.8640728 0 0.4894159 0.4530757 0 0.5082501 0.681603 0 0.491002 0.6627914 0 0.5309107 0.5797867 0 0.5575677 0.5781559 0 0.5982389 0.5861962 0 0.5205914 0.5184668 0 0.6740736 0.586095 0 0.5897119 0.8161972 0 0.6084273 0.8406467 0 0.4813215 0.8874227 0 0.4135938 0.8228517 0 0.4951717 0.9332155 0 0.2585353 0.9178577 0 0.2122234 0.8193185 0 0.4579088 0.7035476 0 0.4378579 0.755809 0 0.5147044 0.7547837 0 0.5412229 0.7959059 0 0.3938321 0.7054092 0 0.3620712 0.5867562 0 0.6339616 0.6501327 0 0.4510843 0.8101221 0 0.3666264 0.6959392 0 0.3594261 0.7227464 0 0.3352589 0.6051684 0 0.3210423 0.5844634 0 0.6404942 0.5728608 0 0.3196145 0.6606303 0 0.4156372 0.5185207 0 0.4752826 0.4920226 0 0.6551313 0.8788996 0 0.3158589 0.729619 0 0.6588325 0.4649665 0 0.7250878 0.5495916 0 0.2334174 0.6385336 0 0.4339957 0.8662892 0 0.166303 0.8213047 0</float_array>
          <technique_common>
            <accessor source="#geom-smallrocksix100-map1-array" count="54" stride="3">
              <param name="S" type="float"/>
              <param name="T" type="float"/>
              <param name="P" type="float"/>
            </accessor>
          </technique_common>
        </source>
        <vertices id="geom-smallrocksix100-vertices">
          <input semantic="POSITION" source="#geom-smallrocksix100-positions"/>
        </vertices>
        <triangles material="tex_underwater_rock_1" count="80">
          <input semantic="VERTEX" source="#geom-smallrocksix100-vertices" offset="0"/>
          <input semantic="NORMAL" source="#geom-smallrocksix100-normals" offset="1"/>
          <input semantic="TEXCOORD" source="#geom-smallrocksix100-map1" offset="2" set="1"/>
          <p>34 0 18 17 1 0 18 2 19 23 3 30 26 4 53 10 5 14 30 6 34 0 7 24 7 8 38 3 9 17 40 10 2 38 11 3 10 5 14 36 12 48 6 13 15 15 14 35 37 15 1 21 16 31 17 1 0 25 17 5 18 2 19 8 18 11 9 19 43 2 20 7 7 8 38 0 7 24 27 21 26 33 22 9 39 23 47 29 24 25 7 8 38 27 21 52 22 25 27 28 26 32 15 14 35 21 16 31 23 3 30 10 5 14 6 13 15 6 13 15 14 27 13 23 3 30 24 28 21 5 29 20 11 30 6 40 10 2 33 22 37 38 11 3 10 5 14 16 31 51 4 32 42 20 33 44 36 12 48 10 5 14 11 30 6 2 20 7 9 19 43 16 31 51 10 5 14 26 4 53 12 34 36 4 32 42 16 31 45 20 33 44 37 15 1 31 35 39 21 16 31 13 36 33 28 26 32 3 9 17 0 7 24 30 6 34 29 24 25 38 11 3 33 22 9 0 7 24 29 24 25 27 21 26 31 35 39 1 37 40 20 33 44 1 37 40 31 35 39 7 8 38 35 38 22 18 2 19 25 17 5 25 17 5 41 39 46 11 30 6 17 1 0 21 16 31 37 15 1 25 17 5 17 1 0 19 40 4 5 29 20 34 0 18 18 2 19 18 2 19 35 38 22 5 29 20 12 34 36 25 17 5 19 40 4 20 33 44 32 41 41 37 15 1 10 5 14 4 32 42 20 33 44 32 41 41 20 33 44 4 32 42 17 1 0 34 0 18 21 16 31 21 16 31 3 9 17 13 36 33 7 8 38 22 25 27 1 37 40 22 25 27 6 13 15 36 12 48 23 3 30 8 18 12 26 4 53 23 3 30 14 27 13 39 23 29 33 22 37 40 10 2 24 28 21 24 28 21 11 30 6 9 19 43 16 31 45 25 17 5 12 34 36 41 39 46 25 17 5 16 31 45 2 20 7 26 4 49 8 18 11 16 31 45 26 4 16 41 39 46 6 13 28 27 21 26 29 24 25 22 25 27 27 21 52 6 13 15 28 26 32 7 8 38 31 35 39 13 36 33 7 8 38 28 26 32 29 24 25 39 23 47 14 27 8 29 24 25 14 27 8 6 13 28 30 6 34 7 8 38 13 36 33 30 6 34 13 36 33 3 9 17 31 35 39 15 14 35 28 26 32 31 35 39 37 15 1 15 14 35 12 34 36 19 40 4 32 41 41 4 32 42 12 34 36 32 41 41 9 19 43 8 18 11 33 22 23 24 28 21 9 19 43 33 22 23 40 10 2 3 9 17 34 0 18 3 9 17 21 16 31 34 0 18 35 38 22 25 17 5 11 30 6 35 38 22 11 30 6 5 29 20 36 12 48 1 37 40 22 25 27 36 12 48 20 33 44 1 37 40 32 41 41 19 40 4 37 15 1 19 40 4 17 1 0 37 15 1 29 24 25 0 7 24 38 11 3 0 7 24 3 9 17 38 11 3 8 18 11 39 23 50 33 22 23 39 23 29 8 18 12 23 3 30 24 28 21 40 10 2 5 29 20 34 0 18 5 29 20 40 10 2 41 39 46 26 4 16 2 20 10 2 20 10 11 30 6 41 39 46</p>
        </triangles>
      </mesh>
    </geometry>
    <geometry id="geom-smallrocksix200" name="smallrocksix200">
      <mesh>
        <source id="geom-smallrocksix200-positions">
          <float_array id="geom-smallrocksix200-positions-array" count="318">-1.456454 0.6840556 0.1235255 -0.1128462 -1.052198 0.3196263 1.187271 0.7830956 0.03794457 -0.2593123 0.4860845 1.290525 1.229793 -0.7347033 0.3360699 0.7194597 1.07339 0.7404395 -1.259293 -0.1647084 -0.2949751 -1.195038 -0.386863 0.3556036 0.2121642 0.718884 -0.3076335 0.3972514 1.265784 0.1819489 0.1750024 -0.3753545 -0.3942517 1.269533 0.7961986 0.350807 1.126895 -0.6003563 0.5755602 -0.9843048 0.3357441 0.8530439 -1.167651 0.6843283 -0.2227814 -0.1657247 -0.8425102 0.7079624 1.351326 -0.07730317 0.2023029 0.3271959 -0.01843309 1.111134 0.7831427 0.8281796 0.8490052 0.7119226 -0.4440627 0.7220769 0.6472275 -0.8896022 0.2364123 -0.3680894 -0.1847334 1.087922 -1.059907 -0.5703893 0.03388762 0.3093335 0.3009381 -0.3926692 0.5326732 1.238157 0.4952549 1.286871 0.2629893 0.3295401 0.6673878 0.6014645 -0.2624527 -1.41325 -0.1571822 -0.1088351 -0.8006862 -0.4913564 0.739163 -1.3683 0.7505877 -0.0663875 -1.35662 0.4190495 0.4752155 0.0876154 -1.047965 0.49139 1.066188 -0.7796664 0.4639758 0.1123063 1.225866 0.110836 -0.002845129 0.2972143 1.256762 1.184867 0.8155663 0.5061982 0.1513118 -0.8303065 -0.02062017 0.3397412 -0.5793066 0.7990713 -1.24053 0.8251712 0.1075934 -0.5235952 0.7195759 -0.2578681 0.5398309 1.110061 0.7592933 1.253546 0.4969237 0.08679795 1.140284 -0.7218041 0.2057847 0.7584739 -0.4744711 -0.159029 -1.350528 -0.1335237 0.3170981 -0.4406947 0.5913138 1.140984 -0.175545 -0.9898484 0.5439163 0.5680628 -0.8854342 0.368801 1.209617 -0.3141427 0.05169341 1.240425 0.2639019 0.440295 1.017579 0.4082766 -0.09907491 -0.4081595 0.9950533 -0.008606735 1.28607 -0.5444264 0.4693932 1.13857 0.6698136 0.5901027 0.67809 -0.70173 0.5748169 1.102425 0.944011 0.2367959 0.3248845 1.015485 -0.115896 0.7102132 0.5049191 0.9152127 -0.1601466 0.6847334 1.158572 1.019212 0.8895674 0.5852792 -0.4944681 -0.09151936 -0.3968586 -1.230458 -0.3362715 -0.1855079 1.156027 0.3225391 0.004711827 0.1596197 -1.07852 0.2901089 -0.4539706 -0.5590615 0.894435 -1.474279 0.5555234 0.1803211 1.354959 -0.05953074 0.3280521 -0.1351856 -0.1297081 1.141099 -1.106495 0.4572742 0.7295823 1.069974 -0.8195603 0.3391016 1.281507 -0.5647199 0.1983528 -1.247863 0.8247054 -0.09866776 0.2909946 -0.3417969 0.9704281 -1.094586 0.2753134 -0.3064354 0.6302251 1.022532 0.8348787 -0.3035498 0.9052331 0.5483071 0.3987349 1.194431 0.5585985 0.6829344 1.170299 0.1986126 -1.361072 -0.157728 -0.2290125 0.02389833 1.144059 -0.002333919 -0.6192386 -0.2744355 0.9507431 1.209239 -0.704294 0.4699262 0.3236969 0.6731577 1.078426 -1.216002 -0.06215358 0.5818338 -0.2576385 0.506995 -0.3372731 0.7198754 -0.8023348 0.1071426 -0.9926265 0.09929633 0.8187439 0.717683 -0.5933168 -0.1053125 0.848153 -0.8613586 0.3444843 1.113982 0.1411633 0.5762286 -1.319841 -0.3323104 -0.07689223 1.244688 0.7111983 0.4732513 1.000001 0.7569468 0.6863385 0.5518253 -0.2498488 0.8981279 1.327456 -0.5775867 0.3340787 -0.8744771 -0.6209831 0.4755212 0.1812246 -0.8216734 0.6759021 0.5605021 1.247436 0.340609 1.278517 0.2601347 0.2092969 0.9559188 1.008543 0.4607634 1.178354 -0.2514629 0.5638235 1.134735 0.5704567 -0.03821743 -1.341992 0.5690508 0.3957978 -0.4592432 -0.9208422 0.2603214 -0.2341845 0.1702812 1.230799 -0.8043416 0.8512325 -0.1730199</float_array>
          <technique_common>
            <accessor source="#geom-smallrocksix200-positions-array" count="106" stride="3">
              <param name="X" type="float"/>
              <param name="Y" type="float"/>
              <param name="Z" type="float"/>
            </accessor>
          </technique_common>
        </source>
        <source id="geom-smallrocksix200-normals">
          <float_array id="geom-smallrocksix200-normals-array" count="318">0.2069111 -0.01966398 0.9781621 0.5184655 -0.003769876 0.8550902 0.5274807 0.2588493 0.8091732 0.1694131 0.06433994 -0.9834427 0.4720115 -0.03730961 -0.8808025 0.3869002 -0.2932966 -0.8742341 -0.8309305 0.1050976 0.5463598 -0.9867237 0.1166099 0.1130422 -0.8976107 -0.3090872 0.3142616 -0.07018931 0.6816806 0.7282754 -0.2897257 0.902725 0.3180358 -0.3834737 0.8938038 0.2325138 0.09577484 -0.341078 -0.9351434 0.003980982 -0.7168905 -0.6971744 -0.4079278 -0.6497778 -0.6413921 -0.06299132 -0.6524304 0.7552262 0.2339777 -0.47514 0.8482314 0.01758595 -0.391842 0.9198645 0.6209328 -0.02407205 0.7834942 0.6760511 0.0597915 0.7344249 0.1317842 0.6221159 -0.7717544 0.3934522 0.8328302 -0.3893447 0.6813646 0.4425966 -0.5829671 -0.9448917 -0.2790947 -0.1711308 -0.237701 0.9304073 -0.2789991 -0.08225302 0.6905729 -0.7185704 -0.3871112 0.8105681 -0.4394592 -0.7379116 -0.5842867 0.3377804 -0.7749692 -0.6056131 -0.1807088 -0.480559 -0.8370225 -0.2616416 -0.5315115 -0.5350518 0.6566697 -0.2644114 -0.5530047 0.7901092 -0.2673891 -0.3337298 0.903951 -0.08018517 -0.06247416 -0.9948202 -0.3678979 -0.220384 -0.9033726 -0.2448123 0.1138552 -0.9628624 0.3029746 0.9529707 0.007297799 0.463459 0.7229939 0.5123333 0.5491222 0.8063833 0.2195694 0.6252218 -0.145316 -0.7667991 0.745237 -0.3543057 -0.5648798 0.2463284 -0.7748293 -0.5822043 0.2812858 -0.5834634 -0.7618719 0.5846303 0.7989701 -0.1409054 0.800617 -0.1678168 0.5751955 0.9508381 -0.3096719 0.003174197 0.9603648 0.08503059 0.2654607 0.2701774 -0.8605444 0.4318186 0.262843 -0.5679662 0.7799538 0.250567 -0.610076 0.7516806 -0.3919309 -0.3828129 0.836567 -0.5816604 -0.1515246 0.7991942 -0.4334943 0.5836343 0.6866248 -0.8860595 0.4609438 0.04928792 -0.6406659 0.552626 0.5330589 -0.7421184 0.514941 -0.4290643 0.09554961 -0.898606 0.428226 0.1141355 -0.9732397 -0.1994434 -0.3750131 -0.9018805 -0.2144218 -0.2477142 -0.8630647 0.4401784 -0.5583962 -0.7569528 0.3394352 0.8673949 0.1149613 0.484159 0.9827864 0.1103799 0.1481457 0.900219 7.24984e-4 -0.4354369 0.8918502 0.4466406 0.07152248 0.3709729 -0.2218748 0.9017487 0.4909934 -0.2972414 0.8188853 0.2392763 0.5655022 0.7892744 0.2868415 0.2959411 0.9111207 0.5859715 0.5907911 0.55462 0.5519915 0.03032535 0.833298 0.3690104 -0.3414291 0.8644406 0.1270659 -0.9595746 0.2511391 0.1600125 -0.6659263 0.728655 0.4469061 -0.6713703 -0.5912164 0.2406218 -0.7892318 0.5649908 0.3361161 -0.9399316 -0.05962094 -0.1268506 0.2232962 0.9664614 -0.5925818 0.03586428 0.8047115 0.04843825 0.3894494 -0.9197732 0.3206795 0.2377934 -0.9168528 -0.05992001 0.1979368 -0.9783816 -0.3146614 0.3302064 -0.8899168 -0.05049222 0.4538353 -0.8896539 -0.2561699 0.8844919 0.3899373 0.8350844 0.02446247 0.5495777 0.7021552 -0.04062295 -0.7108642 0.9596082 0.1092507 -0.2592612 0.9324871 0.04058663 -0.3589158 -0.7423891 -0.2330506 -0.6281287 -0.741269 -0.2477489 0.6238115 -0.6302536 0.3536606 0.6911618 0.3669486 -0.3073631 0.8779958 0.58947 -0.6041201 0.53625 0.06928382 0.9561573 -0.2845398 -0.1350922 0.7650394 -0.6296545 0.1636206 0.9560817 0.2431792 -0.2343846 0.9603857 -0.1507418 -0.00466298 0.810274 0.5860327 -0.1859455 -0.2373943 0.9534507 0.5831212 0.05877719 -0.8102561 0.2520302 -0.9492378 -0.1882247 0.6152393 0.229221 0.7542801 0.6888047 0.519576 0.505558 -0.2014097 -0.9612619 -0.1881743 0.6731671 -0.7354017 -0.0776553</float_array>
          <technique_common>
            <accessor source="#geom-smallrocksix200-normals-array" count="106" stride="3">
              <param name="X" type="float"/>
              <param name="Y" type="float"/>
              <param name="Z" type="float"/>
            </accessor>
          </technique_common>
        </source>
        <source id="geom-smallrocksix200-map1">
          <float_array id="geom-smallrocksix200-map1-array" count="372">0.4852425 0.6841289 0 0.425804 0.7206845 0 0.4601614 0.6397494 0 0.5286342 0.6725497 0 0.399553 0.650296 0 0.5682604 0.5975587 0 0.6131153 0.8042707 0 0.4021102 0.6096384 0 0.4193192 0.5303835 0 0.3186626 0.6118577 0 0.3420722 0.5545942 0 0.454495 0.5223079 0 0.5205893 0.4997715 0 0.5630049 0.4511797 0 0.5336572 0.5358309 0 0.6254673 0.8758062 0 0.3022627 0.6626179 0 0.6847946 0.8819929 0 0.4699232 0.9305708 0 0.5051408 0.4750287 0 0.4615392 0.4860255 0 0.745855 0.596415 0 0.7043207 0.5027679 0 0.1843561 0.8660064 0 0.2334199 0.9424675 0 0.3170721 0.9710304 0 0.449801 0.5544838 0 0.56292 0.7942773 0 0.4124247 0.8782519 0 0.3766582 0.7533975 0 0.3659413 0.6317899 0 0.5043412 0.5368921 0 0.6457679 0.7013142 0 0.3459546 0.7037553 0 0.3389105 0.6580556 0 0.2728654 0.7658792 0 0.3640739 0.8640728 0 0.4894159 0.4530757 0 0.1603748 0.7448601 0 0.4589075 0.6818091 0 0.5082501 0.681603 0 0.491002 0.6627914 0 0.4544673 0.7298928 0 0.4925131 0.7602471 0 0.5016187 0.5922135 0 0.5309107 0.5797867 0 0.5575677 0.5781559 0 0.5339064 0.7653364 0 0.518189 0.5509946 0 0.5982389 0.5861962 0 0.4250643 0.7767292 0 0.3802429 0.7147585 0 0.3395091 0.5829985 0 0.5205914 0.5184668 0 0.5551522 0.5342305 0 0.6115372 0.543479 0 0.6740736 0.586095 0 0.5897119 0.8161972 0 0.478565 0.8222429 0 0.30221 0.6028643 0 0.5628638 0.4995709 0 0.6084273 0.8406467 0 0.4813215 0.8874227 0 0.4135938 0.8228517 0 0.4951717 0.9332155 0 0.2791859 0.6755877 0 0.2585353 0.9178577 0 0.3115111 0.8410989 0 0.2122234 0.8193185 0 0.4579088 0.7035476 0 0.5245848 0.6998147 0 0.4277197 0.6483877 0 0.4378579 0.755809 0 0.5200111 0.6271361 0 0.5526705 0.5914985 0 0.5147044 0.7547837 0 0.4846025 0.7909643 0 0.4295507 0.6204244 0 0.5412229 0.7959059 0 0.3839383 0.6746759 0 0.3938321 0.7054092 0 0.3620712 0.5867562 0 0.4021479 0.5649813 0 0.6096776 0.5723733 0 0.593841 0.6066923 0 0.5889654 0.6860611 0 0.6339616 0.6501327 0 0.4510843 0.8101221 0 0.3666264 0.6959392 0 0.3594261 0.7227464 0 0.3352589 0.6051684 0 0.3251936 0.6350639 0 0.3575615 0.5634978 0 0.3210423 0.5844634 0 0.4575948 0.5337193 0 0.5070751 0.5164557 0 0.6404942 0.5728608 0 0.6939002 0.5748656 0 0.5683823 0.8192508 0 0.3196145 0.6606303 0 0.2995774 0.5712138 0 0.380733 0.5041941 0 0.4156372 0.5185207 0 0.4522011 0.5119033 0 0.4752826 0.4920226 0 0.6259261 0.8454093 0 0.6551313 0.8788996 0 0.462745 0.8924487 0 0.4887134 0.9156814 0 0.4553716 0.4950361 0 0.4807113 0.4803376 0 0.5663111 0.9166834 0 0.3158589 0.729619 0 0.2659078 0.6806727 0 0.6588325 0.4649665 0 0.6751263 0.5313357 0 0.7250878 0.5495916 0 0.2484473 0.8793835 0 0.3351586 0.5228551 0 0.2334174 0.6385336 0 0.2752459 0.9567489 0 0.4339957 0.8662892 0 0.3405728 0.9175515 0 0.166303 0.8213047 0</float_array>
          <technique_common>
            <accessor source="#geom-smallrocksix200-map1-array" count="124" stride="3">
              <param name="S" type="float"/>
              <param name="T" type="float"/>
              <param name="P" type="float"/>
            </accessor>
          </technique_common>
        </source>
        <vertices id="geom-smallrocksix200-vertices">
          <input semantic="POSITION" source="#geom-smallrocksix200-positions"/>
        </vertices>
        <triangles material="tex_underwater_rock" count="208">
          <input semantic="VERTEX" source="#geom-smallrocksix200-vertices" offset="0"/>
          <input semantic="NORMAL" source="#geom-smallrocksix200-normals" offset="1"/>
          <input semantic="TEXCOORD" source="#geom-smallrocksix200-map1" offset="2" set="1"/>
          <p>34 0 41 57 1 44 18 2 45 23 3 68 50 4 38 43 5 113 30 6 78 65 7 98 44 8 58 58 9 3 75 10 85 38 11 6 10 12 35 36 13 112 61 14 28 15 15 80 72 16 71 67 17 39 57 1 44 89 18 26 53 19 31 56 20 115 77 21 55 2 22 13 44 8 58 65 7 98 27 23 62 51 24 17 105 25 106 71 26 105 7 27 87 90 28 121 22 29 63 28 30 72 64 31 1 21 32 69 60 33 67 10 12 35 6 34 36 6 34 36 73 35 122 60 33 67 97 36 83 5 37 46 99 38 54 75 10 85 51 24 32 38 11 6 43 5 113 48 39 119 70 40 100 85 41 16 36 13 112 87 42 65 55 43 60 2 22 13 77 21 55 48 39 119 43 5 113 50 4 38 52 44 92 94 45 10 66 46 8 47 47 34 37 48 4 96 49 79 80 50 42 86 51 43 28 30 72 45 52 70 0 53 57 102 54 27 71 26 105 38 11 6 51 24 17 65 7 98 29 55 61 27 23 62 31 56 88 63 57 33 47 47 34 103 58 29 46 59 51 95 60 50 91 61 95 53 19 31 89 18 26 25 62 11 41 63 104 11 64 12 17 65 2 67 17 39 72 16 71 89 18 26 57 1 44 93 66 77 74 67 74 82 68 73 18 2 45 18 2 45 59 69 14 5 37 46 100 70 82 89 18 26 19 71 7 88 72 91 54 73 30 37 48 4 87 42 65 42 74 59 85 41 16 32 75 90 88 72 91 69 76 9 17 65 2 34 0 41 67 17 39 80 50 42 3 77 40 13 78 75 95 60 50 22 29 63 103 58 29 22 29 63 61 14 28 36 13 112 23 3 68 8 79 23 26 80 123 84 81 117 14 82 25 39 83 66 51 24 32 75 10 85 76 84 84 97 36 83 55 43 60 77 21 55 66 46 8 49 85 94 52 44 92 62 86 109 98 87 103 16 88 102 2 22 13 26 80 114 56 20 115 48 39 101 50 4 20 62 86 109 78 89 108 27 23 62 29 55 61 22 29 63 90 28 121 61 14 28 28 30 72 95 60 50 46 59 51 86 51 43 83 90 76 28 30 72 71 26 105 105 25 106 14 82 15 29 55 61 14 82 15 78 89 108 30 6 78 83 90 76 86 51 43 68 91 47 13 78 75 45 52 70 46 59 51 64 31 1 28 30 72 96 49 79 37 48 4 15 15 80 12 92 81 19 71 7 54 73 30 94 45 10 52 44 92 81 93 52 9 94 96 56 20 115 79 95 97 24 96 49 9 94 96 33 97 56 40 98 5 58 9 3 82 68 73 3 77 40 104 99 0 34 0 41 91 61 95 25 62 11 11 64 12 59 69 14 99 38 54 5 37 46 36 13 112 103 58 29 22 29 63 36 13 112 85 41 16 63 57 33 54 73 30 19 71 7 72 16 71 93 66 77 17 65 2 72 16 71 29 55 61 0 53 57 38 11 6 0 53 57 45 52 70 38 11 6 8 79 22 39 83 116 79 95 97 39 83 66 8 79 23 84 81 117 24 96 49 40 98 5 5 37 46 82 68 73 74 67 74 40 98 5 41 63 104 101 100 110 2 22 19 2 22 19 11 64 12 41 63 104 69 76 9 85 41 16 42 74 59 94 45 10 70 40 118 16 88 102 43 5 113 10 12 35 23 3 68 10 12 35 87 42 65 36 13 112 7 27 87 28 30 72 83 90 76 44 8 58 27 23 62 7 27 87 3 77 40 45 52 70 13 78 75 58 9 3 38 11 6 45 52 70 15 15 80 46 59 51 31 56 88 63 57 33 31 56 88 46 59 51 20 101 99 47 47 34 63 57 33 88 72 91 20 101 99 69 76 9 48 39 101 16 88 102 70 40 118 16 88 102 48 39 101 62 86 109 25 62 11 91 61 95 49 85 94 49 85 94 66 46 8 25 62 11 50 4 38 23 3 68 26 80 123 101 100 110 26 80 37 2 22 19 39 83 116 51 24 21 79 95 97 76 84 84 33 97 86 51 24 32 12 92 81 81 93 52 52 44 92 19 71 7 12 92 81 100 70 82 57 1 44 92 102 48 18 2 45 59 69 14 18 2 45 92 102 48 54 73 30 88 72 91 32 75 90 32 75 90 12 92 81 54 73 30 35 103 53 11 64 12 55 43 60 55 43 60 11 64 12 2 22 13 56 20 115 26 80 114 8 79 22 79 95 97 56 20 115 8 79 22 93 66 77 57 1 44 17 65 2 17 65 2 57 1 44 34 0 41 58 9 3 3 77 40 34 0 41 3 77 40 58 9 3 45 52 70 92 102 48 35 103 53 59 69 14 59 69 14 35 103 53 99 38 54 23 3 68 10 12 35 60 33 67 60 33 67 73 35 122 84 81 117 10 12 35 61 14 28 6 34 36 27 23 62 78 89 108 61 14 18 101 100 110 41 63 104 62 86 109 98 87 103 62 86 109 41 63 104 46 59 51 1 104 89 63 57 33 36 13 112 63 57 33 1 104 89 46 59 51 15 15 80 64 31 1 67 17 39 64 31 1 15 15 80 65 7 98 102 54 27 0 53 57 29 55 61 65 7 98 0 53 57 66 46 8 16 88 102 98 87 103 16 88 102 66 46 8 94 45 10 21 32 69 64 31 1 67 17 39 67 17 39 34 0 41 104 99 0 102 54 27 68 91 47 45 52 70 30 6 78 13 78 75 68 91 47 42 74 59 4 105 93 69 76 9 32 75 90 69 76 9 4 105 93 43 5 113 70 40 100 42 74 59 4 105 93 42 74 59 70 40 100 29 55 61 71 26 105 14 82 15 38 11 6 71 26 105 29 55 61 72 16 71 15 15 80 37 48 4 72 16 71 37 48 4 54 73 30 73 35 111 78 89 108 14 82 15 73 35 122 14 82 25 84 81 117 40 98 5 74 67 74 5 37 46 5 37 46 74 67 74 18 2 45 40 98 5 76 84 84 75 10 85 75 10 85 58 9 3 40 98 5 76 84 84 24 96 49 33 97 86 24 96 49 76 84 84 40 98 5 97 36 83 77 21 55 9 94 96 56 20 115 9 94 96 77 21 55 78 89 108 73 35 111 6 34 64 6 34 64 61 14 18 78 89 108 79 95 97 33 97 56 9 94 96 33 97 56 79 95 97 51 24 21 21 32 69 80 50 42 28 30 72 80 50 42 104 99 0 3 77 40 12 92 81 32 75 90 81 93 52 4 105 93 81 93 52 32 75 90 18 2 45 82 68 73 34 0 41 82 68 73 58 9 3 34 0 41 44 8 58 83 90 76 30 6 78 83 90 76 44 8 58 7 27 87 23 3 68 84 81 117 8 79 23 23 3 68 60 33 67 84 81 117 85 41 16 69 76 9 20 101 99 63 57 33 85 41 16 20 101 99 86 51 43 13 78 75 30 6 78 13 78 75 86 51 43 80 50 42 42 74 59 87 42 65 43 5 113 10 12 35 43 5 113 87 42 65 20 101 99 88 72 91 47 47 34 47 47 34 88 72 91 37 48 4 49 85 94 89 18 26 100 70 82 89 18 26 49 85 94 91 61 95 61 14 18 90 28 107 27 23 62 90 28 107 7 27 87 27 23 62 53 19 31 91 61 95 35 103 53 35 103 53 91 61 95 11 64 12 35 103 53 92 102 48 53 19 31 53 19 31 92 102 48 57 1 44 19 71 7 93 66 77 72 16 71 93 66 77 19 71 7 89 18 26 81 93 52 4 105 93 94 45 10 70 40 100 94 45 10 4 105 93 28 30 72 7 27 87 95 60 50 22 29 63 95 60 50 7 27 87 31 56 88 96 49 79 15 15 80 96 49 79 31 56 88 47 47 34 9 94 96 24 96 49 97 36 83 24 96 49 5 37 46 97 36 83 98 87 103 25 62 11 66 46 8 25 62 11 98 87 103 41 63 104 99 38 54 55 43 60 97 36 83 55 43 60 99 38 54 35 103 53 100 70 82 52 44 92 49 85 94 52 44 92 100 70 82 12 92 81 62 86 109 50 4 20 101 100 110 101 100 110 50 4 20 26 80 37 68 91 47 102 54 27 30 6 78 65 7 98 30 6 78 102 54 27 46 59 51 103 58 29 1 104 89 36 13 112 1 104 89 103 58 29 80 50 42 21 32 69 104 99 0 104 99 0 21 32 69 67 17 39 39 83 66 105 25 120 51 24 24 105 25 120 39 83 66 14 82 25</p>
        </triangles>
      </mesh>
    </geometry>
    <geometry id="geom-smallrocksix400" name="smallrocksix400">
      <mesh>
        <source id="geom-smallrocksix400-positions">
          <float_array id="geom-smallrocksix400-positions-array" count="675">-1.456454 0.6664545 0.1235255 -0.1128462 -1.069799 0.3196263 1.187271 0.7654946 0.03794457 -0.2593123 0.4684834 1.290525 1.229793 -0.7523043 0.3360699 0.7194597 1.055789 0.7404395 -1.259293 -0.1823093 -0.2949751 -1.195038 -0.4044641 0.3556036 0.2121642 0.701283 -0.3076335 0.3972514 1.248183 0.1819489 0.1750024 -0.3929556 -0.3942517 1.269533 0.7785975 0.350807 1.126895 -0.6179574 0.5755602 -0.9843048 0.3181431 0.8530439 -1.167651 0.6667272 -0.2227814 -0.1657247 -0.8601111 0.7079624 1.351326 -0.09490412 0.2023029 0.3271959 -0.03603422 1.111134 0.7831427 0.8105785 0.8490052 0.7119226 -0.4616638 0.7220769 0.6472275 -0.9072033 0.2364123 -0.3680894 -0.2023344 1.087922 -1.059907 -0.5879902 0.03388762 0.3093335 0.2833371 -0.3926692 0.5326732 1.220556 0.4952549 1.286871 0.2453883 0.3295401 0.6673878 0.5838635 -0.2624527 -1.41325 -0.1747832 -0.1088351 -0.8006862 -0.5089575 0.739163 -1.3683 0.7329866 -0.0663875 -1.35662 0.4014485 0.4752155 0.0876154 -1.065566 0.49139 1.066188 -0.7972676 0.4639758 0.1123063 1.208265 0.110836 -0.002845129 0.2796132 1.256762 1.184867 0.7979652 0.5061982 0.1513118 -0.8479075 -0.02062017 0.3397412 -0.5969075 0.7990713 -1.24053 0.8075702 0.1075934 -0.5235952 0.701975 -0.2578681 0.5398309 1.09246 0.7592933 1.253546 0.4793227 0.08679795 1.140284 -0.739405 0.2057847 0.7584739 -0.4920721 -0.159029 -1.350528 -0.1511247 0.3170981 -0.4406947 0.5737129 1.140984 -0.175545 -1.007449 0.5439163 0.5680628 -0.9030352 0.368801 1.209617 -0.3317438 0.05169341 1.240425 0.246301 0.440295 1.017579 0.3906755 -0.09907491 -0.4081595 0.9774522 -0.008606735 1.28607 -0.5620276 0.4693932 1.13857 0.6522126 0.5901027 0.67809 -0.719331 0.5748169 1.102425 0.9264099 0.2367959 0.3248845 0.9978839 -0.115896 0.7102132 0.4873179 0.9152127 -0.1601466 0.6671323 1.158572 1.019212 0.8719664 0.5852792 -0.4944681 -0.1091204 -0.3968586 -1.230458 -0.3538726 -0.1855079 1.156027 0.304938 0.004711827 0.1596197 -1.096121 0.2901089 -0.4539706 -0.5766627 0.894435 -1.474279 0.5379224 0.1803211 1.354959 -0.07713181 0.3280521 -0.1351856 -0.1473092 1.141099 -1.106495 0.4396731 0.7295823 1.069974 -0.8371612 0.3391016 1.281507 -0.5823209 0.1983528 -1.247863 0.8071043 -0.09866776 0.2909946 -0.359398 0.9704281 -1.094586 0.2577123 -0.3064354 0.6302251 1.00493 0.8348787 -0.3035498 0.8876321 0.5483071 0.3987349 1.17683 0.5585985 0.6829344 1.152698 0.1986126 -1.361072 -0.1753289 -0.2290125 0.02389833 1.126458 -0.002333919 -0.6192386 -0.2920365 0.9507431 1.209239 -0.721895 0.4699262 0.3236969 0.6555566 1.078426 -1.216002 -0.07975457 0.5818338 -0.2576385 0.4893939 -0.3372731 0.7198754 -0.8199359 0.1071426 -0.9926265 0.0816954 0.8187439 0.717683 -0.6109177 -0.1053125 0.848153 -0.8789595 0.3444843 1.113982 0.1235624 0.5762286 -1.319841 -0.3499114 -0.07689223 1.244688 0.6935974 0.4732513 1.000001 0.7393458 0.6863385 0.5518253 -0.26745 0.8981279 1.327456 -0.5951878 0.3340787 -0.8744771 -0.6385843 0.4755212 0.1812246 -0.8392743 0.6759021 0.5605021 1.229835 0.340609 1.278517 0.2425337 0.2092969 0.9559188 0.9909418 0.4607634 1.178354 -0.2690641 0.5638235 1.134735 0.5528557 -0.03821743 -1.341992 0.5514498 0.3957978 -0.4592432 -0.9384433 0.2603214 -0.2341845 0.1526802 1.230799 -0.8043416 0.8336315 -0.1730199 -0.4978191 -0.3129499 -0.358697 -1.428182 0.7077473 0.02570434 -0.8691232 -0.6367137 -0.02414957 -0.02857018 -0.9236994 0.06602025 -0.8837093 0.8911449 0.05928346 0.4415074 0.5562093 -0.3315027 0.8942332 0.3498249 0.7721339 0.9369465 0.837698 0.6909111 -1.019473 -0.3384033 0.6667442 -0.7761084 0.7577834 0.6087942 -1.457525 0.3417767 0.2472713 -0.1457675 0.414718 1.28853 -0.4981956 -0.8430558 0.5729318 1.346405 -0.3403893 0.1981633 0.3571393 -1.023514 0.3607059 0.9956161 -0.7121811 0.572301 0.8214265 0.8793624 0.788987 -0.5997202 0.414462 1.108659 0.695067 -0.6248704 0.6442574 0.6902547 0.6684384 -0.2258419 0.7573642 1.038831 0.06216294 0.3608463 1.24585 0.3260213 -0.6522324 -0.516924 -0.1947359 0.9027337 -0.2090376 0.6767747 -0.8742161 0.6500177 0.7236796 1.297266 0.4938649 0.2010866 1.105942 -0.5418185 0.04104162 -1.411258 -0.1702045 0.07129058 0.9709657 -0.8316647 0.2238618 0.2386574 0.9225437 0.9134836 1.230018 0.256222 0.09565698 0.006414969 0.07236703 1.220788 0.79884 1.051474 0.607801 -1.297629 0.309168 -0.2197794 -1.077125 -0.3041952 -0.2831078 1.271143 0.7480762 0.2034965 0.4470413 0.1234615 -0.3580974 -0.581831 0.07255237 1.059654 1.300407 0.4934958 0.331506 0.9134051 -0.3524091 -0.1154744 1.36281 -0.3366106 0.3318172 -1.299571 0.6850482 0.2980478 -1.28124 0.205484 0.570443 0.4604527 -0.379333 0.9038955 0.6411855 0.9379243 -0.07584246 0.4685978 0.8606238 0.9640855 -0.03244368 -0.7512452 0.7808365 -0.9308158 -0.6689255 0.2202765 0.4239609 -0.966333 0.1693463 0.3803636 1.156651 0.04528543 0.7745906 0.3843247 -0.2265497 0.05037658 1.011659 -0.1183952 0.8812289 0.6475902 0.7906487 -0.3617136 0.3162027 1.23419 0.08663881 1.032293 0.5876588 -1.413754 0.1035751 0.3007417 0.285426 -0.951208 0.5182681 -1.391366 0.3201985 -0.1054926 -1.019999 0.8721141 -0.1035306 0.536736 -0.6649681 0.6631176 0.8610889 0.7735384 0.7875149 1.226076 -0.06370565 0.04145951 -0.833328 0.5138703 -0.2929322 0.4733432 -0.9926599 0.2559867 -0.1779614 0.863932 -0.2038778 0.855731 -0.8271376 0.4533818 -1.201321 0.1784422 -0.2865776 1.297869 -0.2786729 0.4605368 0.7142737 0.3356014 0.9047439 0.6514451 -0.8106208 0.4766073 0.9137025 0.9699864 0.5828835 1.00334 0.5919383 0.7057016 -1.454132 0.3011845 0.05171388 1.129133 0.8703547 0.4723506 0.7703901 0.6854763 0.8733599 -1.274445 -0.3818536 0.1070683 0.866909 0.9326458 0.6962856 0.5621426 0.4444947 -0.3165593 1.283346 -0.00829488 0.441337 0.5052515 0.3738273 1.035822 -0.979781 0.5380453 0.7607244 -0.9647697 -0.1233701 -0.3464016 -1.452379 0.5515507 0.03395443 -1.438679 0.03461168 0.06786513 0.8424909 -0.7476152 0.5544004 0.9623643 -0.6900064 0.06376064 0.9231739 0.6664727 -0.1304828 0.4283642 -0.7998163 0.56502 -0.5632678 0.2729107 -0.3492062 0.4938747 -0.6714226 -0.1221766 -0.2231892 -0.7476929 -0.0662348 0.7687772 0.0865221 0.8271695 -0.671766 0.8435353 0.4064146 0.03652681 1.143117 0.236735 1.264659 0.09937122 0.09751979 0.1506905 0.2043732 -0.4017548 -1.412852 0.02078867 -0.1042617 1.203015 -0.4872618 0.5426073 0.03722487 -0.9277672 0.6286664 1.012509 0.9811902 0.341532 0.6082872 0.6390615 0.9629086 0.8942677 -0.5820996 0.6378939 0.3460148 -0.8239306 -0.01227736 0.8217807 -0.8791231 0.2559867 1.186482 0.4532536 0.0103275 -0.792816 0.03570127 0.9338796 0.7692574 1.097786 0.4901615 1.116062 0.4296732 0.5963524 0.7445787 0.9490687 0.807807 -0.953963 0.2877004 -0.3216366 1.031035 -0.4102719 0.6211786 0.5999668 1.168071 0.5565013 0.1054869 0.3279424 1.208368 1.245729 0.474831 0.4563689 0.7932822 1.010054 0.7102119 -0.6223845 -0.1241256 0.9811553 -0.08962154 -0.3081685 1.055377 1.092542 0.7827493 0.5942117 1.281211 0.1126428 0.4097739</float_array>
          <technique_common>
            <accessor source="#geom-smallrocksix400-positions-array" count="225" stride="3">
              <param name="X" type="float"/>
              <param name="Y" type="float"/>
              <param name="Z" type="float"/>
            </accessor>
          </technique_common>
        </source>
        <source id="geom-smallrocksix400-normals">
          <float_array id="geom-smallrocksix400-normals-array" count="675">0.3258089 0.1425071 0.9346337 0.4597942 0.008147821 0.8879881 0.415846 0.138191 0.8988745 0.3107534 -0.04751845 -0.9493021 0.4371343 0.01081841 -0.8993312 0.4433855 -0.1368294 -0.8858256 -0.822225 0.1740363 0.5419016 -0.9686063 -0.01916701 0.2478598 -0.9314883 -0.1513371 0.3307971 -0.08476654 0.6563907 0.7496438 -0.288403 0.9045992 0.3138852 -0.2038819 0.9355173 0.2885127 0.09592511 -0.3411041 -0.9351184 -0.138693 -0.6904588 -0.7099513 -0.1440599 -0.6348462 -0.7590897 0.08950059 -0.5640203 0.8208963 0.2281252 -0.4576498 0.8593693 0.05221827 -0.4721466 0.8799721 0.5801408 -0.1446554 0.8015682 0.62681 -0.008198924 0.779129 0.6816638 -0.05565263 0.7295459 0.2529895 0.5853774 -0.7702789 0.3609934 0.7290218 -0.5815591 0.6626332 0.4411628 -0.6052212 -0.9956582 -0.09289483 0.00593713 -0.9350003 -0.3305675 0.1284507 -0.229979 0.929886 -0.2870917 -0.05154088 0.6142274 -0.7874441 -0.2193245 0.8919331 -0.3954139 -0.766538 -0.6262374 0.142289 -0.7506826 -0.6197421 -0.2289005 -0.5146337 -0.8332278 -0.2021967 -0.5209831 -0.5411596 0.6600931 -0.2672612 -0.538188 0.7993279 -0.2582428 -0.3417311 0.9036207 -0.0715057 -0.03764799 -0.9967294 -0.1027191 -0.38102 -0.918843 -0.1345944 -0.08853716 -0.9869374 -0.1069673 0.1274644 -0.9860582 0.3052384 0.9522728 -0.002474916 0.49266 0.8561958 0.1556107 0.5278497 0.8097449 0.2562968 -0.1904905 0.9722558 0.1357651 0.6116366 -0.1397542 -0.7786973 0.495665 -0.3694816 -0.7860022 0.2132913 -0.8080269 -0.5491806 0.1517979 -0.7048718 -0.692902 0.184784 -0.6372646 -0.7481636 0.5792756 0.7981939 -0.1653067 0.6517646 -0.01644713 -0.7582429 0.7945579 -0.1981295 0.5739534 0.9369237 -0.34937 0.01071341 0.985231 -0.04589444 0.1649657 0.3707145 -0.6564404 0.657006 0.2699047 -0.5737659 0.7732685 0.2567452 -0.6242084 0.7378656 -0.454719 -0.2201127 0.863007 -0.4897582 -0.2272312 0.8417261 -0.6353247 -0.4171416 0.6498888 -0.4207043 0.7377113 0.5280057 -0.542667 0.694093 0.4730197 -0.7254618 0.4430602 0.5266903 -0.9832096 -0.02669837 -0.1805159 -0.852267 0.07327145 -0.5179501 -0.9473372 0.02280978 -0.3194245 0.07274642 -0.8971339 0.4357278 0.06369654 -0.9739192 -0.2177709 0.3695566 -0.8746259 0.3137793 -0.3688294 -0.9112316 -0.1833628 -0.4251255 -0.7990552 0.4251814 -0.5725984 -0.7389503 0.3550824 0.8489425 -0.02687553 0.5278015 0.981847 0.02103229 0.1885051 0.9781615 0.02724993 -0.2060521 0.8964225 0.378647 -0.2303329 0.3693019 -0.237943 0.8983314 0.4926342 -0.2725384 0.8264589 0.1750043 0.458646 0.8712161 0.2458392 0.3126475 0.9175045 0.6611899 0.3497112 0.6637243 0.6758281 0.5153829 0.5269126 0.6421334 0.6165343 0.4555768 0.529008 0.02233943 0.8483227 0.4521023 -0.07789773 0.888558 0.05796643 -0.7807563 0.622141 0.08088762 -0.6883663 0.7208391 0.2428474 -0.6522385 0.7180599 0.2852134 -0.57398 -0.7675938 0.3415574 -0.6096169 -0.7153361 0.2409807 -0.7687551 -0.5924053 0.05289506 -0.8554698 0.5151442 0.1454411 -0.9714392 0.1874908 0.3409977 -0.9400229 -0.008806744 0.1186923 -0.2727969 0.9547219 -0.00247176 -0.4042525 0.9146441 -0.3847554 -0.1567257 0.9096155 -0.5371829 0.1335688 0.8328228 -0.5397881 -0.8408279 0.04046116 -0.2897424 -0.8068948 -0.5147524 0.09313995 0.1095248 -0.9896107 0.1583003 0.2612508 -0.9522022 0.3164888 0.06959207 -0.94604 -0.06391472 0.1493046 -0.9867234 -0.06952101 0.2441719 -0.9672368 -0.05613078 0.4344759 -0.8989327 -0.358618 0.8520233 0.3813783 0.3971622 0.8653529 -0.3056574 0.9704396 0.1171106 0.2110264 0.7768584 0.1219408 0.6177552 0.7877417 0.03211526 0.615168 0.8304834 0.1268257 -0.5424135 0.971479 0.06588018 -0.22779 0.9427258 0.07502403 -0.3250223 0.2838432 0.4101501 -0.8667237 0.492563 -0.02240836 -0.8699882 0.6710487 -0.02152611 -0.7411007 -0.7295138 -0.2715883 -0.6277336 -0.4584626 -0.6335545 -0.623234 -0.5906713 -0.1601382 0.7908623 -0.752335 -0.2500933 0.6094633 -0.300066 0.3471864 -0.8884942 -0.6868974 0.5488248 -0.4764067 -0.6049667 0.1303293 -0.7855123 -0.7807294 -0.07758344 0.6200342 -0.5317777 0.560479 0.6348826 -0.3822396 0.6032502 0.6999872 0.1822672 -0.5530709 0.8129522 0.2032322 -0.278318 0.9387416 0.1825423 -0.5288287 0.8288658 0.6017346 -0.6015146 0.525448 0.1456563 0.7597169 -0.6337306 0.1283235 0.6012561 -0.7886851 -0.04320731 0.6337433 -0.7723358 -0.1569928 0.9736627 0.1653311 0.09951239 0.9505009 -0.2943558 -0.2118752 0.9553908 -0.2057602 -0.1417771 0.7567375 0.6381596 0.1974953 0.2099427 0.9575593 -0.1852463 -0.2558341 0.9488059 0.88217 0.4531853 0.1280595 0.5988503 0.6941884 0.3993504 0.3949195 -0.3196324 0.8613209 0.3498601 -0.3952775 0.8493254 -0.8058355 0.5598562 -0.1928478 -0.3707241 0.9085561 0.1925865 -0.264568 0.8819629 0.3900579 0.04179025 0.3753719 -0.9259317 -0.1314421 0.5539317 -0.8221208 -0.06350437 0.2305527 -0.9709854 0.3776666 0.8781911 0.2935103 0.01141893 0.825804 0.5638416 0.4325157 0.7482992 0.5029696 0.6930179 -0.0516113 -0.7190706 0.5856984 0.05518104 -0.8086485 0.2782695 -0.8557639 -0.4361585 0.7424612 -0.3892471 -0.5451954 0.8997879 -0.1105966 -0.4220783 -0.7366498 -0.5855596 0.3383296 -0.8687444 -0.3328921 0.3666963 0.04955892 0.5569925 0.8290375 -0.08843902 -0.6693389 0.7376747 -0.2475257 -0.87193 0.422456 0.3825596 -0.9178073 -0.1061968 0.1861666 -0.9549804 -0.2309859 0.8341451 0.01479158 0.5513466 0.8324051 0.162142 0.5299167 0.9832255 0.07133386 0.1678659 0.4006191 0.2889226 -0.8694987 -0.1499544 0.7977597 -0.5840318 -0.4228241 0.8632273 0.275787 0.4046947 -0.2637062 0.8756034 0.3429706 -0.06216445 0.9372869 0.5509955 -0.008997026 0.8344597 0.5739552 0.08660248 0.8142945 0.6552117 0.1855668 0.7322994 0.6220355 0.4030303 0.6712961 0.2672569 -0.8290017 0.4912534 0.01693183 -0.6973155 0.7165643 0.5891957 0.7279452 0.3506339 0.5294992 0.84455 0.07978687 0.2476254 0.03480886 0.9682304 0.6029966 0.2470309 0.7585321 0.5945527 0.380006 0.7085919 0.5670512 0.5966142 0.5678948 0.001719342 0.08195731 -0.9966344 -0.1998996 -0.4958825 -0.8450685 -0.9317346 -0.2828505 -0.2277415 0.8614322 0.04795721 -0.5056033 0.8616975 0.008757142 -0.5073468 -0.201446 -0.9683306 -0.147497 0.01688755 -0.7086346 -0.7053735 -0.9587467 0.1626197 0.2331514 -0.9402869 0.06518419 -0.334083 -0.603761 0.03548505 0.7963753 -0.6579009 0.3473739 0.6682049 0.4756985 -0.6751155 -0.5638528 0.6731669 -0.7354017 -0.07765562 0.3595316 -0.3162397 -0.877912 -0.4060572 0.8011495 -0.4396328 -0.3405044 0.08849368 -0.9360693 0.2517374 0.5835436 0.7720785 0.4900227 0.4554973 0.7432361 -0.245055 0.8742353 0.4191188 0.1858604 0.9467784 0.2628052 -0.3986896 -0.2988196 -0.8670371 -0.3990808 -0.3715723 0.8382533 -0.4910299 -0.1977272 0.8484065 0.3122377 -0.837103 0.449184 0.6782788 0.06738036 0.7317089 0.8743876 0.106141 0.473477 0.687213 0.4749343 0.5497051 0.6329851 0.009237938 0.7741089 0.5643834 -0.09706596 0.8197863 0.1298782 -0.6681935 0.7325634 0.3683427 -0.6879104 0.6253822 0.5474425 -0.04431349 0.8356692 0.3408148 0.1953641 -0.9196076 -0.04425467 -0.797358 -0.6018819 -0.8576117 0.4775622 0.1908834 0.5588265 0.7863671 0.2633244 0.3022224 -0.9428366 -0.1404303 0.6015775 0.03557695 0.7980218 0.6169911 0.1850129 0.7649131 -0.1956414 0.1101871 -0.9744656 0.6184011 -0.1026681 0.7791272</float_array>
          <technique_common>
            <accessor source="#geom-smallrocksix400-normals-array" count="225" stride="3">
              <param name="X" type="float"/>
              <param name="Y" type="float"/>
              <param name="Z" type="float"/>
            </accessor>
          </technique_common>
        </source>
        <source id="geom-smallrocksix400-map1">
          <float_array id="geom-smallrocksix400-map1-array" count="753">0.4830782 0.6825691 0 0.4240216 0.7203261 0 0.4571099 0.6384361 0 0.5264561 0.6701789 0 0.5096264 0.713838 0 0.3964224 0.6500911 0 0.4559487 0.7740239 0 0.5135754 0.5979465 0 0.5558328 0.5571951 0 0.5758212 0.8339298 0 0.541636 0.576607 0 0.5649404 0.5941665 0 0.5147242 0.7899639 0 0.6136146 0.8009928 0 0.3982777 0.6092116 0 0.4141724 0.5293095 0 0.6201807 0.5907353 0 0.3145051 0.6129034 0 0.5034406 0.8503394 0 0.3370131 0.5549801 0 0.44936 0.5205821 0 0.5153469 0.4967887 0 0.5570955 0.4472417 0 0.5291041 0.5327762 0 0.6272745 0.8726236 0 0.2989239 0.6641723 0 0.4174814 0.5055129 0 0.3324364 0.5018516 0 0.4465594 0.5009674 0 0.686969 0.8777971 0 0.4720126 0.9303538 0 0.4993978 0.4722089 0 0.4557987 0.484018 0 0.6523123 0.5474913 0 0.196053 0.6821417 0 0.7432888 0.5899042 0 0.6645585 0.4559026 0 0.6999318 0.4965774 0 0.1801203 0.8290352 0 0.1840694 0.8705142 0 0.2346873 0.9464484 0 0.2929335 0.8847785 0 0.3192046 0.9736691 0 0.4452094 0.5529804 0 0.52153 0.5665141 0 0.5630253 0.791836 0 0.3789713 0.6920466 0 0.2626595 0.6002382 0 0.4133465 0.8788148 0 0.3752349 0.7540432 0 0.3623394 0.6320936 0 0.3515368 0.6040332 0 0.3687123 0.5714659 0 0.4996791 0.534356 0 0.6446047 0.6970151 0 0.4499927 0.8387849 0 0.3435275 0.704723 0 0.3356518 0.6589477 0 0.2712088 0.7683992 0 0.364536 0.8654212 0 0.4832196 0.4504359 0 0.1578593 0.7492605 0 0.5098802 0.9568081 0 0.4565879 0.6807011 0 0.5061421 0.6796291 0 0.4884889 0.6610379 0 0.4807336 0.7185239 0 0.4529715 0.729072 0 0.5356481 0.6073537 0 0.4917151 0.7588916 0 0.4172006 0.6313236 0 0.4979144 0.5899662 0 0.5271163 0.5769716 0 0.5538608 0.5748666 0 0.5560715 0.7433645 0 0.5333779 0.7632774 0 0.3969507 0.6881536 0 0.3888698 0.5836412 0 0.4771635 0.5714078 0 0.5138344 0.5482773 0 0.5382836 0.5564151 0 0.5948502 0.5822289 0 0.5867519 0.6392899 0 0.5969576 0.7243638 0 0.4242611 0.7766281 0 0.3781582 0.7151732 0 0.361996 0.6758777 0 0.3360425 0.627484 0 0.3349367 0.5835528 0 0.3894687 0.5493788 0 0.438167 0.5335314 0 0.477519 0.5223315 0 0.5156767 0.5155654 0 0.5506648 0.5307919 0 0.6074578 0.5390925 0 0.6710137 0.5807977 0 0.5903185 0.8133816 0 0.5399568 0.8197411 0 0.4787927 0.8214023 0 0.3259995 0.6769522 0 0.3113946 0.644905 0 0.2978236 0.6041592 0 0.3740003 0.5201157 0 0.4740263 0.4961697 0 0.5578026 0.4958463 0 0.6465587 0.8521329 0 0.6095438 0.8376096 0 0.5514365 0.8674349 0 0.4827043 0.8868179 0 0.4135493 0.8231527 0 0.4651505 0.4867625 0 0.5491716 0.913324 0 0.4974176 0.9325672 0 0.3546138 0.8126758 0 0.330233 0.7372309 0 0.3051294 0.712599 0 0.2759736 0.6776032 0 0.2427469 0.6840779 0 0.6410483 0.4656589 0 0.635895 0.5005623 0 0.6979595 0.5481166 0 0.2594807 0.921291 0 0.3279005 0.9112075 0 0.3113418 0.8432691 0 0.2112393 0.8231342 0 0.4559659 0.7025517 0 0.4409603 0.6808952 0 0.4724271 0.6636887 0 0.5011594 0.6705276 0 0.5228668 0.6976337 0 0.4961166 0.6917355 0 0.4904339 0.6515257 0 0.4246783 0.6476809 0 0.4668719 0.726431 0 0.4813695 0.74041 0 0.4367438 0.7553926 0 0.5169994 0.6247185 0 0.4912219 0.6132644 0 0.5514269 0.628042 0 0.5491763 0.5883532 0 0.5139071 0.7530154 0 0.4843085 0.7898813 0 0.4260272 0.6195636 0 0.4180501 0.5840605 0 0.4548008 0.5897464 0 0.5154142 0.5805217 0 0.4825272 0.5915225 0 0.5083461 0.5670784 0 0.5330468 0.569044 0 0.5478135 0.5651138 0 0.5418667 0.7510061 0 0.5748242 0.7359511 0 0.5853553 0.790666 0 0.5412624 0.793852 0 0.3811669 0.6748511 0 0.3916426 0.7055448 0 0.3769999 0.6212456 0 0.3766469 0.6391721 0 0.3523132 0.620075 0 0.3750119 0.6021667 0 0.3576633 0.5869315 0 0.3975327 0.5643591 0 0.4980776 0.5540768 0 0.4770765 0.5436638 0 0.5265356 0.550295 0 0.5158031 0.5317203 0 0.5438238 0.5425195 0 0.5833967 0.5756966 0 0.5703289 0.5523328 0 0.6060963 0.5681453 0 0.5907925 0.6028914 0 0.5872871 0.6826916 0 0.6318497 0.6458176 0 0.6350188 0.7514967 0 0.3996493 0.7393758 0 0.4509802 0.8097104 0 0.4162781 0.797606 0 0.3641525 0.6965103 0 0.3573906 0.7235608 0 0.3642408 0.6580164 0 0.3425652 0.680242 0 0.3476005 0.643137 0 0.3310568 0.605894 0 0.3214715 0.6360964 0 0.3527262 0.563651 0 0.3164153 0.585348 0 0.4247531 0.5396883 0 0.3773883 0.5356483 0 0.4526733 0.5319889 0 0.5020665 0.5137826 0 0.4769996 0.5067278 0 0.5279077 0.5148694 0 0.5561949 0.5167339 0 0.637056 0.5680946 0 0.6127765 0.5111912 0 0.6907299 0.5691719 0 0.5689493 0.8168224 0 0.6003048 0.8227994 0 0.5082635 0.8214856 0 0.5398762 0.8434381 0 0.4774857 0.8536496 0 0.3163166 0.6618719 0 0.3192472 0.6893738 0 0.3028158 0.6302167 0 0.2946247 0.572417 0 0.2830477 0.6361798 0 0.3749589 0.5036823 0 0.4102663 0.5174596 0 0.4468734 0.5101723 0 0.4314175 0.5057861 0 0.5063632 0.4779331 0 0.4697073 0.4898004 0 0.6272025 0.842086 0 0.6571218 0.8752103 0 0.5091723 0.8792856 0 0.5595607 0.8909807 0 0.4641348 0.8921915 0 0.4906237 0.9150699 0 0.3881385 0.8128144 0 0.4497622 0.4931763 0 0.4749546 0.4779693 0 0.5685773 0.9147159 0 0.4909463 0.9435809 0 0.3250047 0.8228049 0 0.3313549 0.7640935 0 0.3137542 0.7312269 0 0.2865914 0.7056934 0 0.2627271 0.6829433 0 0.4913086 0.4613224 0 0.6535827 0.4594086 0 0.6822451 0.47624 0 0.671111 0.5257812 0 0.7216103 0.5432408 0 0.3016368 0.9251752 0 0.2486742 0.882826 0 0.1753981 0.7840614 0 0.2154443 0.7948989 0 0.2290057 0.8271171 0 0.6811918 0.5922621 0 0.6562009 0.8418877 0 0.3295128 0.5232236 0 0.2293564 0.6411901 0 0.5352122 0.4654496 0 0.2769458 0.9600587 0 0.4348016 0.8664219 0 0.3418704 0.9195453 0 0.3889412 0.8721181 0 0.5998513 0.4550781 0 0.1651539 0.8259342 0 0.1820948 0.8497745 0 0.2093782 0.9084815 0</float_array>
          <technique_common>
            <accessor source="#geom-smallrocksix400-map1-array" count="251" stride="3">
              <param name="S" type="float"/>
              <param name="T" type="float"/>
              <param name="P" type="float"/>
            </accessor>
          </technique_common>
        </source>
        <vertices id="geom-smallrocksix400-vertices">
          <input semantic="POSITION" source="#geom-smallrocksix400-positions"/>
        </vertices>
        <triangles material="tex_underwater_rock" count="446">
          <input semantic="VERTEX" source="#geom-smallrocksix400-vertices" offset="0"/>
          <input semantic="NORMAL" source="#geom-smallrocksix400-normals" offset="1"/>
          <input semantic="TEXCOORD" source="#geom-smallrocksix400-map1" offset="2" set="1"/>
          <p>218 0 131 185 1 137 206 2 7 142 3 236 156 4 235 145 5 117 30 6 153 116 7 97 161 8 198 58 9 3 75 10 171 198 11 83 10 12 58 196 13 224 128 14 113 152 15 76 72 16 132 222 17 126 197 18 144 89 19 43 213 20 163 150 21 119 126 22 194 2 23 22 161 8 198 189 24 18 133 25 200 51 26 29 105 27 213 164 28 105 181 29 55 90 30 244 22 31 109 28 32 135 64 33 1 21 34 125 60 35 123 106 36 223 187 37 59 187 37 59 215 38 122 60 35 123 97 39 169 212 40 168 99 41 93 75 10 171 51 26 54 110 42 173 145 5 117 48 43 241 132 44 47 154 45 202 208 46 115 195 47 226 55 48 104 2 23 22 126 22 194 167 49 34 145 5 117 156 4 235 52 50 184 94 51 19 146 52 187 193 53 179 37 54 5 96 55 154 143 56 66 211 57 134 114 58 6 130 59 74 147 60 152 102 61 45 164 28 105 110 42 239 51 26 29 178 62 199 163 63 107 202 64 214 31 65 177 63 66 56 120 67 180 103 68 49 118 69 174 95 70 84 219 71 91 213 20 163 89 19 43 144 72 190 131 73 103 141 74 210 17 75 2 222 17 126 72 16 132 89 19 43 197 18 144 93 76 142 151 77 68 82 78 136 206 2 7 122 79 148 182 80 80 220 81 149 100 82 161 89 19 43 129 83 143 175 84 181 54 85 50 165 86 157 87 87 116 191 88 205 85 89 25 171 90 87 88 91 183 69 92 17 17 75 2 137 93 127 67 94 63 143 56 66 159 95 130 123 96 4 95 70 84 153 97 176 103 68 49 108 98 218 128 14 113 196 13 224 23 99 124 111 100 249 183 101 38 194 102 41 168 103 233 39 104 121 51 26 54 75 10 171 160 105 82 97 39 169 55 48 104 77 106 94 66 107 15 184 108 186 173 109 89 200 110 209 98 111 208 16 112 207 2 23 22 125 113 118 150 21 119 167 49 26 50 114 32 62 115 219 78 116 217 202 64 214 163 63 107 22 31 109 90 30 244 61 117 48 28 32 135 95 70 84 118 69 174 86 118 69 83 119 141 114 58 6 164 28 105 105 27 213 14 120 24 29 121 106 14 120 24 139 122 215 148 123 12 83 119 141 86 118 69 186 124 150 123 96 4 45 125 129 118 69 174 64 33 1 28 32 135 96 55 154 37 54 5 152 15 76 121 126 51 207 127 159 124 128 156 94 51 19 52 50 184 81 129 88 155 130 33 56 131 231 157 132 120 127 133 16 9 134 193 33 135 95 135 136 138 58 9 3 82 78 136 117 137 128 104 138 0 137 93 127 219 71 91 144 72 190 11 139 21 176 140 166 99 41 93 212 40 168 196 13 224 103 68 49 108 98 218 208 46 115 154 45 202 63 66 56 124 128 156 19 141 14 149 142 70 93 76 142 17 75 2 72 16 132 29 121 106 107 143 197 38 144 13 147 60 152 130 59 74 115 145 151 8 146 37 170 147 232 157 132 120 170 147 250 8 146 39 84 148 234 217 149 167 40 150 11 5 151 73 82 78 136 151 77 68 135 136 138 210 152 110 101 153 220 2 23 31 2 23 31 141 74 210 131 73 103 134 154 203 85 89 25 191 88 205 94 51 19 70 155 240 119 156 102 145 5 117 10 12 58 142 3 236 10 12 58 195 47 226 208 46 115 7 157 175 114 58 6 83 119 141 44 158 98 133 25 200 181 29 55 3 159 64 45 125 129 123 96 4 58 9 3 115 145 151 130 59 74 15 160 155 46 161 85 31 65 177 63 66 56 31 65 177 46 161 85 169 162 99 120 67 180 63 66 56 88 91 183 209 163 100 134 154 203 48 43 206 119 156 102 70 155 240 16 112 207 167 49 26 200 110 209 144 72 190 219 71 91 49 164 188 224 165 90 66 107 15 25 166 20 156 4 235 142 3 236 183 101 38 101 153 220 192 167 228 2 23 31 170 147 232 51 26 35 79 168 195 160 105 82 199 169 172 51 26 54 12 170 160 81 129 88 52 50 184 129 83 143 216 171 77 100 82 161 57 172 71 158 173 147 166 174 44 113 175 164 166 174 44 158 173 147 54 85 50 175 84 181 171 90 87 32 176 182 121 126 51 190 177 158 179 178 191 11 139 21 205 179 192 55 48 104 141 74 242 2 23 22 150 21 119 125 113 118 8 146 37 157 132 120 56 131 231 8 146 37 93 76 142 197 18 144 17 75 2 17 75 2 185 1 137 218 0 131 58 9 3 117 137 128 34 180 65 117 137 128 58 9 3 45 125 129 92 181 79 223 182 165 59 183 23 59 183 23 179 178 191 99 41 93 201 184 237 10 12 58 60 35 123 60 35 123 215 38 122 194 102 41 106 36 223 128 14 113 140 185 246 27 186 108 78 116 217 61 117 30 101 153 220 210 152 110 62 115 219 98 111 208 136 187 28 41 188 211 46 161 85 1 189 178 63 66 56 36 190 225 63 66 56 1 189 178 46 161 85 15 160 155 64 33 1 222 17 126 64 33 1 152 15 76 65 191 196 102 61 45 147 60 152 163 63 107 178 62 199 188 192 9 66 107 15 16 112 207 98 111 208 119 156 102 146 52 187 94 51 19 21 34 125 64 33 1 222 17 126 67 94 63 137 93 127 104 138 0 102 61 45 186 124 150 130 59 74 148 123 12 13 193 140 68 194 75 42 195 101 4 196 185 69 92 17 32 176 182 69 92 17 4 196 185 43 197 227 132 44 47 191 88 205 4 196 185 42 195 101 70 155 204 29 121 106 71 198 212 14 120 24 38 144 13 71 198 212 29 121 106 72 16 132 152 15 76 37 54 5 149 142 70 165 86 157 124 128 156 172 199 111 139 122 215 14 120 24 215 38 122 168 103 233 194 102 41 40 150 11 74 200 139 5 151 73 5 151 73 74 200 139 214 201 10 135 136 138 160 105 82 75 10 171 75 10 171 58 9 3 135 136 138 76 202 170 127 133 16 199 169 172 24 203 81 76 202 170 40 150 11 97 39 169 77 106 94 9 134 193 56 131 231 155 130 33 126 22 194 139 122 215 172 199 111 6 204 112 140 185 222 61 117 30 78 116 217 79 168 195 33 135 95 9 134 193 33 135 95 79 168 195 51 26 35 21 34 125 80 205 67 28 32 135 221 206 133 104 138 0 159 95 130 121 126 51 32 176 182 81 129 88 4 196 185 81 129 88 32 176 182 206 2 7 82 78 136 218 0 131 82 78 136 58 9 3 218 0 131 44 158 98 83 119 141 148 123 12 83 119 141 44 158 98 7 157 175 201 184 237 84 148 234 8 146 39 201 184 237 60 35 123 194 102 41 85 89 25 134 154 203 209 163 100 63 66 56 154 45 202 169 162 99 86 118 69 13 193 140 148 123 12 123 96 4 211 57 134 143 56 66 191 88 205 87 87 116 43 197 227 10 12 58 43 197 227 87 87 116 209 163 100 88 91 183 47 207 57 47 207 57 175 84 181 165 86 157 184 108 186 89 19 43 100 82 161 89 19 43 49 164 188 219 71 91 61 117 30 90 30 216 27 186 108 90 30 216 181 29 55 133 25 200 53 208 53 91 209 189 35 210 92 35 210 92 91 209 189 11 139 21 223 182 165 92 181 79 177 211 162 177 211 162 158 173 147 174 212 146 19 141 14 93 76 142 149 142 70 93 76 142 129 83 143 89 19 43 81 129 88 4 196 185 94 51 19 70 155 204 94 51 19 4 196 185 114 58 6 7 157 175 95 70 84 153 97 176 95 70 84 7 157 175 31 65 177 204 213 46 15 160 155 96 55 154 162 214 86 193 53 179 9 134 193 127 133 16 97 39 169 217 149 167 212 40 168 97 39 169 98 111 208 25 166 20 66 107 15 25 166 20 98 111 208 131 73 103 99 41 93 205 179 192 97 39 169 205 179 192 99 41 93 179 178 191 100 82 161 173 109 89 184 108 186 52 50 184 203 215 52 12 170 160 62 115 219 50 114 32 101 153 220 101 153 220 50 114 32 26 216 60 186 124 150 102 61 45 30 6 153 116 7 97 30 6 153 102 61 45 118 69 174 103 68 49 1 189 178 109 217 114 1 189 178 103 68 49 80 205 67 21 34 125 104 138 0 104 138 0 21 34 125 67 94 63 39 104 121 105 27 243 51 26 40 105 27 243 39 104 121 168 103 233 60 35 123 10 12 58 106 36 223 128 14 113 106 36 223 10 12 58 188 192 9 65 191 196 0 218 96 38 144 13 107 143 197 0 218 96 108 98 218 103 68 49 153 97 176 61 117 48 108 98 218 22 31 109 1 189 178 109 217 114 36 190 225 10 12 58 36 190 225 109 217 114 110 42 173 198 11 83 75 10 171 71 198 212 38 144 13 110 42 239 201 184 237 8 146 39 111 100 249 125 113 118 111 100 230 8 146 37 158 173 147 57 172 71 174 212 146 17 75 2 174 212 146 57 172 71 182 80 80 176 140 166 138 219 8 59 183 23 113 175 164 92 181 79 95 70 84 28 32 135 114 58 6 114 58 6 28 32 135 80 205 67 115 145 151 38 144 13 147 60 152 198 11 83 110 42 173 38 144 13 102 61 45 65 191 196 116 7 97 202 64 214 189 24 18 178 62 199 104 138 0 117 137 128 3 159 64 45 125 129 3 159 64 117 137 128 1 189 178 46 161 85 118 69 174 64 33 1 118 69 174 46 161 85 167 49 26 16 112 207 119 156 102 146 52 187 119 156 102 16 112 207 162 214 86 120 67 180 47 207 57 20 220 201 47 207 57 120 67 180 207 127 159 121 126 51 12 170 160 81 129 88 12 170 160 121 126 51 166 174 44 180 221 145 57 172 71 18 222 72 214 201 10 74 200 139 68 194 75 13 193 140 123 96 4 211 57 134 123 96 4 13 193 140 124 128 156 190 177 158 121 126 51 54 85 50 124 128 156 165 86 157 26 216 60 192 167 228 101 153 220 111 100 230 125 113 118 26 216 229 77 106 94 126 22 194 155 130 33 126 22 194 77 106 94 55 48 104 24 203 81 97 39 169 127 133 16 127 133 16 76 202 170 24 203 81 128 14 113 108 98 218 61 117 48 61 117 48 140 185 246 128 14 113 216 171 77 129 83 143 19 141 14 93 76 142 19 141 14 129 83 143 130 59 74 45 125 129 58 9 3 45 125 129 130 59 74 186 124 150 131 73 103 41 188 211 2 23 31 41 188 211 131 73 103 98 111 208 132 44 47 70 155 204 42 195 101 70 155 240 132 44 27 48 43 206 27 186 108 133 25 200 189 24 18 133 25 200 27 186 108 90 30 216 69 92 17 134 154 203 42 195 101 134 154 203 69 92 17 88 91 183 160 105 82 135 136 138 40 150 11 40 150 11 135 136 138 151 77 68 62 115 219 200 110 209 167 49 26 136 187 28 62 115 219 210 152 110 34 180 65 137 93 127 17 75 2 137 93 127 34 180 65 117 137 128 217 149 167 5 151 73 138 219 8 138 219 8 220 81 149 182 80 80 163 63 107 139 122 215 78 116 217 6 204 112 78 116 217 139 122 215 78 116 217 6 204 112 140 185 222 140 185 246 187 37 59 106 36 223 141 74 210 11 139 21 144 72 190 11 139 21 141 74 242 55 48 104 23 99 124 142 3 236 10 12 58 183 101 38 142 3 236 23 99 124 80 205 67 221 206 133 114 58 6 104 138 0 221 206 133 80 205 67 49 164 188 25 166 20 144 72 190 131 73 103 144 72 190 25 166 20 132 44 47 43 197 227 145 5 117 145 5 117 43 197 227 10 12 58 173 109 89 146 52 187 66 107 15 16 112 207 66 107 15 146 52 187 147 60 152 0 218 96 65 191 196 0 218 96 147 60 152 38 144 13 161 8 198 148 123 12 30 6 153 68 194 75 30 6 153 148 123 12 149 142 70 72 16 132 37 54 5 72 16 132 149 142 70 93 76 142 126 22 194 150 21 119 56 131 231 8 146 37 56 131 231 150 21 119 151 77 68 74 200 139 40 150 11 74 200 139 151 77 68 18 222 72 64 33 1 15 160 155 152 15 76 152 15 76 15 160 155 204 213 46 153 97 176 22 31 109 108 98 218 22 31 109 153 97 176 181 29 55 195 47 226 85 89 25 154 45 202 169 162 99 154 45 202 85 89 25 9 134 193 155 130 33 79 168 195 155 130 33 9 134 193 77 106 94 50 114 61 156 4 235 26 216 248 156 4 235 50 114 61 167 49 34 79 168 195 157 132 120 170 147 232 157 132 120 79 168 195 155 130 33 158 173 147 177 211 162 92 181 79 158 173 147 92 181 79 113 175 164 123 96 4 159 95 130 3 159 64 3 159 64 159 95 130 104 138 0 40 150 11 76 202 170 160 105 82 199 169 172 160 105 82 76 202 170 148 123 12 161 8 198 44 158 98 133 25 200 44 158 98 161 8 198 120 67 180 162 214 86 31 65 177 204 213 46 31 65 177 162 214 86 139 122 215 163 63 107 29 121 106 188 192 9 29 121 106 163 63 107 14 120 24 71 198 212 164 28 105 110 42 239 164 28 105 71 198 212 165 86 157 149 142 70 37 54 5 37 54 5 193 53 179 165 86 157 182 80 80 122 79 148 166 174 44 180 221 145 166 174 44 122 79 148 119 156 102 48 43 206 167 49 26 145 5 117 167 49 34 48 43 241 168 103 233 14 120 42 105 27 243 14 120 42 168 103 233 215 38 122 85 89 25 20 220 201 169 162 99 120 67 180 169 162 99 20 220 201 51 26 40 170 147 250 39 104 121 84 148 234 39 104 121 170 147 250 69 92 17 32 176 182 171 90 87 190 177 158 171 90 87 32 176 182 14 120 24 73 223 221 172 199 111 172 199 111 73 223 221 187 37 62 146 52 187 173 109 89 52 50 184 203 215 52 52 50 184 173 109 89 174 212 146 112 224 78 177 211 162 112 224 78 174 212 146 17 75 2 175 84 181 47 207 57 88 91 183 88 91 183 171 90 87 175 84 181 113 175 164 59 183 23 176 140 166 99 41 93 176 140 166 59 183 23 177 211 162 53 208 53 223 182 165 53 208 53 177 211 162 112 224 78 178 62 199 116 7 97 65 191 196 65 191 196 188 192 9 178 62 199 11 139 21 179 178 191 35 210 92 179 178 191 59 183 23 223 182 165 122 79 148 18 222 72 180 221 145 206 2 7 18 222 72 151 77 68 181 29 55 7 157 175 44 158 98 7 157 175 181 29 55 153 97 176 176 140 166 182 80 80 113 175 164 166 174 44 113 175 164 182 80 80 26 216 229 183 101 36 111 100 230 26 216 248 156 4 235 183 101 38 89 19 43 184 108 186 224 165 90 66 107 15 224 165 90 184 108 186 57 172 71 185 1 137 17 75 2 185 1 137 57 172 71 180 221 145 30 6 153 68 194 75 186 124 150 123 96 4 186 124 150 68 194 75 187 37 62 6 204 112 172 199 111 187 37 62 140 185 222 6 204 112 0 218 96 107 143 197 188 192 9 29 121 106 188 192 9 107 143 197 116 7 97 178 62 199 189 24 18 189 24 18 161 8 198 116 7 97 171 90 87 190 177 158 54 85 50 124 128 156 54 85 50 190 177 158 42 195 101 191 88 205 132 44 47 191 88 205 42 195 101 134 154 203 125 113 118 192 167 247 26 216 229 125 113 118 2 23 22 192 167 247 47 207 57 193 53 179 162 214 86 165 86 157 193 53 179 47 207 57 39 104 121 84 148 234 194 102 41 194 102 41 84 148 234 201 184 237 85 89 25 195 47 226 87 87 116 87 87 116 195 47 226 10 12 58 103 68 49 196 13 224 109 217 114 109 217 114 196 13 224 10 12 58 17 75 2 197 18 144 112 224 78 213 20 163 112 224 78 197 18 144 38 144 13 115 145 151 198 11 83 198 11 83 115 145 151 58 9 3 33 135 95 199 169 238 127 133 16 51 26 35 199 169 238 33 135 95 62 115 219 136 187 28 200 110 209 98 111 208 200 110 209 136 187 28 10 12 58 201 184 237 23 99 124 111 100 249 23 99 124 201 184 237 189 24 18 202 64 214 27 186 108 78 116 217 27 186 108 202 64 214 203 215 52 100 82 161 216 171 77 173 109 89 100 82 161 203 215 52 162 214 86 96 55 154 204 213 46 204 213 46 96 55 154 152 15 76 55 48 104 205 179 192 11 139 21 55 48 104 97 39 169 205 179 192 180 221 145 206 2 7 185 1 137 206 2 7 180 221 145 18 222 72 124 128 156 207 127 159 19 141 14 19 141 14 207 127 159 216 171 77 63 66 56 36 190 225 208 46 115 208 46 115 36 190 225 10 12 58 47 207 57 20 220 201 209 163 100 209 163 100 20 220 201 85 89 25 2 23 31 41 188 211 210 152 110 210 152 110 41 188 211 136 187 28 114 58 6 211 57 134 86 118 69 13 193 140 86 118 69 211 57 134 138 219 8 212 40 168 217 149 167 212 40 168 138 219 8 176 140 166 112 224 78 213 20 163 53 208 53 91 209 189 53 208 53 213 20 163 18 222 72 122 79 148 214 201 10 220 81 149 214 201 10 122 79 148 215 38 122 187 37 59 73 223 245 215 38 122 73 223 245 14 120 42 216 171 77 12 170 160 203 215 52 12 170 160 216 171 77 207 127 159 97 39 169 24 203 81 217 149 167 40 150 11 217 149 167 24 203 81 17 75 2 218 0 131 34 180 65 34 180 65 218 0 131 58 9 3 11 139 21 91 209 189 219 71 91 213 20 163 219 71 91 91 209 189 214 201 10 220 81 149 5 151 73 220 81 149 138 219 8 5 151 73 114 58 6 221 206 133 143 56 66 159 95 130 143 56 66 221 206 133 67 94 63 222 17 126 17 75 2 222 17 126 67 94 63 21 34 125 35 210 92 223 182 165 53 208 53 223 182 165 35 210 92 179 178 191 224 165 90 49 164 188 89 19 43 25 166 20 49 164 188 224 165 90</p>
        </triangles>
      </mesh>
    </geometry>
    <geometry id="geom-col-1_19" name="col-1">
      <mesh>
        <source id="geom-col-1_19-positions">
          <float_array id="geom-col-1_19-positions-array" count="69">-1.4091 0.4169342 0.4935902 -1.465917 -0.1767867 0.07405931 -0.8316872 -0.5286983 0.767807 -0.2693349 0.4866309 1.340442 0.2204121 0.7284404 -0.3195041 -0.5136372 -0.1133222 -0.4122601 -1.296194 0.8383347 -0.1025197 0.8134059 0.8419702 0.8818563 1.170511 -0.6419166 0.5978757 1.320292 0.7770514 0.2113754 0.5533155 1.267837 0.5144681 -1.308035 -0.189355 -0.3064165 1.41554 -0.3496264 0.3446407 1.148698 -0.5627677 0.0425867 1.111409 -0.8695997 0.3522232 0.09099012 -1.106839 0.5104172 0.1571553 -0.8807136 -0.02139722 0.116646 1.255061 0.115088 -1.100918 -0.6107556 0.03521193 0.1817725 -0.4082091 -0.4095594 -1.512867 0.6922935 0.1282794 -0.1404322 -0.1530005 1.185261 0.8045771 0.3991724 -0.2352656</float_array>
          <technique_common>
            <accessor source="#geom-col-1_19-positions-array" count="23" stride="3">
              <param name="X" type="float"/>
              <param name="Y" type="float"/>
              <param name="Z" type="float"/>
            </accessor>
          </technique_common>
        </source>
        <source id="geom-col-1_19-normals">
          <float_array id="geom-col-1_19-normals-array" count="378">-0.7746621 -0.3138112 0.5490183 -0.7746621 -0.3138112 0.5490183 -0.7746621 -0.3138112 0.5490183 -0.5866441 -0.126241 0.7999449 -0.5866441 -0.126241 0.7999449 -0.5866441 -0.126241 0.7999449 -0.1231217 0.2141446 -0.9690114 -0.1231217 0.2141446 -0.9690114 -0.1231217 0.2141446 -0.9690114 0.4097637 -0.07536308 0.9090732 0.4097636 -0.07536307 0.9090732 0.4097637 -0.07536308 0.9090732 0.6006054 0.7000445 0.3862783 0.6006054 0.7000445 0.3862782 0.6006054 0.7000445 0.3862782 0.08517183 0.6801466 0.7281114 0.08517184 0.6801466 0.7281116 0.08517184 0.6801466 0.7281115 -0.1477901 0.1941108 -0.969783 -0.1477901 0.1941108 -0.9697831 -0.1477901 0.1941108 -0.969783 0.7965108 0.1369928 0.5889003 0.7965108 0.1369928 0.5889003 0.7965108 0.1369928 0.5889003 0.699701 0.03179629 0.7137279 0.699701 0.03179629 0.713728 0.699701 0.03179628 0.7137279 0.7542098 -0.01388965 -0.6564866 0.7542098 -0.01388965 -0.6564866 0.7542098 -0.01388965 -0.6564866 0.7988083 -0.4726486 -0.3721675 0.7988083 -0.4726486 -0.3721675 0.7988083 -0.4726486 -0.3721674 0.8375445 -0.4862447 0.2491689 0.8375446 -0.4862447 0.2491689 0.8375446 -0.4862448 0.2491689 0.1555633 -0.9158844 -0.3700756 0.1555633 -0.9158844 -0.3700756 0.1555633 -0.9158844 -0.3700756 0.2672886 -0.7003738 -0.6618409 0.2672886 -0.7003738 -0.6618409 0.2672886 -0.7003738 -0.6618409 0.2676104 -0.7379234 0.6195592 0.2676104 -0.7379234 0.6195593 0.2676104 -0.7379234 0.6195593 0.3633851 0.8296381 -0.4238535 0.3633851 0.8296381 -0.4238535 0.3633851 0.8296382 -0.4238535 0.3106067 0.6406753 -0.7021813 0.3106067 0.6406753 -0.7021813 0.3106067 0.6406753 -0.7021813 -0.0655505 0.6274121 -0.7759234 -0.0655505 0.6274121 -0.7759234 -0.0655505 0.6274121 -0.7759234 -0.1763423 -0.6707273 -0.7204362 -0.1763423 -0.6707273 -0.7204362 -0.1763423 -0.6707273 -0.7204362 -0.2092348 -0.8902525 -0.404563 -0.2092348 -0.8902525 -0.4045631 -0.2092349 -0.8902525 -0.4045631 -0.7451628 -0.6008327 -0.2893655 -0.7451628 -0.6008326 -0.2893655 -0.7451629 -0.6008327 -0.2893655 -0.458345 -0.84881 0.2635175 -0.4583451 -0.84881 0.2635175 -0.4583451 -0.84881 0.2635175 -0.7076572 -0.6247349 0.3300421 -0.7076571 -0.6247348 0.3300421 -0.7076572 -0.6247348 0.3300421 0.2475663 -0.6226807 -0.74228 0.2475664 -0.6226807 -0.7422801 0.2475664 -0.6226807 -0.7422801 -0.1038503 -0.2537096 -0.9616894 -0.1038503 -0.2537096 -0.9616894 -0.1038503 -0.2537096 -0.9616895 -0.1447902 -0.6235683 -0.7682437 -0.1447902 -0.6235683 -0.7682437 -0.1447902 -0.6235684 -0.7682437 0.03681088 0.07768407 -0.9962983 0.03681088 0.07768407 -0.9962983 0.03681088 0.07768407 -0.9962982 -0.3083075 0.8999414 0.3083048 -0.3083075 0.8999414 0.3083048 -0.3083075 0.8999414 0.3083048 -0.3111352 0.9075162 0.2821511 -0.3111352 0.9075162 0.2821511 -0.3111352 0.9075161 0.2821511 -0.7634239 0.1341501 -0.631813 -0.7634239 0.1341501 -0.631813 -0.7634239 0.1341501 -0.631813 -0.9236265 -0.02603845 -0.382408 -0.9236266 -0.02603845 -0.382408 -0.9236267 -0.02603845 -0.382408 -0.9718796 -0.0665941 0.2258654 -0.9718796 -0.06659409 0.2258654 -0.9718796 -0.06659409 0.2258654 -0.4906466 0.623138 0.609069 -0.4906466 0.623138 0.609069 -0.4906466 0.6231379 0.6090689 -0.3171677 0.8262322 0.4655588 -0.3171677 0.8262323 0.4655588 -0.3171677 0.8262322 0.4655588 -0.3747576 -0.2892286 0.8808538 -0.3747576 -0.2892286 0.8808539 -0.3747576 -0.2892286 0.8808538 -0.1528999 -0.5952287 0.7888754 -0.1528999 -0.5952287 0.7888754 -0.1528999 -0.5952287 0.7888754 0.1667871 -0.5421888 0.8235371 0.1667871 -0.5421888 0.8235371 0.1667871 -0.5421888 0.8235371 0.3564432 -0.1518301 0.921898 0.3564431 -0.1518301 0.9218979 0.3564432 -0.1518301 0.921898 0.4052891 -0.1169046 -0.906683 0.4052891 -0.1169046 -0.906683 0.4052891 -0.1169046 -0.906683 0.1817416 0.07152472 -0.9807417 0.1817416 0.07152472 -0.9807417 0.1817416 0.07152472 -0.9807417 0.6493099 0.01263832 -0.7604188 0.6493099 0.01263832 -0.7604189 0.6493099 0.01263832 -0.7604188 0.3715519 0.4516633 -0.8111408 0.3715519 0.4516633 -0.8111408 0.3715519 0.4516633 -0.8111408</float_array>
          <technique_common>
            <accessor source="#geom-col-1_19-normals-array" count="126" stride="3">
              <param name="X" type="float"/>
              <param name="Y" type="float"/>
              <param name="Z" type="float"/>
            </accessor>
          </technique_common>
        </source>
        <vertices id="geom-col-1_19-vertices">
          <input semantic="POSITION" source="#geom-col-1_19-positions"/>
        </vertices>
        <triangles material="ColorMaterial" count="42">
          <input semantic="VERTEX" source="#geom-col-1_19-vertices" offset="0"/>
          <input semantic="NORMAL" source="#geom-col-1_19-normals" offset="1"/>
          <p>0 0 1 1 2 2 0 3 2 4 3 5 4 6 5 7 6 8 7 9 3 10 8 11 7 12 9 13 10 14 7 15 10 16 3 17 11 18 6 19 5 20 12 21 9 22 7 23 12 24 7 25 8 26 12 27 13 28 9 29 14 30 13 31 12 32 14 33 12 34 8 35 14 36 15 37 16 38 14 39 16 40 13 41 14 42 8 43 15 44 17 45 10 46 9 47 17 48 9 49 4 50 17 51 4 52 6 53 18 54 11 55 16 56 18 57 16 58 15 59 18 60 1 61 11 62 18 63 15 64 2 65 18 66 2 67 1 68 19 69 13 70 16 71 19 72 11 73 5 74 19 75 16 76 11 77 19 78 5 79 4 80 20 81 10 82 17 83 20 84 17 85 6 86 20 87 6 88 11 89 20 90 11 91 1 92 20 93 1 94 0 95 20 96 0 97 3 98 20 99 3 100 10 101 21 102 3 103 2 104 21 105 2 106 15 107 21 108 15 109 8 110 21 111 8 112 3 113 22 114 13 115 19 116 22 117 19 118 4 119 22 120 9 121 13 122 22 123 4 124 9 125</p>
        </triangles>
      </mesh>
    </geometry>
    <geometry id="geom-bounds_19" name="bounds">
      <mesh>
        <source id="geom-bounds_19-positions">
          <float_array id="geom-bounds_19-positions-array" count="24">-1.516448 -1.233878 -0.4795601 1.423573 -1.233878 -0.4795601 -1.516448 1.351815 -0.4795601 1.423573 1.351815 -0.4795601 -1.516448 -1.233878 1.330894 1.423573 -1.233878 1.330894 -1.516448 1.351815 1.330894 1.423573 1.351815 1.330894</float_array>
          <technique_common>
            <accessor source="#geom-bounds_19-positions-array" count="8" stride="3">
              <param name="X" type="float"/>
              <param name="Y" type="float"/>
              <param name="Z" type="float"/>
            </accessor>
          </technique_common>
        </source>
        <source id="geom-bounds_19-normals">
          <float_array id="geom-bounds_19-normals-array" count="72">0 0 -1 0 0 -1 0 0 -1 0 0 -1 0 0 1 0 0 1 0 0 1 0 0 1 0 -1 0 0 -1 0 0 -1 0 0 -1 0 1 0 0 1 0 0 1 0 0 1 0 0 0 1 0 0 1 0 0 1 0 0 1 0 -1 0 0 -1 0 0 -1 0 0 -1 0 0</float_array>
          <technique_common>
            <accessor source="#geom-bounds_19-normals-array" count="24" stride="3">
              <param name="X" type="float"/>
              <param name="Y" type="float"/>
              <param name="Z" type="float"/>
            </accessor>
          </technique_common>
        </source>
        <vertices id="geom-bounds_19-vertices">
          <input semantic="POSITION" source="#geom-bounds_19-positions"/>
        </vertices>
        <triangles material="greyrock_1" count="12">
          <input semantic="VERTEX" source="#geom-bounds_19-vertices" offset="0"/>
          <input semantic="NORMAL" source="#geom-bounds_19-normals" offset="1"/>
          <p>0 0 2 1 3 2 3 2 1 3 0 0 4 4 5 5 7 6 7 6 6 7 4 4 0 8 1 9 5 10 5 10 4 11 0 8 1 12 3 13 7 14 7 14 5 15 1 12 3 16 2 17 6 18 6 18 7 19 3 16 2 20 0 21 4 22 4 22 6 23 2 20</p>
        </triangles>
      </mesh>
    </geometry>
  </library_geometries>
  <library_lights>
    <light id="EnvironmentAmbientLight" name="EnvironmentAmbientLight">
      <technique_common>
        <ambient>
          <color>0 0 0</color>
        </ambient>
      </technique_common>
    </light>
  </library_lights>
  <library_images>
    <image id="grayrock_diffuse_png">
      <init_from>file:///C:/Projects/ForestKitNew/art/shapes/rocks/grayrock_diffuse.png</init_from>
    </image>
    <image id="grayrock_diffuse_dds">
      <init_from>file:///E:/Projects/Pacific/game/art/shapes/rocks/grayrock_diffuse.dds</init_from>
    </image>
  </library_images>
  <library_visual_scenes>
    <visual_scene id="MaxScene">
      <node name="EnvironmentAmbientLight">
        <instance_light url="#EnvironmentAmbientLight"/>
      </node>
      <node id="node-base00" name="base00">
        <matrix>1 0 0 0 0 1 0 0 0 0 1 0 0 0 0 1</matrix>
        <node id="node-start00" name="start00">
          <matrix>1 0 0 0 0 1 0 0 0 0 1 0 0 0 0 1</matrix>
          <node id="node-smallrocksix100" name="smallrocksix100">
            <matrix>1 0 0 0 0 1 0 0 0 0 1 0 0 0 0 1</matrix>
            <instance_geometry url="#geom-smallrocksix100">
              <bind_material>
                <technique_common>
                  <instance_material symbol="tex_underwater_rock_1" target="#tex_underwater_rock-material">
                    <bind_vertex_input semantic="CHANNEL1" input_semantic="TEXCOORD" input_set="1"/>
                    <bind_vertex_input semantic="CHANNEL1" input_semantic="TEXCOORD" input_set="1"/>
                  </instance_material>
                </technique_common>
              </bind_material>
            </instance_geometry>
          </node>
          <node id="node-smallrocksix200" name="smallrocksix200">
            <matrix>1 0 0 0 0 1 0 0 0 0 1 0 0 0 0 1</matrix>
            <instance_geometry url="#geom-smallrocksix200">
              <bind_material>
                <technique_common>
                  <instance_material symbol="tex_underwater_rock" target="#tex_underwater_rock-material">
                    <bind_vertex_input semantic="CHANNEL1" input_semantic="TEXCOORD" input_set="1"/>
                    <bind_vertex_input semantic="CHANNEL1" input_semantic="TEXCOORD" input_set="1"/>
                  </instance_material>
                </technique_common>
              </bind_material>
            </instance_geometry>
          </node>
          <node id="node-smallrocksix400" name="smallrocksix400">
            <matrix>1 0 0 0 0 1 0 0 0 0 1 0 0 0 0 1</matrix>
            <instance_geometry url="#geom-smallrocksix400">
              <bind_material>
                <technique_common>
                  <instance_material symbol="tex_underwater_rock" target="#tex_underwater_rock-material">
                    <bind_vertex_input semantic="CHANNEL1" input_semantic="TEXCOORD" input_set="1"/>
                    <bind_vertex_input semantic="CHANNEL1" input_semantic="TEXCOORD" input_set="1"/>
                  </instance_material>
                </technique_common>
              </bind_material>
            </instance_geometry>
          </node>
        </node>
        <node id="node-detail200" name="detail200">
          <matrix>1 0 0 0 0 1 0 0 0 0 1 0 0 0 0 1</matrix>
        </node>
        <node id="node-detail400" name="detail400">
          <matrix>1 0 0 0 0 1 0 0 0 0 1 0 0 0 0 1</matrix>
        </node>
        <node id="node-Collision-1" name="Collision-1">
          <matrix>1 0 0 0 0 1 0 0 0 0 1 0 0 0 0 1</matrix>
        </node>
        <node id="node-Collision-2" name="Collision-2">
          <matrix>1 0 0 0 0 1 0 0 0 0 1 0 0 0 0 1</matrix>
        </node>
        <node id="node-detail100" name="detail100">
          <matrix>1 0 0 0 0 1 0 0 0 0 1 0 0 0 0 1</matrix>
        </node>
        <node id="node-BB__detail30" name="BB__detail30">
          <matrix>1 0 0 0 0 1 0 0 0 0 1 0 0 0 0 1</matrix>
          <extra>
            <technique profile="OpenCOLLADA">
              <user_properties>BB:DIM=128
BB::EQUATOR_STEPS=16
BB::POLAR_STEPS=0
BB::POLAR_ANGLE=60
BB::INCLUDE_POLES=0
BB::DL=0</user_properties>
            </technique>
          </extra>
        </node>
      </node>
      <node id="node-col-1_19" name="col-1">
        <matrix>1 0 0 0 0 1 0 0 0 0 1 0 0 0 0 1</matrix>
        <instance_geometry url="#geom-col-1_19">
          <bind_material>
            <technique_common>
              <instance_material symbol="ColorMaterial" target="#ColorEffectR6G134B113-material"/>
            </technique_common>
          </bind_material>
        </instance_geometry>
      </node>
      <node id="node-bounds_19" name="bounds">
        <matrix>1 0 0 0 0 1 0 0 0 0 1 0 0 0 0 1</matrix>
        <instance_geometry url="#geom-bounds_19">
          <bind_material>
            <technique_common>
              <instance_material symbol="greyrock_1" target="#greyrock-material">
                <bind_vertex_input semantic="CHANNEL1" input_semantic="TEXCOORD" input_set="1"/>
              </instance_material>
            </technique_common>
          </bind_material>
        </instance_geometry>
      </node>
    </visual_scene>
  </library_visual_scenes>
  <scene>
    <instance_visual_scene url="#MaxScene"/>
  </scene>
</COLLADA>