<?xml version="1.0" encoding="utf-8"?>
<COLLADA xmlns="http://www.collada.org/2005/11/COLLADASchema" version="1.4.1">
  <asset>
    <contributor>
      <author>Joe Espinoza</author>
      <authoring_tool>OpenCOLLADA for 3ds Max;  Version: 1.3.0;  Revision: 788M;  Platform: x64;  Configuration: Release_Max2011_static</authoring_tool>
      <source_data>file:///D:/Projects/TorqueCrysis/06_Rocks/03_All%20Rocks%20V2/Allrocks_V2_01.max</source_data>
    </contributor>
    <created>2011-04-15T12:13:15</created>
    <modified>2011-04-15T12:13:15</modified>
    <unit name="meter" meter="1"/>
    <up_axis>Z_UP</up_axis>
  </asset>
  <library_effects>
    <effect id="tex_volcano_rocks">
      <profile_COMMON>
        <newparam sid="volcano_rock_dif_dds-surface">
          <surface type="2D">
            <init_from>volcano_rock_dif_dds</init_from>
          </surface>
        </newparam>
        <newparam sid="volcano_rock_dif_dds-sampler">
          <sampler2D>
            <source>volcano_rock_dif_dds-surface</source>
          </sampler2D>
        </newparam>
        <newparam sid="volcano_rock_nrm_dds-surface">
          <surface type="2D">
            <init_from>volcano_rock_nrm_dds</init_from>
          </surface>
        </newparam>
        <newparam sid="volcano_rock_nrm_dds-sampler">
          <sampler2D>
            <source>volcano_rock_nrm_dds-surface</source>
          </sampler2D>
        </newparam>
        <technique sid="common">
          <blinn>
            <emission>
              <color>0 0 0 1</color>
            </emission>
            <ambient>
              <color>0.588 0.588 0.588 1</color>
            </ambient>
            <diffuse>
              <texture texture="volcano_rock_dif_dds-sampler" texcoord="CHANNEL1"/>
            </diffuse>
            <specular>
              <color>0.9 0.9 0.9 1</color>
            </specular>
            <shininess>
              <float>10</float>
            </shininess>
            <reflective>
              <color>0 0 0 1</color>
            </reflective>
            <transparent opaque="A_ONE">
              <color>1 1 1 1</color>
            </transparent>
            <transparency>
              <float>1</float>
            </transparency>
          </blinn>
          <extra>
            <technique profile="OpenCOLLADA3dsMax">
              <bump bumptype="HEIGHTFIELD">
                <texture texture="volcano_rock_nrm_dds-sampler" texcoord="CHANNEL1"/>
              </bump>
            </technique>
          </extra>
        </technique>
      </profile_COMMON>
      <extra>
        <technique profile="OpenCOLLADA3dsMax">
          <extended_shader>
            <apply_reflection_dimming>0</apply_reflection_dimming>
            <dim_level>0</dim_level>
            <falloff_type>0</falloff_type>
            <index_of_refraction>1.5</index_of_refraction>
            <opacity_type>0</opacity_type>
            <reflection_level>3</reflection_level>
            <wire_size>1</wire_size>
            <wire_units>0</wire_units>
          </extended_shader>
          <shader>
            <ambient_diffuse_lock>1</ambient_diffuse_lock>
            <ambient_diffuse_texture_lock>1</ambient_diffuse_texture_lock>
            <diffuse_specular_lock>0</diffuse_specular_lock>
            <soften>0.1</soften>
            <use_self_illum_color>0</use_self_illum_color>
          </shader>
        </technique>
      </extra>
    </effect>
  </library_effects>
  <library_materials>
    <material id="tex_volcano_rocks-material" name="tex_volcano_rocks">
      <instance_effect url="#tex_volcano_rocks"/>
    </material>
  </library_materials>
  <library_geometries>
    <geometry id="geom-volcanicone400" name="volcanicone400">
      <mesh>
        <source id="geom-volcanicone400-positions">
          <float_array id="geom-volcanicone400-positions-array" count="600">-1.768706 0.9374432 12.78266 -2.879783 2.100267 11.50754 -3.644021 -1.397009 12.04932 -4.83511 1.469087 0.5764154 -8.627349 -2.209598 0.5742826 -7.746135 -1.844195 2.873193 -5.566119 -4.012813 0.5754497 -4.037463 -2.626397 6.560089 -2.081667 -5.973043 0.5742214 -2.17305 3.135385 0.5744324 -3.081786 -2.080038 8.036209 -1.180401 -4.054624 5.996971 1.69448 6.021104 0.5751505 4.411727 2.84446 7.297015 0.6226547 -4.283963 0.5740765 -0.5155418 1.040197 11.19971 -1.636983 -0.6683043 10.82409 -1.046962 0.4794425 11.40441 2.821458 2.947111 7.809478 3.96243 1.550484 7.779862 3.056761 0.1503626 10.25379 1.038892 -2.791217 9.641338 5.328959 4.162228 0.5742315 4.608025 -2.406869 0.5742544 4.78175 -2.139683 4.064234 -2.946547 0.5188415 13.20191 -4.125532 -3.497665 5.598448 3.694397 -2.483231 5.237615 5.552486 0.990815 4.924523 -6.79595 -0.8407317 3.240042 -4.039811 -2.126238 8.720499 -4.776643 -2.755615 5.542854 -5.815763 -2.560896 3.435674 5.261096 3.36515 4.577552 4.197291 1.126577 6.384746 4.47186 -2.689268 3.122286 0.7453992 3.137119 9.222555 7.759407 2.794826 0.5748729 8.694626 1.090196 2.413721 5.824439 3.771441 0.5744749 -2.37558 0.7308851 13.15029 -3.596979 -0.1392186 12.74346 -3.96333 -2.367896 7.786013 -3.970718 -1.776016 10.24035 -5.885637 -3.360003 3.651924 -2.848078 2.843678 0.5736852 5.419005 3.863396 3.805177 -3.224572 -3.332673 5.973056 3.152308 -3.309693 0.5736505 5.993755 4.286006 3.245145 5.434288 -2.810047 0.5760227 -2.679913 1.649203 12.49005 -7.511829 -0.9084628 2.660821 -5.180192 0.6921507 5.21024 -2.752191 -4.621085 5.491759 4.812839 4.562566 0.5761278 0.03853559 4.764644 6.176246 -2.731367 2.393909 9.906203 4.766701 2.952312 6.153214 -2.736192 -1.248677 9.368574 1.064686 2.120318 10.48429 -0.8282936 1.950168 10.91978 0.589462 0.9308034 11.03092 2.256356 -3.30149 6.513549 4.609322 -1.253699 5.791709 4.298968 -1.842699 5.346663 2.150874 -4.015402 0.5743795 -1.506937 2.55455 8.58466 -1.38968 3.824343 0.5743029 1.494561 4.669807 7.436922 1.128695 -3.72705 7.200063 1.075218 3.584995 8.25826 6.713209 3.765186 3.377635 8.156944 1.598899 3.294772 6.438912 4.14614 0.5755841 7.351849 -1.511742 0.5759595 6.593118 -2.214277 0.5758585 8.34278 0.570444 2.761008 7.877687 1.322297 0.5744117 5.956987 2.838958 4.270179 4.995157 1.111479 5.206232 5.142567 -0.1987745 5.474605 -3.509464 1.029413 12.52456 -4.439956 -0.285932 11.50337 -3.895592 -0.7820864 12.30838 -2.838362 -0.3765438 12.82743 -1.307792 1.279787 12.09182 -5.452649 1.404246 0.5755758 -7.837746 -0.5694022 0.5745664 -6.931718 -4.071458 0.5759645 -7.736016 -3.184676 0.5765656 -4.654117 0.08931914 10.66431 -5.952579 -0.3400564 4.455944 -6.213121 0.2931554 3.07484 -5.389482 -1.958705 3.940655 -3.891291 -1.994069 9.639105 -7.094438 -3.092178 2.972551 -3.458594 -5.340959 0.574477 -3.294792 -3.862292 5.724557 -1.970195 -4.91138 5.541299 0.1435456 -4.011899 5.952472 -0.3259115 -4.357466 5.726383 -0.02669048 -3.725139 6.365711 3.465076 4.932415 4.940537 4.446413 4.33339 4.423155 -1.518701 -3.70511 6.93337 4.046818 2.092219 7.648963 -3.199234 2.903218 4.683002 -2.676581 2.665302 8.35099 -2.617543 -3.646458 5.798305 5.27561 2.430063 5.170507 -1.635443 -5.699786 2.861221 -2.885009 -0.914975 11.72048 0.4313235 3.641397 8.131438 -1.851279 3.017153 7.673801 -0.8296294 3.636148 7.637881 -0.3485155 -3.214272 7.609501 1.771036 1.425047 10.65275 4.897491 -1.515629 4.724503 4.464849 0.2063967 7.075398 -1.83088 -0.06818002 11.79078 2.27364 2.977518 8.013893 0.7872088 -0.7782854 10.70652 8.146154 2.598302 2.484959 7.544374 3.306134 0.5753028 5.678675 -2.875447 2.368787 5.943072 -2.219812 3.516521 4.905161 -2.91242 2.700517 5.014318 -2.50362 0.5751756 7.859143 -0.2248122 0.5746418 8.552067 0.459298 1.925791 6.601773 -0.07959044 4.466152 6.885355 1.819639 4.453965 4.41345 -2.678393 2.135442 5.614203 4.484226 2.437701 5.050662 4.34952 3.010497 5.419005 3.863396 3.805177 4.41345 -2.678393 2.135442 4.226142 -2.622002 0.5759636 0.7453992 3.137119 9.222555 -4.837565 1.472652 -0.83869 -8.627123 -2.210671 -0.8408291 -5.568494 -4.016413 -0.8396558 -2.081987 -5.974264 -0.84089 -2.173447 3.136867 -0.8406787 1.694717 6.022612 -0.8399606 0.6237872 -4.286244 -0.8410332 5.329718 4.166155 -0.8408749 4.608105 -2.406991 -0.8408577 7.760136 2.795577 -0.8402387 5.82518 3.772245 -0.8406366 -2.849917 2.84576 -0.8414242 3.15391 -3.312411 -0.841458 5.435349 -2.812165 -0.8390873 4.81466 4.566826 -0.8389767 2.151662 -4.018068 -0.8407298 -1.390011 3.825251 -0.8408089 6.440112 4.148057 -0.8395262 7.354715 -1.514515 -0.8391469 6.59476 -2.216771 -0.8392503 7.878311 1.322428 -0.8407001 -5.450532 1.402412 -0.8395333 -7.838476 -0.5679024 -0.8405446 -6.933176 -4.074316 -0.8391439 -8.256149 -3.657262 -0.7903755 -3.459722 -5.342817 -0.8406334 7.545175 3.30766 -0.8398081 5.015653 -2.507093 -0.8399315 7.860671 -0.2257601 -0.8404691 4.300684 -2.743136 -0.8436375 -2.437466 0.539431 -2.403561 -5.229074 -2.145737 -2.272499 -2.87596 -2.758796 -2.40414 -0.7826853 -3.931921 -2.404885 -0.8376129 1.536563 -2.404758 1.483709 3.268028 -2.404327 0.8417466 -2.919814 -2.40497 3.665055 2.155765 -2.404873 3.231575 -1.790722 -2.404866 5.123288 1.331302 -2.404494 3.962323 1.91734 -2.404733 -1.244458 1.3623 -2.405204 2.357779 -2.331915 -2.405223 3.728638 -2.035263 -2.403803 3.35673 2.396393 -2.403733 1.758242 -2.759164 -2.404788 -0.3675079 1.949211 -2.404837 4.331589 2.143569 -2.404066 4.881464 -1.257108 -2.403836 4.424674 -1.678276 -2.4039 5.194124 0.4469975 -2.404771 -2.802152 0.4936324 -2.404069 -4.236856 -0.6862831 -2.404678 -4.16772 -3.223184 -2.152997 -5.163945 -3.156454 -2.093299 -1.609867 -3.553479 -2.40473 4.994359 1.639069 -2.404236 3.477 -1.853122 -2.404307 5.184144 -0.4826375 -2.404632 3.036723 -1.975087 -2.406318</float_array>
          <technique_common>
            <accessor source="#geom-volcanicone400-positions-array" count="200" stride="3">
              <param name="X" type="float"/>
              <param name="Y" type="float"/>
              <param name="Z" type="float"/>
            </accessor>
          </technique_common>
        </source>
        <source id="geom-volcanicone400-normals">
          <float_array id="geom-volcanicone400-normals-array" count="600">0.1632302 -0.7110335 0.6839497 0.6740966 0.1063721 0.7309437 0.3006667 0.1048213 0.9479514 0.6650592 0.3235233 0.6730742 -0.09270884 0.7876109 0.6091586 0.1867605 0.7832547 0.5929861 -0.272049 0.9153415 0.2968825 -0.8155923 -0.1012131 0.5697062 -0.8001623 0.5902266 0.1066441 -0.9664297 -0.07660273 0.2452461 -0.7832067 0.4485337 0.4305865 -0.6938101 0.6596346 0.2889805 -0.3270176 -0.9179111 0.2247194 -0.645403 -0.5619764 0.517337 -0.604066 -0.7080522 0.3657408 -0.7327068 -0.6054181 0.3108207 -0.947598 0.1957201 0.2524912 -0.7687321 0.6234465 0.1427072 -0.8995121 0.2307598 0.3709823 -0.6543089 0.2157154 0.724808 -0.2588255 -0.9603642 0.103489 -0.5934067 -0.6835229 0.4250471 -0.7885829 -0.120881 0.6029302 -0.01039357 -0.9676523 0.2520736 -0.3461502 -0.8999784 0.2649885 -0.4115073 -0.8882417 0.2041777 -0.05246401 -0.9768171 0.207547 -0.8117494 -0.06144276 0.5807648 -0.590444 0.09004772 0.8020395 -0.3357139 -0.6929932 0.63801 -0.4938236 -0.6282121 0.6012386 -0.6902381 -0.2826103 0.6661102 -0.9105445 -0.09197577 0.40305 -0.09506119 -0.8187744 0.5661908 -0.2141576 -0.4170328 0.8833007 -0.197266 -0.5639271 0.801918 -0.09516294 -0.8178291 0.5675381 0.1118265 -0.9807354 0.1601653 -0.4750931 -0.8745388 0.09730645 0.03597335 -0.9976405 0.05847507 -0.0675102 -0.7340619 0.6757185 0.3099315 -0.831017 0.4619018 -0.08366031 -0.8546986 0.512339 0.6528569 0.6898587 0.3128465 0.3986281 0.8760595 0.2713215 0.7511592 0.2787519 0.5983789 -0.366435 0.9039349 0.2205154 -0.6050901 0.7958609 -0.02171156 -0.6749074 0.7324199 0.08978307 0.8767518 0.2379749 0.4179407 0.9189667 0.05989401 0.3897601 0.7901879 0.1651121 0.5902043 -0.4139783 0.8920114 0.1814874 -0.5179027 0.8545733 0.03848694 -0.3057205 0.9375722 0.1658109 0.8837667 0.2359084 0.4041085 0.251842 -0.9138677 0.3184674 0.3640276 -0.9308968 0.03025406 -0.02858664 -0.9260519 0.3763118 0.1652738 -0.9032232 0.396071 -0.402679 0.7877715 0.4661176 0.1026454 0.8112001 0.5756894 -0.3472317 0.8962049 0.2761281 -0.2014619 0.7843365 0.5867107 -0.1677951 0.9130281 0.3717856 -0.05385358 -0.8911465 0.4505082 0.2587216 0.6470181 0.7172382 0.4406683 0.1189811 0.8897499 0.1926317 0.07766638 0.9781926 0.4282973 0.3996058 0.8104794 0.702107 -0.6124652 0.3632246 0.1432805 -0.9642442 0.2229436 0.4682152 -0.70773 0.5290488 0.2241794 -0.7476106 0.6251575 0.6931086 -0.0679126 0.717627 0.06332019 0.865782 0.4963992 0.927833 0.1230105 0.3521282 0.9251934 -0.1314745 0.3559939 0.8209683 -0.5064214 0.2637201 0.6403819 -0.5837037 0.4992004 0.0936786 -0.7278109 0.6793494 0.4803196 -0.3690071 0.7956927 -0.5567598 -0.1791126 0.8111333 0.3950495 -0.8023351 0.4474307 0.1876336 -0.3406725 0.9212686 0.2088563 -0.9226341 0.3242306 0.5072731 -0.8329518 0.2210553 0.3864364 -0.9213379 0.04246666 0.4327817 0.4889259 0.7573978 0.8321852 0.5164172 0.2019431 0.9918913 0.001706476 0.127078 0.9566136 0.2699533 -0.1096163 0.127702 0.9898794 -0.06189338 0.558697 0.677223 0.478776 0.4898249 0.2149662 0.8449031 0.4864592 0.8732627 -0.02774471 0.1968872 0.9760754 0.09226168 0.6126317 0.7824233 -0.1117872 0.2762738 0.8818668 0.3820785 0.1268921 0.7732179 0.6213151 0.0425508 0.9846448 -0.1693048 -0.01128952 -0.9852989 0.1704662 -0.9495047 0.09575439 -0.2987842 0.7976767 -0.3937009 0.4568495 0.8019918 -0.5945336 0.05778523 0.9478533 -0.3080166 -0.081853 0.7766846 0.1595952 0.609336 0.4265476 -0.3366531 0.8394772 0.5930914 -0.8050517 0.01158283 0.4374363 -0.8924179 0.1106336 0.4826199 -0.009099182 0.8757827 0.9103294 0.0619326 0.4092244 0.6754432 0.03543382 0.7365602 0.892631 -0.370051 0.2574341 0.5234234 -0.6490114 0.5520979 -0.215838 0.08155756 0.9730172 -0.6970605 0.4944836 0.519223 0.7207261 0.5103831 0.4691086 -0.1620251 -0.477058 0.8638076 0.989861 -0.137515 0.03556358 0.6566674 -0.6810162 0.3240446 0.2785546 0.829918 0.4833668 0.2101299 0.7189928 0.6624916 -0.01580455 -0.9963737 -0.08360428 0.9593396 -0.2186282 -0.1785199 0.9760094 0.0424904 -0.2135419 -0.5365462 0.8411585 0.06760582 -0.4828886 0.8752981 -0.02591981 -0.5440074 0.837882 -0.04483041 0.3201436 0.9160064 0.2417446 -0.08528673 0.9956565 0.03734036 -0.1976208 -0.8772727 0.4374227 0.5126449 -0.8575412 0.04264253 0.4187593 0.6226979 0.6609751 0.7669935 0.6416084 0.007719544 0.01263864 0.8973622 0.4411139 0.506357 -0.8622308 0.01267464 0.108138 -0.9903277 -0.08693284 -0.4250962 -0.8967441 -0.1230572 0.4783143 0.4301645 0.7656199 -0.6958883 0.5226937 -0.4924742 -0.8869431 -6.7513e-4 -0.4618782 -0.6928405 -0.6365601 -0.3387675 -0.2006682 -0.9310804 -0.3046662 -0.1190257 -0.9412067 -0.3161691 -0.4221228 -0.7736999 -0.4724413 0.02362172 -0.9150731 -0.4025959 -0.4699463 0.7515937 -0.4628795 -0.4404253 0.7849879 -0.4356827 0.3568461 -0.8753346 -0.3262667 -0.5554563 0.7034873 -0.4433666 0.4585305 0.7497571 -0.4770893 -0.0730393 0.8941237 -0.4418235 0.5375063 0.6851281 -0.4916162 0.09109921 0.9039907 -0.4177339 -0.1083222 0.9160456 -0.3861694 -0.4634589 -0.8833543 0.06993676 0.01493394 -0.9648349 -0.2624318 0.1334176 -0.9689296 -0.2082672 0.5395436 -0.7436886 -0.3947405 0.7512452 -0.4950193 -0.4365621 0.8682706 -0.1627011 -0.4686517 0.8687724 0.0318016 -0.4941893 0.3601784 -0.8736379 -0.3271515 -0.3849318 0.8227299 -0.4182617 -0.2745174 0.8790798 -0.3896907 0.4963768 -0.805337 -0.3241024 0.5536097 -0.7707364 -0.3154071 0.8443471 0.2116041 -0.4922416 0.6924776 0.5337756 -0.4853436 -0.3854821 0.04425102 -0.9216536 -0.2603096 -0.4852577 -0.8347238 0.09544326 -0.8854173 -0.454892 -0.2347504 -0.5277612 -0.816309 -0.2508717 -0.4769943 -0.8423418 -0.3265575 0.5070547 -0.7976565 -0.2828566 0.5338745 -0.7968501 -0.3725753 0.4660162 -0.8025064 0.2659451 0.4396463 -0.8578953 -0.08561309 0.4970553 -0.8634851 -0.3292269 -0.9416147 -0.07050794 -0.3665726 -0.9283962 -0.06086843 0.3368808 -0.7338219 -0.5899295 0.3687259 -0.5932593 -0.7156008 0.4683647 -0.3714616 -0.8016551 0.5094903 -0.1174235 -0.8524268 0.5001413 0.01357408 -0.8658375 0.2542423 -0.7455415 -0.6160591 0.301026 -0.7040862 -0.6431531 0.2039736 -0.6738333 -0.7101713 -0.2786548 0.5738308 -0.7701101 0.4319758 -0.6245596 -0.6506321 0.4045536 -0.6667123 -0.6259641 0.1261331 0.562573 -0.8170692 0.3173373 0.4044434 -0.8577427 0.3579044 0.286206 -0.8888142 -0.2417652 0.7421237 -0.6251416 0.4658557 0.1002893 -0.8791589 -0.3625441 0.3525569 -0.8627082 -0.1758692 0.693013 -0.6991445</float_array>
          <technique_common>
            <accessor source="#geom-volcanicone400-normals-array" count="200" stride="3">
              <param name="X" type="float"/>
              <param name="Y" type="float"/>
              <param name="Z" type="float"/>
            </accessor>
          </technique_common>
        </source>
        <source id="geom-volcanicone400-map1">
          <float_array id="geom-volcanicone400-map1-array" count="690">0.5026494 0.8715962 0 1.328974 0.8632352 0 1.404052 0.8941769 0 1.369378 0.9082664 0 1.036422 0.2254826 0 1.102183 0.3823364 0 1.035051 0.3564885 0 1.101036 0.2174907 0 1.240919 0.6995031 0 1.241011 0.7314431 0 1.23008 0.6543216 0 1.214972 0.5452169 0 1.226945 0.606438 0 1.281695 0.4351109 0 0.1409866 0.4480134 0 1.205049 0.4737139 0 0.4680808 0.8354509 0 1.248331 0.4680287 0 1.251136 0.4982085 0 1.314056 0.4229084 0 1.321435 0.2919645 0 1.219462 0.1988211 0 1.293745 0.1937016 0 1.353029 0.4614028 0 1.396517 0.437984 0 1.413159 0.4776417 0 0.5382465 0.8272536 0 1.425116 0.4485382 0 1.44986 0.1782062 0 1.274015 0.6155964 0 1.306806 0.6873202 0 1.406788 0.5456696 0 1.661027 0.4288477 0 1.647367 0.3046952 0 0.2026799 0.4582823 0 1.682238 0.3628735 0 1.482431 0.6233268 0 0.1510651 0.6067638 0 1.633347 0.7042676 0 1.684268 0.4627796 0 1.743001 0.4690349 0 1.3869 0.8235907 0 1.383249 0.7642313 0 1.439591 0.8220749 0 1.440584 0.8754818 0 1.296833 0.8774608 0 1.320283 0.8034191 0 1.50755 0.7248796 0 1.537656 0.8041223 0 1.475253 0.5044146 0 1.536255 0.4729382 0 1.52469 0.1775988 0 0.1402662 0.6725967 0 0.07144628 0.6408142 0 1.675164 0.2862219 0 0.4359761 0.7688001 0 1.656265 0.256342 0 1.91919 0.3224083 0 1.828509 0.1930693 0 0.1507837 0.6485531 0 1.931611 0.2783599 0 1.953877 0.3166795 0 1.945477 0.3770911 0 0.5361812 0.7758086 0 1.820548 0.3995797 0 0.875464 0.3616886 0 0.9184736 0.2058851 0 1.779772 0.1925232 0 1.712898 0.2727111 0 1.699225 0.4057966 0 1.811427 0.4754985 0 1.733006 0.324181 0 1.337594 0.9097368 0 1.279626 0.4812699 0 1.654423 0.2581154 0 1.620886 0.4147113 0 1.719127 0.1875446 0 1.269807 0.8486578 0 1.271178 0.8151116 0 1.161062 0.4926035 0 1.345183 0.514375 0 1.482719 0.8341442 0 0.1192556 0.5574701 0 1.604806 0.7937563 0 1.587254 0.1784696 0 0.7495219 0.374933 0 1.654979 0.1810897 0 0.8371081 0.2523387 0 1.684582 0.184692 0 1.698588 0.1844072 0 1.897355 0.1958402 0 1.89577 0.4547225 0 1.031556 0.1536065 0 1.097886 0.1366281 0 1.21999 0.1353679 0 0.6924859 0.4763359 0 1.289713 0.13769 0 1.443008 0.103489 0 1.695814 0.1138693 0 1.720198 0.1192504 0 1.675091 0.1099563 0 1.782386 0.1246394 0 1.829839 0.1263107 0 0.4007852 0.835362 0 1.894463 0.1149298 0 1.522702 0.1076127 0 1.585622 0.1063979 0 1.651449 0.1103914 0 0.9171377 0.2602464 0 0.3707895 0.5050025 0 0.550504 0.4358068 0 0.8341874 0.3517965 0 0.9729838 0.2721491 0 0.8126295 0.3909675 0 0.8564241 0.6181889 0 0.5259994 0.6210517 0 0.7683222 0.4523819 0 0.8603991 0.4727472 0 0.8866359 0.5628331 0 0.667397 0.2381442 0 0.8997009 0.4503913 0 0.9473888 0.4551512 0 0.679442 0.8464831 0 0.6632582 0.7948974 0 0.7146493 0.8464849 0 0.5303651 0.7001271 0 0.4255911 0.5851971 0 0.7914534 0.7013412 0 0.7549273 0.7639288 0 0.3075546 0.5662367 0 0.6604414 0.7486266 0 1.026175 0.2800097 0 0.9356729 0.3863789 0 0.4816323 0.5894635 0 0.360364 0.615809 0 0.4675078 0.645435 0 0.3356127 0.7573229 0 0.3463872 0.676649 0 0.5834817 0.8315748 0 0.579055 0.8799003 0 0.6322097 0.8631768 0 0.9767138 0.2011128 0 0.3262436 0.6282021 0 0.5431696 0.8833252 0 0.6715546 0.8478944 0 0.4150338 0.8161781 0 0.6934873 0.2392437 0 0.5461092 0.2262283 0 0.5100236 0.2237725 0 0.2758612 0.2361824 0 0.2563411 0.6411309 0 0.2254757 0.6316079 0 0.3456309 0.8261279 0 0.2906775 0.7870847 0 0.06059479 0.694519 0 1.198992 -0.003630558 0 0.8406175 0.1940955 0 1.285215 0.003433948 0 0.1929234 0.8103377 0 -0.01848254 0.6476922 0 -0.07231688 0.369494 0 -0.1534252 0.367729 0 -0.05861932 0.2751009 0 0.02077914 0.4010803 0 1.651148 0.008763259 0 -0.03951081 0.490208 0 0.1121656 0.2538107 0 0.0813491 0.351725 0 0.06041141 0.3909135 0 0.08034588 0.430742 0 -0.003496919 0.5694472 0 0.06263161 0.5348834 0 0.02205969 0.5905048 0 0.08155442 0.4783906 0 -0.2046137 0.2454206 0 -0.1299446 0.264732 0 1.668438 0.01080409 0 -0.1846598 0.3315073 0 0.105427 0.381332 0 -0.1074146 0.4198588 0 0.03162054 0.4729578 0 1.636157 0.006760797 0 1.710933 0.01110131 0 1.746488 0.009052387 0 1.787925 -0.004515314 0 1.464083 -0.001233483 0 1.018285 0.1743622 0 1.524844 0.0068982 0 1.140738 0.03894409 0 1.352476 0.0171959 0 1.618044 0.00860255 0 1.572567 0.005807137 0 0.5062091 0.1475091 0 0.4601334 0.225975 0 0.4520448 0.1510448 0 0.1142744 0.1781956 0 0.08618433 0.2530071 0 0.08510561 0.1789568 0 0.3460095 0.6780814 0 0.6954411 0.1671133 0 0.6678824 0.1608701 0 0.5465956 0.1517904 0 0.527173 0.01781463 0 0.9450092 0.04023287 0 0.6170008 0.01685246 0 0.7624191 0.02175201 0 0.03284046 0.2643971 0 0.02892487 0.1990205 0 0.8735662 0.03639495 0 0.6507881 0.01357557 0 0.9642756 2.11861e-4 0 -0.1860876 0.1690253 0 -0.1155692 0.1921722 0 -0.03237085 0.2743446 0 -0.05167744 0.2083676 0 -0.03306277 0.208259 0 0.2749468 0.189096 0 0.4868162 0.01589753 0 0.4338335 0.01817424 0 0.06182405 0.2544246 0 0.05507764 0.1807242 0 -0.1361693 0.01694257 0 -0.09052383 0.03210838 0 0.1525373 0.02901365 0 -0.00970413 0.04234196 0 0.04637702 0.03940939 0 -0.03975463 0.04231734 0 0.2891429 0.04662548 0 0.07567647 0.02619205 0 0.1122877 0.02864699 0</float_array>
          <technique_common>
            <accessor source="#geom-volcanicone400-map1-array" count="230" stride="3">
              <param name="S" type="float"/>
              <param name="T" type="float"/>
              <param name="P" type="float"/>
            </accessor>
          </technique_common>
        </source>
        <vertices id="geom-volcanicone400-vertices">
          <input semantic="POSITION" source="#geom-volcanicone400-positions"/>
        </vertices>
        <triangles material="tex_volcano_rocks" count="368">
          <input semantic="VERTEX" source="#geom-volcanicone400-vertices" offset="0"/>
          <input semantic="NORMAL" source="#geom-volcanicone400-normals" offset="1"/>
          <input semantic="TEXCOORD" source="#geom-volcanicone400-map1" offset="2" set="0"/>
          <p>85 0 1 0 1 2 40 2 3 0 1 0 86 3 16 51 4 26 86 3 16 61 5 55 1 6 63 5 7 65 88 8 87 4 9 108 88 8 87 5 7 65 52 10 111 88 8 87 52 10 111 93 11 85 89 12 4 44 13 5 96 14 6 4 9 108 90 15 112 5 7 65 91 16 130 53 17 95 92 18 116 52 10 111 5 7 65 29 19 113 29 19 113 93 11 85 52 10 111 6 20 7 44 13 5 89 12 4 7 21 114 92 18 116 94 22 117 95 23 8 43 24 9 30 25 10 7 21 11 42 26 12 30 25 10 31 27 118 94 22 117 32 28 120 31 27 118 32 28 120 44 13 121 54 29 13 26 30 15 44 13 5 84 31 122 83 32 123 2 33 124 30 25 127 43 24 128 92 18 116 26 30 15 98 34 17 47 35 18 99 36 19 54 29 13 111 37 20 97 38 21 8 39 22 111 37 20 11 40 23 101 41 24 102 42 25 104 43 14 103 44 34 13 45 37 56 46 109 68 47 193 107 48 110 19 49 52 34 50 53 106 51 59 108 52 115 3 53 119 57 54 125 58 55 82 13 45 37 34 50 53 101 41 24 111 37 20 100 56 27 111 37 20 101 41 24 99 36 19 8 39 22 14 57 28 111 37 20 10 58 29 59 59 30 95 23 8 115 60 126 69 61 129 56 46 109 115 60 126 107 48 110 114 62 133 113 63 134 115 60 126 67 64 135 116 65 31 11 40 23 102 42 25 60 66 136 15 67 103 62 68 152 60 66 136 62 68 152 117 69 153 65 70 32 35 71 33 24 72 35 21 73 36 65 70 32 20 74 38 61 5 55 60 66 136 36 75 137 113 63 134 61 5 55 36 75 137 113 63 134 67 64 135 61 5 55 119 76 154 20 74 158 81 77 159 20 74 38 64 78 39 81 77 40 107 48 110 108 52 115 114 62 133 67 64 135 57 54 125 61 5 55 120 79 41 16 80 42 17 81 43 17 81 43 86 3 44 120 79 41 120 79 41 86 3 44 0 1 2 41 82 45 112 83 46 85 0 1 120 79 41 85 0 1 112 83 46 13 45 37 103 44 34 69 61 129 17 81 43 21 73 36 122 84 47 20 74 38 62 68 48 122 84 47 102 42 25 100 56 27 70 85 49 63 86 50 100 56 27 66 87 51 117 69 153 20 74 158 18 88 151 123 89 160 38 90 161 37 91 162 123 89 160 74 92 206 72 93 163 123 89 160 72 93 163 132 94 165 55 95 166 134 96 167 22 97 196 72 93 163 49 98 168 136 99 169 72 93 163 74 92 206 134 96 167 39 100 219 134 96 167 74 92 206 127 101 54 24 72 35 35 71 33 127 101 54 35 71 33 137 102 56 77 103 57 75 104 58 130 105 60 38 90 61 73 106 62 77 103 57 77 103 57 73 106 62 131 107 64 76 108 67 75 104 58 125 109 68 28 110 170 110 111 171 80 112 172 118 113 69 24 72 35 81 77 40 28 110 70 126 114 71 131 107 64 25 115 72 85 0 1 40 2 3 25 115 139 51 4 26 82 116 138 82 116 138 41 82 140 25 115 139 82 116 138 91 16 130 41 82 140 83 32 123 91 16 130 92 18 116 92 18 116 43 24 128 83 32 123 97 38 21 54 29 13 6 20 7 58 55 82 33 117 173 104 43 14 104 43 14 13 45 37 58 55 82 99 36 19 109 118 73 98 34 17 98 34 17 54 29 13 99 36 19 111 37 20 14 57 28 100 56 27 63 86 50 133 119 74 35 71 33 108 52 115 57 54 125 67 64 135 67 64 135 114 62 133 108 52 115 61 5 55 57 54 125 1 6 63 120 79 41 0 1 2 85 0 1 100 56 27 14 57 28 66 87 51 21 73 36 70 85 49 63 86 50 63 86 50 27 120 75 21 73 36 113 63 134 36 75 137 139 121 198 139 121 198 71 122 142 113 63 134 72 93 163 134 96 167 49 98 168 50 123 76 127 101 54 137 102 56 129 124 174 78 125 175 130 105 177 78 125 175 38 90 161 130 105 177 24 72 35 28 110 70 81 77 40 51 4 26 1 6 63 82 116 138 51 4 26 25 115 139 40 2 143 83 32 123 84 31 144 41 82 140 41 82 140 91 16 130 83 32 123 84 31 77 2 33 78 41 82 45 85 0 1 25 115 72 41 82 45 51 4 26 40 2 143 0 1 0 51 4 26 86 3 16 1 6 63 86 3 16 15 67 145 61 5 55 3 53 119 108 52 115 107 48 110 96 14 132 44 13 121 5 7 65 96 14 132 5 7 65 90 15 112 96 14 132 90 15 112 89 12 131 93 11 85 29 19 113 92 18 116 93 11 85 92 18 116 53 17 95 91 16 130 82 116 138 1 6 63 53 17 95 91 16 130 1 6 63 53 17 95 1 6 63 3 53 119 53 17 95 3 53 119 87 126 146 93 11 85 53 17 95 87 126 146 93 11 85 87 126 146 88 8 87 6 20 7 54 29 13 44 13 5 31 27 118 7 21 114 94 22 117 26 30 15 31 27 79 44 13 5 45 127 147 3 53 119 107 48 110 30 25 127 92 18 116 7 21 114 2 33 124 83 32 123 43 24 128 32 28 120 5 7 65 44 13 121 32 28 120 94 22 117 92 18 116 32 28 120 92 18 116 29 19 113 32 28 120 29 19 113 5 7 65 31 27 79 26 30 15 7 21 11 98 34 17 26 30 15 54 29 13 47 35 18 7 21 11 26 30 15 54 29 13 97 38 21 111 37 20 42 26 12 7 21 11 10 58 29 42 26 12 10 58 29 95 23 8 42 26 12 95 23 8 30 25 10 45 127 147 107 48 110 9 128 148 11 40 23 99 36 19 101 41 24 102 42 25 101 41 24 100 56 27 135 129 178 134 96 167 55 95 166 12 130 149 135 129 178 55 95 166 135 129 178 12 130 149 103 44 34 104 43 14 135 129 178 103 44 34 135 129 178 104 43 14 33 117 173 7 21 11 11 40 23 105 131 80 105 131 80 10 58 29 7 21 11 56 46 109 12 130 149 68 47 193 107 48 110 68 47 193 9 128 148 106 51 59 34 50 53 13 45 37 57 54 125 3 53 119 1 6 63 109 118 73 99 36 19 11 40 23 109 118 73 11 40 23 7 21 11 109 118 73 7 21 11 47 35 18 47 35 18 98 34 17 109 118 73 58 55 82 110 111 171 33 117 173 110 111 171 58 55 82 34 50 53 34 50 53 80 112 172 110 111 171 17 81 43 15 67 81 86 3 44 112 83 46 2 33 78 43 24 9 112 83 46 43 24 9 95 23 8 112 83 46 95 23 8 59 59 30 69 61 129 12 130 149 56 46 109 114 62 133 67 64 135 115 60 126 113 63 134 69 61 129 115 60 126 115 60 126 56 46 109 107 48 110 19 49 52 106 51 59 18 88 151 18 88 151 20 74 158 19 49 52 116 65 31 105 131 80 11 40 23 15 67 145 60 66 136 61 5 55 62 68 48 20 74 38 117 69 83 48 132 84 63 86 50 66 87 51 27 120 75 63 86 50 35 71 33 118 113 69 65 70 32 24 72 35 65 70 32 27 120 75 35 71 33 64 78 39 20 74 38 65 70 32 21 73 36 27 120 75 65 70 32 119 76 154 81 77 159 34 50 53 119 76 154 34 50 53 19 49 52 19 49 52 20 74 158 119 76 154 120 79 41 112 83 46 16 80 42 41 82 45 2 33 78 112 83 46 69 61 129 121 133 150 18 88 151 18 88 151 106 51 59 13 45 37 13 45 37 69 61 129 18 88 151 69 61 129 103 44 34 12 130 149 69 61 129 113 63 134 71 122 142 121 133 150 69 61 129 71 122 142 122 84 47 15 67 81 17 81 43 21 73 36 17 81 43 16 80 42 20 74 38 122 84 47 21 73 36 122 84 47 62 68 48 15 67 81 116 65 31 102 42 25 70 85 49 116 65 31 70 85 49 21 73 36 16 80 42 112 83 46 59 59 30 21 73 36 16 80 42 59 59 30 116 65 31 21 73 36 59 59 30 116 65 31 59 59 30 10 58 29 116 65 31 10 58 29 105 131 80 100 56 27 63 86 50 70 85 49 37 91 162 124 134 213 123 89 160 123 89 160 124 134 213 74 92 206 38 90 161 123 89 160 73 106 179 73 106 179 123 89 160 132 94 165 134 96 167 39 100 219 22 97 196 46 135 169 134 96 167 135 129 178 136 99 169 132 94 165 72 93 163 126 114 71 127 101 54 125 109 68 125 109 68 75 104 58 126 114 71 127 101 54 50 123 76 125 109 68 127 101 54 126 114 71 24 72 35 133 119 74 138 136 86 23 137 88 137 102 56 23 137 88 128 138 89 128 138 89 50 123 76 137 102 56 76 108 67 125 109 68 50 123 76 78 125 175 37 91 162 38 90 161 130 105 60 75 104 58 129 124 90 131 107 64 126 114 71 77 103 57 130 105 60 38 90 61 77 103 57 75 104 58 77 103 57 126 114 71 132 94 165 136 99 169 79 139 180 136 99 169 33 117 173 79 139 180 79 139 180 33 117 173 28 110 170 28 110 170 132 94 165 79 139 180 110 111 171 28 110 170 33 117 173 80 112 172 34 50 53 81 77 159 64 78 39 65 70 32 81 77 40 28 110 170 80 112 172 81 77 159 65 70 32 118 113 69 81 77 40 28 110 70 24 72 35 126 114 71 131 107 64 73 106 62 132 94 91 132 94 91 28 110 70 131 107 64 138 136 86 133 119 74 63 86 50 63 86 50 48 132 84 138 136 86 121 133 150 139 121 198 36 75 137 60 66 136 117 69 153 18 88 151 36 75 137 60 66 136 18 88 151 121 133 150 36 75 137 18 88 151 121 133 150 71 122 142 139 121 198 23 137 88 137 102 56 35 71 33 35 71 33 133 119 74 23 137 88 46 135 169 135 129 178 33 117 173 136 99 169 49 98 168 134 96 167 33 117 173 136 99 169 134 96 167 46 135 169 33 117 173 134 96 167 162 140 156 141 141 66 4 9 108 4 9 108 88 8 87 162 140 156 141 141 66 164 142 141 90 15 112 90 15 112 4 9 108 141 141 66 164 142 141 163 143 186 89 12 131 89 12 131 90 15 112 164 142 141 163 143 92 142 144 93 6 20 7 6 20 7 89 12 4 163 143 92 142 144 93 165 145 94 97 38 21 97 38 21 6 20 7 142 144 93 165 145 94 143 146 96 8 39 22 8 39 22 97 38 21 165 145 94 144 147 192 151 148 201 45 127 147 45 127 147 9 128 148 144 147 192 143 146 96 146 149 97 14 57 28 14 57 28 8 39 22 143 146 96 156 150 194 144 147 192 9 128 148 9 128 148 68 47 193 156 150 194 154 151 195 145 152 216 12 130 149 12 130 149 55 95 166 154 151 195 147 153 197 154 151 195 55 95 166 55 95 166 22 97 196 147 153 197 157 154 207 150 155 220 39 100 219 39 100 219 74 92 206 157 154 207 167 156 98 153 157 99 50 123 76 50 123 76 128 138 89 167 156 98 148 158 100 167 156 98 128 138 89 128 138 89 23 137 88 148 158 100 159 159 101 158 160 102 75 104 58 75 104 58 76 108 67 159 159 101 158 160 102 168 161 104 129 124 90 129 124 90 75 104 58 158 160 102 168 161 211 160 162 212 78 125 175 78 125 175 129 124 174 168 161 211 146 149 97 155 163 105 66 87 51 66 87 51 14 57 28 146 149 97 161 164 199 162 140 156 88 8 87 88 8 87 87 126 146 161 164 199 140 165 200 161 164 199 87 126 146 87 126 146 3 53 119 140 165 200 151 148 201 140 165 200 3 53 119 3 53 119 45 127 147 151 148 201 145 152 216 156 150 194 68 47 193 68 47 193 12 130 149 145 152 216 155 163 105 152 166 106 48 132 84 48 132 84 66 87 51 155 163 105 169 167 107 148 158 100 23 137 88 23 137 88 138 136 86 169 167 107 152 166 106 169 167 107 138 136 86 138 136 86 48 132 84 152 166 106 150 155 220 147 153 197 22 97 196 22 97 196 39 100 219 150 155 220 149 168 214 166 169 215 124 134 213 124 134 213 37 91 162 149 168 214 166 169 215 157 154 207 74 92 206 74 92 206 124 134 213 166 169 215 153 157 99 159 159 101 76 108 67 76 108 67 50 123 76 153 157 99 160 162 212 149 168 214 37 91 162 37 91 162 78 125 175 160 162 212 171 170 208 194 171 203 164 142 141 164 142 141 141 141 66 171 170 208 194 171 203 193 172 210 163 143 186 163 143 186 164 142 141 194 171 203 172 173 155 195 174 157 165 145 94 165 145 94 142 144 93 172 173 155 174 175 217 181 176 202 151 148 201 151 148 201 144 147 192 174 175 217 186 177 218 174 175 217 144 147 192 144 147 192 156 150 194 186 177 218 184 178 223 175 179 227 145 152 216 145 152 216 154 151 195 184 178 223 197 180 164 183 181 176 153 157 99 153 157 99 167 156 98 197 180 164 178 182 181 197 180 164 167 156 98 167 156 98 148 158 100 178 182 181 189 183 182 188 184 183 158 160 102 158 160 102 159 159 101 189 183 182 188 184 183 198 185 184 168 161 104 168 161 104 158 160 102 188 184 183 198 185 221 190 186 222 160 162 212 160 162 212 168 161 211 198 185 221 176 187 185 185 188 187 155 163 105 155 163 105 146 149 97 176 187 185 193 172 188 172 173 155 142 144 93 142 144 93 163 143 92 193 172 188 195 174 157 173 189 189 143 146 96 143 146 96 165 145 94 195 174 157 181 176 202 170 190 204 140 165 200 140 165 200 151 148 201 181 176 202 173 189 189 176 187 185 146 149 97 146 149 97 143 146 96 173 189 189 199 191 190 178 182 181 148 158 100 148 158 100 169 167 107 199 191 190 182 192 191 199 191 190 169 167 107 169 167 107 152 166 106 182 192 191 185 188 187 182 192 191 152 166 106 152 166 106 155 163 105 185 188 187 175 179 227 186 177 218 156 150 194 156 150 194 145 152 216 175 179 227 180 193 228 177 194 229 147 153 197 147 153 197 150 155 220 180 193 228 177 194 229 184 178 223 154 151 195 154 151 195 147 153 197 177 194 229 196 195 224 187 196 225 157 154 207 157 154 207 166 169 215 196 195 224 179 197 226 196 195 224 166 169 215 166 169 215 149 168 214 179 197 226 183 181 176 189 183 182 159 159 101 159 159 101 153 157 99 183 181 176 187 196 225 180 193 228 150 155 220 150 155 220 157 154 207 187 196 225 190 186 222 179 197 226 149 168 214 149 168 214 160 162 212 190 186 222 192 198 205 171 170 208 141 141 66 141 141 66 162 140 156 192 198 205 191 199 209 192 198 205 162 140 156 162 140 156 161 164 199 191 199 209 170 190 204 191 199 209 161 164 199 161 164 199 140 165 200 170 190 204</p>
        </triangles>
      </mesh>
    </geometry>
    <geometry id="geom-volcanicone200" name="volcanicone200">
      <mesh>
        <source id="geom-volcanicone200-positions">
          <float_array id="geom-volcanicone200-positions-array" count="264">7.545175 3.315098 -0.8398081 -2.946547 0.5262796 13.20191 -5.163945 -3.149015 -2.093299 3.231575 -1.783285 -2.404866 -1.970195 -4.903942 5.541299 4.411727 2.851898 7.297015 -4.037463 -2.618959 6.560089 -5.450532 1.40985 -0.8395333 7.354715 -1.507077 -0.8391469 4.47186 -2.681829 3.122286 -8.256149 -3.649824 -0.7903755 5.123288 1.33874 -2.404494 -1.307792 1.287225 12.09182 5.993755 4.293444 3.245145 -5.952579 -0.3326186 4.455944 1.694717 6.03005 -0.8399606 -2.081987 -5.966825 -0.84089 -1.851279 3.02459 7.673801 4.608105 -2.399553 -0.8408577 5.552486 0.998253 4.924523 8.694626 1.097634 2.413721 -2.802152 0.5010701 -2.404069 1.038892 -2.783779 9.641338 -3.644021 -1.389571 12.04932 3.056761 0.1578008 10.25379 -8.627123 -2.203234 -0.8408291 -5.885637 -3.352566 3.651924 5.82518 3.779683 -0.8406366 1.494561 4.677244 7.436922 -0.7826853 -3.924484 -2.404885 -2.879783 2.107704 11.50754 1.483709 3.275466 -2.404327 2.151662 -4.01063 -0.8407298 -1.046962 0.4868804 11.40441 0.1435456 -4.004461 5.952472 -7.746135 -1.836758 2.873193 8.146154 2.60574 2.484959 4.881464 -1.24967 -2.403836 -4.654117 0.09675705 10.66431 -5.568494 -4.008976 -0.8396558 -2.173447 3.144304 -0.8406787 5.943072 -2.212374 3.516521 5.614203 4.491664 2.437701 6.885355 1.827076 4.453965 0.7453992 3.144556 9.222555 3.96243 1.557922 7.779862 -3.199234 2.910656 4.683002 6.440112 4.155495 -0.8395262 1.128695 -3.719612 7.200063 1.771036 1.432485 10.65275 -7.838476 -0.5604647 -0.8405446 5.435349 -2.804728 -0.8390873 -4.125532 -3.490227 5.598448 3.962323 1.924778 -2.404733 -1.180401 -4.047186 5.996971 5.261096 3.372587 4.577552 -2.87596 -2.751358 -2.40414 4.78175 -2.132246 4.064234 5.142567 -0.1913365 5.474605 -2.838362 -0.3691062 12.82743 -5.229074 -2.1383 -2.272499 0.03853559 4.772081 6.176246 -5.815763 -2.553457 3.435674 0.6237872 -4.278807 -0.8410332 -6.79595 -0.8332938 3.240042 4.81466 4.574265 -0.8389767 -1.636983 -0.6608666 10.82409 2.27364 2.984956 8.013893 7.351849 -1.504305 0.5759595 -6.931718 -4.06402 0.5759645 1.758242 -2.751726 -2.404788 3.465076 4.939852 4.940537 -3.081786 -2.072599 8.036209 2.821458 2.954548 7.809478 7.759407 2.802263 0.5748729 -5.180192 0.6995889 5.21024 -1.635443 -5.692348 2.861221 0.4313235 3.648835 8.131438 -3.596979 -0.1317805 12.74346 4.608025 -2.399431 0.5742544 -0.8282936 1.957605 10.91978 6.601773 -0.07215297 4.466152 4.197291 1.134015 6.384746 -0.3485155 -3.206835 7.609501 -4.837565 1.480089 -0.83869 -3.970718 -1.768577 10.24035 -2.676581 2.672739 8.35099 7.860671 -0.2183226 -0.8404691</float_array>
          <technique_common>
            <accessor source="#geom-volcanicone200-positions-array" count="88" stride="3">
              <param name="X" type="float"/>
              <param name="Y" type="float"/>
              <param name="Z" type="float"/>
            </accessor>
          </technique_common>
        </source>
        <source id="geom-volcanicone200-normals">
          <float_array id="geom-volcanicone200-normals-array" count="264">-0.3516499 0.9097582 0.220641 -0.08827005 0.8995672 -0.4277699 -0.4902701 0.7457737 -0.4510615 0.710139 -0.5630593 -0.42269 0.4871689 -0.7272497 0.4835022 0.1468127 -0.929225 -0.3390975 -0.04303357 -0.9312983 -0.3617064 0.3647585 -0.885483 -0.2878733 -0.02532562 -0.9887548 0.1473853 -0.06935304 0.5061861 -0.8596312 0.6824765 -0.07906934 0.7266181 0.5293195 -0.2671668 0.8052594 0.201821 -0.7524706 0.626942 -0.3353322 0.8367494 0.4329004 -0.2950768 0.8858464 -0.3580583 -0.7421252 0.6598645 0.1175968 0.4516436 -0.3376934 0.8258215 0.9866633 -0.08438743 0.1391914 0.09915993 0.8394576 0.5343016 0.3578819 0.8900143 0.2824803 0.177506 -0.7644572 0.6197553 -0.03854289 -0.9160883 0.3991198 -0.1982205 -0.9162509 -0.3481276 -0.1295543 -0.7985081 0.587878 -0.6579762 -0.5423689 0.5224015 -0.3349336 0.4809264 -0.810265 -0.4129609 0.8419276 -0.3473057 -0.7229999 0.5569196 -0.4087931 -0.777035 0.3410743 0.5290415 0.745699 0.4557946 -0.485988 0.9027587 -0.1142946 -0.4146848 0.3924195 -0.557008 -0.7319487 0.8255584 0.5066079 0.2485998 0.5625162 0.1955171 0.803336 -0.05877845 -0.9975116 -0.03893008 0.2587265 -0.9605866 0.1016563 0.2174006 -0.932016 0.2899707 0.5426089 -0.6698982 0.5067661 0.1551093 -0.6887012 -0.7082598 0.4261563 0.16063 -0.8902745 0.2947023 -0.5823554 0.7576364 -0.5124685 0.8507302 0.1167652 0.7052508 0.2885764 0.6475686 0.9112932 -0.1951289 0.362587 -0.814825 0.002732879 0.5797005 -0.3391681 -0.9204258 0.1943748 -0.3472056 -0.8808188 0.3218795 -0.8965111 0.02555453 0.4422839 -0.5735858 -0.6846457 0.449733 0.3583941 0.9290127 0.09213564 0.4333359 0.7296957 -0.5289275 0.2092218 0.4459977 -0.8702368 -0.2140767 -0.5474897 -0.8089662 -0.3393506 0.9026585 0.2646675 0.2243255 0.7286915 0.6470601 0.2885922 0.8566355 0.4276569 0.1258823 0.8035494 0.5817748 0.3521807 -0.7128425 -0.6064851 0.3417293 -0.6998501 -0.6272407 0.2495993 0.8749123 0.4150044 0.6142551 -0.07512413 0.7855234 0.7447758 0.407567 0.528392 0.7750507 -0.6306408 0.0398562 0.9784077 -0.05013433 -0.200512 -0.361476 0.07964489 -0.9289735 -0.2229142 -0.878796 0.4219322 0.1692949 -0.944755 0.2806726 0.3479376 -0.8885088 -0.2991513 -0.9456201 0.1479736 0.2896666 0.6249236 0.3059123 0.7182535 -0.1120281 0.2157766 0.9699948 0.8384967 0.2091535 0.5031681 0.408894 0.4029199 0.818817 0.4164457 0.5053417 0.7557795 -0.7741573 -0.5971639 -0.2099416 -0.9301414 -0.007070681 -0.3671334 -0.6148705 0.03552751 0.7878274 -0.477487 -0.6703977 0.5679553 0.1436107 0.8751612 -0.4620269 -0.3425162 0.7920542 0.5053046 -0.1351304 -0.6409782 -0.7555704 -0.06226205 -0.9909723 -0.118733 -0.09124234 -0.6668404 0.7395936 -0.111856 -0.8810464 0.4596144 -0.6748945 -0.0618131 0.7353207 -0.7088227 0.699875 0.08800729 0.9240686 0.1028434 0.368131 -0.1222561 0.8724777 -0.4731134</float_array>
          <technique_common>
            <accessor source="#geom-volcanicone200-normals-array" count="88" stride="3">
              <param name="X" type="float"/>
              <param name="Y" type="float"/>
              <param name="Z" type="float"/>
            </accessor>
          </technique_common>
        </source>
        <source id="geom-volcanicone200-map1">
          <float_array id="geom-volcanicone200-map1-array" count="327">1.324561 0.8701975 0 1.03473 0.2174548 0 1.098493 0.3778973 0 1.234361 0.736878 0 1.2043 0.5414209 0 1.199302 0.4718703 0 0.4682736 0.8347451 0 1.312184 0.4347161 0 1.318398 0.3011405 0 1.351904 0.471274 0 1.42373 0.4558594 0 1.2681 0.6207101 0 1.403181 0.549721 0 1.648751 0.3095786 0 0.2042786 0.4389256 0 1.681712 0.3656964 0 1.486385 0.6295635 0 0.1388792 0.5788428 0 1.633266 0.7127882 0 1.746361 0.4711507 0 1.378495 0.7669024 0 1.437529 0.823617 0 1.442972 0.8781397 0 1.294302 0.8953952 0 1.473873 0.5104957 0 0.1283747 0.6500793 0 0.05801193 0.6149315 0 0.4267208 0.7679399 0 1.81652 0.1796315 0 1.946083 0.3021247 0 0.5347394 0.7767257 0 1.818002 0.3930818 0 0.8661141 0.3511068 0 0.8681593 0.1871917 0 1.816074 0.4701303 0 1.725288 0.321973 0 1.343036 0.9151965 0 1.2599 0.8306638 0 1.594636 0.8018504 0 1.654838 0.1776168 0 1.898646 0.4406902 0 1.099857 0.1360055 0 0.6957483 0.477301 0 1.293688 0.1306492 0 1.437217 0.1060586 0 1.697851 0.1113845 0 1.653873 0.10155 0 1.809188 0.1093999 0 1.869901 0.08598256 0 1.509174 0.1089833 0 0.3678263 0.5002747 0 0.5483981 0.4339671 0 0.8075194 0.3821419 0 0.8739854 0.6064603 0 0.5271008 0.6197067 0 0.7707124 0.4505239 0 0.8971155 0.4346119 0 0.9479027 0.4308063 0 0.73107 0.8502496 0 0.7713937 0.7655292 0 0.3008591 0.5589198 0 0.6703873 0.7543698 0 0.992126 0.2320956 0 0.4807504 0.5886645 0 0.3589448 0.6068891 0 0.5741304 0.8804354 0 0.6258461 0.8638893 0 0.9079601 0.1824275 0 0.6979971 0.8647857 0 0.4184574 0.8485499 0 0.2458578 0.6309612 0 0.2161801 0.6186026 0 0.2839013 0.7747019 0 1.209605 -0.01397348 0 0.8120936 0.1772187 0 0.1808377 0.7957889 0 -0.02947913 0.6275647 0 -0.05669455 0.3091528 0 -0.1334668 0.2998763 0 -0.02546086 0.2155876 0 -0.04947995 0.4395067 0 0.08615651 0.318816 0 0.06722005 0.3581367 0 -0.01843062 0.5409883 0 0.07096528 0.4465325 0 -0.2255757 0.1385623 0 1.614951 -0.002631318 0 1.707321 0.00556425 0 1.000288 0.1029673 0 1.515184 0.005841009 0 1.101811 0.05024814 0 1.358851 0.0159637 0 0.5129774 0.1476818 0 0.1430407 0.1495511 0 0.340165 0.666822 0 0.6787707 0.1725367 0 0.6634644 0.1624539 0 0.9217355 0.02345344 0 0.07575914 0.1554277 0 0.8271973 0.01507668 0 0.6100554 0.02157068 0 -0.1328368 0.08154201 0 0.0188208 0.1569256 0 0.2936085 0.1603165 0 0.09406532 0.1392812 0 -0.06003093 -0.101277 0 0.05362728 -0.01449171 0 0.3311637 0.0281487 0 0.1465737 -0.01820733 0</float_array>
          <technique_common>
            <accessor source="#geom-volcanicone200-map1-array" count="109" stride="3">
              <param name="S" type="float"/>
              <param name="T" type="float"/>
              <param name="P" type="float"/>
            </accessor>
          </technique_common>
        </source>
        <vertices id="geom-volcanicone200-vertices">
          <input semantic="POSITION" source="#geom-volcanicone200-positions"/>
        </vertices>
        <triangles material="tex_volcano_rocks" count="163">
          <input semantic="VERTEX" source="#geom-volcanicone200-vertices" offset="0"/>
          <input semantic="NORMAL" source="#geom-volcanicone200-normals" offset="1"/>
          <input semantic="TEXCOORD" source="#geom-volcanicone200-map1" offset="2" set="0"/>
          <p>61 0 50 15 1 103 40 2 92 8 3 47 41 4 35 51 5 45 16 6 43 63 7 44 76 8 8 40 2 92 15 1 103 31 9 107 24 10 18 33 11 21 22 12 16 30 13 30 84 14 96 75 15 42 81 16 31 41 4 35 20 17 29 28 18 60 71 19 14 15 1 103 66 20 20 72 21 11 22 12 16 39 22 41 4 23 7 26 24 2 31 9 107 21 25 100 40 2 92 7 26 95 50 27 74 64 28 52 0 29 102 87 30 101 37 31 105 20 17 78 36 32 77 43 33 80 79 34 39 9 35 13 48 36 24 22 12 16 57 37 15 24 10 18 50 27 74 7 26 95 21 25 100 63 7 44 16 6 43 29 38 91 37 31 105 11 39 106 0 29 102 66 20 20 59 40 0 72 21 11 86 41 54 84 14 96 30 13 30 5 42 17 71 19 14 28 18 60 24 10 18 57 37 15 58 43 19 26 24 57 35 44 32 69 45 62 85 46 59 14 47 55 6 48 53 15 1 103 42 49 81 65 50 93 15 1 103 65 50 93 53 51 108 16 6 43 4 23 7 39 22 41 16 6 43 39 22 41 56 52 73 17 53 63 30 13 30 80 54 27 67 55 70 28 18 60 44 56 94 29 38 91 70 57 89 63 7 44 8 3 47 51 5 45 3 58 86 36 32 77 13 59 82 43 33 80 5 42 17 19 60 83 55 61 84 68 62 85 74 63 79 20 17 78 68 62 28 20 17 29 41 4 35 21 25 100 60 64 99 50 27 74 72 21 11 83 65 12 22 12 16 48 36 24 34 66 10 32 67 49 14 47 55 85 46 59 38 68 61 59 40 0 12 69 22 1 70 36 45 71 25 24 10 75 58 43 76 49 72 72 73 73 71 44 56 94 10 74 67 25 75 33 60 64 99 25 75 33 69 45 62 35 44 32 6 48 53 14 47 55 62 76 56 4 23 7 52 77 5 26 24 2 47 78 98 0 29 102 11 39 106 36 32 77 47 78 98 13 59 82 77 79 64 17 53 63 80 54 27 28 18 60 15 1 103 61 0 50 2 80 90 56 52 73 39 22 41 38 68 61 30 13 30 75 15 42 30 13 30 1 70 65 12 69 6 53 51 108 31 9 107 15 1 103 48 36 24 32 67 49 79 34 39 18 81 46 32 67 49 70 57 89 33 11 21 12 69 22 59 40 0 33 11 69 49 72 72 80 54 27 76 8 8 63 7 44 34 66 10 52 77 5 4 23 7 54 82 9 7 26 95 64 28 52 75 15 42 62 76 56 14 47 55 64 28 52 36 32 77 20 17 78 74 63 79 36 32 77 0 29 102 47 78 98 3 58 86 37 31 87 8 3 47 38 68 61 23 83 68 78 84 66 38 68 61 1 70 65 30 13 30 39 22 41 26 24 2 69 45 1 39 22 88 10 74 67 2 80 97 40 2 92 84 14 96 46 85 51 84 14 96 40 2 92 21 25 100 19 60 34 57 37 15 41 4 35 9 35 13 51 5 45 41 4 35 5 42 17 55 61 84 42 49 81 13 59 82 47 78 98 42 49 81 19 60 83 43 33 80 55 61 84 19 60 34 41 4 35 81 16 31 77 79 64 80 54 27 44 56 94 80 54 27 49 72 72 44 56 94 73 73 71 24 10 75 45 71 25 19 60 83 5 42 17 82 86 26 61 0 50 40 2 92 46 85 51 84 14 96 86 41 54 46 85 51 27 87 104 47 78 98 53 51 108 27 87 104 42 49 81 47 78 98 48 36 24 57 37 15 22 12 16 83 65 12 48 36 24 22 12 16 33 11 21 24 10 18 49 72 38 49 72 72 24 10 75 73 73 71 35 44 32 50 27 74 25 75 33 25 75 33 50 27 74 60 64 99 51 5 45 18 81 46 3 58 86 51 5 45 9 35 13 79 34 39 52 77 5 6 48 4 26 24 2 52 77 5 54 82 9 6 48 4 11 39 106 53 51 108 47 78 98 54 82 9 4 23 7 34 66 10 72 21 11 54 82 9 83 65 12 13 59 82 42 49 81 55 61 84 55 61 84 43 33 80 13 59 82 56 52 73 29 38 91 16 6 43 9 35 13 41 4 35 57 37 15 57 37 15 48 36 24 9 35 13 19 60 83 82 86 26 58 43 76 57 37 15 19 60 34 58 43 19 59 40 0 85 46 3 72 21 11 78 84 23 23 83 37 59 40 0 60 64 99 2 80 97 10 74 67 17 53 63 61 0 50 46 85 51 17 53 63 28 18 60 61 0 50 6 48 53 62 76 56 26 24 57 62 76 56 35 44 32 26 24 57 34 66 10 63 7 44 32 67 49 32 67 49 63 7 44 70 57 89 62 76 56 64 28 52 35 44 32 50 27 74 35 44 32 64 28 52 65 50 93 42 49 81 27 87 104 65 50 93 27 87 104 53 51 108 33 11 21 59 40 0 66 20 20 22 12 16 33 11 21 66 20 20 73 73 71 67 55 70 44 56 94 28 18 60 67 55 70 73 73 71 74 63 79 68 62 85 87 30 101 8 3 47 68 62 28 41 4 35 25 75 33 10 74 67 69 45 62 10 74 67 39 22 88 69 45 62 70 57 89 3 58 86 18 81 46 42 49 81 15 1 103 71 19 14 42 49 81 71 19 14 5 42 17 6 48 4 72 21 11 85 46 3 54 82 9 72 21 11 6 48 4 73 73 71 45 71 25 5 42 17 5 42 17 28 18 60 73 73 71 87 30 101 0 29 102 74 63 79 74 63 79 0 29 102 36 32 77 64 28 52 14 47 55 75 15 42 38 68 61 75 15 42 14 47 55 76 8 8 34 66 10 4 23 7 4 23 7 16 6 43 76 8 8 77 79 64 28 18 60 17 53 63 44 56 94 28 18 60 77 79 64 59 40 0 1 70 36 78 84 23 1 70 65 38 68 61 78 84 66 51 5 45 79 34 39 18 81 46 32 67 49 18 81 46 79 34 39 12 69 6 33 11 69 80 54 27 12 69 6 80 54 27 30 13 30 81 16 31 20 17 29 43 33 40 43 33 40 19 60 34 81 16 31 58 43 76 82 86 26 45 71 25 45 71 25 82 86 26 5 42 17 83 65 12 54 82 9 34 66 10 83 65 12 34 66 10 48 36 24 7 26 95 84 14 96 21 25 100 84 14 96 7 26 95 75 15 42 59 40 0 23 83 37 85 46 3 23 83 58 38 68 61 85 46 59 46 85 51 86 41 54 17 53 63 86 41 54 30 13 30 17 53 63 87 30 48 8 3 47 37 31 87 8 3 47 87 30 48 68 62 28</p>
        </triangles>
      </mesh>
    </geometry>
    <geometry id="geom-volcanicone100" name="volcanicone100">
      <mesh>
        <source id="geom-volcanicone100-positions">
          <float_array id="geom-volcanicone100-positions-array" count="126">7.545175 3.312221 -0.8398081 -2.946547 0.5234029 13.20191 -5.163945 -3.151892 -2.093299 3.231575 -1.78616 -2.404866 -1.970195 -4.906818 5.541299 4.411727 2.849022 7.297015 -4.037463 -2.621835 6.560089 -5.450532 1.406975 -0.8395333 7.354715 -1.509953 -0.8391469 4.47186 -2.684706 3.122286 -8.256149 -3.6527 -0.7903755 5.123288 1.335865 -2.404494 -1.307792 1.284349 12.09182 5.993755 4.290569 3.245145 -5.952579 -0.3354952 4.455944 1.694717 6.027174 -0.8399606 -2.081987 -5.969702 -0.84089 -1.851279 3.021715 7.673801 4.608105 -2.40243 -0.8408577 5.552486 0.9953763 4.924523 8.694626 1.094759 2.413721 -2.802152 0.4981954 -2.404069 1.038892 -2.786655 9.641338 -3.644021 -1.392447 12.04932 3.056761 0.1549242 10.25379 -8.627123 -2.206109 -0.8408291 -5.885637 -3.35544 3.651924 5.82518 3.776808 -0.8406366 1.494561 4.67437 7.436922 -0.7826853 -3.927359 -2.404885 -2.879783 2.10483 11.50754 1.483709 3.27259 -2.404327 2.151662 -4.013506 -0.8407298 -1.046962 0.4840047 11.40441 0.1435456 -4.007336 5.952472 -7.746135 -1.839634 2.873193 8.146154 2.602865 2.484959 4.881464 -1.252547 -2.403836 -4.654117 0.09388137 10.66431 -5.568494 -4.01185 -0.8396558 -2.173447 3.14143 -0.8406787 5.943072 -2.21525 3.516521</float_array>
          <technique_common>
            <accessor source="#geom-volcanicone100-positions-array" count="42" stride="3">
              <param name="X" type="float"/>
              <param name="Y" type="float"/>
              <param name="Z" type="float"/>
            </accessor>
          </technique_common>
        </source>
        <source id="geom-volcanicone100-normals">
          <float_array id="geom-volcanicone100-normals-array" count="126">-0.437104 0.8825613 0.1732789 -0.07813376 0.9073984 -0.4129446 -0.4819981 0.7638077 -0.4292734 0.7049314 -0.5575746 -0.4383859 0.3927763 -0.7238789 0.5672091 0.3656713 -0.8816672 -0.2982407 -0.068728 -0.9385461 -0.3382422 0.4661401 -0.8397316 -0.2785037 -0.05872575 -0.8535315 0.5177212 -0.07263891 0.5062708 -0.8593099 0.6563738 -0.07346973 0.75085 0.2579225 -0.62938 0.7330462 0.1874361 -0.7640926 0.6172765 -0.2877862 0.8634032 0.414384 -0.5880808 0.6932967 -0.416534 -0.8882083 0.292647 0.3541805 0.7938427 -0.122011 0.5957576 0.9529129 -0.07993001 0.2925203 0.04229776 0.9023541 0.4289149 0.5854383 0.7604514 0.2810259 -0.5624368 -0.6696432 0.4850185 -0.2571485 -0.920405 -0.2944983 -0.5927832 -0.6709554 0.4454514 -0.3324819 0.4317118 -0.8384991 -0.8943763 0.169233 -0.4140667 -0.8776449 0.04659927 0.4770407 0.642679 0.6067827 -0.4677378 0.4104248 -0.5517687 -0.7260185 0.7831488 0.5173523 0.3449995 0.2199469 -0.9586952 0.1803518 0.1408234 -0.6689364 -0.7298581 0.4326446 0.2022925 -0.8785764 -0.2222158 -0.7604998 0.6101312 0.7262725 0.4164059 0.5469318 -0.6667174 -0.6671283 -0.3323063 0.3584646 0.7736632 -0.5224447 0.4028966 0.3056443 0.8627026 0.3499428 -0.7035458 -0.618517 -0.2650058 -0.4447387 -0.855558 0.2606221 -0.9133902 0.3127212 -0.9440207 0.1418912 0.2978115 -0.08698362 0.03565662 0.9955714</float_array>
          <technique_common>
            <accessor source="#geom-volcanicone100-normals-array" count="42" stride="3">
              <param name="X" type="float"/>
              <param name="Y" type="float"/>
              <param name="Z" type="float"/>
            </accessor>
          </technique_common>
        </source>
        <source id="geom-volcanicone100-map1">
          <float_array id="geom-volcanicone100-map1-array" count="171">0.9625103 0.1568485 0 1.101747 0.3774652 0 1.210188 0.5444853 0 0.4492768 0.8323708 0 1.32332 0.43547 0 1.425511 0.4555245 0 1.661543 0.3069229 0 1.491435 0.6294116 0 0.1525415 0.5699328 0 1.641475 0.7133949 0 1.417963 0.8168041 0 1.426892 0.8717616 0 1.950231 0.2782347 0 0.5358334 0.7783791 0 0.8748605 0.3487869 0 0.9189764 0.1747108 0 1.823627 0.4546917 0 1.732352 0.3071198 0 1.330263 0.9207777 0 1.249923 0.8328883 0 1.100455 0.1351967 0 1.28933 0.1310922 0 1.660349 0.09260351 0 1.809683 0.08812278 0 1.507204 0.0976178 0 0.8759817 0.6012112 0 0.7740396 0.4427993 0 0.9477186 0.435711 0 0.7361128 0.8509495 0 0.3142926 0.5499077 0 0.6732873 0.7583874 0 0.4904626 0.5847689 0 0.5655237 0.8841919 0 0.976912 0.1614288 0 0.6876533 0.875677 0 0.3978579 0.8656675 0 0.1901829 0.7760082 0 -0.0459475 0.3068619 0 -0.1247846 0.2962864 0 0.08378509 0.3498875 0 -0.01154581 0.5116612 0 1.599934 -0.01025429 0 1.691461 -0.008388368 0 0.9589306 0.01760846 0 1.113803 0.05050508 0 1.346031 0.01315114 0 0.520806 0.1345804 0 0.6937817 0.1579907 0 0.875052 0.003596302 0 0.6265237 0.005171087 0 -0.1765677 0.04539298 0 0.0282506 0.1548998 0 0.3065094 0.1483701 0 0.09391318 0.1422755 0 -0.06276654 -0.1009439 0 0.07018982 -0.02102127 0 0.3334658 0.01481144 0</float_array>
          <technique_common>
            <accessor source="#geom-volcanicone100-map1-array" count="57" stride="3">
              <param name="S" type="float"/>
              <param name="T" type="float"/>
              <param name="P" type="float"/>
            </accessor>
          </technique_common>
        </source>
        <vertices id="geom-volcanicone100-vertices">
          <input semantic="POSITION" source="#geom-volcanicone100-positions"/>
        </vertices>
        <triangles material="tex_volcano_rocks" count="75">
          <input semantic="VERTEX" source="#geom-volcanicone100-vertices" offset="0"/>
          <input semantic="NORMAL" source="#geom-volcanicone100-normals" offset="1"/>
          <input semantic="TEXCOORD" source="#geom-volcanicone100-map1" offset="2" set="0"/>
          <p>17 0 31 15 1 52 40 2 46 8 3 23 41 4 17 18 5 22 16 6 21 32 7 24 4 8 4 40 2 46 15 1 52 31 9 56 24 10 9 33 11 10 22 12 7 30 13 13 7 14 47 14 15 26 19 16 16 41 4 17 20 17 12 28 18 29 13 19 39 15 1 52 33 11 10 6 20 2 22 12 7 39 21 20 4 8 4 26 22 1 31 9 56 21 23 49 40 2 46 7 14 47 25 24 15 35 25 14 0 26 51 8 3 50 37 27 54 20 17 38 36 28 37 19 16 40 18 5 22 9 29 6 22 12 7 22 12 7 9 29 6 24 10 9 25 24 15 7 14 47 21 23 49 32 7 24 16 6 21 29 30 45 37 27 54 11 31 55 0 26 51 33 11 10 23 32 19 6 20 2 17 0 31 7 14 47 30 13 13 5 33 8 13 19 39 28 18 29 24 10 9 9 29 6 19 16 16 26 22 27 35 25 14 10 34 33 23 32 28 14 15 26 6 20 25 15 1 52 13 19 39 27 35 53 15 1 52 27 35 53 11 31 55 16 6 21 4 8 4 39 21 20 16 6 21 39 21 20 29 30 45 17 0 31 30 13 13 12 36 3 5 33 8 28 18 29 12 36 3 29 30 45 3 37 41 32 7 24 8 3 23 18 5 22 3 37 41 36 28 37 13 19 39 19 16 40 5 33 8 19 16 40 13 19 39 8 3 50 0 26 51 20 17 38 8 3 23 20 17 12 41 4 17 21 23 49 2 38 48 25 24 15 6 20 2 34 39 5 22 12 7 22 12 7 34 39 5 32 7 24 14 15 26 23 32 28 38 40 30 23 32 19 12 36 11 1 41 18 5 33 8 24 10 36 19 16 40 24 10 36 5 33 8 12 36 3 10 34 33 25 24 15 2 38 48 25 24 15 10 34 33 35 25 14 6 20 25 14 15 26 26 22 27 4 8 4 6 20 2 26 22 1 27 35 53 0 26 51 11 31 55 36 28 37 27 35 53 13 19 39 28 18 29 17 0 31 12 36 3 28 18 29 15 1 52 17 0 31 2 38 44 29 30 45 39 21 20 38 40 30 30 13 13 14 15 26 30 13 13 1 41 32 12 36 3 11 31 55 31 9 56 15 1 52 22 12 7 32 7 24 18 5 22 18 5 22 32 7 24 3 37 41 33 11 10 12 36 11 23 32 19 33 11 35 24 10 36 12 36 3 4 8 4 32 7 24 34 39 5 6 20 2 4 8 4 34 39 5 7 14 47 35 25 14 14 15 26 26 22 27 14 15 26 35 25 14 36 28 37 20 17 38 0 26 51 36 28 37 0 26 51 27 35 53 3 37 41 37 27 42 8 3 23 38 40 30 23 32 34 1 41 32 38 40 30 1 41 32 30 13 13 39 21 20 26 22 1 10 34 0 39 21 43 10 34 33 2 38 48 40 2 46 7 14 47 17 0 31 7 14 47 40 2 46 21 23 49 19 16 16 9 29 6 41 4 17 9 29 6 18 5 22 41 4 17</p>
        </triangles>
      </mesh>
    </geometry>
    <geometry id="geom-bounds_22" name="bounds">
      <mesh>
        <source id="geom-bounds_22-positions">
          <float_array id="geom-bounds_22-positions-array" count="24">-8.714834 -6.034854 -2.485147 8.78211 -6.034854 -2.485147 -8.714834 6.083202 -2.485147 8.78211 6.083202 -2.485147 -8.714834 -6.034854 13.28074 8.78211 -6.034854 13.28074 -8.714834 6.083202 13.28074 8.78211 6.083202 13.28074</float_array>
          <technique_common>
            <accessor source="#geom-bounds_22-positions-array" count="8" stride="3">
              <param name="X" type="float"/>
              <param name="Y" type="float"/>
              <param name="Z" type="float"/>
            </accessor>
          </technique_common>
        </source>
        <source id="geom-bounds_22-normals">
          <float_array id="geom-bounds_22-normals-array" count="72">0 0 -1 0 0 -1 0 0 -1 0 0 -1 0 0 1 0 0 1 0 0 1 0 0 1 0 -1 0 0 -1 0 0 -1 0 0 -1 0 1 0 0 1 0 0 1 0 0 1 0 0 0 1 0 0 1 0 0 1 0 0 1 0 -1 0 0 -1 0 0 -1 0 0 -1 0 0</float_array>
          <technique_common>
            <accessor source="#geom-bounds_22-normals-array" count="24" stride="3">
              <param name="X" type="float"/>
              <param name="Y" type="float"/>
              <param name="Z" type="float"/>
            </accessor>
          </technique_common>
        </source>
        <vertices id="geom-bounds_22-vertices">
          <input semantic="POSITION" source="#geom-bounds_22-positions"/>
        </vertices>
        <triangles material="tex_volcano_rocks" count="12">
          <input semantic="VERTEX" source="#geom-bounds_22-vertices" offset="0"/>
          <input semantic="NORMAL" source="#geom-bounds_22-normals" offset="1"/>
          <p>0 0 2 1 3 2 3 2 1 3 0 0 4 4 5 5 7 6 7 6 6 7 4 4 0 8 1 9 5 10 5 10 4 11 0 8 1 12 3 13 7 14 7 14 5 15 1 12 3 16 2 17 6 18 6 18 7 19 3 16 2 20 0 21 4 22 4 22 6 23 2 20</p>
        </triangles>
      </mesh>
    </geometry>
    <geometry id="geom-col-1_22" name="col-1">
      <mesh>
        <source id="geom-col-1_22-positions">
          <float_array id="geom-col-1_22-positions-array" count="69">6.5948 -2.2168 -0.8393 -1.6099 -3.5535 -2.4047 5.1941 0.447 -2.4048 3.0568 0.1504 10.2538 1.4946 4.6698 7.436899 -2.9465 0.5188 13.2019 1.0389 -2.7912 9.641299 -2.082 -5.974299 -0.8409 -1.6354 -5.6998 2.8612 -3.644001 -1.397 12.0493 -8.6271 -2.2107 -0.8408 6.7132 3.7652 3.3776 8.694599 1.0902 2.4137 7.545201 3.3077 -0.8398 1.6947 6.022599 -0.84 -2.802201 0.4936 -2.4041 -8.2561 -3.6573 -0.7904 5.943099 -2.2198 3.5165 -2.8798 2.1003 11.5075 -3.1992 2.9032 4.683 -5.450501 1.4024 -0.8395 7.860701 -0.2258 -0.8404999 1.4837 3.268 -2.4043</float_array>
          <technique_common>
            <accessor source="#geom-col-1_22-positions-array" count="23" stride="3">
              <param name="X" type="float"/>
              <param name="Y" type="float"/>
              <param name="Z" type="float"/>
            </accessor>
          </technique_common>
        </source>
        <source id="geom-col-1_22-normals">
          <float_array id="geom-col-1_22-normals-array" count="378">0.2340906 -0.3981605 -0.8869441 0.2340906 -0.3981605 -0.8869441 0.2340906 -0.3981605 -0.8869441 0.3873815 0.5803743 0.7163109 0.3873814 0.5803742 0.7163109 0.3873814 0.5803743 0.716311 0.3767368 -0.429346 0.8208115 0.3767368 -0.429346 0.8208115 0.3767368 -0.429346 0.8208115 0.2423714 -0.5593454 -0.7927098 0.2423714 -0.5593454 -0.7927098 0.2423714 -0.5593454 -0.7927098 0.3973062 -0.9174661 0.02009856 0.3973061 -0.917466 0.02009855 0.3973062 -0.917466 0.02009855 -0.05828264 -0.9089087 0.4129021 -0.05828264 -0.9089087 0.4129021 -0.05828264 -0.9089087 0.4129021 0.2391638 -0.5630139 0.7910854 0.2391638 -0.5630139 0.7910854 0.2391638 -0.5630138 0.7910854 -0.9278634 0.1268291 0.3506905 -0.9278634 0.1268291 0.3506905 -0.9278635 0.1268291 0.3506905 0.5643068 0.5683026 0.5988237 0.5643068 0.5683026 0.5988237 0.5643069 0.5683027 0.5988237 0.7427045 0.3428712 0.5751776 0.7427046 0.3428712 0.5751776 0.7427046 0.3428712 0.5751776 0.816381 0.5689058 0.09933969 0.816381 0.5689058 0.09933969 0.816381 0.5689058 0.09933969 0.2889819 0.9436616 0.161221 0.2889819 0.9436616 0.161221 0.2889819 0.9436616 0.161221 0.4208829 0.9069849 -0.01535797 0.4208829 0.906985 -0.01535797 0.4208829 0.9069849 -0.01535797 -8.67955e-5 1.2265e-4 -1 -8.67955e-5 1.2265e-4 -1 -8.67955e-5 1.2265e-4 -1 -0.229307 -0.06741132 -0.9710169 -0.229307 -0.06741131 -0.9710169 -0.229307 -0.06741131 -0.9710169 -0.4299766 -0.8500846 0.3040991 -0.4299766 -0.8500846 0.3040991 -0.4299766 -0.8500846 0.3040991 -0.9052452 -0.2194874 0.3638082 -0.9052452 -0.2194874 0.3638082 -0.9052452 -0.2194874 0.3638082 -0.3483821 -0.9307525 0.1110392 -0.3483821 -0.9307525 0.1110392 -0.3483821 -0.9307525 0.1110392 -0.2336101 -0.09363133 -0.9678117 -0.2336101 -0.09363133 -0.9678117 -0.2336101 -0.09363133 -0.9678117 -0.1963013 -0.504761 -0.8406439 -0.1963013 -0.504761 -0.8406439 -0.1963013 -0.504761 -0.8406439 0.7461575 -0.4598561 0.4814369 0.7461574 -0.4598561 0.4814369 0.7461574 -0.4598561 0.4814369 0.6708644 -0.5611532 0.4848175 0.6708643 -0.5611532 0.4848175 0.6708644 -0.5611532 0.4848175 0.3898053 -0.8919946 0.2289051 0.3898053 -0.8919945 0.228905 0.3898053 -0.8919946 0.2289051 0.412159 -0.9090649 0.06103966 0.412159 -0.9090649 0.06103966 0.4121589 -0.9090649 0.06103966 0.7825112 -0.6116108 0.1166554 0.7825112 -0.6116108 0.1166554 0.7825112 -0.6116108 0.1166554 -0.8899801 0.3503042 0.2919286 -0.8899801 0.3503042 0.2919286 -0.8899801 0.3503042 0.2919286 -0.4029075 0.9047564 0.1381352 -0.4029075 0.9047564 0.1381352 -0.4029075 0.9047564 0.1381352 -0.4288217 0.8946539 0.1253254 -0.4288217 0.8946539 0.1253254 -0.4288217 0.8946538 0.1253254 0.2075119 0.7110415 0.6718324 0.2075119 0.7110415 0.6718324 0.2075119 0.7110416 0.6718324 -0.7457704 0.6556309 0.118214 -0.7457704 0.6556309 0.118214 -0.7457704 0.6556309 0.118214 -0.7287416 0.6753078 0.1135563 -0.7287416 0.6753078 0.1135563 -0.7287416 0.6753078 0.1135563 -0.3883386 0.3417311 -0.8558113 -0.3883386 0.3417311 -0.8558113 -0.3883386 0.3417311 -0.8558113 -0.5429766 0.8397199 -0.006853413 -0.5429766 0.83972 -0.006853413 -0.5429766 0.8397198 -0.006853413 0.4335237 -0.2761565 -0.8577848 0.4335237 -0.2761565 -0.8577847 0.4335237 -0.2761565 -0.8577847 0.5140744 0.04607044 -0.8565075 0.5140744 0.04607044 -0.8565075 0.5140743 0.04607043 -0.8565075 0.8438723 -0.5365435 7.336e-4 0.8438723 -0.5365435 7.336e-4 0.8438722 -0.5365435 7.336e-4 0.9563046 0.08544208 -0.2796087 0.9563046 0.08544208 -0.2796087 0.9563047 0.08544209 -0.2796087 -0.3147666 0.4861936 -0.8151919 -0.3147666 0.4861936 -0.8151919 -0.3147666 0.4861936 -0.8151918 -0.3148443 0.4868228 -0.8147862 -0.3148443 0.4868228 -0.8147861 -0.3148443 0.4868228 -0.8147862 -8.71454e-5 6.26088e-5 -1 -8.71454e-5 6.26088e-5 -1 -8.71454e-5 6.26088e-5 -1 0.2178021 0.4692918 -0.8557613 0.2178021 0.4692918 -0.8557613 0.2178021 0.4692918 -0.8557613 0.2356849 0.3101545 -0.9210086 0.2356849 0.3101545 -0.9210085 0.2356849 0.3101545 -0.9210086</float_array>
          <technique_common>
            <accessor source="#geom-col-1_22-normals-array" count="126" stride="3">
              <param name="X" type="float"/>
              <param name="Y" type="float"/>
              <param name="Z" type="float"/>
            </accessor>
          </technique_common>
        </source>
        <vertices id="geom-col-1_22-vertices">
          <input semantic="POSITION" source="#geom-col-1_22-positions"/>
        </vertices>
        <triangles material="tex_volcano_rocks" count="42">
          <input semantic="VERTEX" source="#geom-col-1_22-vertices" offset="0"/>
          <input semantic="NORMAL" source="#geom-col-1_22-normals" offset="1"/>
          <p>0 0 1 1 2 2 3 3 4 4 5 5 3 6 5 7 6 8 7 9 1 10 0 11 7 12 0 13 8 14 9 15 8 16 6 17 9 18 6 19 5 20 9 21 5 22 10 23 11 24 4 25 3 26 11 27 3 28 12 29 11 30 12 31 13 32 11 33 14 34 4 35 11 36 13 37 14 38 15 39 2 40 1 41 15 42 1 43 10 44 16 45 8 46 9 47 16 48 9 49 10 50 16 51 7 52 8 53 16 54 10 55 1 56 16 57 1 58 7 59 17 60 12 61 3 62 17 63 3 64 6 65 17 66 6 67 8 68 17 69 8 70 0 71 17 72 0 73 12 74 18 75 10 76 5 77 18 78 4 79 14 80 18 81 14 82 19 83 18 84 5 85 4 86 20 87 10 88 18 89 20 90 18 91 19 92 20 93 15 94 10 95 20 96 19 97 14 98 21 99 0 100 2 101 21 102 2 103 13 104 21 105 12 106 0 107 21 108 13 109 12 110 22 111 15 112 20 113 22 114 20 115 14 116 22 117 2 118 15 119 22 120 14 121 13 122 22 123 13 124 2 125</p>
        </triangles>
      </mesh>
    </geometry>
  </library_geometries>
  <library_lights>
    <light id="EnvironmentAmbientLight" name="EnvironmentAmbientLight">
      <technique_common>
        <ambient>
          <color>0 0 0</color>
        </ambient>
      </technique_common>
    </light>
  </library_lights>
  <library_images>
    <image id="volcano_rock_dif_dds">
      <init_from>file:///D:/Projects/Pacific_Island/game/art/shapes/rocks/volcano_rock_dif.dds</init_from>
    </image>
    <image id="volcano_rock_nrm_dds">
      <init_from>file:///D:/Projects/Pacific_Island/game/art/shapes/rocks/volcano_rock_nrm.dds</init_from>
    </image>
  </library_images>
  <library_visual_scenes>
    <visual_scene id="MaxScene">
      <node name="EnvironmentAmbientLight">
        <instance_light url="#EnvironmentAmbientLight"/>
      </node>
      <node id="node-base00" name="base00">
        <node id="node-start00" name="start00">
          <node id="node-volcanicone400" name="volcanicone400">
            <instance_geometry url="#geom-volcanicone400">
              <bind_material>
                <technique_common>
                  <instance_material symbol="tex_volcano_rocks" target="#tex_volcano_rocks-material">
                    <bind_vertex_input semantic="CHANNEL1" input_semantic="TEXCOORD" input_set="0"/>
                    <bind_vertex_input semantic="CHANNEL1" input_semantic="TEXCOORD" input_set="0"/>
                  </instance_material>
                </technique_common>
              </bind_material>
            </instance_geometry>
          </node>
          <node id="node-volcanicone200" name="volcanicone200">
            <instance_geometry url="#geom-volcanicone200">
              <bind_material>
                <technique_common>
                  <instance_material symbol="tex_volcano_rocks" target="#tex_volcano_rocks-material">
                    <bind_vertex_input semantic="CHANNEL1" input_semantic="TEXCOORD" input_set="0"/>
                    <bind_vertex_input semantic="CHANNEL1" input_semantic="TEXCOORD" input_set="0"/>
                  </instance_material>
                </technique_common>
              </bind_material>
            </instance_geometry>
          </node>
          <node id="node-volcanicone100" name="volcanicone100">
            <instance_geometry url="#geom-volcanicone100">
              <bind_material>
                <technique_common>
                  <instance_material symbol="tex_volcano_rocks" target="#tex_volcano_rocks-material">
                    <bind_vertex_input semantic="CHANNEL1" input_semantic="TEXCOORD" input_set="0"/>
                    <bind_vertex_input semantic="CHANNEL1" input_semantic="TEXCOORD" input_set="0"/>
                  </instance_material>
                </technique_common>
              </bind_material>
            </instance_geometry>
          </node>
        </node>
        <node id="node-detail200" name="detail200"/>
        <node id="node-detail400" name="detail400"/>
        <node id="node-Collision-1" name="Collision-1"/>
        <node id="node-detail100" name="detail100"/>
      </node>
      <node id="node-bounds_22" name="bounds">
        <instance_geometry url="#geom-bounds_22">
          <bind_material>
            <technique_common>
              <instance_material symbol="tex_volcano_rocks" target="#tex_volcano_rocks-material">
                <bind_vertex_input semantic="CHANNEL1" input_semantic="TEXCOORD" input_set="0"/>
                <bind_vertex_input semantic="CHANNEL1" input_semantic="TEXCOORD" input_set="0"/>
              </instance_material>
            </technique_common>
          </bind_material>
        </instance_geometry>
      </node>
      <node id="node-col-1_22" name="col-1">
        <instance_geometry url="#geom-col-1_22">
          <bind_material>
            <technique_common>
              <instance_material symbol="tex_volcano_rocks" target="#tex_volcano_rocks-material">
                <bind_vertex_input semantic="CHANNEL1" input_semantic="TEXCOORD" input_set="0"/>
                <bind_vertex_input semantic="CHANNEL1" input_semantic="TEXCOORD" input_set="0"/>
              </instance_material>
            </technique_common>
          </bind_material>
        </instance_geometry>
      </node>
    </visual_scene>
  </library_visual_scenes>
  <scene>
    <instance_visual_scene url="#MaxScene"/>
  </scene>
</COLLADA>