<?xml version="1.0" encoding="utf-8"?>
<COLLADA xmlns="http://www.collada.org/2005/11/COLLADASchema" version="1.4.1">
  <asset>
    <contributor>
      <author>Blender User</author>
      <authoring_tool>Blender 2.75.0 commit date:2015-07-07, commit time:14:56, hash:c27589e</authoring_tool>
    </contributor>
    <created>2015-07-19T22:43:51</created>
    <modified>2015-07-19T22:43:51</modified>
    <unit name="meter" meter="1"/>
    <up_axis>Z_UP</up_axis>
  </asset>
  <library_cameras>
    <camera id="Camera-camera" name="Camera">
      <optics>
        <technique_common>
          <orthographic>
            <xmag sid="xmag">2.5</xmag>
            <aspect_ratio>1.333333</aspect_ratio>
            <znear sid="znear">0.1</znear>
            <zfar sid="zfar">100</zfar>
          </orthographic>
        </technique_common>
      </optics>
      <extra>
        <technique profile="blender">
          <YF_dofdist>0</YF_dofdist>
          <shiftx>0</shiftx>
          <shifty>0</shifty>
        </technique>
      </extra>
    </camera>
  </library_cameras>
  <library_lights>
    <light id="Lamp-light" name="Lamp.001">
      <technique_common>
        <directional>
          <color sid="color">1 1 1</color>
        </directional>
      </technique_common>
      <extra>
        <technique profile="blender">
          <adapt_thresh>0.000999987</adapt_thresh>
          <area_shape>0</area_shape>
          <area_size>1</area_size>
          <area_sizey>1</area_sizey>
          <area_sizez>1</area_sizez>
          <atm_distance_factor>1</atm_distance_factor>
          <atm_extinction_factor>1</atm_extinction_factor>
          <atm_turbidity>2</atm_turbidity>
          <att1>0</att1>
          <att2>1</att2>
          <backscattered_light>1</backscattered_light>
          <bias>1</bias>
          <blue>1</blue>
          <buffers>1</buffers>
          <bufflag>0</bufflag>
          <bufsize>512</bufsize>
          <buftype>2</buftype>
          <clipend>40</clipend>
          <clipsta>0.5</clipsta>
          <compressthresh>0.04999995</compressthresh>
          <dist sid="blender_dist">20</dist>
          <energy sid="blender_energy">1</energy>
          <falloff_type>1</falloff_type>
          <filtertype>0</filtertype>
          <flag>0</flag>
          <gamma sid="blender_gamma">1</gamma>
          <green>1</green>
          <halo_intensity sid="blnder_halo_intensity">1</halo_intensity>
          <horizon_brightness>1</horizon_brightness>
          <mode>8192</mode>
          <ray_samp>1</ray_samp>
          <ray_samp_method>1</ray_samp_method>
          <ray_samp_type>0</ray_samp_type>
          <ray_sampy>1</ray_sampy>
          <ray_sampz>1</ray_sampz>
          <red>1</red>
          <samp>3</samp>
          <shadhalostep>0</shadhalostep>
          <shadow_b sid="blender_shadow_b">0</shadow_b>
          <shadow_g sid="blender_shadow_g">0</shadow_g>
          <shadow_r sid="blender_shadow_r">0</shadow_r>
          <sky_colorspace>2</sky_colorspace>
          <sky_exposure>1</sky_exposure>
          <skyblendfac>1</skyblendfac>
          <skyblendtype>1</skyblendtype>
          <soft>3</soft>
          <spotblend>0.15</spotblend>
          <spotsize>45</spotsize>
          <spread>1</spread>
          <sun_brightness>1</sun_brightness>
          <sun_effect_type>0</sun_effect_type>
          <sun_intensity>1</sun_intensity>
          <sun_size>1</sun_size>
          <type>1</type>
        </technique>
      </extra>
    </light>
  </library_lights>
  <library_images>
    <image id="rope_normal_png" name="rope_normal_png">
      <init_from>rope_normal.png</init_from>
    </image>
    <image id="rope_diffuse_png" name="rope_diffuse_png">
      <init_from>rope_diffuse.png</init_from>
    </image>
    <image id="rope_fence_post_color" name="rope_fence_post_color">
      <init_from>rope_fence_post_color.png</init_from>
    </image>
  </library_images>
  <library_effects>
    <effect id="PostMat-effect">
      <profile_COMMON>
        <newparam sid="rope_fence_post_color-surface">
          <surface type="2D">
            <init_from>rope_fence_post_color</init_from>
          </surface>
        </newparam>
        <newparam sid="rope_fence_post_color-sampler">
          <sampler2D>
            <source>rope_fence_post_color-surface</source>
          </sampler2D>
        </newparam>
        <technique sid="common">
          <lambert>
            <emission>
              <color sid="emission">0 0 0 1</color>
            </emission>
            <ambient>
              <color sid="ambient">0 0 0 1</color>
            </ambient>
            <diffuse>
              <texture texture="rope_fence_post_color-sampler" texcoord="UVTex"/>
            </diffuse>
            <index_of_refraction>
              <float sid="index_of_refraction">1</float>
            </index_of_refraction>
          </lambert>
        </technique>
      </profile_COMMON>
    </effect>
    <effect id="Rope-effect">
      <profile_COMMON>
        <newparam sid="rope_diffuse_png-surface">
          <surface type="2D">
            <init_from>rope_diffuse_png</init_from>
          </surface>
        </newparam>
        <newparam sid="rope_diffuse_png-sampler">
          <sampler2D>
            <source>rope_diffuse_png-surface</source>
          </sampler2D>
        </newparam>
        <newparam sid="rope_normal_png-surface">
          <surface type="2D">
            <init_from>rope_normal_png</init_from>
          </surface>
        </newparam>
        <newparam sid="rope_normal_png-sampler">
          <sampler2D>
            <source>rope_normal_png-surface</source>
          </sampler2D>
        </newparam>
        <technique sid="common">
          <lambert>
            <emission>
              <color sid="emission">0 0 0 1</color>
            </emission>
            <ambient>
              <color sid="ambient">0 0 0 1</color>
            </ambient>
            <diffuse>
              <texture texture="rope_diffuse_png-sampler" texcoord="UVTex"/>
            </diffuse>
            <index_of_refraction>
              <float sid="index_of_refraction">1</float>
            </index_of_refraction>
          </lambert>
          <extra>
            <technique profile="FCOLLADA">
              <bump>
                <texture texture="rope_normal_png-sampler" texcoord="UVTex"/>
              </bump>
            </technique>
          </extra>
        </technique>
      </profile_COMMON>
    </effect>
  </library_effects>
  <library_materials>
    <material id="PostMat-material" name="PostMat">
      <instance_effect url="#PostMat-effect"/>
    </material>
    <material id="Rope-material" name="Rope">
      <instance_effect url="#Rope-effect"/>
    </material>
  </library_materials>
  <library_geometries>
    <geometry id="Cube_006-mesh" name="Cube.006">
      <mesh>
        <source id="Cube_006-mesh-positions">
          <float_array id="Cube_006-mesh-positions-array" count="552">0.1341449 4.809969 4.14124 0.1825938 4.807641 4.228688 0.1318326 4.79303 4.313599 0.03262221 4.780747 4.311061 -0.01582682 4.783075 4.223612 0.03493446 4.797686 4.138701 -0.08929944 5.788771 4.198608 -0.1400607 5.774159 4.283519 -0.09161162 5.771831 4.370967 0.05835998 5.798725 4.288595 0.009910941 5.801053 4.201146 0.007598638 5.784115 4.373506 -0.1152749 6.785165 4.332007 -0.06682586 6.782837 4.419456 -0.2167975 6.755943 4.501829 -0.2652466 6.758271 4.41438 -0.2144853 6.772882 4.329469 -0.1759802 7.759208 4.57569 -0.1175872 6.768226 4.504367 -0.2231072 7.754804 4.663778 0.1049386 3.78479 4.09855 0.2623404 3.796016 4.169955 0.2039146 3.795219 4.088802 -0.2001028 0.9167433 3.677078 -0.151744 0.9003949 3.762856 -0.2020226 0.8952379 3.848933 -0.30066 0.9064293 3.849231 -0.3490189 0.9227777 3.763453 -0.2987403 0.9279351 3.677377 -0.1404423 1.770229 3.748617 -0.1907209 1.765072 3.834693 -0.1423619 1.748724 3.920471 0.006554007 1.74269 3.834096 -0.04180473 1.759038 3.748318 -0.04372453 1.737533 3.920172 0.1157029 2.59248 3.890304 0.1640617 2.576131 3.976082 0.01514571 2.582166 4.062457 -0.03321313 2.598514 3.976679 0.0170654 2.603671 3.890603 0.09906446 3.374409 4.142037 0.1137831 2.570974 4.062159 0.2524559 3.376493 4.220394 0.1537386 3.367212 4.225239 -0.4270701 0.05171728 3.667911 -0.4913621 0.05200529 3.744266 -0.4581056 0.04697608 3.838247 -0.3605569 0.04165792 3.855873 -0.2962647 0.04136896 3.779518 -0.3295213 0.04639911 3.685537 -0.03931397 -3.122148 3.277333 0.009065449 -3.124421 3.364787 -0.04162621 -3.139086 3.449693 -0.1406974 -3.151481 3.447145 -0.1890769 -3.149209 3.359692 -0.1383852 -3.134542 3.274786 -0.2730461 -2.196199 3.32937 -0.3237378 -2.210865 3.414276 -0.2753583 -2.213137 3.501729 -0.1255954 -2.186077 3.41937 -0.1739748 -2.183805 3.331917 -0.1762871 -2.200743 3.504276 -0.3095877 -1.252434 3.457455 -0.2612082 -1.254707 3.544908 -0.4109711 -1.281767 3.627267 -0.4593506 -1.279495 3.539814 -0.4086589 -1.264828 3.454908 -0.4452869 -0.3464952 3.648863 -0.5099016 -0.3477492 3.725133 -0.3134647 -0.3549876 3.760644 -0.3118999 -1.269372 3.629814 -0.3780793 -0.3562417 3.836914 -0.4762977 -0.3526235 3.819159 -0.3470684 -0.3501134 3.666618 -0.04520869 -4.082274 3.324856 -0.09590035 -4.09694 3.409762 -0.04752081 -4.099213 3.497215 -0.2903839 -7.021131 2.897443 -0.2416878 -7.037746 2.983967 -0.2927216 -7.042189 3.070625 -0.3924516 -7.030017 3.070759 -0.4411478 -7.013402 2.984235 -0.390114 -7.008959 2.897576 -0.2485105 -6.159885 2.966551 -0.2995443 -6.164328 3.053209 -0.2508482 -6.180943 3.139733 -0.1000844 -6.188672 3.052941 -0.1487805 -6.172057 2.966417 -0.1511183 -6.193115 3.1396 -0.00813961 -5.331651 3.106684 0.04055643 -5.348267 3.193209 -0.1102073 -5.340538 3.280001 -0.1589034 -5.323923 3.193476 -0.1078696 -5.319479 3.106818 -0.05722934 -4.496394 3.375507 -0.01047736 -5.352709 3.279867 -0.01297873 -4.498536 3.465901 -0.5975451 -7.892554 2.875868 -0.6619513 -7.891437 2.953227 -0.4642475 -7.902201 2.987497 -0.4986931 -7.897936 2.893003 0.04598486 4.19314 0.3958539 0.07507163 3.796589 0.3522509 -0.3224629 3.764111 0.3824418 -0.3515492 4.160662 0.4260448 0.2936618 3.397651 4.12625 0.2367234 3.402498 4.044186 0.1373397 3.394378 4.051733 -1.04755e-4 3.728704 4.588964 0.02898156 3.332153 4.545361 0.4265158 3.364631 4.515171 0.3974301 3.761182 4.558773 0.22213 3.781235 4.259464 0.06580787 3.777962 4.184948 0.1227462 3.773115 4.267012 0.4010707 0.1977925 0.04383486 0.3871345 -0.2015089 0.02475088 -0.00767219 -0.1847643 -0.03727674 0.006264567 0.2145371 -0.01819264 -0.652276 0.03944778 4.126161 -0.6662126 -0.3598533 4.107077 -0.2714065 -0.3765979 4.169105 -0.2574691 0.02270317 4.188189 0.3197134 -3.762898 -0.3661549 0.3550044 -4.160157 -0.3968074 -0.04323631 -4.194352 -0.4121403 -0.07852685 -3.797092 -0.3814878 0.08316397 -4.482649 3.469752 0.1356735 -4.471475 3.385385 0.08862316 -4.46885 3.297184 -0.01093697 -4.477398 3.293351 -0.2109051 -4.131732 3.803066 -0.1756146 -4.528991 3.772414 0.2226257 -4.494797 3.787746 0.1873359 -4.097538 3.818399 0.04787302 -4.085391 3.500404 0.1003826 -4.074215 3.416037 0.05333209 -4.07159 3.327836 -0.07647764 8.157251 0.7782956 -0.07647764 7.75725 0.7782956 -0.4764778 7.75725 0.7782956 -0.4764773 8.157251 0.7782956 -0.2264776 7.75725 4.491693 -0.3264776 7.75725 4.491693 -0.3764777 7.75725 4.578296 -0.3264777 7.75725 4.664898 -0.4764776 8.157251 4.978296 -0.476478 7.75725 4.978296 -0.0764783 7.757249 4.978296 -0.07647716 8.15725 4.978296 -0.2264776 8.25725 4.664898 -0.1764776 8.25725 4.578296 -0.2264777 8.25725 4.491693 -0.3264777 8.25725 4.491693 -0.3764777 8.25725 4.578296 -0.3264777 8.25725 4.664898 -0.2264776 8.157251 4.664898 -0.1764776 8.157251 4.578296 -0.2264777 8.157251 4.491693 -0.3264777 8.157251 4.491693 -0.3764776 8.157251 4.578296 -0.3264777 8.157251 4.664898 -0.1167466 -8.153082 -0.8241983 -0.09939289 -7.753823 -0.8071758 0.2941849 -7.773851 -0.7386522 0.2768307 -8.173111 -0.7556748 -0.6246624 -7.895192 3.044095 -0.5262679 -7.900198 3.061226 -0.4502866 -8.317763 3.378376 -0.4329324 -7.918503 3.395399 -0.8265098 -7.898474 3.326875 -0.8438646 -8.297734 3.309853 -0.6463546 -8.394267 3.022817 -0.6805588 -8.388781 2.929008 -0.6163687 -8.388302 2.852332 -0.5179743 -8.393309 2.869462 -0.48377 -8.398795 2.963271 -0.5479601 -8.399273 3.039947 -0.6420161 -8.294451 3.027072 -0.6762204 -8.288966 2.933264 -0.6120302 -8.288487 2.856587 -0.5136358 -8.293494 2.873718 -0.4794316 -8.298979 2.967526 -0.5436217 -8.29946 3.044203</float_array>
          <technique_common>
            <accessor source="#Cube_006-mesh-positions-array" count="184" stride="3">
              <param name="X" type="float"/>
              <param name="Y" type="float"/>
              <param name="Z" type="float"/>
            </accessor>
          </technique_common>
        </source>
        <source id="Cube_006-mesh-normals">
          <float_array id="Cube_006-mesh-normals-array" count="849">0.1110285 0.9001918 -0.4211027 0.5188842 0.09814912 -0.8491914 0.9950499 0.09717327 0.02081412 0.4830253 0.8743408 0.04706037 0.4881311 -7.93511e-4 0.8727701 0.2212035 0.8228903 0.5233744 -0.5072886 -0.09882086 0.8560916 -0.9948396 -0.09830284 -0.02511739 -0.6059644 0.7825807 0.1427396 -0.4751185 7.93492e-4 -0.8799215 -0.3419058 0.8633253 -0.3711737 0.5028344 0.1457597 -0.8520046 -0.9918889 -0.1217086 -0.03665298 -0.4796318 0.02414023 -0.8771378 -0.5125046 -0.1464298 0.8461071 0.4894603 -0.02237021 0.8717386 0.9921942 0.123906 0.01406908 0.4987698 0.186043 -0.8465322 0.9929175 0.1171333 0.01986807 0.4901113 -0.06946218 0.8688878 -0.5062553 -0.1847337 0.8423652 -0.9930145 -0.1143837 -0.02896213 -0.4896547 0.06998115 -0.8691036 0.3239292 -0.7766183 -0.5403093 -0.5010668 -0.8650711 0.02417129 -0.3151755 -0.8192975 -0.4789739 -0.2403423 -0.8810111 0.4074985 0.2584684 -0.8544808 0.4506182 0.5790058 -0.8152531 0.01071214 0.3907372 0.8201424 -0.4179604 0.483025 -0.0476402 -0.8743097 0.9851997 -0.1699883 -0.02203434 0.6009525 0.7844642 0.1532061 0.4973957 -0.1196948 0.8592268 0.2025872 0.8044891 0.5583509 -0.5046086 0.05255448 0.8617472 -0.986036 0.1664807 -0.004181087 -0.4586344 0.8877267 -0.03994888 -0.4912433 0.1179277 -0.8630025 -0.1523197 0.8767462 -0.4561961 -0.4781728 0.1980993 -0.8556327 -0.982685 0.1852815 -0.00100708 -0.5084578 -0.01287925 0.8609907 0.4893754 -0.20103 0.8485863 0.9829783 -0.1820138 -0.02499485 0.497433 0.01748752 -0.8673262 0.5116935 0.07098883 -0.8562304 0.9854306 -0.1691672 -0.01757895 0.482418 -0.2445508 0.841111 -0.5101909 -0.07089626 0.8571342 -0.9842926 0.1764597 0.005493342 -0.4734205 0.2438823 -0.8464009 -0.1884858 -0.7685311 -0.611419 -0.6097126 -0.7925531 -0.01049858 -0.160498 -0.8883701 0.4301617 0.3950088 -0.8809034 0.2607247 0.5345664 -0.8334364 -0.140081 0.3210936 -0.7730844 -0.5470279 0.2377154 0.8727017 -0.4264778 0.5146468 0.06537228 -0.8549065 0.9930265 0.1176506 0.007538139 0.4608338 0.8810165 0.1069684 0.4872791 0.05673629 0.8714013 0.1297672 0.837414 0.530941 -0.5201054 -0.06326591 0.8517558 -0.9916783 -0.1212818 -0.0431841 -0.5964935 0.7987734 0.07846426 -0.4615382 -0.05346918 -0.8855075 -0.4069766 0.8002805 -0.4403648 0.5016734 0.1543352 -0.8511784 -0.9894902 -0.1392586 -0.03894233 -0.4784734 0.01556456 -0.8779641 -0.5118122 -0.1555274 0.8449022 0.4887588 -0.01318413 0.8723194 0.9898063 0.1416102 0.01516813 0.4854356 0.1968782 -0.8518164 0.9954046 0.09537154 0.008606314 0.4886969 -0.109837 0.8655121 -0.5199867 -0.1969406 0.8311609 -0.9955227 -0.08829081 -0.03375375 -0.5005416 0.1006516 -0.8598415 -0.2559945 -0.77189 -0.5819389 -0.5441807 -0.8326138 -0.1030619 -0.3292141 -0.8854935 0.3279018 0.1181691 -0.8937763 0.4326663 0.5182445 -0.8500173 0.0943039 0.3890234 -0.7747813 -0.4983723 0.3802055 0.8097907 -0.446859 0.4950814 -0.06085515 -0.8667128 0.9794691 -0.2006608 -0.01937937 0.6340975 0.7587988 0.1488116 0.5021963 -0.145791 0.8523755 0.2082651 0.79192 0.5740108 -0.4856911 0.06341999 0.8718268 -0.300976 0.8624907 0.4068456 -0.9789998 0.2038387 -0.003021359 -0.4750986 0.1342862 -0.8696255 -0.1520478 0.8864982 -0.4370384 -0.4767066 0.1855249 -0.8592622 -0.986183 0.1655337 -0.006469964 -0.51113 -0.02050864 0.8592587 0.4880068 -0.1876034 0.8524402 0.9865391 -0.1623326 -0.01971548 0.5000014 0.02420198 -0.8656864 0.5168747 0.09210717 -0.8510915 0.9908539 -0.1344963 -0.01092571 0.4870526 -0.2300216 0.8425377 -0.512718 -0.09170937 0.8536449 -0.9896808 0.1432577 -0.003021359 -0.4664197 0.2316076 -0.853704 -0.1036735 -0.7777497 -0.6199657 -0.6017191 -0.7970428 -0.05154711 -0.1583936 -0.8966484 0.413441 0.3444437 -0.8857998 0.3109943 0.5450742 -0.8377845 -0.03180104 0.3943411 -0.7707979 -0.5003655 -0.08367747 0.1028471 -0.9911714 0.08367305 -0.1028461 0.9911718 0.07478731 -0.993643 -0.08414554 -0.07271677 0.9913778 0.1090067 0.07271593 -0.9913778 -0.1090071 -0.09312349 0.9892418 0.1128212 0.1748191 -0.9742441 -0.1424317 0.02187311 -0.9947053 -0.1004145 0.07271558 -0.9913778 -0.109007 0.212442 -0.9692376 -0.1242859 0.003875553 -0.9946186 -0.103532 0.0727095 -0.9913783 -0.1090068 0.9938365 0.0811935 -0.07547718 -0.9938363 -0.08119529 0.07547712 -0.07271564 0.9913778 0.1090075 0.04016876 0.994494 0.09679037 -0.07271456 0.9913779 0.1090073 -0.09371125 0.9882077 0.1210947 -0.1699656 0.978978 0.112755 -0.05349653 0.9927617 0.1075286 0.1567954 0.04168778 -0.986751 -0.1567994 -0.0416885 0.9867503 -0.03446286 -0.9981495 -0.05009865 0.04427182 0.9974522 0.0559383 -0.02838414 -0.9985165 -0.04646629 0.03476768 0.9982334 0.04818046 -0.03830254 -0.998071 -0.0488606 -0.02624905 -0.9987562 -0.04239374 -0.01971691 -0.9988045 -0.04473048 -0.03758811 -0.9981275 -0.04825568 -0.04208093 -0.9979194 -0.0488463 -0.04062205 -0.9979912 -0.04861754 0.9870163 -0.04186266 0.1550686 -0.9870164 0.04186064 -0.155069 0.02657753 0.9986763 0.04403716 0.06594538 0.9964795 0.05176818 0.03562068 0.99822 0.04783266 0.05267071 0.9977875 0.04057317 0.02152574 0.998717 0.04583722 0.01348531 0.9989253 0.04434508 0.03151851 0.07967633 -0.9963225 -0.0315175 -0.07967621 0.9963225 0.08743453 -0.9947884 -0.05245184 -0.08765035 0.9944081 0.05890727 0.08822703 -0.9931484 -0.07663148 -0.1097769 0.990951 0.07723504 0.0882216 -0.9931489 -0.07663089 0.07383757 -0.9954799 -0.05973261 0.08823359 -0.9931478 -0.07663047 0.2604391 -0.9625108 -0.07579219 0.008070647 -0.9968054 -0.07945942 0.08822411 -0.9931486 -0.07663172 0.9956018 0.08548498 0.03833222 -0.9956017 -0.08548665 -0.03833222 -0.07351624 0.9950727 0.06652688 -0.1556665 0.9847905 0.07717335 -0.03244048 0.996374 0.07865417 -0.08823215 0.9931479 0.07663267 -0.08823287 0.993148 0.07663053 -0.08821386 0.9931495 0.07663202 0 0 -1 0 0 1 -2.38419e-6 -1 -1.90189e-6 0 1 7.60753e-6 0 -1 0 0 1 6.4205e-7 0.05760198 -0.998157 -0.01909762 0.03630703 -0.9993396 0.001467108 0 -1 -3.00033e-7 -0.01968175 -0.9998063 -2.85197e-7 1 -2.83832e-6 1.56107e-7 -1 1.13533e-6 0 0 1 -8.31879e-6 0 1 0 2.88173e-6 1 4.15939e-6 0 1 3.00033e-7 8.62844e-6 1 2.8383e-7 0 1 1.3765e-5 0 1 -6.88253e-6 0.8660252 3.72529e-7 0.5000005 0.8660253 3.72534e-7 -0.5000002 -0.8660253 0 -0.5000002 -0.8660237 -3.72531e-7 0.500003 0.1731231 0.03444087 -0.9842979 -0.1731238 -0.03444069 0.9842977 0.04338622 0.9981516 0.04255658 -0.04340261 -0.9981513 -0.04254889 0.04672688 0.9979422 0.04390984 -0.04338151 -0.9981518 -0.04255789 0.02640849 0.9991872 0.03045636 0.0728901 0.996752 0.03424298 0.07442897 0.9960903 0.0475865 0.01879674 0.9990918 0.03824102 0.01967358 0.9990681 0.03841793 0.0609005 0.9971017 0.04560083 -0.9839442 0.05007344 -0.1713083 0.9839442 -0.05007177 0.1713089 -0.04336321 -0.9981523 -0.04256302 -0.04337257 -0.9981526 -0.04254931 -0.04338604 -0.9981516 -0.0425567 -0.04337948 -0.9981526 -0.04254215 -0.04339194 -0.9981514 -0.04255777 -0.04339587 -0.9981512 -0.04255747 -0.04338246 -0.9981521 -0.04254806 -0.04338288 -0.9981521 -0.04254794 -0.1731211 -0.03444188 0.9842982 -0.9386814 0.02614182 0.3437936 -0.7655563 0.06058126 -0.6405103 0.173127 0.03444212 -0.9842972 0.9386807 -0.02614289 -0.3437954 0.7655544 -0.06058335 0.6405124 -0.2784612 0.7757178 0.5663225 -0.3037526 0.8576365 0.4149627 -0.3348314 0.8042241 0.4910311 -0.4118241 0.910719 -0.03149563 -0.08367723 0.1028469 -0.9911714 0.0836789 -0.1028471 0.9911713 0.08975327 -0.9932265 -0.07379424 -0.07271528 0.991378 0.1090066 0.07271635 -0.9913778 -0.1090072 -0.07263946 0.9912827 0.1099185 0.9938362 0.0811963 -0.07547718 -0.9938363 -0.08119523 0.07547718 0.1567953 0.04168784 -0.986751 -0.1567933 -0.04168766 0.9867513 -0.02881819 -0.9986121 -0.04408437 0.0351057 0.9983221 0.04605245 -0.03480738 -0.9982441 -0.04793059 0.04525768 0.9976953 0.05055582 0.9870164 -0.04185962 0.1550692 -0.9870164 0.04186087 -0.155069 0.03151887 0.07967603 -0.9963224 -0.03151738 -0.07967615 0.9963225 0.1663317 -0.9798728 -0.110378 -0.1459861 0.9840539 0.1016175 0.08822715 -0.9931484 -0.0766313 -0.08822482 0.9931485 0.07663142 0.9956017 0.08548766 0.03833216 -0.9956017 -0.08548641 -0.03833216 -0.02345544 -0.9995499 0.01870685 2.38418e-6 1 3.80377e-6 0 -1 -1.60512e-7 1 0 0 -1 1.13533e-6 0 0 1 -1.37652e-5 0 1 1.37651e-5 0.8660269 0 0.4999977 0.8660257 0 -0.4999995 -5.9604e-6 0 -1 -0.8660243 0 -0.5000022 -0.8660283 0 0.4999951 0.1731231 0.03444093 -0.9842979 -0.173124 -0.03444099 0.9842978 0.04338216 0.9981518 0.04255664 -0.04338634 -0.9981516 -0.04255652 0.0432114 0.9981169 0.04353755 -0.04338639 -0.9981517 -0.042557 -0.9839441 0.05007076 -0.1713095 0.9839442 -0.05007183 0.1713091 -0.0433824 -0.9981516 -0.04256165 -0.04338264 -0.9981527 -0.04253435 -0.1731235 -0.0344429 0.9842977 -0.9386827 0.02614033 0.3437902 -0.7655581 0.0605818 -0.6405082 0.1731215 0.03443747 -0.9842982 0.9386823 -0.02614164 -0.3437909 0.7655606 -0.06058079 0.6405053</float_array>
          <technique_common>
            <accessor source="#Cube_006-mesh-normals-array" count="283" stride="3">
              <param name="X" type="float"/>
              <param name="Y" type="float"/>
              <param name="Z" type="float"/>
            </accessor>
          </technique_common>
        </source>
        <source id="Cube_006-mesh-map-0">
          <float_array id="Cube_006-mesh-map-0-array" count="2184">0.8324689 0 0.8324687 1 0.6658021 1 0.6658021 0 0.6658021 1 0.4991356 1 0.4991355 0 0.4991356 1 0.3324691 1 0.3324691 1 0.1658024 1 0.1658021 0 0.1658024 1 -8.6439e-4 1 -8.64495e-4 0 0.8324689 0 0.9991354 0 0.9991356 1 0.8324687 1 0.8324689 0 0.9991354 0 0.1658024 1 -8.6439e-4 1 -8.64495e-4 0 0.3324691 1 0.1658024 1 0.1658021 0 0.4991355 0 0.4991356 1 0.3324691 1 0.6658021 0 0.6658021 1 0.4991356 1 0.8324689 0 0.8324687 1 0.6658021 1 0.8324687 1 0.6658021 1 0.6658021 0 0.6658021 1 0.4991356 1 0.4991355 0 0.4991355 0 0.4991356 1 0.3324691 1 0.3324688 0 0.3324691 1 0.1658024 1 0.1658021 0 0.1658024 1 -8.6439e-4 1 0.8324687 1 0.8324689 0 0.9991354 0 0.8324687 1 0.8324689 0 0.9991354 0 0.1658021 0 0.1658024 1 -8.6439e-4 1 0.3324688 0 0.3324691 1 0.1658024 1 0.4991356 1 0.3324691 1 0.3324688 0 0.6658021 1 0.4991356 1 0.4991355 0 0.8324687 1 0.6658021 1 0.6658021 0 0.8324689 0 0.8324687 1 0.6658021 1 0.6658021 0 0.6658021 1 0.4991356 1 0.4991355 0 0.4991356 1 0.3324691 1 0.3324691 1 0.1658024 1 0.1658021 0 0.1658024 1 -8.6439e-4 1 -8.64495e-4 0 0.8324689 0 0.9991354 0 0.9991356 1 0.8324689 0 0.9991354 0 0.9991356 1 0.1658024 1 -8.6439e-4 1 -8.64495e-4 0 0.3324691 1 0.1658024 1 0.1658021 0 0.4991355 0 0.4991356 1 0.3324691 1 0.6658021 0 0.6658021 1 0.4991356 1 0.8324689 0 0.8324687 1 0.6658021 1 0.8324687 1 0.6658021 1 0.6658021 0 0.6658021 1 0.4991356 1 0.4991355 0 0.4991355 0 0.4991356 1 0.3324691 1 0.3324688 0 0.3324691 1 0.1658024 1 0.1658021 0 0.1658024 1 -8.6439e-4 1 0.8324689 0 0.9991354 0 0.9991356 1 0.8324689 0 0.9991354 0 0.9991356 1 0.1658024 1 -8.6439e-4 1 -8.64495e-4 0 0.3324688 0 0.3324691 1 0.1658024 1 0.4991355 0 0.4991356 1 0.3324691 1 0.6658021 0 0.6658021 1 0.4991356 1 0.8324687 1 0.6658021 1 0.6658021 0 0.8324689 0 0.8324687 1 0.6658021 1 0.6658021 0 0.6658021 1 0.4991356 1 0.4991355 0 0.4991356 1 0.3324691 1 0.3324691 1 0.1658024 1 0.1658021 0 0.1658024 1 -8.6439e-4 1 -8.64495e-4 0 0.8324689 0 0.9991354 0 0.9991356 1 0.8324687 1 0.8324689 0 0.9991354 0 0.1658024 1 -8.6439e-4 1 -8.64495e-4 0 0.3324691 1 0.1658024 1 0.1658021 0 0.4991356 1 0.3324691 1 0.3324688 0 0.6658021 0 0.6658021 1 0.4991356 1 0.8324689 0 0.8324687 1 0.6658021 1 0.8324687 1 0.6658021 1 0.6658021 0 0.6658021 1 0.4991356 1 0.4991355 0 0.4991356 1 0.3324691 1 0.3324688 0 0.3324688 0 0.3324691 1 0.1658024 1 0.1658021 0 0.1658024 1 -8.6439e-4 1 0.8324687 1 0.8324689 0 0.9991354 0 0.8324689 0 0.9991354 0 0.9991356 1 0.1658021 0 0.1658024 1 -8.6439e-4 1 0.3324688 0 0.3324691 1 0.1658024 1 0.4991356 1 0.3324691 1 0.3324688 0 0.6658021 1 0.4991356 1 0.4991355 0 0.8324687 1 0.6658021 1 0.6658021 0 0.8324689 0 0.8324687 1 0.6658021 1 0.6658021 0 0.6658021 1 0.4991356 1 0.4991355 0 0.4991356 1 0.3324691 1 0.3324688 0 0.3324691 1 0.1658024 1 0.1658024 1 -8.6439e-4 1 -8.64495e-4 0 0.8324689 0 0.9991354 0 0.9991356 1 0.8324689 0 0.9991354 0 0.9991356 1 0.1658024 1 -8.6439e-4 1 -8.64495e-4 0 0.3324691 1 0.1658024 1 0.1658021 0 0.4991355 0 0.4991356 1 0.3324691 1 0.6658021 0 0.6658021 1 0.4991356 1 0.8324689 0 0.8324687 1 0.6658021 1 0.8324687 1 0.6658021 1 0.6658021 0 0.6658021 1 0.4991356 1 0.4991355 0 0.4991355 0 0.4991356 1 0.3324691 1 0.3324688 0 0.3324691 1 0.1658024 1 0.1658021 0 0.1658024 1 -8.6439e-4 1 0.8324689 0 0.9991354 0 0.9991356 1 0.8324689 0 0.9991354 0 0.9991356 1 0.1658021 0 0.1658024 1 -8.6439e-4 1 0.3324688 0 0.3324691 1 0.1658024 1 0.4991355 0 0.4991356 1 0.3324691 1 0.6658021 1 0.4991356 1 0.4991355 0 0.8324687 1 0.6658021 1 0.6658021 0 0.8362973 0.9905809 0.8362972 0.8370915 0.9897868 0.8370915 0.8362972 0.6553408 0.9897866 0.6553404 0.9897869 0.8088298 0.5416027 0.9180487 0.6174173 0.9913831 0.4152492 0.9913814 0.08671563 0.9180456 0.1372607 0.9180452 0.2130787 0.9913815 0.5416018 0.8775222 0.4910626 0.8775221 0.4152361 0.008617818 0.2130655 0.008618235 0.13726 0.877514 0.08671981 0.8775129 0.5416027 0.9180487 0.5668708 0.8977828 0.6174173 0.9913831 0.4657909 0.8977864 0.4910622 0.9180496 0.4152492 0.9913814 0.6174048 0.008617222 0.5668708 0.8977828 0.5416018 0.8775222 0.4152361 0.008617818 0.4910626 0.8775221 0.4657909 0.8977864 0.4152361 0.008617818 0.4657909 0.8977864 0.4152492 0.9913814 0.6174048 0.008617222 0.6174173 0.9913831 0.5668708 0.8977828 0.8195884 0.9913826 0.6174173 0.9913831 0.6174048 0.008617222 0.4152492 0.9913814 0.2130787 0.9913815 0.2130655 0.008618235 0.1625326 0.8977795 0.2130787 0.9913815 0.1372607 0.9180452 0.2130655 0.008618235 0.1625326 0.8977795 0.13726 0.877514 0.2130655 0.008618235 0.2130787 0.9913815 0.1625326 0.8977795 0.08671563 0.9180456 0.01089859 0.9913821 0.06144279 0.8977808 0.01089888 0.008618772 0.08671981 0.8775129 0.06144279 0.8977808 0.01089888 0.008618772 0.06144279 0.8977808 0.01089859 0.9913821 0.9897866 0.9905808 0.8362973 0.9905809 0.8362972 0.8370915 0.9897866 0.6553404 0.9897869 0.8088298 0.8362974 0.80883 0.5416027 0.9180487 0.6174173 0.9913831 0.4152492 0.9913814 0.08671563 0.9180456 0.1372607 0.9180452 0.2130787 0.9913815 0.6174048 0.008617222 0.5416018 0.8775222 0.4910626 0.8775221 0.01089888 0.008618772 0.2130655 0.008618235 0.13726 0.877514 0.5416027 0.9180487 0.5668708 0.8977828 0.6174173 0.9913831 0.4657909 0.8977864 0.4910622 0.9180496 0.4152492 0.9913814 0.6174048 0.008617222 0.5668708 0.8977828 0.5416018 0.8775222 0.4152361 0.008617818 0.4910626 0.8775221 0.4657909 0.8977864 0.4152361 0.008617818 0.4657909 0.8977864 0.4152492 0.9913814 0.6174048 0.008617222 0.6174173 0.9913831 0.5668708 0.8977828 0.8195759 0.008616805 0.8195884 0.9913826 0.6174173 0.9913831 0.4152492 0.9913814 0.2130787 0.9913815 0.2130655 0.008618235 0.1625326 0.8977795 0.2130787 0.9913815 0.1372607 0.9180452 0.2130655 0.008618235 0.1625326 0.8977795 0.13726 0.877514 0.2130655 0.008618235 0.2130787 0.9913815 0.1625326 0.8977795 0.08671563 0.9180456 0.01089859 0.9913821 0.06144279 0.8977808 0.01089888 0.008618772 0.08671981 0.8775129 0.06144279 0.8977808 0.01089888 0.008618772 0.06144279 0.8977808 0.01089859 0.9913821 0.9897866 0.9905808 0.8362973 0.9905809 0.8362972 0.8370915 0.8362972 0.6553408 0.9897866 0.6553404 0.9897869 0.8088298 0.6174173 0.9913831 0.4152492 0.9913814 0.4910622 0.9180496 0.1372607 0.9180452 0.2130787 0.9913815 0.01089859 0.9913821 0.6174048 0.008617222 0.5416018 0.8775222 0.4910626 0.8775221 0.2130655 0.008618235 0.13726 0.877514 0.08671981 0.8775129 0.5416027 0.9180487 0.5668708 0.8977828 0.6174173 0.9913831 0.4657909 0.8977864 0.4910622 0.9180496 0.4152492 0.9913814 0.6174048 0.008617222 0.5668708 0.8977828 0.5416018 0.8775222 0.4152361 0.008617818 0.4910626 0.8775221 0.4657909 0.8977864 0.4152361 0.008617818 0.4657909 0.8977864 0.4152492 0.9913814 0.6174048 0.008617222 0.6174173 0.9913831 0.5668708 0.8977828 0.8195884 0.9913826 0.6174173 0.9913831 0.6174048 0.008617222 0.4152492 0.9913814 0.2130787 0.9913815 0.2130655 0.008618235 0.1625326 0.8977795 0.2130787 0.9913815 0.1372607 0.9180452 0.2130655 0.008618235 0.1625326 0.8977795 0.13726 0.877514 0.2130655 0.008618235 0.2130787 0.9913815 0.1625326 0.8977795 0.08671563 0.9180456 0.01089859 0.9913821 0.06144279 0.8977808 0.01089888 0.008618772 0.08671981 0.8775129 0.06144279 0.8977808 0.01089888 0.008618772 0.06144279 0.8977808 0.01089859 0.9913821 0.8362973 0.9905809 0.8362972 0.8370915 0.9897868 0.8370915 0.8362972 0.6553408 0.9897866 0.6553404 0.9897869 0.8088298 0.6174173 0.9913831 0.4152492 0.9913814 0.4910622 0.9180496 0.08671563 0.9180456 0.1372607 0.9180452 0.2130787 0.9913815 0.6174048 0.008617222 0.5416018 0.8775222 0.4910626 0.8775221 0.2130655 0.008618235 0.13726 0.877514 0.08671981 0.8775129 0.5416027 0.9180487 0.5668708 0.8977828 0.6174173 0.9913831 0.4657909 0.8977864 0.4910622 0.9180496 0.4152492 0.9913814 0.6174048 0.008617222 0.5668708 0.8977828 0.5416018 0.8775222 0.4152361 0.008617818 0.4910626 0.8775221 0.4657909 0.8977864 0.4152361 0.008617818 0.4657909 0.8977864 0.4152492 0.9913814 0.6174048 0.008617222 0.6174173 0.9913831 0.5668708 0.8977828 0.8195884 0.9913826 0.6174173 0.9913831 0.6174048 0.008617222 0.4152492 0.9913814 0.2130787 0.9913815 0.2130655 0.008618235 0.1625326 0.8977795 0.2130787 0.9913815 0.1372607 0.9180452 0.2130655 0.008618235 0.1625326 0.8977795 0.13726 0.877514 0.2130655 0.008618235 0.2130787 0.9913815 0.1625326 0.8977795 0.08671563 0.9180456 0.01089859 0.9913821 0.06144279 0.8977808 0.01089888 0.008618772 0.08671981 0.8775129 0.06144279 0.8977808 0.01089888 0.008618772 0.06144279 0.8977808 0.01089859 0.9913821 0.9398362 0.5429163 0.8959421 0.5175732 0.8959425 0.4668884 0.9837315 0.4668892 0.9837311 0.5175743 0.9398362 0.5429163 0.8452572 0.3655192 0.8452569 0.3148348 0.8959414 0.3148344 0.8452569 0.6189425 0.8452572 0.5682577 0.8959416 0.5682581 0.8452574 0.5175729 0.8959421 0.5175732 0.8959416 0.5682581 0.8452575 0.4668884 0.8959425 0.4668884 0.8959421 0.5175732 0.8452575 0.4162039 0.8959421 0.4162035 0.8959425 0.4668884 0.8452575 0.4162039 0.8452572 0.3655192 0.8959416 0.3655189 0.9897866 0.9905808 0.8362973 0.9905809 0.8362972 0.8370915 0.9897866 0.6553404 0.9897869 0.8088298 0.8362974 0.80883 0.6174173 0.9913831 0.4152492 0.9913814 0.4910622 0.9180496 0.08671563 0.9180456 0.1372607 0.9180452 0.2130787 0.9913815 0.6174048 0.008617222 0.5416018 0.8775222 0.4910626 0.8775221 0.2130655 0.008618235 0.13726 0.877514 0.08671981 0.8775129 0.5416027 0.9180487 0.5668708 0.8977828 0.6174173 0.9913831 0.4657909 0.8977864 0.4910622 0.9180496 0.4152492 0.9913814 0.6174048 0.008617222 0.5668708 0.8977828 0.5416018 0.8775222 0.4152361 0.008617818 0.4910626 0.8775221 0.4657909 0.8977864 0.4152361 0.008617818 0.4657909 0.8977864 0.4152492 0.9913814 0.6174048 0.008617222 0.6174173 0.9913831 0.5668708 0.8977828 0.8195884 0.9913826 0.6174173 0.9913831 0.6174048 0.008617222 0.4152492 0.9913814 0.2130787 0.9913815 0.2130655 0.008618235 0.1625326 0.8977795 0.2130787 0.9913815 0.1372607 0.9180452 0.2130655 0.008618235 0.1625326 0.8977795 0.13726 0.877514 0.2130655 0.008618235 0.2130787 0.9913815 0.1625326 0.8977795 0.08671563 0.9180456 0.01089859 0.9913821 0.06144279 0.8977808 0.01089888 0.008618772 0.08671981 0.8775129 0.06144279 0.8977808 0.01089888 0.008618772 0.06144279 0.8977808 0.01089859 0.9913821 0.9398373 0.4415464 0.9398362 0.5429163 0.8959421 0.5175732 0.9837311 0.5175743 0.9398362 0.5429163 0.9398373 0.4415464 0.8452572 0.3655192 0.8452569 0.3148348 0.8959414 0.3148344 0.8452572 0.5682577 0.8959416 0.5682581 0.8959416 0.6189427 0.8452574 0.5175729 0.8959421 0.5175732 0.8959416 0.5682581 0.8452574 0.5175729 0.8452575 0.4668884 0.8959425 0.4668884 0.8452575 0.4668884 0.8452575 0.4162039 0.8959421 0.4162035 0.8452572 0.3655192 0.8959416 0.3655189 0.8959421 0.4162035 0.6658021 0 0.8324689 0 0.6658021 1 0.4991355 0 0.6658021 0 0.4991356 1 0.3324688 0 0.4991355 0 0.3324691 1 0.3324688 0 0.3324691 1 0.1658021 0 0.1658021 0 0.1658024 1 -8.64495e-4 0 0.8324687 1 0.8324689 0 0.9991356 1 0.9991356 1 0.8324687 1 0.9991354 0 0.1658021 0 0.1658024 1 -8.64495e-4 0 0.3324688 0 0.3324691 1 0.1658021 0 0.3324688 0 0.4991355 0 0.3324691 1 0.4991355 0 0.6658021 0 0.4991356 1 0.6658021 0 0.8324689 0 0.6658021 1 0.8324689 0 0.8324687 1 0.6658021 0 0.6658021 0 0.6658021 1 0.4991355 0 0.3324688 0 0.4991355 0 0.3324691 1 0.1658021 0 0.3324688 0 0.1658024 1 -8.64495e-4 0 0.1658021 0 -8.6439e-4 1 0.9991356 1 0.8324687 1 0.9991354 0 0.9991356 1 0.8324687 1 0.9991354 0 -8.64495e-4 0 0.1658021 0 -8.6439e-4 1 0.1658021 0 0.3324688 0 0.1658024 1 0.4991355 0 0.4991356 1 0.3324688 0 0.6658021 0 0.6658021 1 0.4991355 0 0.8324689 0 0.8324687 1 0.6658021 0 0.6658021 0 0.8324689 0 0.6658021 1 0.4991355 0 0.6658021 0 0.4991356 1 0.3324688 0 0.4991355 0 0.3324691 1 0.3324688 0 0.3324691 1 0.1658021 0 0.1658021 0 0.1658024 1 -8.64495e-4 0 0.8324687 1 0.8324689 0 0.9991356 1 0.8324687 1 0.8324689 0 0.9991356 1 0.1658021 0 0.1658024 1 -8.64495e-4 0 0.3324688 0 0.3324691 1 0.1658021 0 0.3324688 0 0.4991355 0 0.3324691 1 0.4991355 0 0.6658021 0 0.4991356 1 0.6658021 0 0.8324689 0 0.6658021 1 0.8324689 0 0.8324687 1 0.6658021 0 0.6658021 0 0.6658021 1 0.4991355 0 0.3324688 0 0.4991355 0 0.3324691 1 0.1658021 0 0.3324688 0 0.1658024 1 -8.64495e-4 0 0.1658021 0 -8.6439e-4 1 0.8324687 1 0.8324689 0 0.9991356 1 0.8324687 1 0.8324689 0 0.9991356 1 0.1658021 0 0.1658024 1 -8.64495e-4 0 0.1658021 0 0.3324688 0 0.1658024 1 0.3324688 0 0.4991355 0 0.3324691 1 0.4991355 0 0.6658021 0 0.4991356 1 0.8324689 0 0.8324687 1 0.6658021 0 0.6658021 0 0.8324689 0 0.6658021 1 0.4991355 0 0.6658021 0 0.4991356 1 0.3324688 0 0.4991355 0 0.3324691 1 0.3324688 0 0.3324691 1 0.1658021 0 0.1658021 0 0.1658024 1 -8.64495e-4 0 0.8324687 1 0.8324689 0 0.9991356 1 0.9991356 1 0.8324687 1 0.9991354 0 0.1658021 0 0.1658024 1 -8.64495e-4 0 0.3324688 0 0.3324691 1 0.1658021 0 0.4991355 0 0.4991356 1 0.3324688 0 0.4991355 0 0.6658021 0 0.4991356 1 0.6658021 0 0.8324689 0 0.6658021 1 0.8324689 0 0.8324687 1 0.6658021 0 0.6658021 0 0.6658021 1 0.4991355 0 0.4991355 0 0.4991356 1 0.3324688 0 0.1658021 0 0.3324688 0 0.1658024 1 -8.64495e-4 0 0.1658021 0 -8.6439e-4 1 0.9991356 1 0.8324687 1 0.9991354 0 0.8324687 1 0.8324689 0 0.9991356 1 -8.64495e-4 0 0.1658021 0 -8.6439e-4 1 0.1658021 0 0.3324688 0 0.1658024 1 0.4991355 0 0.4991356 1 0.3324688 0 0.6658021 0 0.6658021 1 0.4991355 0 0.8324689 0 0.8324687 1 0.6658021 0 0.6658021 0 0.8324689 0 0.6658021 1 0.4991355 0 0.6658021 0 0.4991356 1 0.3324688 0 0.4991355 0 0.3324691 1 0.1658021 0 0.3324688 0 0.1658024 1 0.1658021 0 0.1658024 1 -8.64495e-4 0 0.8324687 1 0.8324689 0 0.9991356 1 0.8324687 1 0.8324689 0 0.9991356 1 0.1658021 0 0.1658024 1 -8.64495e-4 0 0.3324688 0 0.3324691 1 0.1658021 0 0.3324688 0 0.4991355 0 0.3324691 1 0.4991355 0 0.6658021 0 0.4991356 1 0.6658021 0 0.8324689 0 0.6658021 1 0.8324689 0 0.8324687 1 0.6658021 0 0.6658021 0 0.6658021 1 0.4991355 0 0.3324688 0 0.4991355 0 0.3324691 1 0.1658021 0 0.3324688 0 0.1658024 1 -8.64495e-4 0 0.1658021 0 -8.6439e-4 1 0.8324687 1 0.8324689 0 0.9991356 1 0.8324687 1 0.8324689 0 0.9991356 1 -8.64495e-4 0 0.1658021 0 -8.6439e-4 1 0.1658021 0 0.3324688 0 0.1658024 1 0.3324688 0 0.4991355 0 0.3324691 1 0.6658021 0 0.6658021 1 0.4991355 0 0.8324689 0 0.8324687 1 0.6658021 0 0.9897866 0.9905808 0.8362973 0.9905809 0.9897868 0.8370915 0.8362974 0.80883 0.8362972 0.6553408 0.9897869 0.8088298 0.4910622 0.9180496 0.5416027 0.9180487 0.4152492 0.9913814 0.01089859 0.9913821 0.08671563 0.9180456 0.2130787 0.9913815 0.6174048 0.008617222 0.5416018 0.8775222 0.4152361 0.008617818 0.01089888 0.008618772 0.2130655 0.008618235 0.08671981 0.8775129 0.8195759 0.008616805 0.8195884 0.9913826 0.6174048 0.008617222 0.4152361 0.008617818 0.4152492 0.9913814 0.2130655 0.008618235 0.9897868 0.8370915 0.9897866 0.9905808 0.8362972 0.8370915 0.8362972 0.6553408 0.9897866 0.6553404 0.8362974 0.80883 0.4910622 0.9180496 0.5416027 0.9180487 0.4152492 0.9913814 0.01089859 0.9913821 0.08671563 0.9180456 0.2130787 0.9913815 0.4152361 0.008617818 0.6174048 0.008617222 0.4910626 0.8775221 0.08671981 0.8775129 0.01089888 0.008618772 0.13726 0.877514 0.6174048 0.008617222 0.8195759 0.008616805 0.6174173 0.9913831 0.4152361 0.008617818 0.4152492 0.9913814 0.2130655 0.008618235 0.9897868 0.8370915 0.9897866 0.9905808 0.8362972 0.8370915 0.8362974 0.80883 0.8362972 0.6553408 0.9897869 0.8088298 0.5416027 0.9180487 0.6174173 0.9913831 0.4910622 0.9180496 0.08671563 0.9180456 0.1372607 0.9180452 0.01089859 0.9913821 0.4152361 0.008617818 0.6174048 0.008617222 0.4910626 0.8775221 0.01089888 0.008618772 0.2130655 0.008618235 0.08671981 0.8775129 0.8195759 0.008616805 0.8195884 0.9913826 0.6174048 0.008617222 0.4152361 0.008617818 0.4152492 0.9913814 0.2130655 0.008618235 0.9897866 0.9905808 0.8362973 0.9905809 0.9897868 0.8370915 0.8362974 0.80883 0.8362972 0.6553408 0.9897869 0.8088298 0.5416027 0.9180487 0.6174173 0.9913831 0.4910622 0.9180496 0.01089859 0.9913821 0.08671563 0.9180456 0.2130787 0.9913815 0.4152361 0.008617818 0.6174048 0.008617222 0.4910626 0.8775221 0.01089888 0.008618772 0.2130655 0.008618235 0.08671981 0.8775129 0.8195759 0.008616805 0.8195884 0.9913826 0.6174048 0.008617222 0.4152361 0.008617818 0.4152492 0.9913814 0.2130655 0.008618235 0.9398373 0.4415464 0.9398362 0.5429163 0.8959425 0.4668884 0.9398373 0.4415464 0.9837315 0.4668892 0.9398362 0.5429163 0.8959416 0.3655189 0.8452572 0.3655192 0.8959414 0.3148344 0.8959416 0.6189427 0.8452569 0.6189425 0.8959416 0.5682581 0.8452572 0.5682577 0.8452574 0.5175729 0.8959416 0.5682581 0.8452574 0.5175729 0.8452575 0.4668884 0.8959421 0.5175732 0.8452575 0.4668884 0.8452575 0.4162039 0.8959425 0.4668884 0.8959421 0.4162035 0.8452575 0.4162039 0.8959416 0.3655189 0.9897868 0.8370915 0.9897866 0.9905808 0.8362972 0.8370915 0.8362972 0.6553408 0.9897866 0.6553404 0.8362974 0.80883 0.5416027 0.9180487 0.6174173 0.9913831 0.4910622 0.9180496 0.01089859 0.9913821 0.08671563 0.9180456 0.2130787 0.9913815 0.4152361 0.008617818 0.6174048 0.008617222 0.4910626 0.8775221 0.01089888 0.008618772 0.2130655 0.008618235 0.08671981 0.8775129 0.8195759 0.008616805 0.8195884 0.9913826 0.6174048 0.008617222 0.4152361 0.008617818 0.4152492 0.9913814 0.2130655 0.008618235 0.8959425 0.4668884 0.9398373 0.4415464 0.8959421 0.5175732 0.9837315 0.4668892 0.9837311 0.5175743 0.9398373 0.4415464 0.8959416 0.3655189 0.8452572 0.3655192 0.8959414 0.3148344 0.8452569 0.6189425 0.8452572 0.5682577 0.8959416 0.6189427 0.8452572 0.5682577 0.8452574 0.5175729 0.8959416 0.5682581 0.8959421 0.5175732 0.8452574 0.5175729 0.8959425 0.4668884 0.8959425 0.4668884 0.8452575 0.4668884 0.8959421 0.4162035 0.8452575 0.4162039 0.8452572 0.3655192 0.8959421 0.4162035</float_array>
          <technique_common>
            <accessor source="#Cube_006-mesh-map-0-array" count="1092" stride="2">
              <param name="S" type="float"/>
              <param name="T" type="float"/>
            </accessor>
          </technique_common>
        </source>
        <vertices id="Cube_006-mesh-vertices">
          <input semantic="POSITION" source="#Cube_006-mesh-positions"/>
        </vertices>
        <polylist material="PostMat-material" count="172">
          <input semantic="VERTEX" source="#Cube_006-mesh-vertices" offset="0"/>
          <input semantic="NORMAL" source="#Cube_006-mesh-normals" offset="1"/>
          <input semantic="TEXCOORD" source="#Cube_006-mesh-map-0" offset="2" set="0"/>
          <vcount>3 3 3 3 3 3 3 3 3 3 3 3 3 3 3 3 3 3 3 3 3 3 3 3 3 3 3 3 3 3 3 3 3 3 3 3 3 3 3 3 3 3 3 3 3 3 3 3 3 3 3 3 3 3 3 3 3 3 3 3 3 3 3 3 3 3 3 3 3 3 3 3 3 3 3 3 3 3 3 3 3 3 3 3 3 3 3 3 3 3 3 3 3 3 3 3 3 3 3 3 3 3 3 3 3 3 3 3 3 3 3 3 3 3 3 3 3 3 3 3 3 3 3 3 3 3 3 3 3 3 3 3 3 3 3 3 3 3 3 3 3 3 3 3 3 3 3 3 3 3 3 3 3 3 3 3 3 3 3 3 3 3 3 3 3 3 3 3 3 3 3 3 </vcount>
          <p>102 116 288 103 116 289 104 116 290 109 117 291 110 117 292 111 117 293 42 118 294 110 118 295 109 118 296 112 119 297 114 119 298 108 119 299 106 120 300 107 120 301 103 120 302 104 121 303 20 121 304 22 121 305 42 122 306 105 122 307 110 122 308 40 123 309 43 123 310 109 123 311 102 124 312 105 124 313 106 124 314 103 125 315 107 125 316 40 125 317 103 126 318 40 126 319 109 126 320 102 127 321 110 127 322 105 127 323 111 128 324 110 128 325 102 128 326 109 129 327 108 129 328 104 129 329 113 130 330 108 130 331 114 130 332 104 131 333 113 131 334 20 131 335 104 132 336 108 132 337 113 132 338 112 133 339 111 133 340 21 133 341 101 134 342 22 134 343 21 134 344 101 135 345 21 135 346 111 135 347 115 136 348 116 136 349 117 136 350 121 137 351 122 137 352 119 137 353 71 138 354 121 138 355 120 138 356 47 139 357 46 139 358 119 139 359 116 140 360 73 140 361 67 140 362 115 141 363 118 141 364 44 141 365 71 142 366 69 142 367 121 142 368 68 143 369 72 143 370 120 143 371 116 144 372 69 144 373 73 144 374 117 145 375 67 145 376 68 145 377 117 146 378 68 146 379 120 146 380 116 147 381 121 147 382 69 147 383 115 148 384 122 148 385 121 148 386 120 149 387 119 149 388 118 149 389 45 150 390 119 150 391 46 150 392 118 151 393 45 151 394 44 151 395 118 152 396 119 152 397 45 152 398 47 153 399 122 153 400 48 153 401 115 154 402 49 154 403 48 154 404 115 155 405 48 155 406 122 155 407 123 156 408 124 156 409 125 156 410 132 157 411 133 157 412 134 157 413 133 158 414 132 158 415 96 158 416 76 159 417 131 159 418 134 159 419 124 160 420 129 160 421 130 160 422 126 161 423 74 161 424 137 161 425 127 162 426 128 162 427 133 162 428 94 163 429 96 163 430 132 163 431 124 164 432 128 164 433 129 164 434 125 165 435 130 165 436 94 165 437 125 166 438 94 166 439 132 166 440 124 167 441 133 167 442 128 167 443 134 168 444 133 168 445 124 168 446 132 169 447 131 169 448 126 169 449 75 170 450 131 170 451 76 170 452 126 171 453 75 171 454 74 171 455 126 172 456 131 172 457 75 172 458 135 173 459 134 173 460 136 173 461 123 174 462 137 174 463 136 174 464 123 175 465 136 175 466 134 175 467 139 176 468 140 176 469 141 176 470 147 177 471 148 177 472 149 177 473 148 178 474 147 178 475 145 178 476 156 179 477 161 179 478 146 179 479 139 180 480 142 180 481 143 180 482 141 181 483 159 181 484 158 181 485 19 182 486 17 182 487 148 182 488 144 180 489 145 180 490 147 180 491 139 183 492 17 183 493 142 183 494 140 184 495 143 184 496 144 184 497 140 180 498 144 180 499 147 180 500 139 185 501 148 185 502 17 185 503 149 186 504 148 186 505 139 186 506 147 187 507 146 187 508 141 187 509 160 188 510 146 188 511 161 188 512 141 189 513 160 189 514 159 189 515 141 189 516 146 189 517 160 189 518 156 190 519 149 190 520 157 190 521 138 191 522 158 191 523 157 191 524 138 192 525 157 192 526 149 192 527 151 193 528 152 193 529 153 193 530 155 194 531 150 194 532 151 194 533 161 177 534 156 177 535 150 177 536 156 195 537 157 195 538 151 195 539 158 196 540 152 196 541 151 196 542 159 176 543 153 176 544 152 176 545 160 197 546 154 197 547 153 197 548 160 198 549 161 198 550 155 198 551 162 199 552 163 199 553 164 199 554 170 200 555 171 200 556 168 200 557 170 201 558 169 201 559 167 201 560 178 202 561 183 202 562 168 202 563 163 203 564 97 203 565 100 203 566 165 204 567 181 204 568 180 204 569 166 205 570 98 205 571 170 205 572 99 206 573 167 206 574 169 206 575 163 207 576 98 207 577 97 207 578 164 208 579 100 208 580 99 208 581 164 209 582 99 209 583 169 209 584 163 210 585 170 210 586 98 210 587 171 211 588 170 211 589 163 211 590 169 212 591 168 212 592 165 212 593 182 213 594 168 213 595 183 213 596 165 214 597 182 214 598 181 214 599 165 215 600 168 215 601 182 215 602 178 216 603 171 216 604 179 216 605 162 217 606 180 217 607 179 217 608 162 218 609 179 218 610 171 218 611 176 219 612 173 219 613 174 219 614 172 220 615 173 220 616 176 220 617 183 221 618 178 221 619 172 221 620 179 222 621 173 222 622 172 222 623 180 223 624 174 223 625 173 223 626 180 224 627 181 224 628 175 224 629 181 225 630 182 225 631 176 225 632 183 226 633 177 226 634 176 226 635 101 231 924 102 231 925 104 231 926 108 232 927 109 232 928 111 232 929 43 233 930 42 233 931 109 233 932 111 234 933 112 234 934 108 234 935 102 235 936 106 235 937 103 235 938 101 236 939 104 236 940 22 236 941 101 237 942 111 237 943 102 237 944 103 238 945 109 238 946 104 238 947 118 239 948 115 239 949 117 239 950 120 240 951 121 240 952 119 240 953 72 241 954 71 241 955 120 241 956 122 242 957 47 242 958 119 242 959 117 243 960 116 243 961 67 243 962 49 244 963 115 244 964 44 244 965 116 245 966 115 245 967 121 245 968 117 246 969 120 246 970 118 246 971 126 247 972 123 247 973 125 247 974 131 248 975 132 248 976 134 248 977 127 249 978 133 249 979 96 249 980 135 250 981 76 250 982 134 250 983 125 251 984 124 251 985 130 251 986 123 252 987 126 252 988 137 252 989 123 253 990 134 253 991 124 253 992 125 254 993 132 254 994 126 254 995 138 176 996 139 176 997 141 176 998 146 177 999 147 177 1000 149 177 1001 19 255 1002 148 255 1003 145 255 1004 149 256 1005 156 256 1006 146 256 1007 140 257 1008 139 257 1009 143 257 1010 138 189 1011 141 189 1012 158 189 1013 138 258 1014 149 258 1015 139 258 1016 140 259 1017 147 259 1018 141 259 1019 154 260 1020 151 260 1021 153 260 1022 154 261 1023 155 261 1024 151 261 1025 155 177 1026 161 177 1027 150 177 1028 150 262 1029 156 262 1030 151 262 1031 157 263 1032 158 263 1033 151 263 1034 158 264 1035 159 264 1036 152 264 1037 159 265 1038 160 265 1039 153 265 1040 154 266 1041 160 266 1042 155 266 1043 165 267 1044 162 267 1045 164 267 1046 169 268 1047 170 268 1048 168 268 1049 166 269 1050 170 269 1051 167 269 1052 171 270 1053 178 270 1054 168 270 1055 164 271 1056 163 271 1057 100 271 1058 162 272 1059 165 272 1060 180 272 1061 162 273 1062 171 273 1063 163 273 1064 164 274 1065 169 274 1066 165 274 1067 175 275 1068 176 275 1069 174 275 1070 177 276 1071 172 276 1072 176 276 1073 177 277 1074 183 277 1075 172 277 1076 178 278 1077 179 278 1078 172 278 1079 179 279 1080 180 279 1081 173 279 1082 174 280 1083 180 280 1084 175 280 1085 175 281 1086 181 281 1087 176 281 1088 182 282 1089 183 282 1090 176 282 1091</p>
        </polylist>
        <polylist material="Rope-material" count="192">
          <input semantic="VERTEX" source="#Cube_006-mesh-vertices" offset="0"/>
          <input semantic="NORMAL" source="#Cube_006-mesh-normals" offset="1"/>
          <input semantic="TEXCOORD" source="#Cube_006-mesh-map-0" offset="2" set="0"/>
          <vcount>3 3 3 3 3 3 3 3 3 3 3 3 3 3 3 3 3 3 3 3 3 3 3 3 3 3 3 3 3 3 3 3 3 3 3 3 3 3 3 3 3 3 3 3 3 3 3 3 3 3 3 3 3 3 3 3 3 3 3 3 3 3 3 3 3 3 3 3 3 3 3 3 3 3 3 3 3 3 3 3 3 3 3 3 3 3 3 3 3 3 3 3 3 3 3 3 3 3 3 3 3 3 3 3 3 3 3 3 3 3 3 3 3 3 3 3 3 3 3 3 3 3 3 3 3 3 3 3 3 3 3 3 3 3 3 3 3 3 3 3 3 3 3 3 3 3 3 3 3 3 3 3 3 3 3 3 3 3 3 3 3 3 3 3 3 3 3 3 3 3 3 3 3 3 3 3 3 3 3 3 3 3 3 3 3 3 3 3 3 3 3 3 </vcount>
          <p>22 0 0 0 1 1 1 2 2 21 3 3 1 2 4 2 4 5 112 5 6 2 4 7 3 6 8 3 6 9 4 7 10 113 8 11 4 7 12 5 9 13 20 10 14 22 0 15 20 10 16 5 9 17 10 11 18 0 1 19 5 9 20 7 12 21 6 13 22 5 9 23 8 14 24 7 12 25 4 7 26 2 4 27 11 15 28 8 14 29 1 2 30 9 16 31 11 15 32 0 1 33 10 11 34 9 16 35 12 17 36 13 18 37 9 16 38 13 18 39 18 19 40 11 15 41 11 15 42 18 19 43 14 20 44 8 14 45 14 20 46 15 21 47 7 12 48 15 21 49 16 22 50 12 17 51 10 11 52 6 13 53 142 23 54 12 17 55 16 22 56 15 21 57 144 24 58 143 25 59 14 20 60 145 26 61 144 24 62 19 27 63 145 26 64 14 20 65 17 28 66 19 27 67 18 19 68 142 23 69 17 28 70 13 18 71 49 29 72 23 30 73 24 31 74 48 32 75 24 31 76 25 33 77 47 34 78 25 33 79 26 35 80 26 35 81 27 36 82 45 37 83 27 36 84 28 38 85 44 39 86 49 29 87 44 39 88 28 38 89 23 30 90 28 38 91 29 40 92 30 41 93 29 40 94 28 38 95 31 42 96 30 41 97 27 36 98 25 33 99 34 43 100 31 42 101 24 31 102 32 44 103 34 43 104 23 30 105 33 45 106 32 44 107 35 46 108 36 47 109 32 44 110 36 47 111 41 48 112 34 43 113 34 43 114 41 48 115 37 49 116 31 42 117 37 49 118 38 50 119 30 41 120 38 50 121 39 51 122 33 45 123 29 40 124 39 51 125 35 46 126 39 51 127 107 52 128 40 53 129 107 52 130 39 51 131 37 49 132 43 54 133 40 53 134 41 48 135 42 55 136 43 54 137 36 47 138 105 56 139 42 55 140 106 57 141 105 56 142 36 47 143 137 58 144 50 59 145 51 60 146 136 61 147 51 60 148 52 62 149 135 63 150 52 62 151 53 64 152 53 64 153 54 65 154 75 66 155 54 65 156 55 67 157 74 68 158 137 58 159 74 68 160 55 67 161 60 69 162 50 59 163 55 67 164 57 70 165 56 71 166 55 67 167 58 72 168 57 70 169 54 65 170 61 73 171 58 72 172 53 64 173 51 60 174 59 74 175 61 73 176 50 59 177 60 69 178 59 74 179 62 75 180 63 76 181 59 74 182 63 76 183 70 77 184 61 73 185 70 77 186 64 78 187 58 72 188 58 72 189 64 78 190 65 79 191 57 70 192 65 79 193 66 80 194 62 75 195 60 69 196 56 71 197 62 75 198 66 80 199 67 81 200 65 79 201 68 82 202 67 81 203 64 78 204 72 83 205 68 82 206 71 84 207 72 83 208 64 78 209 69 85 210 71 84 211 70 77 212 73 86 213 69 85 214 63 76 215 100 87 216 77 88 217 78 89 218 99 90 219 78 89 220 79 91 221 167 92 222 79 91 223 80 93 224 166 94 225 80 93 226 81 95 227 81 95 228 82 96 229 97 97 230 100 87 231 97 97 232 82 96 233 77 88 234 82 96 235 83 98 236 84 99 237 83 98 238 82 96 239 85 100 240 84 99 241 81 95 242 79 91 243 88 101 244 85 100 245 78 89 246 86 102 247 88 101 248 77 88 249 87 103 250 86 102 251 89 104 252 90 105 253 86 102 254 90 105 255 95 106 256 88 101 257 88 101 258 95 106 259 91 107 260 85 100 261 91 107 262 92 108 263 84 99 264 92 108 265 93 109 266 87 103 267 83 98 268 93 109 269 89 104 270 93 109 271 130 110 272 92 108 273 94 111 274 130 110 275 91 107 276 96 112 277 94 111 278 95 106 279 127 113 280 96 112 281 128 114 282 127 113 283 95 106 284 129 115 285 128 114 286 90 105 287 21 3 636 22 0 637 1 2 638 112 5 639 21 3 640 2 4 641 114 227 642 112 5 643 3 6 644 114 227 645 3 6 646 113 8 647 113 8 648 4 7 649 20 10 650 0 1 651 22 0 652 5 9 653 6 13 654 10 11 655 5 9 656 4 7 657 7 12 658 5 9 659 3 6 660 8 14 661 4 7 662 3 6 663 2 4 664 8 14 665 2 4 666 1 2 667 11 15 668 1 2 669 0 1 670 9 16 671 10 11 672 12 17 673 9 16 674 9 16 675 13 18 676 11 15 677 8 14 678 11 15 679 14 20 680 7 12 681 8 14 682 15 21 683 6 13 684 7 12 685 16 22 686 16 22 687 12 17 688 6 13 689 143 25 690 142 23 691 16 22 692 16 22 693 15 21 694 143 25 695 15 21 696 14 20 697 144 24 698 18 19 699 19 27 700 14 20 701 13 18 702 17 28 703 18 19 704 12 17 705 142 23 706 13 18 707 48 32 708 49 29 709 24 31 710 47 34 711 48 32 712 25 33 713 46 228 714 47 34 715 26 35 716 46 228 717 26 35 718 45 37 719 45 37 720 27 36 721 44 39 722 23 30 723 49 29 724 28 38 725 33 45 726 23 30 727 29 40 728 27 36 729 30 41 730 28 38 731 26 35 732 31 42 733 27 36 734 26 35 735 25 33 736 31 42 737 25 33 738 24 31 739 34 43 740 24 31 741 23 30 742 32 44 743 33 45 744 35 46 745 32 44 746 32 44 747 36 47 748 34 43 749 31 42 750 34 43 751 37 49 752 30 41 753 31 42 754 38 50 755 29 40 756 30 41 757 39 51 758 35 46 759 33 45 760 39 51 761 106 57 762 35 46 763 107 52 764 38 50 765 40 53 766 39 51 767 38 50 768 37 49 769 40 53 770 37 49 771 41 48 772 43 54 773 41 48 774 36 47 775 42 55 776 35 46 777 106 57 778 36 47 779 136 61 780 137 58 781 51 60 782 135 63 783 136 61 784 52 62 785 76 229 786 135 63 787 53 64 788 76 229 789 53 64 790 75 66 791 75 66 792 54 65 793 74 68 794 50 59 795 137 58 796 55 67 797 56 71 798 60 69 799 55 67 800 54 65 801 57 70 802 55 67 803 53 64 804 58 72 805 54 65 806 52 62 807 61 73 808 53 64 809 52 62 810 51 60 811 61 73 812 51 60 813 50 59 814 59 74 815 60 69 816 62 75 817 59 74 818 59 74 819 63 76 820 61 73 821 61 73 822 70 77 823 58 72 824 57 70 825 58 72 826 65 79 827 56 71 828 57 70 829 66 80 830 66 80 831 62 75 832 56 71 833 73 86 834 62 75 835 67 81 836 66 80 837 65 79 838 67 81 839 65 79 840 64 78 841 68 82 842 70 77 843 71 84 844 64 78 845 63 76 846 69 85 847 70 77 848 62 75 849 73 86 850 63 76 851 99 90 852 100 87 853 78 89 854 167 92 855 99 90 856 79 91 857 166 94 858 167 92 859 80 93 860 98 230 861 166 94 862 81 95 863 98 230 864 81 95 865 97 97 866 77 88 867 100 87 868 82 96 869 87 103 870 77 88 871 83 98 872 81 95 873 84 99 874 82 96 875 80 93 876 85 100 877 81 95 878 80 93 879 79 91 880 85 100 881 79 91 882 78 89 883 88 101 884 78 89 885 77 88 886 86 102 887 87 103 888 89 104 889 86 102 890 86 102 891 90 105 892 88 101 893 85 100 894 88 101 895 91 107 896 84 99 897 85 100 898 92 108 899 83 98 900 84 99 901 93 109 902 89 104 903 87 103 904 93 109 905 129 115 906 89 104 907 130 110 908 93 109 909 92 108 910 130 110 911 92 108 912 91 107 913 94 111 914 91 107 915 95 106 916 96 112 917 90 105 918 128 114 919 95 106 920 89 104 921 129 115 922 90 105 923</p>
        </polylist>
      </mesh>
    </geometry>
  </library_geometries>
  <library_controllers/>
  <library_visual_scenes>
    <visual_scene id="Scene" name="Scene">
      <node id="Camera" name="Camera" type="NODE">
        <matrix sid="transform">0.5264388 -0.3173701 0.7887575 25.27253 0.8433613 0.3124686 -0.4371557 -13.94237 -0.1077218 0.8953432 0.4321533 14.3528 0 0 0 1</matrix>
        <instance_camera url="#Camera-camera"/>
      </node>
      <node id="Lamp" name="Lamp" type="NODE">
        <matrix sid="transform">0.6316198 0.3033324 0.7134745 24.26073 0.01053828 0.9168376 -0.3991211 -0.7067547 -0.7752066 0.2596116 0.5758962 22.87521 0 0 0 1</matrix>
        <instance_light url="#Lamp-light"/>
      </node>
      <node id="RopeFence3" name="RopeFence3" type="NODE">
        <matrix sid="transform">-0.008639925 0.248664 0.02432173 -0.001428843 -0.2498284 -0.008273039 -0.004164632 -1.001428 -0.003337518 -0.02444896 0.2487792 0 0 0 0 1</matrix>
        <instance_geometry url="#Cube_006-mesh" name="RopeFence3">
          <bind_material>
            <technique_common>
              <instance_material symbol="PostMat-material" target="#PostMat-material">
                <bind_vertex_input semantic="UVTex" input_semantic="TEXCOORD" input_set="0"/>
              </instance_material>
              <instance_material symbol="Rope-material" target="#Rope-material">
                <bind_vertex_input semantic="UVTex" input_semantic="TEXCOORD" input_set="0"/>
              </instance_material>
            </technique_common>
          </bind_material>
        </instance_geometry>
      </node>
    </visual_scene>
  </library_visual_scenes>
  <scene>
    <instance_visual_scene url="#Scene"/>
  </scene>
</COLLADA>